<?xml version="1.0" encoding="UTF-8" standalone="no"?>
<!-- Created with Inkscape (http://www.inkscape.org/) -->

<svg
   xmlns:dc="http://purl.org/dc/elements/1.1/"
   xmlns:cc="http://creativecommons.org/ns#"
   xmlns:rdf="http://www.w3.org/1999/02/22-rdf-syntax-ns#"
   xmlns:svg="http://www.w3.org/2000/svg"
   xmlns="http://www.w3.org/2000/svg"
   xmlns:inkscape="http://www.inkscape.org/namespaces/inkscape"
   version="1.1"
   width="223.75"
   height="313.75"
   id="svg2"
   xml:space="preserve"><metadata
     id="metadata8"><rdf:RDF><cc:Work
         rdf:about=""><dc:format>image/svg+xml</dc:format><dc:type
           rdf:resource="http://purl.org/dc/dcmitype/StillImage" /></cc:Work></rdf:RDF></metadata><defs
     id="defs6" /><g
     transform="matrix(1.25,0,0,-1.25,0,313.75)"
     id="g10"><g
       transform="scale(0.1,0.1)"
       id="g12"><path
         d="m 88.9102,2500.48 1607.7698,0 c 47.11,0 85.04,-37.89 85.04,-85.04 l 0,-2316.4009 C 1781.72,51.9297 1743.79,14 1696.68,14 L 88.9102,14 C 41.8008,14 3.87109,51.9297 3.87109,99.0391 l 0,2316.4009 c 0,47.15 37.92971,85.04 85.03911,85.04 z"
         inkscape:connector-curvature="0"
         id="path14"
         style="fill:#ffffff;fill-opacity:1;fill-rule:nonzero;stroke:none" /><g
         transform="scale(0.999997,-1)"
         id="g16"><path
           d="m 88.9104,-2500.48 1607.7796,0 c 47.11,0 85.04,37.89 85.04,85.04 l 0,2316.4051 c 0,47.1092 -37.93,85.0388 -85.04,85.0388 l -1607.7796,0 c -47.1095,0 -85.0393,-37.9296 -85.0393,-85.0388 l 0,-2316.4051 c 0,-47.15 37.9298,-85.04 85.0393,-85.04 z"
           inkscape:connector-curvature="0"
           id="path18"
           style="fill:none;stroke:#000000;stroke-width:7.9738698;stroke-linecap:butt;stroke-linejoin:miter;stroke-miterlimit:4;stroke-opacity:1;stroke-dasharray:none" /></g><path
         d="m 141.02,1942.51 c 0,0 -17.739,25.43 -41.6411,55.35 -15.9805,20 -28.7578,41.68 -29.9687,60.32 -1.3594,21.33 11.5703,42.73 34.9298,43.79 23.32,1.01 32.808,-16.45 36.68,-30.86 3.82,14.41 13.32,31.87 36.679,30.86 23.352,-1.06 36.25,-22.46 34.879,-43.79 -1.168,-18.64 -13.988,-40.32 -29.957,-60.32 -23.91,-29.92 -41.601,-55.35 -41.601,-55.35 z"
         inkscape:connector-curvature="0"
         id="path20"
         style="fill:#d40000;fill-opacity:1;fill-rule:nonzero;stroke:none" /><path
         d="m 1644.61,571.969 c 0,0 -17.73,-25.43 -41.6,-55.321 -16.02,-20.039 -28.79,-41.718 -29.96,-60.347 -1.37,-21.332 11.52,-42.731 34.88,-43.75 23.36,-1.051 32.81,16.41 36.68,30.82 3.87,-14.41 13.32,-31.871 36.68,-30.82 23.36,1.019 36.25,22.418 34.88,43.75 -1.17,18.629 -13.94,40.308 -29.96,60.347 -23.87,29.891 -41.6,55.321 -41.6,55.321 z"
         inkscape:connector-curvature="0"
         id="path22"
         style="fill:#d40000;fill-opacity:1;fill-rule:nonzero;stroke:none" /><path
         d="m 160.27,2145.91 26.449,0 -38.828,97.19 -29.692,-41.06 0.242,-56.13 20.821,0 0,-28.9 -73.4417,0 0,28.9 24.2188,0 0,208.99 -24.2188,-0.08 0,25.27 74.5317,0 0,-26.13 -20.582,0 -0.43,-101.88 65.039,102.74 -22.969,0 0,25.27 79.289,0 0,-25.27 -20.929,0 -53.559,-83.95 52.461,-125 23.277,0 0.121,-28.94 -81.519,0 -0.281,28.98 z"
         inkscape:connector-curvature="0"
         id="path24"
         style="fill:#d40000;fill-opacity:1;fill-rule:nonzero;stroke:none" /><path
         d="m 1638.24,358.488 -26.44,0 38.86,-97.148 29.65,41.058 -0.19,56.09 -20.86,0 0,28.942 73.47,0 0,-28.942 -24.21,0 0,-208.949 24.21,0.082 0,-25.269 -74.53,0 0,26.128 20.55,0 0.47,101.84 -65.08,-102.699 22.97,0 0,-25.269 -79.26,0 0,25.269 20.9,0 53.55,83.949 -52.42,124.961 -23.28,0 -0.12,28.938 81.53,0 0.23,-28.981 z"
         inkscape:connector-curvature="0"
         id="path26"
         style="fill:#d40000;fill-opacity:1;fill-rule:nonzero;stroke:none" /><path
         d="m 649.301,391.109 c 139.527,-16.25 282.578,-20.039 429.719,-9.3 38.05,-53.047 114.5,-161.207 114.5,-161.207 L 500.98,214.93 649.301,391.109 z M 469.449,354.191 c 18.563,37.778 22.153,74.18 18.602,126.68 -2.781,40.277 22.179,71.641 47.969,59.609 19.921,-9.3 10.742,-47.378 -9.891,-39.332 -7.848,3.082 -14.801,0.313 -13.75,-17.82 1.84,-44.609 13.641,-94.84 3.519,-137.609 -7.07,-41.528 -63.707,-22.391 -46.449,8.472 z m -173.98,58.239 c -21.879,33.129 17.301,64.148 41.832,48.871 11.648,-5.512 10,-17.461 -4.641,-11.09 -20.469,8.898 -42.539,-22.539 -24.73,-35.199 8.242,-5.821 11.371,-5.043 5.121,2.226 -16.602,19.492 25.859,28.121 24.648,15.274 -2.929,-15.621 -3.289,-22.223 -4.687,-25.274 -8.672,-13.629 -25.282,-6.679 -37.543,5.192 z m 61.011,139.261 c -23.628,29.77 3.442,53.168 3.09,52.309 7.032,7.648 -56.289,126.762 -48.281,127.5 79.961,8.59 160.781,2.109 240.902,-0.391 0,0 -42.742,-77.539 -59.769,-115.898 -6.871,-15.473 9.18,-33.633 2.539,-45.121 -20.621,-22.77 -7.813,-47.969 -20.66,-49.102 -32.973,6.25 -68.09,9.883 -110.672,0.473 -3.238,0.269 -2.731,20.117 -7.149,30.23 z m 346.141,827.349 c 40.43,-207.66 -19.18,-427.778 -155.859,-572.97 -19.301,18.668 -34.063,54.18 -53.321,77.34 -53.402,16.168 -91.839,-2.89 -129.261,-21.519 -33.282,19.328 -70.782,30.738 -107.301,30.23 l -1.18,32.109 c 36.961,0.821 76.02,-2.621 108.91,-23.16 l 51.52,21.051 -160.617,168.129 2.187,28.71 194.879,-198.401 25.082,-0.899 c -55.16,147.93 -6.922,382.89 224.961,459.38 z M 974.34,1118.57 1002.5,982.98 c 0,0 -158.012,-158.05 -241.02,-238.75 l -69.41,6.372 c 34.649,52.027 54.379,104.648 77.418,157.109 L 974.34,1118.57 z m 559.92,-185.98 c -66.17,-74.731 -145.2,-122.262 -232.97,-174.61 -35.08,39.532 -77.7,83.051 -102.27,122.071 76.57,41.289 149.57,73.277 224.53,145.549 -4.1,-4.69 -95.62,-36.022 -95.35,-32.42 -3.28,-15.43 -1.29,-24.918 -16.21,-28.989 -17.61,24.848 -34.69,44.999 -62.46,56.139 -11.68,-1.06 -27.15,6.71 -27.15,6.71 7.78,1.61 4.34,96.96 0,98.05 8.52,2.81 17.15,9.42 28.91,-3.71 5.47,-3.67 58.2,49.96 76.17,68.28 70.51,5.86 133.01,-1.17 202.46,0.74 -0.54,-84.92 4.34,-172.93 4.3,-257.81 l 0.04,0 z m -447.85,215 c -1.76,3.59 -19.57,144.26 -2.66,232.46 46.45,148.44 34.61,189.81 154.57,335.78 7.93,7.82 35.51,-17.34 56.13,-60.78 59.89,-38.08 136.64,11.06 136.64,11.06 0,0 29.81,-24.53 97.23,-37.97 l -1.17,-26.45 c -0.31,-7.65 -75.78,8.21 -92.03,23.56 0,0 -56.53,-19.03 -56.53,-22.5 0,-14.81 150.55,-155.24 150.55,-155.24 l -0.86,-32.93 c 0.98,-0.04 -206.4,217.11 -209.1,194.38 58.71,-255.04 -41.17,-384.22 -232.77,-461.37 z m -249.379,44.84 -3.32,134.89 126.988,-1.53 5.242,-136.28 -128.91,2.92 z m -581.172,145.83 c 3.403,4.76 -4.918,251.4 -4.41,251.4 80.852,81.21 159.922,126.6 239.172,176.02 35.828,-35.86 66.289,-66.14 92.699,-109.57 L 473.98,1588.1 c 4.141,-16.6 -6.64,-22.58 63.829,-87.11 1.211,4.41 24.421,17.54 28.48,-2.11 -9.527,-41.48 4.262,-76.76 6.051,-99.06 -9.61,-13.09 -31.129,0.94 -31.129,0.94 -13.941,14.68 -68.512,-57.7 -84.102,-65.83 -67.968,2.58 -205.039,-2.07 -201.25,3.33 z m 764.061,438.51 c 0.47,-0.82 69.96,-0.12 69.3,-1.72 -12.62,-31.29 -41.41,-93.55 -70.27,-162.42 -24.149,-40.08 -196.571,-207.07 -196.571,-207.07 -8.199,48.44 -20.469,95.7 -33.277,142.81 l 230.818,228.4 z m 299.73,232.54 c 24.96,-10.78 95.19,-5.16 106.37,-0.31 14.25,-9.77 5.35,-22.85 3.55,-30.08 14.65,-18.75 22.7,-25.43 6.02,-55.66 -3.79,0 51.21,-125.08 52.69,-125.2 0,0 -58.12,27.89 -78.63,46.72 l -40.08,-53.87 -46.56,60.82 c -0.16,-5.51 -89.73,-65.55 -90.82,-62.65 -2.81,2.85 81.79,94.88 65,148.94 -4.03,13.01 5.23,26.25 11.56,37.74 4.34,7.85 -1.52,23.08 10.9,33.55 z m -46.53,11.21 c 3.83,4.38 -21.71,117.5 5.94,163.16 11.72,16.61 32.93,17.47 41.76,3.87 6.8,-18.9 -13.4,-45.23 -17.42,-58.08 -13.13,-35.79 6.37,-83.05 -3.17,-116.88 -28.43,-73.91 -78.86,7.27 -27.11,7.93 z m 189.5,50.24 c -15,-0.67 -4.5,44.64 -2.03,57.61 -0.08,2.58 27.46,9.06 37.38,-8.75 16.01,-26.64 -3.24,-60.23 -35.35,-48.86 z m -178.91,228.43 -141.33,-173.71 c -142.931,16.6 -286.329,27.19 -432.458,4.57 l -117.543,165.71 691.331,3.43 z"
         inkscape:connector-curvature="0"
         id="path28"
         style="fill:#e2cf00;fill-opacity:1;fill-rule:nonzero;stroke:none" /><path
         d="m 1545.86,2309.86 -1306.13,0 0,-2105.239 1306.13,0 0,2105.239 z m -263.52,-10.9 -156.56,-194.65 -3.83,-1.33 c 10.43,-30.86 25.32,-69.37 39.53,-98.63 22.66,-47.27 79.57,-134.1 44.07,-203.59 -3.48,-5.94 -6.72,-8.87 -11.06,-8.83 -6.05,0.04 -5.94,3.59 -2.34,10.58 7.89,15.35 13.28,51.72 10.12,70.98 -2.04,12.3 -8.79,31.25 -21.61,59.88 -59.49,111.06 -78.08,170.24 -74.72,170.24 -0.78,0.5 -2.11,1.17 -4.26,1.68 l -5.86,1.99 c 20.63,-70.2 54.14,-129.22 80.63,-183.87 21.75,-50.78 24.1,-70.51 12.73,-107.46 -4.41,-14.3 -12.38,-23.48 -20.2,-23.44 -5.86,0.04 -5.54,1.21 -1.52,8.48 20.82,37.81 16.02,79.1 -9.88,127.11 -37.66,79.3 -60.2,129.45 -73.63,180.35 -0.32,0 -6.84,2.23 -9.22,2.81 11.17,-52.97 42.34,-114.06 71.36,-176.52 24.03,-48.13 30.94,-83.2 22.27,-110.94 -2.81,-11.99 -11.88,-29.88 -23.32,-30.39 -4.49,0 -5.2,2.38 -0.94,8.56 17.78,30.82 20.94,59.25 -10.9,123.94 -29.25,59.53 -58.59,126.1 -68.63,184.26 -0.62,4.8 -13.36,10.43 -10.62,2.54 15.7,-68.71 46.99,-139.06 80.19,-207.66 18.71,-42.58 20.66,-69.84 6.64,-93.67 -7.85,-13.32 -9.84,-16.37 -15.74,-16.48 -6.95,-0.16 -6.84,-0.43 -3.01,7.69 16.99,35.82 14.18,67.34 -8.48,119.1 -31.09,70.98 -57.3,129.73 -68.47,192.19 -2.03,0.59 -12.54,4.69 -11.06,1.56 15.55,-59.49 35.47,-114.72 61.14,-170.58 8.9,-19.38 23.39,-57.03 28.08,-75.94 8.87,-35.94 -11.13,-85.31 -37.3,-87.81 -9.77,-0.94 -8.52,3.98 2.34,14.22 18.71,17.61 22.34,45.74 15.98,78.32 -4.77,25.11 -12.97,52.03 -24.26,79.41 -22.85,55.35 -47.7,113.24 -55.55,164.34 0.24,4.57 -10.19,4.57 -7.26,-0.2 5.66,-35.94 19.14,-76.84 33.9,-114.8 16.18,-41.61 40.2,-88.17 48.09,-139.18 6.44,-41.72 -19.3,-81.14 -50.55,-83.48 -37.61,-2.85 -45.04,34.84 -35.97,52.5 14.76,26.37 57.61,11.29 44.88,-15.66 -7.34,-15.51 -29.73,-11.45 -28.79,5.58 -0.23,1.52 2.15,6.21 1.72,6.45 -0.78,0.47 -4.06,-2.58 -5.12,-4.5 -7.62,-13.78 15.27,-32.26 31.17,-21.17 53.25,29.18 17.27,118.24 -5.93,172.62 -22.47,50.66 -38.95,96.48 -46.1,143.4 -1.95,1.37 -10.74,3.59 -9.529,1.99 6.449,-25.04 9.449,-46.13 15.859,-67.19 10.08,-33 28.13,-69.92 42.81,-106.91 13.4,-36.41 26.84,-67.34 20.71,-105.27 -0.55,-3.52 -2,-7.74 -4.34,-10.28 -2.42,-2.54 -4.38,-2.15 -5.08,7.5 -0.23,1.33 -1.95,3.05 -2.19,4.73 1.33,14.26 0.36,28.4 -3.28,41.83 -3.12,11.22 -9.06,22.7 -21.56,44.54 -4.96,8.12 -17.85,32.96 -13.32,15.78 2.58,-9.69 11.45,-31.29 20.66,-46.92 5.75,-9.68 11.76,-36.21 9.97,-41.33 -1.88,-5 -6.22,-5.27 -8.29,-3.55 -1.79,1.56 -1.79,8.63 -2.26,13.05 -1.95,17.97 -20.16,49.37 -32.77,61.72 -9.07,10.23 21.36,-43.56 23.59,-57.89 0.94,-6.1 2.81,-11.02 0.78,-13.99 -1.37,-1.99 -4.1,-1.99 -6.76,-1.29 -2.58,0.67 -2.46,2.46 -5.19,11.68 -4.69,15.82 -10.43,23.79 -22.42,38.05 -4.11,4.88 -6.841,-1.25 -0.32,-9.14 9.06,-14.46 15.86,-23.71 18.17,-42.31 -5.86,-8.4 -8.75,-6.75 -21.019,14.53 -8.09,14.11 -12.973,17.7 -15.082,17.62 -5.348,-0.27 -0.309,-6.99 14.769,-31.05 7.812,-12.85 8.012,-20.82 -0.859,-20.78 -3.008,0.03 -19.879,18.78 -24.098,26.95 -3.519,6.76 -7.851,11.91 -7.851,3.67 0,-3.28 10.43,-20.55 17.57,-28.94 11.289,-13.25 14.539,-15.9 15.981,-21.76 0.66,-2.78 2.029,-7.66 3.009,-10.82 2.89,-9.53 1.44,-12.27 -4.42,-7.23 -2.652,7.07 -4.8,7.77 -12.07,13.2 -6.129,4.61 -14.64,16.45 -20.191,24.81 -2.11,3.16 -3.91,7.19 -6.059,10.39 -5.461,10.35 -12.73,11.25 -7.5,0.82 2.5,-4.84 6.531,-12.77 10.789,-18.67 7.071,-10.24 5.621,-15.55 -2.82,-15.51 -3.59,0 -13.668,13.4 -19.957,23.83 -4.102,6.83 -10.512,11.64 -9.723,4.88 0.192,-1.68 5.153,-13.63 12.571,-23.01 8.089,-10.19 9.14,-15.58 1.332,-15.54 -5.352,0.03 -10,5.19 -16.801,15.74 -6.481,10 -10.539,13.51 -12.379,12.38 -2.344,-1.44 9.297,-21.29 18.867,-32.11 9.02,-10.27 2.383,-16.09 -7.969,-6.99 -5.66,4.96 -16.949,19.69 -20.121,26.72 -5.621,12.54 -9.289,9.1 -5.621,-0.82 4.024,-10.94 10.313,-22.93 17.891,-30.71 3.98,-4.06 12.191,-7.26 16.211,-10.74 11.332,-9.96 18.519,-19.1 17.582,-20.74 -32.352,-1.84 -58.91,33.05 -66.172,54.22 -5.16,13.87 -11.02,15.94 -5.43,-3.71 15.738,-48.75 64.918,-74.06 98.899,-52.23 20.511,13.2 2.39,47.54 -14.411,36.49 -4.527,-3.01 -4.769,-11.57 1.051,-7 10.903,8.6 21.84,-12.57 9.961,-18.82 -16.711,-8.79 -35.269,8.43 -23.898,29.29 11.25,21.45 56.288,9.18 47.5,-25.47 -5.352,-15.54 -28.75,-34.96 -48.793,-35.35 -37.27,-0.7 -63.008,28.21 -77.348,56.76 -1.832,3.67 -5.152,10.9 -7.851,16.76 -2.379,5.11 -4.219,8.86 -4.411,8.83 4.141,-34.65 36.871,-77.5 66.172,-84.57 48.668,-11.61 61.989,17.77 93.869,48.12 0,0 23.28,-3.05 24.1,-2.54 2.11,1.33 45.27,3.28 46.56,2.03 -174.29,-319.72 -161.048,-699.29 -11.17,-987.42 9.92,-21.051 11.64,-17.071 -4.77,-12.77 -16.95,4.488 -32.34,-2.391 -46.09,0.82 -28.51,5.899 -34.569,-13.789 -56.479,-24.3 -27.313,-10.43 -21.141,-29.649 -27.621,-48.2 -2.071,-2.89 -3.551,-5.242 -2.418,-4.851 1.789,0.59 7.609,6.062 8.039,10.859 1.14,12.274 5.469,22 10.398,26.883 4.723,4.648 8,7.027 9.141,5 0.89,-1.563 0.23,-7.07 -2.11,-11.531 -6.601,-12.649 2.141,-55 2.692,-24.84 0.469,23.91 14.808,50.59 34.848,61.488 16.05,7.961 21.01,7.141 7.96,-5.078 -14.878,-16.02 -24.96,-34.648 -25.539,-57.891 -0.242,-9.609 3.508,-17.66 4.879,-9.031 -0.59,44.223 43.09,93.442 89.92,68.992 2.31,-1.718 4.3,-4.922 3.6,-6.718 -45.36,7.687 -84.81,-17.383 -78.99,-76.723 0,0 4.06,11.641 6.37,23.242 7.15,36.328 47.77,52.231 76.25,42.27 5.39,-2.27 9.57,-9.922 8.83,-10.981 -34.85,11.102 -73.09,-22.23 -75.32,-58.359 -0.7,-11.723 -0.43,-21.789 5.51,-0.582 22.5,80.191 91.92,43.82 83.4,37.261 -53.75,6.489 -73.2,-30.082 -71.95,-72.378 0.78,-3.872 2.73,-5.161 4.33,-8.75 7.19,-15.942 10.43,-29.614 11.02,-58.524 -0.55,-7.457 5.55,-54.879 -0.59,-52.887 -19.53,7.309 -34.37,15.938 -68.161,0.547 -3.051,-0.16 -4.059,1.524 -3.008,4.184 1.41,3.59 6.68,10.699 15.899,21.168 20.78,22.422 8.83,16.41 -8.239,0.859 -11.019,-10 -8.64,-3.16 1.758,31.09 4.211,13.91 1.602,15.59 -16.527,24.93 -18.672,9.57 -31.563,11.011 -15.742,0.972 6.211,-3.832 12.851,-7.851 19.879,-10.703 8.242,-4.566 7.312,-6.476 1.211,-26.476 -11.829,-38.91 -15.93,-53.133 -15.309,-79.301 1.488,-63.633 61.449,-57.313 95.549,-43.012 l 1.44,-41.871 128.52,-183.09 c 0,0 -449.22,0.473 -689.572,-3.558 13.75,33.359 159.024,174.582 167.653,199.808 0.828,-0.117 -16.09,51.641 -25,74.141 -42.031,106.293 -97.223,150.98 -65.27,220.781 6.918,13.871 8.09,18.52 13.321,18.52 7.109,-0.039 9.378,-4.809 1.41,-18.36 -34.383,-58.242 38.898,-158.789 63.668,-222.89 3.941,-10.282 20.55,-58.399 23.48,-74.571 0.27,-4.961 11.91,-6.64 8.629,-0.859 -9.098,32.77 -20.59,68.512 -25.898,81.398 -19.571,47.352 -40.161,79.653 -59.219,125.903 -10.66,29.258 -16.332,63.008 0.199,93.32 6.008,11.02 7.731,17.149 11.719,17.738 3.39,0 5.43,-1.179 5.621,-4.031 0.269,-3.078 -1.641,-8.156 -6.133,-15.93 -28.867,-49.687 22.461,-130.039 47.891,-187.308 16.562,-37.34 31.293,-76.602 36.519,-112.031 0.082,-2.457 3.282,-8.95 9.614,-4.489 -10.981,66.129 -43.321,130.309 -71.641,192.11 -24.18,48.281 -33.242,90.39 -0.941,130.148 2.82,2.742 8.871,2.274 9.3,-1.789 0.231,-2.777 -1.871,-8.008 -6.91,-18.598 -28.48,-60.269 15.621,-109.179 36.289,-166.64 20.192,-48.012 38.981,-88.36 46.52,-139.531 5.703,-2.192 8.511,-4.961 9.14,2.308 -14.769,72.301 -46.597,137.301 -74.218,199.922 -12.731,27.219 -17.262,40.27 -18.121,58.469 -1.18,25.082 11.281,56.761 22.46,65.121 2.891,2.191 4.719,2.582 7.34,1.09 3.629,-1.989 2.93,-3.321 -4.261,-17.032 -13.707,-26.207 -14.879,-55.699 -2.18,-86.828 21.949,-47.851 40.422,-87.109 53.551,-122.308 14.34,-38.473 22.379,-71.871 25.621,-102.071 0,0 9.769,-4.371 8.328,2.188 -6.098,42.191 -19.848,85.98 -34.731,123.051 -14.058,34.961 -31.636,68.59 -45.898,103.281 -17.27,41.559 -2.969,87.027 32.5,109.719 l 16.289,-0.352 c -0.937,0.434 -37.187,-14.137 -39.098,-66.558 -1.8,-49.961 21.598,-80.622 38.469,-122.93 20.629,-51.051 39.07,-95.781 43.481,-150.352 1.597,-1.879 10.55,-2.308 10.39,-1.476 -4.41,36.668 -15,71.558 -30.121,114.41 -16.051,45.547 -32.031,65.738 -46.949,113.59 -10.082,32.347 -8.711,76.168 13.75,96.207 33.629,34.383 80.551,9.89 68.789,-29.449 -9.059,-27.692 -46.559,-22.192 -46.371,3.75 -0.078,16.761 20.351,21.289 27.109,8.671 1.563,-2.5 2.621,-13.242 3.321,-13.671 0.711,-0.391 2.812,8.48 2.812,10.468 0.078,13.793 -18.391,25.352 -32.141,18.364 -18.832,-9.571 -31.058,-31.563 -29.808,-61.024 1.328,-31.316 6.918,-51.598 32.269,-100.738 29.528,-57.231 39.289,-119.219 45.618,-161.012 2.703,1.172 5.98,-0.316 7.031,0 -4.289,56.953 -22.77,115.461 -45.86,164.063 -27.929,58.898 -35.742,94.961 -26.441,121.328 1.371,3.859 2.691,6.793 4.371,7.07 3.129,0.473 4.07,-4.609 7,-15.16 0.86,-3.238 -0.238,-8.359 -0.898,-12.301 -2.422,-24.148 14.289,-74.379 29.84,-96.719 4.57,-6.371 10.386,-6.14 5.347,5.153 -16.008,29.179 -25.777,55.668 -27.07,91.136 -0.348,10.43 11.641,5.743 11.922,0.5 0.859,-16.91 2.539,-36.91 10.539,-51.089 16.25,-28.129 25.281,-29.34 8.68,2.031 -3.719,7.308 -14.258,38.09 -10,48.672 2.339,2.187 5.23,2.539 6.679,0.386 4.68,-17.378 11.211,-34.636 22.692,-48.039 6.058,-7 7.031,-3.828 3.871,4.879 -5.313,10.082 -21.883,43.793 -14.262,51.41 2.461,2.032 1.02,0.93 7.73,-10.117 9.301,-15.39 14.418,-21.453 18.911,-25.941 6.058,-5.981 7.5,-1.949 1.289,8.558 -12.461,21.012 -19.532,38.473 -15.16,42.891 4.339,4.332 5.351,2.301 15.199,-14.609 4.371,-7.5 10.703,-18.602 12.851,-21.211 2.149,-2.617 4.102,-3.289 4.18,-1.141 -2.301,20.391 -19.648,43.684 -26.641,47.742 -0.98,1.91 -0.629,18.008 -0.629,18.008 26.059,-13.558 27.11,-28.867 44.34,-52.43 1.801,-1.75 4.34,0.391 3.551,3.641 -0.582,4.41 -10.82,24.02 -17.18,32.652 -5.043,6.758 -5.281,10.629 -1.019,12.579 6.918,3.16 16.527,-7.231 26.797,-25.739 4.761,-8.601 11.133,-13.562 11.172,-9.062 0,2.5 -8.871,24.64 -15,31.051 -10.161,10.66 -5.121,18.128 6.679,8.242 5.352,-4.453 12.578,-7.852 20.078,-24.141 4.332,-9.492 8.082,-10.742 8.122,-3.121 0,8.512 -14.18,29.371 -23.711,35.148 -7.379,4.461 -11.598,9.461 -9.528,12.782 6.489,9.609 32.699,-14.918 41.641,-37.739 2.617,-6.761 7.269,-10.191 8.398,-7.222 1.989,1.519 -3.32,17.961 -8.75,25.582 -8.98,17.418 -30.23,34.219 -42.851,32.187 -2.418,-0.386 -9.098,13.871 -9.098,13.871 32.109,5.27 63.32,-33.597 68.859,-48.168 10.508,-27.582 15.899,-24.332 6.68,-0.152 -18,47.301 -73.898,73.82 -104.961,50.93 -17.648,-13.039 -7.07,-44.207 11.102,-38.899 7.219,2.731 14.219,10.149 1.519,7.692 -14.14,-1.403 -18.672,20.347 -4.261,24.687 23.211,7.031 28.519,-30.308 9.812,-38.629 -19.461,-8.398 -38.793,4.141 -36.961,25.7 3.442,40.742 52.969,52.539 101.879,19.57 13.75,-9.262 30.66,-39.488 36.481,-58.629 1.921,-6.332 8.402,-8.563 9.218,-7.742 1.84,1.883 -13.59,35.511 -18.668,44.031 -21.289,49.289 -98.281,51.719 -98.281,49.18 0,0 -30.16,-19.18 -56.949,-50.782 l -68.828,6.403 c 175.347,284.489 189.097,702.739 9.289,998.829 2.308,-1.52 34.578,-9.96 45.668,-1.09 8.242,3.98 10.582,5.35 19.652,2.07 10.188,-3.71 20.93,-0.43 32.07,9.84 8.36,7.73 8.508,10.12 13.899,9.41 15.98,-2.1 26.57,7.35 29.89,30.59 1.29,9.14 2.141,18.63 0.86,17.27 -0.75,-0.82 -2.621,-8.71 -3.789,-13.68 -3.211,-13.67 -6.211,-18.71 -11.492,-23.16 -8.668,-7.34 -13.707,-3.24 -10.079,7.93 3.442,7.19 6.29,25.66 1.571,34.1 -0.821,1.49 -1.02,-4.22 -2.192,-8.83 -9.488,-36.44 -19.41,-54.92 -36.597,-59.22 -8.051,-1.99 -11.801,-0.74 -9.184,3.95 30.313,32.62 28.281,68.79 25.973,65.66 -6.403,-20.89 -18.391,-52.07 -38.039,-64.88 -16.961,-11.09 -41.84,-12.15 -55.672,-2.85 -7.852,5.27 4.031,6.84 21.801,7.11 29.918,0.39 57.89,40.78 53.238,74.8 -1.09,6.29 -2.77,-0.43 -5.188,-10.78 -11.062,-36.87 -30,-62.77 -73.281,-55.04 -3.359,0.59 -5.629,2.85 -7.461,4.14 -7.07,4.93 -4.461,8.32 9.531,6.49 31.29,-4.14 58.551,25.51 58.36,61.33 -0.078,17.18 -2.5,16.99 -5.238,4.18 -3.793,-18.05 -17.692,-73.4 -68.321,-55.32 -9.101,5 -14.101,11.37 -10.859,12.31 29.527,-6.02 56.598,0.55 67.109,39.72 4.528,16.92 3.438,33.44 -1.172,47.27 -1.449,9.41 -4.57,16.56 -5.629,26.13 -2.851,25.59 -6.871,53.83 -5.66,81.84 2.418,2.42 2.852,1.91 11.328,-3.79 16.68,-11.21 29.301,-8.63 46.293,-1.99 21.789,7.97 19.84,6.52 -3.011,-19.53 -4.731,-5.43 -9.571,-12.07 -10.121,-13.09 -5.778,-11.01 5.121,-2.93 13.281,7.42 11.332,14.42 13.711,17.74 15.941,17.74 0.778,-15.59 -4.801,-34.5 -7.66,-47.27 -3.781,-14.14 -3.742,-17.38 5.199,-21.01 3.828,-1.57 11.289,-4.69 15.43,-6.68 18.672,-9.03 16.949,-1.68 2.07,6.83 -20.082,11.45 -20.269,10.9 -14.492,29.96 6.723,22.35 10.043,41.68 13.711,63.79 9.02,54.73 -31.84,84.81 -86.059,65.71 -3.121,-1.57 -6.679,28.75 -6.171,36.75 0.472,2.89 -8.2,2.27 -15.309,11.1 2.148,1.95 -80,105.97 -118.238,169.02 238.078,-0.59 472.688,4.38 688.078,3.79 l 0,0.04 z m -176.4,-195.35 c 0.54,-0.35 0.86,-0.63 0.86,-0.63 -0.35,0.43 -0.67,0.63 -0.86,0.63 z m 185.94,190.47 236.32,0 0,-503.01 -23.36,-0.51 c 0,0 -38.39,66.76 -48.51,98.32 -2.54,7.89 -6.95,18.71 -8.67,22.97 -3.91,9.65 -6.64,10.86 -1.45,16.76 10.39,11.79 8.32,35.66 -1.76,47.18 -3.12,3.75 -4.76,2.47 -4.61,11.57 0.16,7.77 0.86,12.77 -1.17,16.79 -3.4,6.72 -5.7,7.23 -0.82,14.61 5.12,7.78 11.88,20.35 14.77,30.24 4.61,15.97 1.36,18.94 11.68,15.19 25.9,-8.32 47.54,10.32 46.87,36.72 -0.55,22.19 -21.09,41.99 -45,35.94 -5.51,-1.41 -6.6,-0.94 -15.08,4.45 -2.42,1.53 -6.13,4.81 -9.29,6.02 -3.91,1.52 -7.19,1.36 -8.79,4.22 -3.24,5.58 -13.21,14.45 -25.39,13.86 -7.46,-0.35 -17.11,2.39 -19.69,3.71 -4.22,2.27 -16.13,0.43 -31.29,2.74 -6.72,1.01 -12.15,-1.64 -15.43,-1.68 -9.3,-0.12 -5.51,1.05 -7.26,8.2 -11.72,37.35 -45.83,32.89 -61.49,4.81 -5.74,-11.02 -9.88,-27.35 -12.07,-44.26 l -91.91,1.41 123.4,153.75 z m -711.45,-1.1 c 34.34,-44.18 67.191,-93.67 101.84,-138.75 42.57,-54.57 43.98,-60.86 32.531,-115.82 -6.403,-31.05 -9.141,-38.24 -22.102,-35.86 -12.148,2.19 -22.469,-7.5 -24.109,-19.72 -3.121,-23.01 18.789,-37.19 40.82,-25.67 11.641,6.06 12.039,6.72 8.168,-13.32 -5.547,-28.75 -16.68,-53.48 -23.828,-52.66 -18.48,39.61 -63.398,11.41 -48.48,-29.8 -4.68,-7.19 1.449,-16.29 3.789,-23.83 0,0 0.121,-0.9 -25.539,-9.45 -126.059,-37.74 -279.93,-136.17 -365.161,-228.59 l 0,691.56 322.071,1.91 z m 723.2,-94.37 c 5.28,0.15 10.35,-1.57 14.57,-5.39 10.98,-9.96 8.4,-23.91 -6.79,-50.16 -15.94,-36.6 -11.61,-65.43 -7.93,-103.83 -0.12,-22.3 -7.58,-43.51 -19.46,-52.65 -19.22,-14.85 -42.97,5.03 -32.97,25.19 5.12,10 15.98,4.18 18.52,13.63 3.52,34.93 -5.08,70.55 -5.66,104.81 0.19,15.35 5.19,34.65 12.07,49.1 6.72,12.07 17.54,19.06 27.65,19.3 z m 30.28,-59.69 c -4.34,-3.67 -11.64,-3.75 -12.46,0.86 0,4.8 3.71,20.12 6.28,21.83 15.79,3.72 10.75,-18.71 6.18,-22.69 z m 23.59,23.94 c 13.01,0.51 21.6,-33.2 10.27,-52.93 -2.15,-0.39 -17.93,-0.27 -18,-0.58 -0.28,3.51 0.78,10.55 1.95,17.26 1.01,5.75 1.6,10.12 -0.12,16.33 -4.26,15.43 -7.07,18.32 5.9,19.92 z m 24.8,-0.46 c 0.47,0 0.98,0 1.53,0 13.2,-0.08 20.74,-25.9 16.6,-54.14 -0.59,-4.07 -0.94,-8.33 -2.42,-9.26 -5.51,1.48 -20.86,-4.03 -21.13,-3.99 -1.45,1.49 -0.86,9.53 1.09,16.76 3.63,13.4 4.65,22.31 0.39,36.17 -3.05,11.96 -3.16,14.22 3.94,14.46 z m 32.93,-7.47 c 14.54,-2.46 15.47,-43.2 9.5,-56.4 -1.41,-1.95 -6.88,-1.49 -8.83,-2.23 -12.38,-3.55 -9.61,-5.43 -8.17,14.46 0.98,13.67 1.22,24.25 -0.82,35.54 -0.97,4.96 -1.36,8.4 2.19,8.71 2.07,0.43 4.26,0.35 6.13,-0.08 z m -72.5,-15.93 c 5.79,-8.01 1.14,-26.57 -3.28,-33.48 -5.04,-7.62 -7.07,-8.24 -4.29,-11.56 1.17,-1.41 3.59,-8.63 2.11,-11.64 -2.78,-5.59 4.33,-6.6 10.78,-10 10.47,-5.55 15.58,-15.78 23.4,-34.42 2.73,-6.48 8.32,-4.41 5.58,2.54 -2.3,6.02 -3.2,14.81 -4.8,20.71 -1.68,6.01 0.15,9.02 7.03,7.26 10.35,-2.65 8.9,-0.15 12.69,1.25 8.28,4.65 13.87,-1.95 8.87,-5.58 -2.89,-2.11 -9.02,-3.36 -15.82,-5.28 -5.78,-1.6 -4.41,-7.22 1.37,-7.19 5.35,0 20.7,4.38 30.74,7.47 28.71,8.78 29.69,13.47 26.99,-3.05 -3.55,-21.92 -15.35,-38.32 -34.8,-43.87 -17,-4.84 -56.14,-3.9 -73.6,1.72 -16.56,7.62 -17.65,12.93 -22.65,27.73 -6.88,20.24 -10.9,54.46 -3.01,74.38 6.91,16.84 6.25,15.04 12.89,14.22 5.94,-2.11 13.91,0.23 15.66,3.9 0.9,1.76 3.13,4.97 4.14,4.89 z m 110,-12.11 c 1.65,-9.03 1.8,-18.24 -1.28,-25.24 -1.8,-3.28 -11.88,-3.08 -15.75,-3.12 -2.3,-0.55 -2.11,30.43 0.35,33.79 5.83,8.9 13.4,1.76 16.68,-5.43 z m -291.4,5.35 28.44,-0.35 0,-7.03 -33.56,0.23 5.12,7.15 z m 99.53,-1.21 0,-9.1 -42.81,-0.08 0,-57.03 47.89,-0.16 0.27,-11.87 -64.14,0.23 0.2,77.97 58.55,0.04 0.04,0 z m 217.69,1.83 c 43.91,-9.8 24.34,-59.02 7.9,-62.03 -20.51,-3.71 -37.93,-1.36 -32.23,16.96 5.7,12.42 1.76,27.85 3.36,39.14 3.94,3.71 14.3,7.42 20.97,5.93 z m -331.01,-17.3 42.23,-0.43 0,-9.41 -48.29,0.11 6.06,9.73 z m 93.87,-8.67 c 6.71,0 12.18,-5.55 12.18,-12.38 0,-6.88 -5.47,-12.43 -12.18,-12.43 -6.76,0 -12.23,5.55 -12.23,12.43 0,6.83 5.47,12.38 12.23,12.38 z m 119.21,-4.92 c 7.86,-0.86 8.52,-13.09 5.32,-16.64 -4.1,-4.15 -11.8,-2.39 -14.14,3.98 -2.11,5.7 2.61,12.89 8.82,12.66 z m -224.88,-5.32 54.03,-0.15 0,-7.62 -54.57,-0.47 -1.45,4.92 1.99,3.32 z m 304.26,-3.28 c 7.5,0.16 12.11,-6.21 7.42,-11.68 -7.07,-7.93 -21.44,4.22 -7.42,11.68 z m -575.98,-16.68 c -12.11,-10.35 -2.418,-20.54 13.64,-10.74 34.57,21.13 85.578,4.38 118.789,-13.2 6.521,-3.36 7.421,4.53 1.012,9.96 -30.699,27.42 -96.133,43.16 -133.441,13.98 z m 523.79,14.42 c 8.44,-0.04 8.32,-10.71 2.89,-14.53 -5.43,-2.39 -6.36,-1.72 -9.96,-0.28 -4.92,1.96 -1.25,14.77 7.07,14.81 z m 29.89,-0.16 c 10,-0.51 8.9,-20.94 -6.22,-13.55 -5.46,5.97 -1.91,13.59 6.22,13.55 z m -279.38,-10.51 52.54,-0.47 0,-8.71 -49.14,0.51 -3.4,8.67 z m -339.492,-20.43 c 14.371,-11.56 9.922,-12.26 -13.906,-3.75 -15.543,3.52 -31.012,1.25 -40.742,-2.65 -11.52,-4.61 -14.18,-3.28 -9.219,4.53 13.398,15.27 50.309,12.19 63.867,1.87 z m 69.024,-19.14 c -1.442,-3.63 -6.372,2.89 -13.012,1.6 -9.488,-1.79 -6.75,-2.22 3.281,-13.82 10.039,-11.61 13.328,-14.34 12.699,-18.79 -0.898,-6.57 0.942,-10.2 7.379,-9.46 3.09,0.36 6.801,-3.28 11.531,-7.65 16.442,-15.16 24.719,-22.7 30.071,-25.04 21.758,-9.53 11.961,1.21 -1.949,10.94 -23.161,16.25 -31.25,27.07 -14.762,21.28 17.5,-6.13 45.351,-2.65 59.058,5.75 6.762,4.1 11.012,10.47 20.551,7.34 13.352,-4.34 18.471,3.67 14.762,8.16 -6.051,3.95 -19.922,8.64 -33.051,17.62 -28.16,14.49 -57.73,14.06 -77.422,2.42 -11.636,-6.87 -15.66,-2.07 -4.289,4.77 45.66,24.96 81.789,1.05 111.051,-16.91 5.078,-3.13 8.63,-2.86 8.63,-0.67 -0.78,7.27 -13.79,11.72 -19.06,14.96 -40.742,25.16 -83.55,33.21 -115.468,-2.5 z m 277.348,22.11 45.66,-0.04 0,-9.14 -42.31,0.2 -3.35,8.98 z m -371.489,-11.64 c 12.66,0.04 40.16,-11.48 39.687,-21.01 -0.507,-3.64 -7.378,-0.4 -13.398,3.32 -11.559,7.18 -29.301,9.1 -46.02,5.93 -12.851,-2.42 -16.91,-4.57 -18.75,-3 -4.449,10.07 26.758,14.68 38.481,14.76 z m 493.669,-6.83 0.08,-16.41 c -24.76,-1.84 -29.88,-29.77 -13.98,-45.35 13.04,-12.74 34.57,-7.74 45.43,10.39 1.87,3.2 2.11,5.15 3.28,3.55 0.7,-1.01 1.33,-4.06 1.91,-7.03 1.72,-8.59 -0.7,-10.78 -6.33,-18.16 -9.06,-11.92 -10.31,-26.92 -4.61,-38.09 1.57,-3.08 4.85,-7.46 4.26,-9.49 3.2,0.08 -28.12,-88.87 -73.87,-133.67 -7.65,-5.2 -13.2,0.9 -9.25,9.22 37.26,86.44 -34.03,166.75 -61.68,243.98 l 114.76,1.06 z m -331.251,-14.93 6.531,-0.58 c -5.238,-39.81 -43.281,-33.4 -44.808,-0.98 l 5.507,0.2 c 7.422,-30.16 32.891,-17.82 32.77,1.36 z m -215.039,-0.82 c 0,0 2.781,-4.45 2.781,-6.91 0,-9.3 -0.16,-22.7 -0.391,-26.76 -2.191,-38.32 -50.121,-45.43 -46.449,-12.62 2.848,13.91 20.16,15.43 24.418,2.86 6.211,-15.82 7.34,3.82 7.422,9.96 5.078,9.64 8.789,21.36 12.219,33.47 z m 230.82,-2.69 c 1.961,-0.04 5.469,-1.8 8.25,-4.81 3.16,-3.43 1.988,-5.15 -5.39,-8.98 -7.969,-4.18 -11.571,-3.83 -8.719,4.61 1.801,5.19 3.328,9.22 5.859,9.18 z m 358.32,-2.03 c 1.06,-0.04 3.83,-1.49 3.21,-5.67 -1.1,-6.95 -7.03,-10.9 -8.56,-9.26 0.98,3.68 2.19,13.48 5.35,14.93 z m -415.5,-13.44 c -0.941,-2.81 -2.582,-1.6 -6.761,1.99 -4.61,3.99 -4.379,6.52 0.39,9.42 6.84,4.14 7.231,-8.83 6.371,-11.41 z m -145.039,10.39 c 8.008,-25.66 24.289,-22.38 31.598,-1.25 l 6.949,0.12 c -1.519,-33.01 -42.687,-32.43 -43.039,-0.51 l 4.492,1.64 z m -14.421,-3.2 c 2.429,0.39 0.71,-8.17 0.71,-8.17 0,0 -6.761,3.56 -2.82,7.31 0.512,0.47 1.762,0.82 2.11,0.86 z m 60.468,-2.15 c 0.821,0.04 2.422,-0.59 4.141,-1.76 3.992,-2.7 3.281,-4.26 -1.289,-8.12 -7.031,-5.98 -10.192,-2.66 -6.399,5.35 1.399,2.97 2.5,4.45 3.547,4.53 z m 525.782,-5.59 c 2.97,0.2 7.15,-1.17 15.98,-3.55 24.38,-6.57 56.99,-6.33 84.73,1.4 8.75,2.46 15.27,-13.12 10.54,-24.45 -2.11,-5.04 -1.72,-5.66 4.65,-12.38 9.03,-9.53 10.51,-24.92 3.63,-38.95 -5,-10.19 -4.68,-9.29 1.25,-26.68 12.74,-37.89 31.45,-73.08 51.14,-107.69 l -26.25,9.92 c 0,0 -118.52,-103.4 -202.07,-107.31 l 30.23,-47.89 c 47.66,-19.33 93.17,-14.49 136.72,13.32 -1.05,-3.98 53.01,-30.82 97.38,-33.75 l 0.28,-32.22 c -32.93,3.71 -66.33,4.49 -96.92,24.06 0,0 -28.12,-11.95 -56.33,-20.9 l 157.82,-165.7 0.08,-27.7 c 0,0 -67.35,63.83 -136.68,135.78 l 1.48,-353.82 136.56,-2.74 c -4.29,-92.07 -2.58,-150.62 -1.64,-256.089 -64.53,-67.191 -153.32,-134.422 -235.35,-174.813 -38.71,37.891 -70.7,78.954 -98.71,122.864 -0.59,0.886 2.85,2.687 2.26,3.629 -0.85,1.328 -5.7,1.828 -6.6,3.16 -17.07,25.777 -56.72,97.308 -50.43,98.988 12.15,-0.859 68.36,6.211 79.57,40.431 0.08,2.14 -1.25,8.24 0.28,15.39 3.98,18.55 6.01,46.72 -0.71,64.61 -12.07,32.26 24.26,21.91 25.51,19.76 l 0,121.88 c -47.3,-38.52 -95.04,-76.37 -158.28,-92.23 -39.34,201.25 23.05,451.56 200.86,621.29 l -9.73,0.86 c -182.73,-191.92 -230.62,-402.93 -199.45,-625.2 0,0 1.13,-6.91 1.33,-9.25 0.43,-5.55 -0.86,-7.66 -5.74,-11.65 -4.61,-3.08 -8.79,-6.4 -8.4,-10.19 0.82,-7.15 -5.94,-7.38 -14.81,-7.34 -4.06,3.63 -9.53,-0.94 -12.81,-2.58 -4.57,-0.71 -6.87,18.32 -12.73,4.37 -2.23,-8.79 -6.45,-9.45 -16.21,-5.08 -6.14,1.84 -6.29,-1.25 -0.4,-8.47 8.17,-8.91 15.04,-22.23 13.72,-26.21 -2.97,-8.95 -1.68,-17.97 10.78,-23.09 -0.71,-0.04 -7.54,-27.3 11.79,-26.52 6.14,-0.04 21.72,-3.24 21.72,-3.24 1.02,-5.2 -0.62,-8.17 -3.04,-10.47 l -13.44,6.83 -3.52,-16.25 -17.93,1.29 43.56,-54.609 5.08,42.578 50.93,-6.519 c 8.17,-21.532 59.61,-140.899 157.97,-230.039 -1.09,-2.891 -67.65,-30.782 -67.65,-30.782 l -10.51,33.161 -8.44,-12.34 -15.04,3.898 -1.76,-13.937 -13.39,-4.379 24.14,-15.903 -61.25,-17.73 C 965.738,979.738 888.52,1367.08 1102.15,1779.62 l 53.94,-0.66 -10.5,-18.32 15.35,2.5 4.33,-13.32 11.25,5.39 11.33,-14.42 12.89,38.52 c 0,0 38.24,-0.9 43.01,-0.39 3.75,0.43 80.86,66.05 79.18,68.59 -1.17,1.8 -83.95,-59.61 -86.72,-57.26 0,0 -8.32,-1.99 -1.83,5.86 11.6,14.1 19.8,24.84 31.6,45.11 19.49,26.92 28.24,59.77 32.81,82 0.12,1.56 0.51,5.11 -0.78,7.73 -7.42,14.96 -5.78,24.77 7.54,42.42 4.68,6.17 4.96,7.7 3.63,11.49 -3.01,8.59 -0.12,15.9 6.05,21.68 2.43,2.26 4.03,3.36 6.33,3.51 l -0.04,0 z m -454.84,-59.76 c 33.871,-14.11 6.679,-45.39 -18.481,-18.13 -13.199,14.3 -23.59,13.4 -30.777,2.93 -3.242,-4.69 1.488,-12.97 5.668,-10.31 3.859,2.42 7.851,5.31 13.512,0.04 42.808,-40.04 73.597,16.01 36.679,29.92 -4.57,2.15 -11.051,-2.58 -6.601,-4.45 z m -139.532,1.36 c 0.313,0 0.704,-0.15 1.172,-0.47 1.602,-1.01 1.719,-15.15 0.121,-21.09 -5.351,-30.16 -26.531,-100.23 -69.961,-65.94 -17.269,13.64 -1.57,47.82 19.059,36.21 16.133,-9.1 5.231,-30.74 -12.187,-18.32 -8.473,6.06 -5.821,-6.4 1.367,-9.96 12.109,-6.4 34.101,4.61 44.371,24.26 4.109,7.85 7.969,21.72 12.308,41.68 2.192,10.04 2.34,13.56 3.75,13.63 z m 3.672,-52.18 c 3.559,-21.8 -12.769,-59.96 -36.05,-65.63 -17.821,-4.3 -39.848,7.46 -38.25,18.4 0.468,3.16 1.718,-1.02 17.859,-3.75 22.531,-3.75 36.871,8.59 49.883,37.03 4.058,8.95 5.816,13.75 6.558,13.95 z m 56.059,-10.43 c 0,-2.46 -1.18,-8.95 -2.149,-13.25 -2.429,-10.23 -3.91,-14.1 7.071,-9.02 7.301,3.4 17.929,6.76 28.937,0.55 12.153,-6.84 23.75,-5.55 38.051,0.58 12.461,4.22 18.512,4.26 25.43,0.2 12.691,-7.38 8.32,-2.66 6.679,15.98 -1.128,13.12 -4.648,11.4 -9.179,6.44 -3.008,-3.28 -9.02,-3.98 -15.739,-0.31 -8.011,4.33 -19.14,2.26 -22.89,-0.82 -3.75,-3.09 -9.18,-3.52 -16.531,1.52 -4.879,3.32 -7.579,1.56 -13.547,-1.13 -9.852,-4.49 -13.602,-2.07 -18.953,2.11 -4.84,3.59 -7.11,2.46 -7.18,-2.85 z m -48.789,-15.67 c 1.289,0.04 1.441,-5 0.539,-15.15 -4.098,-37.39 -32.93,-58.21 -66.867,-40.08 -14.883,8.59 -12.852,14.69 1.789,9.29 23.328,-8.59 46.918,3.4 58.437,34.15 2.973,7.85 4.961,11.79 6.102,11.79 z m 82.851,-26.64 c 16.789,-7.07 35.387,-4.8 40.11,1.41 5.32,7.03 -2.813,5.86 -7.102,4.8 -14.687,-3.55 -24.769,-2.26 -30.711,0.43 -17.418,6.84 -16.328,-0.54 -2.297,-6.64 z M 645.82,1825.76 c 21.758,-27.04 24.649,-32.31 43.36,-63.05 C 826.211,1526.61 870.121,1228.22 780,957.359 755.309,882.59 720.43,806.422 681.328,745.25 l -46.918,-0.512 16.102,18.633 -21.84,-1.641 -1.332,12.348 -16.559,-5.43 -7.972,18.59 -15,-42.578 -86.95,-0.23 c 203.672,200.898 243.789,444.37 205.782,639.84 0,0 17.031,10.82 19.41,17.11 0.551,1.56 1.84,8.09 3.008,9.06 7.582,5 12.582,9.89 16.332,8.95 2.148,-0.55 3.238,-1.56 4.808,-3.91 7.18,-10.66 8.711,-12.3 12.653,-1.56 2.808,7.69 1.597,10.51 10.82,9.02 5.43,-2.93 12.617,-2.85 11.949,-1.76 -0.461,0.83 -8.16,9.97 -11.793,15.16 -8.598,12.31 -11.058,14.49 -10.277,19.88 1.219,8.21 -5.231,17.04 -9.211,19.26 1.129,22.07 -7.231,24.3 -30.86,29.22 -0.121,3.83 0.5,6.91 2.18,10.31 l 13.871,-11.25 5.039,20.86 18.871,-1.05 -54.652,53.71 c 0.27,-15.16 0.981,-30.47 -0.391,-45.08 -25.628,1.45 -50.898,9.81 -51.289,8.24 -37.621,89.92 -94.961,165.98 -155.507,225.32 l 60.468,29.49 17.149,-33.17 4.179,18.79 15,-2.65 2.543,12.03 16.559,2.38 -18.281,17.62 46.601,15.51 z m 360.12,-38.79 c 2.3,-2.97 4.14,-3.17 7.26,-5.86 l -6.21,-4.46 c 0.31,4.22 -0.08,6.37 -1.05,10.32 z m -402.35,-11.1 c -5.11,0 -9.289,-4.26 -9.289,-9.45 0,-5.2 4.179,-9.41 9.289,-9.41 5.16,0 9.301,4.21 9.301,9.41 0,5.19 -4.141,9.45 -9.301,9.45 z m 50.469,-1.48 c -5.149,0 -9.289,-4.22 -9.289,-9.46 0,-5.23 4.14,-9.45 9.289,-9.45 5.16,0 9.3,4.22 9.3,9.45 0,5.24 -4.14,9.46 -9.3,9.46 z m -162.539,-6.92 c 29.96,-25.27 57.46,-58.16 90.859,-109.64 l -0.699,-6.96 10.199,-3.83 c 0,0 55.543,-74.21 52.609,-107.18 -19.058,-4.07 -36.476,1.21 -70.578,-31.18 -16.101,8.79 -25.629,5.98 -42.308,1.06 0,0 0.308,-7.34 6.058,-9.81 11.09,13.25 23.16,7.11 29.719,3.79 -2.34,-1.01 -8.359,-74.72 3.32,-90.43 8.832,-25.03 -14.328,-20.27 -30.39,-14.1 l 4.613,-117.07 c 52.848,61.17 164.418,101.96 156.488,97.54 56.012,-300.27 -77.109,-500.551 -216.488,-647.379 l 73.047,-0.429 c 0,0 -62.969,-102.5 -67.66,-130.864 3.562,-9.41 13.48,-28.91 -3.239,-42.617 -5.66,-6.293 -6.25,-34.883 -6.25,-34.883 -38.441,-1.328 -71.718,12.192 -115.98,-3.558 -4.61,-1.559 -5.578,24.461 -5.82,29.179 -24.758,22.27 -2.071,60.512 1.289,57.7 -20,59.57 -60.149,130.621 -60.149,130.621 0,0 -24.18,1.332 -38.949,2.191 -3.051,2.617 -5.039,72.027 -1.949,73.707 109.449,-8.816 280.738,1.25 280.738,1.25 l -45.941,65.203 c -56.637,22.379 -134.411,-15.859 -130.661,-17.89 0.153,-0.2 -62.187,34.531 -105.429,29.609 l 1.41,34.02 c 38.43,0.16 73.859,-7.11 104.801,-25.622 l 52.621,19.883 -161.18,171.599 1.879,28.28 C 310,1070.33 396.172,974.898 396.172,974.898 l 0.117,360.312 -138.59,0.35 -3.679,72.73 -3.59,6.37 -1.641,52.19 3.832,5.31 -1.332,22.31 -1.289,3.2 -1.762,53.32 2.973,4.49 0.469,33.56 c 66.949,66.52 239.84,178.43 239.84,178.43 z m 118.402,-10.11 16.129,-71.84 10.859,13.63 16.641,-5.31 1.14,16.56 15.149,5.36 -59.918,41.6 z m 550.668,-11.96 c -5.16,0 -9.3,-4.22 -9.3,-9.45 0,-5.23 4.14,-9.45 9.3,-9.45 5.15,0 9.33,4.22 9.33,9.45 0,5.23 -4.18,9.45 -9.33,9.45 z m -43.6,-5.89 c -5.15,0 -9.29,-4.26 -9.29,-9.46 0,-5.23 4.14,-9.45 9.29,-9.45 5.16,0 9.3,4.22 9.3,9.45 0,5.2 -4.14,9.46 -9.3,9.46 z m -533.939,-8.4 c -5.16,0 -9.34,-4.22 -9.34,-9.46 0,-5.19 4.18,-9.45 9.34,-9.45 5.109,0 9.289,4.26 9.289,9.45 0,5.24 -4.18,9.46 -9.289,9.46 z m 567.379,-5.67 -64.84,-61.91 18.2,0.78 3.24,-18.05 16.25,7.54 13.17,-12.3 13.98,83.94 z m 27.58,-20.82 c -5.16,0 -9.3,-4.22 -9.3,-9.45 0,-5.2 4.14,-9.45 9.3,-9.45 5.15,0 9.29,4.25 9.29,9.45 0,5.23 -4.14,9.45 -9.29,9.45 z M 662.5,1692.43 c -5.121,0 -9.301,-4.21 -9.301,-9.45 0,-5.19 4.18,-9.45 9.301,-9.45 5.16,0 9.34,4.26 9.34,9.45 0,5.24 -4.18,9.45 -9.34,9.45 z m 40.309,-7.89 c -5.11,0 -9.289,-4.21 -9.289,-9.45 0,-5.23 4.179,-9.45 9.289,-9.45 5.16,0 9.339,4.22 9.339,9.45 0,5.24 -4.179,9.45 -9.339,9.45 z m -36.559,-14.06 c 1.801,-25.27 4.691,-55.27 5.352,-80.58 l 12.308,12.26 14.18,-5.86 5.031,15.55 15.469,0.78 -52.34,57.85 z m 399.1,-21.09 c -5.12,0 -9.3,-4.22 -9.3,-9.46 0,-5.23 4.18,-9.45 9.3,-9.45 5.16,0 9.34,4.22 9.34,9.45 0,5.24 -4.18,9.46 -9.34,9.46 z m -425.819,-1.64 c -5.152,0 -9.301,-4.26 -9.301,-9.46 0,-5.23 4.149,-9.45 9.301,-9.45 5.16,0 9.297,4.22 9.297,9.45 0,5.2 -4.137,9.46 -9.297,9.46 z m 462.769,-2.31 c -5.15,0 -9.33,-4.26 -9.33,-9.45 0,-5.23 4.92,-9.45 9.33,-9.45 4.38,0 9.3,4.22 9.3,9.45 0,5.19 -4.18,9.45 -9.3,9.45 z m -5.54,-20.43 -53.71,-56.09 17.57,-1.68 5.55,-15.9 11.25,9.69 13.67,-10.16 5.67,74.14 z m 29.53,-12.03 c -5.16,0 -9.34,-4.22 -9.34,-9.45 0,-5.24 4.18,-9.45 9.34,-9.45 5.12,0 9.3,4.21 9.3,9.45 0,5.23 -4.18,9.45 -9.3,9.45 z m -423.712,-17.5 c -5.117,0 -9.297,-4.22 -9.297,-9.45 0,-5.2 4.18,-9.45 9.297,-9.45 5.152,0 9.332,5 9.332,9.45 0,4.45 -4.18,9.45 -9.332,9.45 z m -229.566,-7.65 -13.563,-10.55 c 11.172,-4.42 17.461,-13.91 17.461,-13.91 0,0 -1.519,5.59 -3.898,24.46 z m 273.629,-6.37 c -5.121,0 -9.301,-4.22 -9.301,-9.45 0,-5.2 4.18,-9.46 9.301,-9.46 5.16,0 9.339,4.26 9.339,9.46 0,5.23 -4.179,9.45 -9.339,9.45 z m -66.719,-13.48 c -5.152,0 -9.301,-4.22 -9.301,-9.45 0,-5.24 4.149,-9.45 9.301,-9.45 5.156,0 9.297,4.21 9.297,9.45 0,5.23 -4.141,9.45 -9.297,9.45 z m 384.808,-19.06 c -5.16,0 -9.34,-4.22 -9.34,-9.45 0,-5.2 4.18,-9.46 9.34,-9.46 5.15,0 9.29,4.26 9.29,9.46 0,5.23 -4.14,9.45 -9.29,9.45 z m -36.76,-13.87 c -5.16,0 -9.34,-4.22 -9.34,-9.45 0,-5.24 4.18,-9.45 9.34,-9.45 5.12,0 9.3,4.21 9.3,9.45 0,5.23 -4.18,9.45 -9.3,9.45 z m 375.23,-2.34 19.38,-21.33 0,-312.42 -18.91,-0.39 -0.47,334.14 z m -753.43,-2.19 c 15.781,-0.04 33.351,-2.34 38.941,-12.07 8.711,-10.9 -9.801,-6.68 -25.391,-9.06 -14.41,-1.8 -6.05,-4.77 14.258,-5.98 28.012,-1.68 39.024,-2.42 43.203,-8.94 2.34,-6.14 0.629,-10.24 1.129,-16.8 l -31.789,1.48 c -16.492,0 -26.172,0.32 -31.101,-0.93 -3.86,-1.02 -2.77,-4.18 -1.442,-5.55 0.703,-0.74 13.363,-0.9 28.16,-1.29 39.774,-1.05 48.602,-2.42 51.41,-15.43 2.114,-11.91 -7.457,-10.12 -48.32,-5.59 -18.207,1.53 -28.008,-2.81 -30.629,-4.14 -4.488,-2.22 13.012,-4.41 18.711,-3.47 3.559,0.54 29.809,-2.31 39.461,-4.14 8.117,-1.25 0.969,-1.02 -3.133,-6.06 -2.687,-4.14 -1.828,-8.94 -6.09,-11.29 -5.238,-2.77 -15.546,-2.73 -34.097,-2.73 -21.211,0 -31.102,-5.24 -2,-6.52 18.789,-0.83 19.89,-0.51 21.449,-6.02 4.262,-13.56 -4.77,-15.94 -23.949,-19.06 -9.172,-1.57 -22.77,-0.71 -33.039,0.04 -40.551,2.93 -54.571,12.77 -60.082,30.89 -20.43,67.7 4.8,109.03 63.871,112.35 3.277,0.15 6.828,0.31 10.469,0.31 z m 409.88,-3.05 -45.78,-67.61 17.65,6.99 8.4,-18.32 14.1,10.23 14.1,-8.86 -8.47,77.57 z m -342.619,-8.2 c 2.379,-2.93 1.328,-5.16 -2.621,-7.3 -3.281,-1.84 -8.941,-0.51 -12.691,1.13 -4.918,2.19 -5.43,11.09 -1.367,12.07 5.82,1.17 13.046,-1.56 16.679,-5.9 z m -331.722,3.44 -21.008,-23.24 c 0,0 19.371,7.03 29.719,11.17 l -8.711,12.07 z m 702.891,-10.35 c -5.15,0 -9.29,-4.26 -9.29,-9.5 0,-5.19 4.14,-9.45 9.29,-9.45 5.16,0 9.34,4.26 9.34,9.45 0,5.24 -4.18,9.5 -9.34,9.5 z m 340.98,-8.21 c 0,0 23.32,-23.39 32.89,-33.2 l -8.67,0.04 0.23,-18.44 27.62,-0.31 15.16,-15.08 -42.15,0.2 0,-18.83 52.19,-0.04 -0.28,8.05 20.63,-18.95 2.42,-209.49 -99.42,0.31 c -0.39,103.17 -0.11,202.62 -0.62,305.74 z m -682.231,-22.69 c -1.437,-4.53 -4.609,-4.53 -10.07,-2.31 -8.09,3.36 -6.918,12.39 -0.789,13.36 11.531,1.33 13.68,-4.06 10.859,-11.05 z m 31.289,-3.95 c -5.117,0 -9.289,-4.25 -9.289,-9.45 0,-5.23 4.172,-9.45 9.289,-9.45 5.16,0 9.34,4.22 9.34,9.45 0,5.2 -4.18,9.45 -9.34,9.45 z m -32.769,-7.26 c 3.633,-0.24 7.261,-2.11 9.301,-4.18 5.109,-5.24 3.32,-10.08 -2.391,-13.09 -6.399,-3.4 -10.899,1.21 -12.77,8.91 -1.25,5.19 1.762,8.2 5.86,8.36 z m 292.381,-24.81 c -5.15,0 -9.33,-4.22 -9.33,-9.49 0,-5.23 4.18,-9.49 9.33,-9.49 5.2,0 9.38,4.26 9.38,9.49 0,5.27 -4.18,9.49 -9.38,9.49 z m -307.811,-11.48 c 8.051,-0.28 10.473,-8.6 6.25,-13.09 -6.019,-6.01 -15.348,-3.44 -16.68,2.35 -0.429,6.48 4.801,10.74 10.43,10.74 z m 274.451,-3.83 c -5.15,0 -9.291,-4.26 -9.291,-9.49 0,-5.2 4.141,-9.46 9.291,-9.46 5.16,0 9.3,4.26 9.3,9.46 0,5.23 -4.14,9.49 -9.3,9.49 z m 33.09,-6.29 -41.682,-71.01 16.872,6.79 10.24,-13.67 10.51,9.34 15.93,-7.89 -11.87,76.44 z m -327.111,-11.87 c 7.461,-0.04 9.531,-5.98 4.101,-11.41 -3.672,-3.71 -7.851,-3.83 -12.07,-0.39 -6.449,5.19 -1.52,11.84 7.969,11.8 z m 356.331,-0.86 c -5.16,0 -9.34,-4.26 -9.34,-9.46 0,-5.23 4.18,-9.45 9.34,-9.45 5.11,0 9.29,4.22 9.29,9.45 0,5.2 -4.18,9.46 -9.29,9.46 z m -303.519,-7.46 c -5.121,0 -8.902,-4.22 -8.902,-9.46 0,-5.23 4.141,-9.45 9.293,-9.45 5.156,0 9.34,4.22 9.34,9.45 0,5.24 -4.571,9.46 -9.731,9.46 z m 690.629,-2.11 0,-20.08 52.54,-0.04 0,20.08 -52.54,0.04 z m -689.93,-17.82 -20.109,-74.61 16.828,9.73 10.512,-10.86 9.769,12.19 17.54,-4.65 -34.54,68.2 z m 35.79,-8.08 c -5.161,0 -9.34,-4.26 -9.34,-9.46 0,-5.23 4.179,-9.45 9.34,-9.45 5.109,0 9.289,4.22 9.289,9.45 0,5.2 -4.18,9.46 -9.289,9.46 z m -65.59,-3.83 c -5.16,0 -9.34,-4.22 -9.34,-9.45 0,-5.2 4.18,-9.46 9.34,-9.46 5.121,0 9.3,4.26 9.3,9.46 0,5.23 -4.179,9.45 -9.3,9.45 z m 719.69,-5.86 0,-18.05 52.54,0 0,17.93 -52.54,0.12 z M 1021.6,1342.4 c -5.15,0 -9.3,-4.26 -9.3,-9.46 0,-5.23 4.15,-9.45 9.3,-9.45 5.16,0 9.34,4.22 9.34,9.45 0,5.2 -4.18,9.46 -9.34,9.46 z m 432.31,-10.08 0,-19.42 52.54,0 0,19.42 -52.54,0 z m -1083.09,-2.39 18.481,-0.35 0.308,-338.4 -18.007,19.34 -0.782,319.41 z m -7.699,-0.66 -0.93,-309.3 -35,37.35 9.289,0.11 0,21.1 -30.269,0.23 -12.973,12.78 43.211,-0.04 0,20.7 -51.25,0.2 0,-12.54 -25.199,27.3 0.43,201.95 102.691,0.16 z m 659.849,-9.45 -28.048,-73.6 17.658,10.2 9.1,-9.1 9.45,8.63 16.02,-7.93 -24.18,71.8 z m -737.661,-3.52 -0.27,-19.8 51.762,0 0,19.8 -51.492,0 z m 769.421,-3.98 c -5.12,0 -9.3,-4.26 -9.3,-9.46 0,-5.23 4.18,-9.45 9.3,-9.45 5.15,0 9.33,4.22 9.33,9.45 0,5.2 -4.18,9.46 -9.33,9.46 z m -63.402,-1.06 c -5.117,0 -9.297,-4.25 -9.297,-9.45 0,-5.23 4.18,-9.45 9.297,-9.45 5.152,0 9.332,4.22 9.332,9.45 0,5.2 -4.18,9.45 -9.332,9.45 z m -219.18,-3.51 c -5.16,0 -9.296,-4.26 -9.296,-9.46 0,-5.23 4.136,-9.45 9.296,-9.45 5.153,0 9.332,4.22 9.332,9.45 0,5.2 -4.179,9.46 -9.332,9.46 z m 681.762,-7.66 0,-20.78 52.54,0 0,20.78 -52.54,0 z m -682.89,-11.72 -7.821,-12.22 -17.808,6.17 24.339,-74.69 30.469,77.89 -17.5,-10.16 -11.679,13.01 z m -485.711,-5.43 0,-19.76 51.492,0 0,19.76 -51.492,0 z m 1168.601,-17.73 0,-20.59 52.5,0 0,20.59 -52.54,0 0.04,0 z m -1168.601,-17.23 0,-19.8 51.492,0 0,19.8 -51.492,0 z m 736.991,-3.71 c -5.15,0 -9.33,-4.26 -9.33,-9.49 0,-5.27 4.18,-9.49 9.33,-9.49 5.16,0 9.38,4.22 9.38,9.49 0,5.23 -4.22,9.49 -9.38,9.49 z m -280.421,-9.88 c -5.16,0 -9.34,-4.26 -9.34,-9.49 0,-5.24 4.18,-9.5 9.34,-9.5 5.152,0 9.371,4.26 9.371,9.5 0,5.23 -4.219,9.49 -9.371,9.49 z m 59.762,-1.8 c -5.161,0 -9.34,-4.26 -9.34,-9.49 0,-5.24 4.179,-9.49 9.34,-9.49 5.199,0 9.379,4.25 9.379,9.49 0,5.23 -4.18,9.49 -9.379,9.49 z m 652.269,-1.33 0,-18.59 52.5,0 0,18.59 -52.54,0 0.04,0 z m -431.68,-8.67 -11.14,-11.87 -16.012,4.61 36.292,-68.68 18.32,73.87 -16.02,-10.35 -11.44,12.42 z m -736.921,-6.95 0,-22.5 51.492,0 0,22.5 -51.492,0 z m 486.062,-10.2 c -5.199,0 -9.383,-4.26 -9.383,-9.49 0,-5.27 4.184,-9.49 9.383,-9.49 5.149,0 9.328,4.22 9.328,9.49 0,5.23 -4.179,9.49 -9.328,9.49 z m -0.633,-19.57 c -3.976,-2.89 -5.738,-7.93 -9.879,-10.51 l -17.031,7.35 10.231,-93.48 47.269,88.36 -21.598,-3.71 -8.992,11.99 z m -485.429,-3.08 0,-23.36 51.492,0 0,23.36 -51.492,0 z m 773.481,-10.82 c -5.16,0 -9.38,-4.26 -9.38,-9.5 0,-5.23 4.22,-9.49 9.38,-9.49 5.16,0 9.33,4.26 9.33,9.49 0,5.24 -4.17,9.5 -9.33,9.5 z m -60.47,-1.1 c -5.16,0 -9.371,-4.26 -9.371,-9.49 0,-5.23 4.211,-9.49 9.371,-9.49 5.16,0 9.34,4.26 9.34,9.49 0,5.23 -4.18,9.49 -9.34,9.49 z m -713.011,-21.99 0,-23.4 51.492,0 0,23.4 -51.492,0 z m 746.721,-5.2 c -5.15,0 -9.33,-4.25 -9.33,-9.49 0,-5.23 4.18,-9.49 9.33,-9.49 5.2,0 9.38,4.26 9.38,9.49 0,5.24 -4.18,9.49 -9.38,9.49 z m 132.03,-0.74 c 50.08,-1.64 57.42,-18.01 57.74,-74.45 0.23,-45.08 -13.01,-62.66 -45.32,-71.369 -11.79,-3.16 -55.82,-0.23 -68.28,3.829 -0.23,3.87 -6.44,12.81 -7.85,19.69 3.17,0.94 13.24,-0.51 32.27,-2.35 15.47,-1.48 19.45,1.06 14.57,4.11 -29.07,6.99 -48.87,5.07 -76.76,10.5 -0.43,8.48 -7.15,18.36 -7.15,18.36 1.52,0.63 43.05,-3.94 64.92,-3.24 9.65,0.43 3.87,5.04 -0.08,5.86 -25.54,3.71 -42.14,3.13 -69.14,6.6 0.75,6.99 -2.77,13.36 -7.14,18.75 0,0 13.67,0.12 41.83,-0.31 14.85,-0.24 27.74,-0.86 34.22,-0.63 10.9,0 9.88,5.16 0.47,5.86 -11.52,1.29 -56.84,1.57 -56.84,1.57 3.36,1.6 7.78,22.18 6.06,22.42 0,0 11.72,-0.24 19.18,0.04 36.33,1.36 42.58,0.78 43.24,2.15 4.8,4.45 -8.09,6.17 -21.52,6.13 -5.78,0 -14.22,-1.29 -14.14,1.91 0.07,2.93 -0.08,8.95 -3.05,15.16 22.26,8.71 42.77,10.04 62.77,9.41 z m -431.79,-11.6 c -5.161,0 -9.379,-4.26 -9.379,-9.49 0,-5.24 4.218,-9.49 9.379,-9.49 5.152,0 9.332,4.25 9.332,9.49 0,5.23 -4.18,9.49 -9.332,9.49 z m 357.26,-1.99 c 6.17,0 8.13,-11.29 2.35,-13.05 -8.91,-2.69 -13.76,-0.58 -13.44,4.77 0.15,3.04 7.11,8.32 11.09,8.28 z m -296.171,-9.81 c -5.199,0 -9.379,-4.21 -9.379,-9.49 0,-5.23 4.18,-9.49 9.379,-9.49 5.161,0 9.34,4.26 9.34,9.49 0,5.28 -4.179,9.49 -9.34,9.49 z m 266.331,-10.62 c 21.17,0.19 10.19,-29.02 -6.06,-18.52 -8.08,5.24 -2.42,18.44 6.06,18.52 z m -334.729,-23.4 c -0.43,0.04 -0.66,-0.39 -0.582,-1.44 l 4.883,-88.83 50.898,82.97 -20.238,-7.62 -8.672,13.4 -10.941,-8.71 c -4.489,-3.6 -13.008,10.04 -15.348,10.23 z m 315.119,-9.06 c 9.49,-1.37 15.82,-11.02 9.22,-15.63 -14.85,-6.6 -22.78,14.96 -9.22,15.63 z m -22.81,-19.49 c -5.16,0 -9.38,-4.26 -9.38,-9.5 0,-5.27 4.22,-9.49 9.38,-9.49 5.15,0 9.33,4.22 9.33,9.49 0,5.24 -4.18,9.5 -9.33,9.5 z m 35.97,-8.05 c 8.09,0.12 11.88,-11.8 3.87,-15.55 -1.68,-0.78 -6.76,-1.36 -8.99,0.31 -9.45,7.08 -4.57,14.5 5.12,15.24 z m -350.189,-14.65 c -5.16,0 -9.379,-4.26 -9.379,-9.49 0,-5.24 4.219,-9.49 9.379,-9.49 5.148,0 9.328,4.25 9.328,9.49 0,5.23 -4.18,9.49 -9.328,9.49 z m 714.409,-11.91 -34.65,-11.8 0,-16.638 c 15.12,4.879 23.75,17.378 34.65,28.438 z m -324.84,-8.01 c 6.01,-2.58 7.65,-10.82 2.5,-13.59 -4.1,-2.19 -15.12,-1.881 -17.82,1.75 -6.99,11.37 8.05,14.61 15.32,11.84 z m -326.761,-3.28 c -5.16,0 -9.379,-4.26 -9.379,-9.49 0,-5.24 4.219,-9.502 9.379,-9.502 5.161,0 9.34,4.262 9.34,9.502 0,5.23 -4.179,9.49 -9.34,9.49 z m -38.32,-16.41 c -4.57,0 -8.238,-3.75 -8.238,-8.359 0,-4.653 3.668,-8.403 8.238,-8.403 4.57,0 8.242,3.75 8.242,8.403 0,4.609 -3.672,8.359 -8.242,8.359 z m 388.791,-14.14 c -5.16,0 -9.38,-4.219 -9.38,-9.489 0,-5.242 4.22,-9.492 9.38,-9.492 5.15,0 9.33,4.25 9.33,9.492 0,5.27 -4.18,9.489 -9.33,9.489 z m -418.908,-0.508 -0.473,-83.903 55.121,68.672 -19.101,-4.222 -8.199,17.031 -11.801,-7.809 -15.547,10.231 z M 1047.3,960.719 c -5.15,0 -9.33,-4.258 -9.33,-9.539 0,-5.231 4.18,-9.489 9.33,-9.489 5.16,0 9.34,4.258 9.34,9.489 0,5.281 -4.18,9.539 -9.34,9.539 z m 275.86,-0.36 -9.06,-15.66 25.67,14.492 -16.61,1.168 z M 1084.65,949.23 c -5.2,0 -9.38,-4.261 -9.38,-9.492 0,-5.226 4.18,-9.488 9.38,-9.488 5.15,0 9.33,4.262 9.33,9.488 0,5.231 -4.18,9.492 -9.33,9.492 z m 31.48,-10.23 -11.17,-16.211 -14.73,4.801 -4.37,-15.43 -17.66,0.668 57.46,-50.75 -9.53,76.922 z m -447.771,-6.488 c -5.199,0 -9.379,-4.25 -9.379,-9.492 0,-5.27 4.18,-9.489 9.379,-9.489 5.161,0 9.34,4.219 9.34,9.489 0,5.242 -4.179,9.492 -9.34,9.492 z m 859.841,-22.813 0,-689.84 -320.35,0 -134.49,189.063 c -2.77,30.387 -1.17,61.558 11.41,102.297 13.16,-9.207 41.99,-4.18 41.01,31.64 -0.66,23.481 -36.29,35.512 -54.06,17.86 0.94,22.652 10,56.75 23.05,66.832 8.98,-8.281 10.97,-20.539 31.25,-17.11 14.41,2.418 25.86,18.789 19.6,37.848 -1.6,4.813 -2.46,10.711 -2.46,14.652 0,3.911 0.39,10.899 -0.39,14.809 -0.97,5.191 -1.36,10.781 -1.36,10.781 149.72,34.61 280.27,126.598 386.79,221.168 z M 733.828,906.93 c -5.156,0 -9.379,-4.258 -9.379,-9.5 0,-5.231 4.223,-9.489 9.379,-9.489 5.152,0 9.332,4.258 9.332,9.489 0,5.242 -4.18,9.5 -9.332,9.5 z m -44.098,-9.258 c -5.16,0 -9.378,-4.262 -9.378,-9.492 0,-5.282 4.218,-9.532 9.378,-9.532 5.149,0 9.329,4.25 9.329,9.532 0,5.23 -4.18,9.492 -9.329,9.492 z m 462.81,-4.613 c -5.2,0 -9.38,-4.219 -9.38,-9.489 0,-5.242 4.18,-9.492 9.38,-9.492 5.16,0 9.34,4.25 9.34,9.492 0,5.27 -4.18,9.489 -9.34,9.489 z m -496.368,-10.118 -14.57,-88.402 63.668,66.102 -17.301,0.39 -3.438,15.078 -16.172,-5.32 -12.187,12.152 z M 1089.1,864.078 c -5.15,0 -9.33,-4.219 -9.33,-9.5 0,-5.226 4.18,-9.488 9.33,-9.488 5.2,0 9.38,4.262 9.38,9.488 0,5.281 -4.18,9.5 -9.38,9.5 z m 41.29,-10.277 c -5.16,0 -9.37,-4.262 -9.37,-9.492 0,-5.27 4.21,-9.528 9.37,-9.528 5.16,0 9.34,4.258 9.34,9.528 0,5.23 -4.18,9.492 -9.34,9.492 z m -513.87,-11.52 c -5.149,0 -9.372,-4.261 -9.372,-9.492 0,-5.277 4.223,-9.527 9.372,-9.527 5.16,0 9.339,4.25 9.339,9.527 0,5.231 -4.179,9.492 -9.339,9.492 z m 551.1,-7.191 -15.24,-11.762 -14.02,8.711 -3.28,-18.75 -11.96,-6.359 50.12,-35.668 -5.62,63.828 z m 37.03,-25.27 c -5.16,0 -9.38,-4.261 -9.38,-9.492 0,-5.238 4.22,-9.5 9.38,-9.5 5.15,0 9.33,4.262 9.33,9.5 0,5.231 -4.18,9.492 -9.33,9.492 z m -528.869,-3.211 c -5.191,0 -9.371,-4.25 -9.371,-9.488 0,-5.23 4.18,-9.492 9.371,-9.492 5.16,0 9.34,4.262 9.34,9.492 0,5.238 -4.18,9.488 -9.34,9.488 z m -41.562,-12.418 c -5.16,0 -9.34,-4.222 -9.34,-9.492 0,-5.23 4.18,-9.488 9.34,-9.488 5.16,0 9.371,4.258 9.371,9.488 0,5.27 -4.211,9.492 -9.371,9.492 z m 546.441,-25.082 c -5.15,0 -9.33,-4.25 -9.33,-9.488 0,-5.23 4.18,-9.492 9.33,-9.492 5.2,0 9.38,4.262 9.38,9.492 0,5.238 -4.18,9.488 -9.38,9.488 z m -39.18,-8.507 c -5.15,0 -9.37,-4.223 -9.37,-9.493 0,-5.238 4.22,-9.5 9.37,-9.5 5.16,0 9.34,4.262 9.34,9.5 0,5.27 -4.18,9.493 -9.34,9.493 z M 779.379,747.078 c 0.109,0 0.152,-0.039 0.152,-0.066 1.059,-1.141 4.297,-9.774 1.449,-14.184 -1.531,0.742 -8.25,7.07 -6.531,9.211 0.821,1.02 4.071,5.082 4.93,5.039 z M 567.148,732.199 c 0,0 9.063,-0.469 11.051,-1.328 0,-2.34 -2.179,-7.5 -4.648,-13.242 -12.18,-28.668 -14.063,-60.82 -1.672,-91.84 19.492,-42.07 74.41,-141.598 70.351,-150.699 l -121.41,-0.512 0.508,18.75 c 34.102,1.371 39.492,22.543 30.973,40.043 -5.891,12.109 -22.422,19.059 -37.531,12.699 -21.801,-9.179 -23.168,-20.121 -30.942,-37.109 l -3.476,4.488 c 6.558,8.832 8.75,17.313 8.199,26.992 -0.5,9.528 -0.821,6.879 2.469,12.11 18.98,20.711 6.558,47.699 6.558,47.699 -2.269,16.559 56.832,122.262 69.57,131.949 z M 289.57,729.512 c 34.489,-27.903 64.379,-121.84 62.578,-123.293 -1.597,1.332 -27.808,-30.149 0.43,-59.528 0,0 -1.719,-17.613 3.711,-26.679 -12.5,-26.25 -14.687,-28.242 -15.738,-49.84 -0.242,0.078 -2.153,0.269 -13.75,0.308 -57.192,0.282 -59.891,-73.55 -2.699,-77.621 7.808,-0.539 10.507,1.25 15.238,-3.468 4.762,-6.02 9.058,-12.071 17.219,-8.95 1.961,-0.043 5.121,-1.871 8.402,-4.961 5.469,-7.539 13.437,-12.929 24.84,-10.859 4.027,-0.391 8.168,-1.562 12.5,-3.16 5,-4.031 13.719,-7.07 20.508,-4.063 2.031,0.891 5.902,1.211 9.101,-0.277 8.25,-3.793 16.68,-1.402 19.77,0.981 7.66,4.058 9.371,-2.422 8.98,-8.403 -3.898,-13.668 4.692,-26.48 17.738,-31.48 27.461,-8.641 41.332,8.511 47.223,42.543 1.449,7.457 2.738,16.277 2.738,16.277 l 91.95,-2.418 -132.028,-154.762 -229.922,0 0,509.879 c 9.879,0.59 21.289,-0.226 31.172,-0.226 l 0.039,0 z m 826.88,-27.703 c 16.75,-6.559 18.12,-18.59 1.4,-13.399 -27.11,8.481 -56.33,-8.32 -62.42,-32.379 -1.09,-4.453 -2.31,-7.812 -3.01,-8.633 -3.79,-4.687 -3.59,-0.429 -2.46,12.93 2.19,25.891 20.24,44.684 43.79,45.461 7.7,-0.027 16.02,-1.641 22.7,-3.98 z m -8.33,-18.36 c 7.04,0 14.46,-2.07 20,-6.949 6.29,-7.031 4.42,-11.68 -0.42,-11.449 -22.74,9.648 -51.61,-2.031 -62.93,-31.129 -6.96,-17.852 -8.21,-8.281 -5.12,5.547 5.7,25.043 24.45,43.551 48.47,43.98 z m -158.042,-6.871 c -9.918,-0.039 -19.34,-2.039 -24.098,-6.648 -9.14,-8.75 -1.57,-8.86 14.961,-3.039 8.008,2.808 23.438,1.519 33.321,-1.961 8.277,-2.891 11.168,-4.141 10.699,-1.52 -0.43,7.891 -18.359,13.199 -34.883,13.168 z M 1135.35,647.32 c 4.18,-9.691 1.49,-26.8 -13.12,-28.558 -17.23,-2.032 -26.14,27.269 5.31,22.148 -4.06,11.719 -18.16,8.481 -25.16,5.512 -14.18,-6.293 -23.83,-20.473 -32.54,-46.492 -2.57,-7.692 -4.49,-11.711 -5.46,-10.93 -1.65,1.289 -2.43,13.281 1.36,27.691 6.84,26.02 23.52,41.719 41.21,42.231 11.45,1.797 24.77,-3.16 28.4,-11.602 z m -246.401,11.289 c -1.527,-0.347 1.172,-5.781 5.352,-14.3 2.301,-4.688 3.859,-10.778 3.859,-11.95 0,-4.609 3.481,-5.75 8.602,-2.82 5.937,3.441 6.867,6.02 15.226,2.231 7.891,-4.219 15.672,-6.872 22.891,-2.622 3.91,2.352 6.492,2.231 14.031,0.204 9.02,-2.383 10.231,-2.774 16.949,0.078 8.59,3.672 18.832,1.172 21.02,-1.289 2.07,-2.352 0.851,0.898 5.501,11.91 2.19,5.078 5.32,11.289 4.46,13.051 -1.18,2.339 -8.988,-0.274 -17.539,-2.543 -4.61,-1.207 -9.031,-0.86 -17.852,1.679 -18.679,5.352 -30.429,3.793 -42.109,-1.84 -6.531,-3.117 -22.891,1.211 -39.461,8.051 -0.391,0.16 -0.738,0.231 -0.93,0.16 z m 36.711,-50.711 c -8.43,0.122 -16.051,-5.226 -19.57,-12.648 -4.02,-10.238 2.859,-28.75 13.359,-30.32 9.379,-1.399 9.031,4.379 4.301,5.941 -7.109,2.391 -15.512,12.738 -10.078,21.758 3.707,6.172 15,6.133 22.808,-1.481 15.821,-15.386 33.911,-16.41 37.309,-3.046 1.051,5.308 -2.969,12.418 -9.141,10.507 -4.769,-1.531 -15.777,-1.961 -25.039,4.411 -4.769,3.281 -9.531,4.808 -13.949,4.878 z m 166.68,-48.82 c 40.32,2.461 22.97,-53.437 -0.27,-39.066 -8.32,5.117 -4.61,23.949 17.46,23.597 -21.68,17.11 -36.44,-3.75 -31.13,-27.148 -4.85,-7.621 -6.21,-22.191 -9.42,-30.43 -4.88,-9.383 -8.75,15.231 -3.78,39.02 4.8,23.051 12.89,33.168 27.14,34.027 z m -227.93,-1.957 c -8.32,-0.082 0.238,-9.18 1.531,-10.269 25.11,-19.961 37.379,-32.34 17.18,-25.743 -32.812,7.93 -41.242,-1.488 -66.242,-12.699 -4.578,-2.23 -5.859,-0.82 -11.41,0.82 -21.949,6.598 -20.309,-7.378 2.621,-20 34.609,-19.019 63.199,-23.32 90.109,-9.058 17.313,9.18 18.172,3.156 2.11,-6.953 -27.539,-16.328 -56.52,-13.828 -101.008,14.293 -14.379,9.066 -16.371,3.008 -1.68,-6.563 33.59,-20.59 78.828,-39.258 115.777,-8.871 7.262,6.57 8.711,9.961 14.332,7.113 14.77,-7.461 9.891,5.547 -0.152,17.848 -3.558,4.34 -6.207,7.859 -5.976,10.789 0.82,10.66 -4.961,10.621 -10.274,10.352 -6.328,-0.321 -5.629,1.832 -13.398,10.5 -11.328,12.66 -25.2,26.179 -33.52,28.441 z M 529.059,500.48 c -13.938,-1.128 -17.149,-1.761 -13.75,-30.781 0.632,-5.429 3.05,-21.801 3.711,-27.929 8.281,-75.981 1.57,-109.571 -19.29,-118.872 -7.5,-3.359 -14.89,-2.136 -20.39,0.122 -13.168,5.351 -18.641,21.601 -9.031,40.98 2.582,5.23 5.711,13.281 6.961,17.93 1.25,4.679 4.058,14.879 6.21,22.73 5.231,19.02 8.079,48.012 5,75.699 -2.109,18.789 -1.64,20.403 2.969,33.051 10.153,18.75 16.672,28.36 38,28.602 23.871,-2.543 30.551,-39.223 -0.39,-41.532 z m 512.821,1.68 -6.57,-0.308 c -7.85,26.558 -24.26,17.968 -26.99,-0.704 l -5.55,0.071 c 0.98,35.472 44.65,25.82 39.11,0.941 z m -612.97,19.809 c 44.531,-4.457 52.649,-15.707 56.168,-70.321 0.313,-26.437 -1.406,-42.378 -5.43,-48.386 -6.636,-3.25 -13.046,2.808 -22.539,-3.293 -5.23,-3.239 -4.218,-3.59 -6.488,-0.071 -2.101,3.321 0.359,17.262 3.789,28.391 3.25,10.633 -2.34,16.801 -17.07,30.43 -4.02,3.679 -7.5,8.793 -11.09,16.101 -7.66,20.899 -11.559,11.719 -5.16,-6.289 3.129,-7.769 3.871,-11.601 -5.699,-8.281 -5.661,1.988 -10.59,-0.352 -14.961,-2.699 -12.231,-3.16 -22.731,3.629 -12.149,7.699 6.449,2.461 18.008,6.09 21.598,6.051 2.621,0 3.871,0.59 3.871,1.84 0,5.23 -23.551,4.648 -41.559,-1.641 -22.07,-10.32 -23.363,-8.48 -21.293,7.578 5.153,40.703 42.5,45.66 78.012,42.891 z m 435.621,-3.559 c 11.41,0.551 21.84,-12.73 19.77,-23.98 l -5.391,0.351 c -2.582,21.168 -22.308,22.071 -27.539,-1.64 l -7.82,-0.161 c 4.969,18.282 13.211,25.079 20.98,25.43 z m 132.457,-0.43 c 4.492,-2.691 1.371,-10 -3.437,-11.48 -1.789,-0.469 -7.531,3.59 -6.172,6.051 2.582,2.969 6.531,4.527 9.609,5.429 z m 51.022,-3.589 c 3.16,0 7.22,-1.602 7.77,-5.903 0.16,-6.25 -4.53,-4.957 -6.09,-4.379 -3.09,2.93 -4.26,10.039 -1.68,10.282 z m -156.131,-5 c 8.351,-0.981 11.359,-11.641 1.91,-12.313 -4.258,-0.898 -4.449,9.774 -1.91,12.313 z m -50.828,-1.172 c 1.019,0 -0.539,-8.75 -2.61,-10.039 -4.14,-2.539 -9.421,0.23 -9.222,2.89 0.472,6.289 8.011,7.192 11.832,7.149 z m 145.711,-21.207 c 15.898,-6.141 36.598,-12.082 56.048,-5.16 7.11,2.687 12.78,5.937 12.78,2.886 0,-3.199 -5.67,-8.047 -15.82,-10.937 -20.94,-5.973 -36.1,-3.672 -50.508,7.308 -4.063,3.082 -5.473,5.93 -2.5,5.903 z m -6.563,-9.153 c 25.821,-15.269 49.101,-16.789 70.071,-5.66 8.48,3.012 8.75,0.27 8.71,-5.269 -37.77,-33.668 -84.96,1.289 -78.781,10.929 z M 346.879,454.578 C 340.512,441.5 337.07,409.23 326.602,399.66 c -71.293,4.18 -25.43,99.61 20.277,54.918 z m 441.75,10.711 c -4.02,-2.148 -0.469,-12.43 5.902,-15.199 54.528,-23.789 82.457,-26.641 113.481,-15.66 12.847,4.531 19.879,15.191 20.508,20.351 0.742,6.168 -7.54,6.797 -22.071,0.231 -44.219,-17.582 -71.961,-3.864 -107.621,9.769 -3.316,1.289 -6.68,1.719 -10.199,0.508 z m -208.75,-0.75 -0.188,-80.66 -51.921,0.941 0.589,11.91 38.871,-1.128 -0.628,57.617 -45.082,0.429 -0.071,10.661 58.43,0.23 z m 12.031,-0.187 51.84,-0.082 2.578,-8.2 -54.418,0 0,8.282 z m -208.98,-25.59 c -3.399,-3.121 -9.379,-3.793 -11.801,-1.293 -5.469,5.633 0.082,15.941 8.832,15.859 8.75,-0.039 9.488,-8.629 2.969,-14.566 z m 23.871,13.09 c 7.808,-0.043 10.429,-7.422 4.449,-13.442 -4.02,-3.711 -6.09,-3.98 -9.73,-1.25 -4.571,4.102 -2.18,14.449 5.281,14.692 z m -51.141,-1.993 c 2.07,0.071 3.871,-0.121 5.199,-2.187 4.762,-9.922 -10.859,-16.762 -14.14,-9.383 -2.379,5.981 3.672,11.371 8.941,11.57 z m 292.969,-1.058 3.012,-10.391 -59.731,-0.269 0,10.39 56.719,0.27 z m -213.707,-3.012 c 8.867,-1.09 7.5,-10.148 3.398,-14.211 -7.109,-6.68 -13.98,-4.5 -12.191,4.453 1.141,5.617 4.691,9.649 8.793,9.758 z M 386.91,416.031 c -3.16,-11.332 3.559,-34.34 1.531,-36.722 -4.339,-5.231 -11.332,-2.579 -14.461,-0.778 -10.781,7.028 -11.441,48.278 -1.011,50.739 6.722,-3.442 11.211,2.699 14.261,3.558 3.079,0.891 1.008,-4.726 -0.32,-16.797 z m 157.82,16.949 c 5.86,0 10.622,-4.839 10.622,-10.82 0,-5.98 -4.762,-10.82 -10.622,-10.82 -5.902,0 -10.671,4.84 -10.671,10.82 0,5.981 4.769,10.82 10.671,10.82 z m 47.18,-1.402 61.102,0 c 3.668,-5.156 3.277,-8.68 2.258,-12.226 l -63.36,-0.082 0,12.308 z m -179.332,-1.406 c 2.774,0.039 4.184,-6.024 2.301,-12.934 -3.359,-12.5 -3.199,-29.527 -0.899,-36.879 1.571,-5.109 3.09,-8.589 2.192,-10.031 -3.16,-5.078 -12.852,-1.609 -16.953,5.07 -10.039,18.872 -8.438,54.114 3.551,51.372 4.5,-2.258 7.07,1.289 9.808,3.402 z m -53.867,-4.774 c -2.93,-4.757 -0.82,-31.597 -1.133,-33.82 -0.387,-2.777 -7.93,-1.328 -12.148,0.582 -10.352,4.961 -7.539,17.5 -5.508,27.621 2.226,7.93 7.226,8.508 13.398,9.258 3.399,0.391 7.852,0.07 5.391,-3.641 z m 83.09,-1.437 c 3.32,0.117 3.75,-2.352 3,-12.313 -0.582,-7.769 -0.852,-14.41 0.398,-21.718 2.653,-15.578 2.961,-19.801 -0.898,-22.891 -4.571,-3.59 -10.75,-2.5 -15.512,1.762 -9.809,7.89 -10.469,46.558 -2.769,49.918 7.14,-1.789 11.679,3.953 15.781,5.242 z m 210.929,-11.723 -8.781,-12.226 -52.07,0 0,12.187 60.82,0.039 0.031,0 z M 467.07,395.871 c 8.129,-0.109 6.801,-14.691 2.418,-23.832 -3.707,-5.539 -6.437,-6.09 -11.988,-0.93 -6.328,5.903 1.172,24.801 9.57,24.762 z m 170.469,-4.101 -7.309,-6.801 -38.199,-0.039 0,6.761 45.508,0.079 z"
         inkscape:connector-curvature="0"
         id="path30"
         style="fill:#131f67;fill-opacity:1;fill-rule:nonzero;stroke:none" /><path
         d="m 381.949,682.898 -63.277,50.364 c 75.277,1.668 150.547,-0.082 225.777,-1.371 l -75.148,-54.379 c -15.391,17.066 -24.5,40 -46.332,51.058 -16.25,-6.84 -27.379,-30.308 -41.02,-45.672 z m 552.11,18.321 c -1.758,1.101 -2.848,3.562 -4.137,11.679 -18.793,88.954 -111.133,82.622 -110.512,80.043 -0.699,3.481 114.77,109.34 182.66,192.348 20.51,-63.437 82.7,-208.398 80.12,-207.891 0,0 -18.01,-0.16 -64.65,1.012 -42.462,-19.449 -71.989,-38.398 -70.63,-65.82 -0.23,-9.692 -2.531,-13.711 -5.699,-12.852 -2.539,0.274 -4.84,0.981 -7.152,1.481 z M 1144.49,986.73 c 60.08,0.942 71.41,30.74 78.24,34.34 39.46,6.56 63.83,-19.49 81.14,-47.39 22.07,-13.508 19.33,-1.051 23.9,20 l 54.96,16.33 -0.07,-17.772 c -16.96,-9.258 -42.15,-33.047 -42.15,-33.047 l -16.76,1.02 -9.57,-13.012 c -38.2,-20.98 -75.66,-45.937 -115.94,-62.148 0,0 -48.24,63.32 -53.75,101.679 z m -748.47,-5.582 -0.629,351.642 c 24.839,1.79 70.629,1.56 70.629,1.56 19.101,34.26 45.191,50.39 72.07,70.27 3.789,-43.32 5.23,-84.72 4.371,-128.08 -71.211,-88.21 -110.742,-196.8 -66.84,-359.028 l -26.359,2.968 -53.242,60.668 z m 393.39,-19.687 c 20.281,73.319 36.02,147.729 42.539,224.569 l 135.551,2.07 2.699,-47.11 L 789.41,961.461 z m 461.49,160.119 -2.54,131.56 c 98.91,119.96 104.76,224.57 68.09,356.79 32.69,-7.61 49.49,-33.47 80.62,-69.1 l 0,-343.08 c -21.64,-3.28 -75.27,-6.49 -75.27,-6.49 -1.6,-16.09 -46.92,-54.49 -70.94,-69.68 l 0.04,0 z m -418.83,207.34 -6.019,58.01 176.099,170.74 c -14.529,-73.99 -32.111,-149.96 -37.228,-228.71 l -132.852,-0.04 z m -292.191,181.21 c -12.578,-8.36 -58.899,40.51 -66.481,73.36 11.641,15.94 113.59,66.64 113.59,66.64 0,0 59.571,-77.62 57.153,-110 -26.442,-7.15 -49.411,-9.18 -69.532,-31.09 -11.488,-1.06 -15.507,12.07 -34.73,1.09 z m -80.43,65.66 c 14.18,-2.34 5.121,-21.75 2.93,-35.97 l -74.957,-22.54 c 25.777,22.3 44.058,41.29 72.027,58.51 z m 244.031,171.64 c 15.391,0.47 31.442,-5.97 43.321,-1.09 4.449,1.76 13.32,4.45 23.039,2.58 22.43,-7.03 30.281,18.05 44.539,18.12 18.473,-0.03 28.742,13.09 28.859,39.38 0.082,11.37 0.981,12.66 3.09,13.79 6.293,3.36 13.051,-1.37 13.871,-7.62 13.242,-48.4 46.711,-91.91 99.492,-88.48 -42.031,-43.43 -169.851,-177.1 -169.851,-177.1 -23,71.21 -53.59,137.5 -86.36,200.42 z m 543.75,41.72 76.99,56.72 46.09,-56.91 39.85,54.18 c 23.39,-17.03 76.64,-55 76.64,-55 0,0 -159.69,-2.38 -239.57,1.01 z"
         inkscape:connector-curvature="0"
         id="path32"
         style="fill:#d40000;fill-opacity:1;fill-rule:nonzero;stroke:none" /><path
         d="m 1290.9,2303.33 -707.74,-4.61 137.539,-186.48 c 146.102,30.19 273.321,10.59 405.321,-12.81 l 164.88,203.9 z m -18.09,-9.45 -47.11,-59.41 c -13.04,11.95 -42.11,7.61 -38,-18.56 -36.1,19.06 -43.75,-33.24 -13.13,-31.09 -3.83,-10.28 -34.77,-12.97 -43.52,5.66 -31.75,-18.08 -41.48,-0.55 -49.88,10.86 40.39,-27.85 60.04,29.34 15.59,32.58 17.46,35.86 -44.85,52.11 -41.17,5.47 -41.06,9.45 -31.64,-49.22 -1.49,-37.23 -19.57,-29.88 -51.76,-9.8 -58.241,-3.98 -16.519,-12.58 -47.769,-12.97 -56.519,7.15 45.699,-9.34 40.699,51.75 0.07,37.69 21.641,46.95 -50.351,40.63 -32.851,2.19 -40.969,1.56 -31.911,-49.69 4.101,-40.98 -31.988,-30.58 -55.93,-2.07 -60.969,-1.48 -18.953,-21.17 -52.152,-9.57 -56.722,2.97 32.582,-13.09 43.281,42.5 2.191,39.18 10.5,35.82 -48.64,40.15 -35.59,-0.51 -32.582,7.46 -34.34,-45.51 2.149,-37.27 2.261,-14.49 -26.449,-28.4 -44.141,-14.37 -12.93,-7.19 -27.148,-18.4 -43.988,-1.8 25.672,4.18 29.93,48.28 -11.559,38.75 1.949,27.03 -13.359,28.52 -32.261,21.64 l -30.282,41.68 673.322,0.86 z M 784.57,2227.4 c -2.269,-5.04 -6.05,-8.48 -5.16,-12.31 0.711,-3.16 3.91,-7.54 8.36,-13.44 35.39,-46.87 107.191,-45.31 128.789,3.01 4.421,8.99 3.519,11.02 -1.789,18.63 -6.411,9.22 0.82,19.07 8.671,18.21 11.68,-1.21 13.707,-11.57 8.079,-18.95 -12.219,-15.62 21.371,-50.94 54.851,-56.48 42.969,-7.11 83.709,23.55 78.039,51.01 -0.35,1.6 -1.13,3.05 -1.44,4.69 -4.57,23.01 31.37,11.99 18.44,-2.66 -4.89,-5.31 -7.5,-6.87 -6.84,-12.69 10.43,-48.71 68.75,-53.83 96.52,-38.79 -35.82,-59.34 -92.61,-13.63 -102.57,27.85 -50.36,-73.75 -110.821,-58.44 -144.5,6.41 3.992,-4.06 -66.399,-116.21 -146.25,-1.21 -33.821,-92.58 -95.469,-30 -91.25,-26.21 28.32,-16.02 79.769,-10.2 84.73,39.29 0.66,6.14 -3.91,6.49 -6.559,11.33 -13.363,24.45 29.84,24.65 19.879,2.31 z m -133.09,-6.06 c 6.411,-0.62 7.469,-3.32 6.411,-9.92 l -6.411,9.92 z m 549.22,-17.42 -9.29,-11.8 c -2.19,5.78 -2.27,11.06 9.29,11.8 z m 100.9,-3.91 c -22.03,-0.93 -39.02,-31.83 -37.93,-73 0.55,-19.97 4.03,-70.08 5.35,-77.54 1.88,-10.43 -0.15,-24.57 -3.79,-26.06 -9.49,-3.9 -13.08,-6.44 -15.66,-11.05 -6.68,-12.03 -1.17,-25.55 12.93,-31.64 10.08,-4.34 22.81,1.64 31.45,14.72 4.8,7.27 5.93,10.51 10.15,28.75 1.95,8.4 1.8,22.35 -0.43,35.16 -5.08,29.1 -1.33,65.31 8.56,82.34 17.65,30.51 17.3,50.51 -0.94,56.8 -3.32,1.13 -6.56,1.64 -9.69,1.52 z m -1.17,-4.65 c 25.62,-0.11 24.96,-26.05 10.74,-34.02 -5.51,-2.5 -12.22,-3.08 -18.98,1.41 -7.54,4.41 -6.53,-0.63 1.33,-6.41 9.18,-6.8 13.08,-6.37 8.16,-22.26 -4.61,-14.77 -7.03,-46.76 -4.53,-64.93 6.91,-49.72 1.09,-74.49 -19.53,-83.12 -10.16,-4.26 -21.14,1.76 -23.95,10.04 -4.41,12.93 3.44,24.06 22.85,20.97 0,0 1.37,4.11 -3.67,47.27 -7.03,60 -4.26,101.91 6.6,116.56 5.78,7.81 13.28,14.53 20.98,14.49 z m 173.83,-61.87 c -5.98,-0.08 -12.42,-1.72 -19.03,-5.47 0,0 -0.7,-26.99 -1.48,-31.09 -4.34,-22.82 -3.09,-25.55 7.42,-28.79 25.43,-7.85 46.33,9.26 45.39,36.13 -0.54,15.08 -14.33,29.34 -32.3,29.22 z m 3.44,-3.63 c 13.9,0.43 26.52,-16.06 25.15,-31.6 -0.74,-18.6 -18.28,-28.75 -33.98,-25.51 -4.65,0.7 -9.46,1.6 -10.94,5.15 -3.16,4.93 1.91,6.72 12.46,6.68 11.56,-0.07 13.71,1.57 17.58,8.13 7.62,13.05 -2.15,29.57 -14.57,26.48 -4.22,-1.09 -4.85,-3.01 0.12,-4.45 15.23,-6.95 9.57,-16.64 4.29,-20.59 -6.29,-4.68 -16.68,1.72 -18.43,5.63 l 1.05,25.15 c 0,0 5.04,4.81 17.27,4.93 z m -156.76,-116.72 c 0,0 -5.78,-2.81 -8.6,-5.43 -6.13,-5.74 -7.42,-14.45 -4.41,-23.05 1.33,-3.79 1.13,-4.41 -3.55,-10.62 -13.33,-17.58 -15.04,-26.37 -8.21,-42.27 3.09,-7.19 3.13,-7.19 0.2,-16.72 -12.54,-40.9 -37.31,-87.22 -63.75,-119.33 -4.1,-4.96 -5.74,-10.04 -5.74,-10.04 0,0 6.21,0.31 9.64,2.07 27.31,13.79 56.18,40.51 82.97,58.04 -42.42,-34.92 -87.61,-66.21 -87.61,-66.21 l 57.73,-3.12 c -14.49,-15.08 -267.58,-232.78 -200.39,-623.2 79.02,19.92 115.78,53 157.89,91.28 0.39,-31.48 1.09,-116.13 1.33,-116.13 0.82,1.37 -36.53,14.26 -27.66,-16.95 5.27,-17.11 7.97,-60.47 -1.4,-84.92 -0.4,-1.06 4.02,-2.7 3.59,-3.68 -0.51,-1.09 -6.02,-1.09 -6.02,-1.09 -14.33,-27.192 -51.29,-33.122 -69.49,-32.301 -6.72,0.621 -4.02,-8.707 -3.12,-12.071 3.39,-13.988 19.25,-43.949 48.9,-92.039 l 7.81,-1.05 -4.53,-4.219 c 3.52,-6.481 12.86,-18.668 12.86,-18.668 l 0.42,-4.102 c 0,0 16.25,-23.011 25,-33.789 0.59,-0.742 1.96,1.008 2.54,0.27 4.85,-5.903 10.67,-12.539 15.59,-18.442 0.39,-0.429 -0.78,-2.097 -0.39,-2.531 9.3,-10.277 27.5,-31.019 27.5,-31.019 l 3.63,0.902 14.34,-16.41 c 118.9,54.879 243.16,176.328 241.87,176.058 l 1.02,261.321 -140.78,0.43 -0.63,346.18 140.67,-141.14 -0.94,40.51 c -31.88,30.78 -160.08,162.07 -160.08,162.07 18.63,2.66 36.72,8.79 54.22,18.44 30.59,-17.07 63.28,-27.34 100.74,-22.27 l -0.15,38.4 c -42.5,0.08 -68.91,14.38 -87.97,31.64 l -26.29,0.9 c -48.52,-37.42 -82.81,-20.08 -119.69,-12.69 l -25.51,37.26 261.21,1.37 -1.87,90.47 -39.65,-0.86 -25.78,19.33 29.92,-12.85 c 0,0 -0.47,5 -6.48,14.46 -16.1,26.71 -36.53,66.01 -48.75,100.31 -5.94,17.38 -5.94,16.68 -0.94,26.87 6.87,14.03 5.39,30.98 -3.67,40.55 -6.37,6.72 -6.18,8.16 -4.07,13.16 8.48,19.85 -11.99,27.15 -12.07,25.9 -43.75,-17.15 -102.46,0.51 -101.4,1.02 z m 101.79,-7.19 c 8.72,0.08 9.69,-3.83 9.65,-10.43 -0.74,-12.11 -16.29,-16.48 -23.28,-18.16 -33.59,-7.82 -92.11,-3.21 -95.9,12.69 -2.81,11.68 4.38,18.17 28.21,12.38 38.32,-8.35 62.03,0.63 81.32,3.52 z m -108.35,-33.71 c 3.47,0 7.65,-3.59 8.86,-9.45 1.02,-5.04 -4.14,-19.81 -8.44,-23.21 -10.66,-8.43 -20.31,4.65 -13.16,18.95 4.1,8.2 8.28,13.67 12.74,13.71 z m 114.53,-1.68 c 1.6,-0.04 4.45,-0.35 6.29,-1.68 8.47,-6.09 9.25,-27.11 1.32,-30.12 -8.04,-3.08 -15.5,5.43 -15.43,18.79 0,8.17 3.05,13.13 7.82,13.01 z m -26.84,-4.34 c 1.72,0.08 3.55,-0.27 5.43,-1.17 7.03,-3.28 10.43,-25.31 3.48,-32.34 -5.43,-5.47 -17.07,-5.16 -20.47,6.17 -4.06,13.52 2.26,26.88 11.56,27.34 z m -59.53,-0.62 c 10.31,-0.08 12.66,-23.36 2.58,-32.93 -8.44,-8.01 -21.33,-0.12 -17.31,15.78 2.03,7.93 6.68,16.6 14.73,17.15 z m 29.34,-3.71 c 15.07,-2.62 13.82,-40.12 -5.98,-36.41 -11.25,8.01 -10.94,35.86 5.98,36.41 z m -66.02,-40.2 21.37,-1.99 c -0.59,0.31 -33.99,-71.68 -63.83,-90.74 16.4,27.73 30.78,60.82 42.46,92.73 z m 127.93,-0.39 c 12.46,-33.71 25.27,-67.97 42.26,-102.46 -25.85,25.31 -48.75,64.18 -69.88,100.7 l 27.62,1.76 z m -100.31,-3.24 14.1,-0.16 c 4.72,-21.83 12.85,-35.78 22.42,-47.73 8.28,14.18 13.52,29.8 18.59,46.41 l 11.21,0.15 c 4.3,-2.58 -13.2,-68.44 -30.35,-76.44 -18.12,14.96 -33.43,55.43 -35.97,77.77 z m -5.98,-15.59 c -1.17,-1.56 21.95,-57.96 41.52,-76.05 18.44,18.16 30.2,42.07 38.09,70.59 l 60.66,-86.41 -59.14,41.09 c -11.79,-19.92 -24.33,-38.9 -39.37,-54.72 -16.25,17.81 -30.31,38.94 -45.04,59.06 -22.81,-17.19 -38.83,-35.51 -68.44,-51.52 0.16,-0.67 58.05,63.43 71.72,97.96 z m -5.66,-61.4 41.25,-51.21 -109.85,1.6 68.6,49.61 z m 89.37,-0.82 69.3,-48.44 -103.28,-1.09 33.98,49.53 z m -552.382,-23.83 c 0,0 0.582,-3.09 1.293,-4.92 12.301,-50.94 46.25,-93.32 97.301,-88.28 L 789.57,1552.9 c 0,0 -27.73,95.47 -83.871,193.32 0,0 10.242,-2.11 18.25,-3.71 7.5,-1.17 13.199,-0.78 18.821,0.71 4.261,0.62 7.582,3.51 11.41,4.33 6.441,1.37 14.57,-0.97 18.91,-2.5 11.519,-2.22 19.371,4.34 33.789,17.27 3.859,3.44 5.312,2.61 10.152,2.61 18.09,-0.07 29.649,15.71 27.617,40.12 l -0.937,10.86 -2.262,-12.19 c -4.34,-23.04 -7.347,-32.96 -29.769,-33.9 -5.469,-0.28 -7.5,-3.95 -16.09,-11.45 -12.039,-10.51 -20.512,-11.4 -29.07,-7.3 -8.668,4.18 -9.489,1.72 -17.692,-2.23 -9.418,-4.57 -23.09,-4.02 -35.43,-0.43 -17.226,5 -15.117,3.32 -15.117,3.32 99.77,-180.19 134.809,-353.05 132.578,-506.56 -3.129,-218.79 -78.558,-395.35 -144.687,-501.799 0,0 11.367,1.168 21.449,2.66 4.879,1.399 8.629,0.078 13.43,-1.64 4.539,-1.602 7.898,-1.532 12.308,-1.02 3.442,0.391 11.84,-0.082 17.262,-0.859 12.27,-1.793 13.09,-0.153 26.449,13.008 37.93,37.421 35.469,36.019 62.969,35.121 41.211,-1.371 74.18,-28.95 87.93,-73.75 1.761,-5.629 4.019,-13.602 4.332,-13.602 l -2.692,11.883 c -12.07,60 -62.621,81.988 -104.839,81.168 l 178.2,181.371 c -0.94,-0.199 41.29,-138.012 78.05,-199.422 0.07,-0.43 -11.14,4.891 -31.64,2.191 -11.14,-1.441 -23.64,0.04 -30.63,1.25 -9.02,0.239 -14.49,-2.46 -25.699,-11.871 -4.692,-4.031 -8.871,-8.48 -18.012,-12.39 -21.68,-9.289 -30.309,-18.899 -30.43,-43 0,-4.379 -0.66,-10 -0.589,-12.188 0,-0.551 0,-1.601 0.121,-1.601 0.347,0 0.859,0.898 1.289,1.519 1.09,1.602 3.242,5.981 4.961,16.09 2.968,18.051 6.718,24.34 23.558,32.352 5.031,2.379 15.66,8.937 20.391,12.73 15.5,12.578 20.7,15.43 33.28,12.457 7.15,-1.68 13.24,-2.566 22.85,-1.359 11.44,1.402 12.11,1.992 24.33,-1.207 8.32,-2.192 18.56,-4.301 18.56,-4.301 -172.7,352.069 -166.989,678.439 3.48,1009.569 0,0 -50.47,-0.63 -52.62,-1.95 -0.82,-0.51 -6.95,0.07 -13.63,1.28 -13.71,2.5 -10.71,0.82 -43.129,-32.26 -40.082,-40.86 -104.18,-8.24 -123.481,60.35 -0.968,3.59 -1.871,5.74 -3.39,8.28 -0.469,0.82 -1.762,2.19 -1.762,2.19 z m 163.282,-40.27 c 7.42,-0.79 12.97,-2.78 12.03,-9.85 l -237.851,-236.4 -3.711,15.23 229.532,231.02 z m 50.16,-1.41 c -2.93,-5.9 -10.86,-13.24 -14.34,-18.79 l 12.93,-16.33 -7.19,-13.2 -19.88,16.99 -37.85,-37.93 31.56,-35.97 -29.88,-30.63 -9.96,11.45 15.78,16.79 -24.53,23.32 -43.25,-42.65 35.238,-36.37 -25.859,-25.16 -10.309,9.92 13.551,15.2 -22.972,24.1 -40.27,-41.68 31.871,-36.01 -24.609,-24.81 -10.93,11.25 11.828,12.5 -22.769,24.22 -41.051,-41.05 33.281,-36.68 -24.461,-22.19 -8.629,9.26 11.84,12.89 -22.39,24.29 -25.469,-23.43 -4.211,16.09 251.87,253.98 21.06,0.63 z m 14.53,-3.79 -10.63,-21.6 -8.2,9.14 10.7,11.17 8.13,1.29 z m -594.101,-1.37 c -6.527,-1.64 -156.488,-86.44 -241.879,-179.49 l -0.23,-34.69 -3.168,-4.14 1.527,-53.67 2.102,-2.89 0.75,-21.87 -3.403,-5.79 0,-60.11 4.532,-0.78 0.742,-73.52 140.277,-0.39 -0.16,-351.412 c 0,0 -82.379,91.882 -141.68,146.142 l 0.231,-41.1 156.879,-164.53 C 398.441,919.82 384.41,917.16 363.238,905.328 312.34,937.59 253.48,927.711 253.48,927.711 l 0.231,-41.84 c 37.418,3.641 71.211,-1.519 110.508,-28.441 32.383,22.308 71.402,35.859 129.57,18.172 12.813,-20.59 25.621,-41.801 38.402,-55.633 l -277.781,-2.071 0.36,-84.757 c 12.3,-0.243 43.121,0 43.121,0 15.629,-31.063 46.328,-73.481 59.097,-126.879 -17.539,-21.332 -16.129,-38.512 0.903,-60 -0.161,-9.684 -3.012,-20.391 7.699,-31.211 35.351,17.539 75.269,9.769 104.961,0.82 10.07,-3.043 13.859,8.598 13.508,23.238 -0.899,8.403 -0.86,11.961 5.511,17.539 15.121,13.321 5.7,40.633 3.36,41.25 -0.899,23.954 74.769,143.993 74.8,141.762 l -15.07,-5.512 -64.648,-0.308 c 170.078,166.488 241.168,356.37 226.289,570.78 -3.321,54.03 -11.602,78.79 -11.602,78.79 -59.929,-27.03 -109.148,-46.68 -157,-98.67 l -3.16,111.76 c 2.66,-5.28 20.43,-10.16 28.359,-3.4 5.473,3.63 6.012,7.5 0.981,21.05 -7.309,19.69 -9.07,61.92 -3.598,76.25 0.629,1.68 1.168,6.14 1.641,10.51 0.629,5.86 -0.66,6.21 -1.172,6.13 1.371,0.32 7.23,-0.86 7.93,-0.23 20.429,18.24 42.34,29.65 69.261,30.82 l 0.661,13.36 c -19.922,51.09 -36.832,71.13 -54.883,99.73 0,0 -5.117,1.71 -8.36,1.05 l 4.141,4.45 c -25.309,40.82 -61.41,77.97 -94.531,113.25 0.082,0.11 0,0.15 -0.199,0.11 l -0.071,0 z m -1.097,-6.95 17.968,-16.87 C 423.789,1703.92 339.141,1642.59 255.781,1559.39 l 1.129,30.58 c 94.219,89.93 165.32,133.13 234.692,172.66 z m 551.058,-30.59 10.82,-10.89 -15,-17.66 9.76,-10.08 -5.43,-13.44 -24.88,26.25 24.73,25.82 z m -535.672,-1.36 c 5.672,0 10.242,-4.65 10.242,-10.39 0,-5.75 -4.57,-10.39 -10.242,-10.39 -5.66,0 -10.226,4.64 -10.226,10.39 0,5.74 4.566,10.39 10.226,10.39 z m 734.262,-14.34 c 174.88,-197.62 85.08,-484.8 -148.4,-553.79 l -2.58,16.21 c 235.55,80.55 290.78,350 137.93,519.38 l 13.05,18.2 z m -703.949,-1.33 11.14,-13.12 C 448.75,1653.61 351.449,1581.15 257.461,1476.65 l -0.941,26.37 c 88.32,94.22 182.699,162.38 280.781,211.99 z m -64.332,-4.02 c 5.66,0 10.23,-4.65 10.23,-10.39 0,-5.74 -4.57,-10.39 -10.23,-10.39 -5.629,0 -10.239,4.65 -10.239,10.39 0,5.74 4.61,10.39 10.239,10.39 z m -31.129,-19.53 c 5.621,0 10.23,-4.65 10.23,-10.39 0,-5.74 -4.609,-10.39 -10.23,-10.39 -5.668,0 -10.238,4.65 -10.238,10.39 0,5.74 4.57,10.39 10.238,10.39 z m 103.711,-6.84 c 5.66,0 10.23,-4.65 10.23,-10.39 0,-5.74 -4.57,-10.39 -10.23,-10.39 -5.672,0 -10.242,4.65 -10.242,10.39 0,5.74 4.57,10.39 10.242,10.39 z m 444.289,-7.15 10.24,-10.97 -16.209,-16.53 23.079,-24.49 22.23,21.72 -11.13,-32.34 -195.902,-198.71 -4.058,20.86 15.43,15.74 -23.641,23.94 -4.18,15.98 23.25,22.07 9.723,-10.16 -13.551,-15.93 21.867,-21.84 39.731,37.11 -32.809,36.56 27.07,26.56 9.372,-9.25 -12.973,-13.52 22.82,-25.08 40.781,39.65 -33.519,35.94 26.918,26.91 10.191,-9.88 -13.55,-16.52 23.199,-22.74 39.922,40.04 -32.852,35.04 28.551,29.84 z m -578.551,-6.99 c 5.66,0 10.231,-4.65 10.231,-10.39 0,-5.74 -4.571,-10.39 -10.231,-10.39 -5.668,0 -10.238,4.65 -10.238,10.39 0,5.74 4.57,10.39 10.238,10.39 z m 161.332,-2.03 7.77,-13.12 C 461.68,1594.47 379.57,1533.49 258.09,1393.37 l 0,17.62 c 93.789,116.91 191.32,192.27 314.531,257.46 z m -59.652,-1.52 c 5.66,0 10.23,-4.65 10.23,-10.39 0,-5.75 -4.57,-10.39 -10.23,-10.39 -5.629,0 -10.239,4.64 -10.239,10.39 0,5.74 4.61,10.39 10.239,10.39 z m 918.511,-3.99 c 20.98,-18.94 64.93,-37.77 93.29,-35.78 l 0.74,-22.73 c -49.42,-4.77 -92.58,27.34 -92.58,27.34 -38.09,-23.55 -76.84,-26.52 -117.27,-16.33 l -15.5,33.79 c 59.88,-28.16 116.09,-1.29 131.32,13.71 z m -236.56,-6.17 c 2.23,-4.14 9.61,-8.87 9.61,-8.87 46.09,12.19 60.47,-36.09 38.95,-63.63 l 6.17,-20.23 c 8.2,-1.53 15.43,-4.46 21.29,-8.56 11.21,-7.89 17.38,-21.6 16.01,-35.94 1.57,-15.54 -21.36,-30.03 -22.61,-28.94 l -0.32,-22.23 c 6.45,-5.47 14.22,-10.74 19.18,-18.47 11.02,-18.75 6.64,-37.7 -10.35,-49.57 -10.12,-6.96 -21.09,-7.86 -21.52,-7.15 l -10.67,-25.28 c 9.38,-5.35 12,-14.49 13.48,-21.01 3.2,-14.18 -6.6,-32.62 -18.91,-39.42 -15.5,-8.59 -36.64,-0.97 -36.64,-0.97 l -15.11,-15.35 c 3.9,-13.29 4.96,-21.22 2.89,-29.03 -5.08,-19.29 -25,-26.87 -41.02,-25.43 -12.58,1.14 -22.03,10.47 -22.03,10.47 l -16.76,-6.48 c 0.47,0 0.24,-21.57 -8.2,-28.17 -2.66,-2.77 -12.11,-8.98 -12.11,-8.98 l -2.23,14.84 c 6.64,4.85 10.78,16.6 9.46,25.24 l 36.17,17.97 c 0,-1.33 9.92,-11.06 16.68,-12.47 13.9,-2.89 28.44,8.13 28.44,21.06 0,7.58 -4.26,12.69 -5.47,18.83 l 30.7,32.26 c 12.73,-4.45 21.64,-5.19 27.34,-1.87 10.75,6.29 13.64,19.29 11.57,27.11 -2.43,9.22 -10.55,15.19 -11.1,16.05 l 17.15,43.99 c 7.97,0.04 12.93,1.32 19.14,5.43 12.7,8.47 11.06,24.92 5.67,32.73 -6.61,9.53 -16.18,11.29 -16.92,11.06 l 1.25,45.7 c 0,-0.39 17.35,8.44 19.22,18.63 2.73,15 -3.52,24.53 -21.64,28.79 -10.08,2.34 -9.57,0.39 -9.57,0.39 l -14.34,41.33 c 22.74,14.1 15.55,36.48 3.99,43.98 -12.15,7.93 -29.3,0.59 -29.3,0.59 0,0 -7.81,7.89 -13.75,14.22 l 6.21,7.38 z m -608.709,-8.36 c 14.918,-20.43 40.238,-61.29 54.379,-97.85 0.621,-1.6 0.308,-9.69 0.308,-9.69 -40.347,-3.59 -54.218,-19.65 -68.558,-30.94 -11.129,5.79 -15.82,12.58 -35.93,-0.19 -0.082,-0.59 -51.25,31.44 -61.058,74.96 36.597,22.89 71.488,44.69 110.859,63.71 z m -204.883,-0.27 c 5.621,0 10.231,-4.65 10.231,-10.39 0,-5.74 -4.61,-10.39 -10.231,-10.39 -5.668,0 -10.238,4.65 -10.238,10.39 0,5.74 4.57,10.39 10.238,10.39 z m 96.992,-2.07 c 5.66,0 10.231,-4.65 10.231,-10.39 0,-5.75 -4.571,-10.39 -10.231,-10.39 -5.66,0 -10.23,4.64 -10.23,10.39 0,5.74 4.57,10.39 10.23,10.39 z m 700.12,-12.74 c 17.65,-23.55 44.22,-68.12 50.54,-107.57 8.91,-55.51 2.97,-113.72 -22.1,-154.42 -45.47,-86.99 -124.34,-105.51 -124.42,-108.51 l -0.78,17.81 c 0.74,-3.99 60.27,21.48 100.82,78.94 25,38.95 39.22,94.61 34.38,138.09 -3.01,62.58 -46.76,120.31 -47.15,120.55 l 8.71,15.11 z m -829.03,-8.51 c 5.629,0 10.238,-4.65 10.238,-10.35 0,-5.75 -4.609,-10.39 -10.238,-10.39 -5.66,0 -10.23,4.64 -10.23,10.39 0,5.7 4.57,10.35 10.23,10.35 z m 96.879,-0.16 c 5.66,0 10.231,-4.65 10.231,-10.35 0,-5.74 -4.571,-10.39 -10.231,-10.39 -5.668,0 -10.238,4.65 -10.238,10.39 0,5.7 4.57,10.35 10.238,10.35 z m 873.511,-17.5 c 22.7,-2.5 50.47,-44.26 75.75,-68.12 l 0.27,-340.63 -75.47,-1.52 c -9.84,-23.99 -32.65,-47.66 -68.94,-71.06 l 0,127.66 c 123.82,134.69 90.11,282.07 68.43,353.67 l -0.04,0 z m -998.198,-3.87 c 5.668,0 10.238,-4.64 10.238,-10.39 0,-5.74 -4.57,-10.39 -10.238,-10.39 -5.622,0 -10.231,4.65 -10.231,10.39 0,5.75 4.609,10.39 10.231,10.39 z m 93.277,-1.87 c 5.633,0 10.242,-4.65 10.242,-10.39 0,-5.7 -4.609,-10.39 -10.242,-10.39 -5.66,0 -10.231,4.69 -10.231,10.39 0,5.74 4.571,10.39 10.231,10.39 z m 958.131,-0.82 154.29,-157.89 -0.5,-23.17 -173.91,179.34 20.12,1.72 z m -901.561,-14.84 4.102,-19.81 c -5,7.93 -5.199,10.86 -13.832,12.27 l 9.73,7.54 z m -83.519,-5.75 c 5.621,0 10.23,-4.65 10.23,-10.39 0,-5.74 -4.609,-10.39 -10.23,-10.39 -5.66,0 -10.231,4.65 -10.231,10.39 0,5.74 4.571,10.39 10.231,10.39 z m -92.418,-2.93 c 5.66,0 10.226,-4.65 10.226,-10.39 0,-5.7 -4.566,-10.39 -10.226,-10.39 -5.672,0 -10.242,4.69 -10.242,10.39 0,5.74 4.57,10.39 10.242,10.39 z m 868.118,0 30.47,-21.87 -9.92,-39.49 -31.21,28.43 10.66,32.93 z m -703.982,-3.2 5.43,-3.24 -6.289,-27.03 -70.16,-25.71 c 22.582,19.57 45.75,40.86 71.019,55.98 z m 11.481,-12.58 c 5,-20 15.82,-49.61 29.07,-74.69 -8.988,-4.72 -41.371,-23.28 -41.25,-31.95 4.531,-15.66 38.711,-30 38.711,-30 -12.93,-21.33 -25.238,-46.48 -35.32,-75.39 -5.86,10.12 -6.52,49.92 6.058,66.45 -12.418,5 -29.378,16.32 -42.308,28.08 8.32,29.88 43.789,47.74 45.359,47.97 -0.629,-1.52 -10.469,62.42 -0.32,69.53 z m -113.828,-5.04 c 5.668,0 10.238,-4.65 10.238,-10.35 0,-5.74 -4.57,-10.39 -10.238,-10.39 -5.66,0 -10.231,4.65 -10.231,10.39 0,5.7 4.571,10.35 10.231,10.35 z m 781.059,-0.82 c 45.51,-86.09 18.44,-160.86 -54.18,-214.45 l 1.68,20.31 c 50.12,36.88 82.58,109.53 45.98,178.79 l 6.52,15.35 z m -867.462,-2.5 c 5.622,0 10.192,-4.65 10.192,-10.39 0,-5.74 -4.57,-10.39 -10.192,-10.39 -5.668,0 -10.238,4.65 -10.238,10.39 0,5.74 4.57,10.39 10.238,10.39 z m 728.161,-0.54 C 965.66,1426.03 966.48,1368.1 962.621,1333.8 l -129.691,-1.09 -5.039,45.55 171.168,174.14 z m -518.079,-3.48 c 0,0 28.122,-26.49 53.399,-49.65 l -3.051,-6.05 -24.527,-3.32 c -18.789,37.53 -25.821,59.02 -25.821,59.02 z m -23.281,-13.87 0.192,-0.04 1.558,-18.83 c -8.398,0.32 -99.609,-38.35 -169.679,-100.11 10.46,18.67 28.082,36.6 45.07,51.87 36.25,36.1 122.859,67.11 122.859,67.11 z m -129.648,-4.29 c 5.66,0 10.23,-4.65 10.23,-10.4 0,-5.74 -4.57,-10.39 -10.23,-10.39 -5.629,0 -10.199,4.65 -10.199,10.39 0,5.75 4.57,10.4 10.199,10.4 z m 57.418,-11.84 5.191,-5.43 -24.18,-12.7 18.989,18.13 z m 168.75,-5.55 c 0.312,0.04 0.66,0 1.011,-0.04 3.75,-0.47 5.321,-2.26 7.469,-4.1 -4.73,1.02 -9.418,1.56 -13.828,1.33 1.129,1.37 3.039,2.73 5.348,2.81 z m -92.617,-3.9 2.226,-14.07 c -52.5,-30.27 -114.918,-58.9 -205.738,-146.05 l 0,28.98 c 56.988,53.6 123.469,98.56 203.512,131.14 z m 70.589,-1.33 c 3.278,-0.78 6.168,-0.86 9.137,-0.12 0,0 -1.879,-3.83 -4.137,-3.91 -2.39,-0.07 -5,4.03 -5,4.03 z m 22.258,-0.78 c 6.602,0.39 11.102,-5.75 9.77,-13.64 -5.078,-26.71 -4.879,-53.79 0.582,-72.73 4.219,-14.73 5.32,-19.92 1.801,-22.38 -30.942,-21.64 -47.891,75.97 -22.071,103.67 3.481,3.32 6.918,4.88 9.918,5.08 z m -252.609,-3.44 c 5.66,0 10.23,-4.65 10.23,-10.39 0,-5.7 -4.57,-10.35 -10.23,-10.35 -5.668,0 -10.238,4.65 -10.238,10.35 0,5.74 4.57,10.39 10.238,10.39 z m 888.98,-2.38 19.22,-32.74 -26.8,-30.47 -16.29,35.39 23.87,27.82 z m -662.109,-17.82 -1.012,-11.29 c -13.789,-4.25 -25.859,-10.31 -36.219,-19.21 -1.992,-1.76 32.04,-17.35 35.59,-13.71 l -0.082,-12.08 c -0.468,-3.94 -56.25,14.03 -60,27.43 6.332,8.94 41.602,29.68 61.723,28.86 z m -253.789,-5.97 c 5.668,0 10.238,-4.65 10.238,-10.39 0,-5.75 -4.57,-10.39 -10.238,-10.39 -5.621,0 -10.231,4.64 -10.231,10.39 0,5.74 4.61,10.39 10.231,10.39 z m 152.109,-11.96 c -3.941,-7.61 -9.84,-17.77 -10.941,-28.82 -38.281,-23.56 -77.5,-45.55 -125.231,-99.57 l -25.738,0.15 -0.59,6.84 c 52.188,50.51 108.668,94.06 162.5,121.4 z m 98.559,-3.24 0.269,-14.22 c -8.91,-0.11 -13.75,2.82 -20.39,6.21 5.582,3.6 9.922,7.15 20.121,8.01 z m 287.851,-1.52 7.18,-7.62 -4.449,-4.26 -2.731,11.88 z M 425.82,1431.46 440,1422.51 c -36.48,-19.29 -74.84,-47.85 -108.09,-85.11 l -28.039,0 c 35.43,38.98 73.59,73.94 121.949,94.06 z m 755.55,-10.28 2.85,-38.67 -35.59,-19.8 0.67,40.82 32.07,17.65 z m -676.6,-0.15 24.492,-2.7 2.5,-10.5 c -20.512,-13.25 -38.364,-28.79 -55.473,-44.97 6.563,20.79 16.801,41.37 28.481,58.17 z m -58.68,-4.14 10.512,-4.92 -4.18,-18.17 c -29.961,-13.51 -53.832,-31.79 -79.41,-56.4 l -28.793,0 c 25.191,27.42 67.109,61.91 101.871,79.49 z m 91.058,-17.07 c 0.082,0 0.122,0 0.122,-0.04 l 3.82,-119.22 C 435.391,1154.97 441.129,1033.53 471.949,923.371 l -20.148,0.938 c -23.442,29.531 -54.61,59.613 -54.61,59.613 L 397.109,1330.68 470,1330.4 c 17.191,40.36 64.449,69.07 67.148,69.42 z m -86.058,-16.76 0.898,-15.9 c -15.078,-9.06 -27.886,-19.06 -38.867,-29.76 l -27.383,0 c 18.953,17.85 37.703,35.86 65.352,45.66 z m 248.48,-7.77 4.02,-18.75 C 458.281,1266.46 413.949,1004.58 558.711,824.82 l -9.84,-11.172 C 382.621,994.898 455.59,1290.91 699.57,1375.29 z m -246.519,-18.75 c 0,0 1.328,-14.38 1.75,-19.14 l -27.5,0 c 6.219,7.34 11.679,14.96 25.75,19.14 z m 690.349,-6.02 -15.82,-37.38 -42.15,-0.67 19.14,37.39 38.83,0.66 z m -267.029,-25.62 38.43,0 0,-37.27 -38.43,0 0,37.27 z M 710,1321.22 l 0.66,-16.4 c -17.109,-8.83 -12.769,-22.85 -17.07,-22.62 -10.5,-2.69 -38.16,-17.58 -38.16,-17.58 -9.84,9.03 -23.09,6.76 -29.219,2.35 -8.512,-5.67 -10.43,-18.87 -7.973,-30.04 l -29.367,-34.85 c -14.18,6.18 -28.012,5.78 -34.891,-3.82 -7.769,-10.83 -4.839,-24.26 8.008,-39.34 l -15.968,-41.64 c -1.84,2.5 -28.641,-5.47 -28.989,-21.64 -0.39,-17.07 22.149,-28.21 22.11,-29.53 l -1.09,-45.94 c -1.02,2.19 -22.973,-6.88 -20,-28.908 2.73,-20.274 29.961,-17.813 30.5,-19.492 l 14.769,-43.981 c -0.98,1.32 -20,-17.578 -8.359,-35.469 9.73,-14.89 37.969,-5.281 37.738,-4.3 l 7.813,-11.211 -8.672,-9.528 c 0,0 -3.719,4.571 -5.82,4.18 -16.45,-3.199 -34.809,0.617 -43.598,13.937 -11.992,18.793 1.367,48.133 5.629,47.891 l -10.16,25.359 c -18.481,0.352 -34.141,17.114 -35,31.172 -1.719,29.41 22.07,41.76 22.109,41.56 l 0.699,27.42 c -1.437,-1.64 -23.508,14.26 -23,32.46 0.391,13.32 11.442,29.03 25.071,35.32 3.91,1.87 10.082,4.84 10.082,4.84 l 9.179,22.46 c 0,0 -13.011,19.1 -9.652,38.36 6.25,29.18 43.711,27.19 49.609,24.34 l 17.391,22.1 c -8.559,20.16 6.211,43.56 25.543,47.35 8.598,1.4 32.617,-4.38 32.617,-4.38 l 22.262,11.68 c -0.391,12.35 12.898,20.35 25.199,27.89 z m 126.559,-40.82 32.929,0 0,-37.26 -32.929,0 0,37.26 z m 87.742,0 37.148,0 0,-37.26 -37.148,0 0,37.26 z m -211.641,-9.33 -0.39,-14.26 C 499.57,1152.12 586.559,935.398 616.879,910.211 l -6.84,-15.313 c -37.309,23 -133.519,273.122 102.621,376.172 z m 163.711,-37.74 39.957,0 0.352,-38.32 -39.961,0 -0.348,38.32 z m -172.93,-18.63 -12.66,-34.92 -39.062,-3.32 14.41,34.84 37.312,3.4 z m 798.009,-25.55 26.71,-0.15 c -49.96,-59.3 -103.86,-99.73 -157.11,-121.88 0,0 -0.15,5.28 1.49,9.46 1.29,3.32 -0.82,11.68 -0.82,11.68 59.14,29.57 99.8,63.9 129.73,100.89 z m -136.96,-0.5 c -6.87,-8.4 -14.72,-15.79 -24.45,-21.25 l -3.87,21.6 c 8.17,0.11 28.32,-0.35 28.32,-0.35 z m 47.03,0.46 c 2.7,-6.91 -70.11,-46.83 -70.39,-43.43 l 0.2,13.28 39.29,29.61 30.9,0.54 z m 15.75,0 0.15,0 20.51,-0.11 c -18.52,-29.65 -116.45,-83.48 -112.38,-75.9 l 3.94,21.68 c 31.56,14.1 60.24,33.28 87.78,54.33 z m 34.53,0 26.99,-0.11 c -40.59,-52.31 -81.76,-71.41 -121.25,-93.91 -2.38,0.35 -1.29,1.25 -8.67,1.02 l -13.52,10.7 c 2.5,-2.34 90.74,50.16 116.45,82.3 z m -754.73,-1.87 -0.941,-15.78 c -56.75,-49.57 -79.527,-112.89 -50,-186.409 l -7.027,-15.699 C 617.34,1047.79 626.719,1124 707.07,1187.24 z m 258.52,-2.46 3,-42.66 -176.25,-174.14 c 26.84,97.27 34.262,156.02 41.449,216.56 l 131.801,0.24 z m 564.41,-10.04 0.08,-23.67 c -69.49,-77.7 -139.53,-112.5 -200.04,-126.6 l -1.37,9.1 28.01,17.54 c 90.27,39.88 129.84,80.07 173.32,123.63 z m -210.9,-0.63 c 1.21,-17.1 -13.79,-49.41 -30.94,-67.65 l -29.41,0.08 -3.24,12.97 c 24.37,13.32 46.95,31.36 63.59,54.6 z m 8.87,-5.11 c 10.78,-17.62 -5.39,-63.24 -6.06,-61.45 -1.29,-3.16 92.35,-23.24 -3.86,-70.27 2.11,-13.79 11.09,-43.28 4.18,-61.518 -2.19,6.988 -18.91,54.288 -31.88,66.398 30.04,8.71 51.68,27.35 49.34,33.48 -4.89,8.75 -18.32,19.49 -40.98,27.38 19.3,27.11 25,47.5 29.26,65.98 z m -687.7,-8.64 3.011,-35.97 -34.222,-20.86 -2.61,39.49 33.821,17.34 z m 595.04,-33.39 c 2.7,-0.04 5.2,-0.75 6.41,-2.11 16.91,-6.92 18.12,-90.59 2.81,-99.1 -11.13,-7.11 -18.98,4.29 -18.59,6.32 7.38,38.52 2.77,62.31 -0.32,89.22 0.32,3.91 5.24,5.71 9.69,5.67 z m 294.69,-1.25 0,-29.77 C 1430.66,991.461 1323.63,909.078 1214.38,862.789 l -9.97,17.18 c 132.7,62.269 243.68,151.141 325.59,245.751 z m -17.46,-2.7 c -46.02,-65 -102.07,-107.46 -178.83,-126.719 l -1.44,18.439 c 95.62,22.07 182.77,108.28 180.27,108.28 z M 260.43,1112.47 c 59.922,-62.18 121.332,-123.822 182.3,-187.611 l -24.21,-1.289 -158.829,167.22 0.739,21.68 z m 713.32,-3.08 2.148,-15.35 -17.457,-19.42 27.579,-30.08 1.402,-7.11 -23.672,-25.07 -10.699,10.7 13.121,14.92 -22.223,23.71 -41.219,-40.19 33.95,-37.422 -25.629,-24.726 -10.071,10.578 13.122,15.359 -22.774,24.371 -41.988,-42.379 31.75,-35.633 -21.168,-23.789 -10.043,10.75 10.859,12.653 -23.008,24.066 -40.351,-39.457 33.211,-37.262 -27,-27.269 -10.43,10.308 15.16,16.723 -24.922,24.059 -19.957,-19.141 c 0,0 7.539,18.992 8.629,22.231 1.602,4.691 8.239,8.441 50.2,50.468 50.109,50.622 101.48,98.092 151.48,153.402 z m 287.38,-10.24 c 14.65,-0.27 39.57,-3.82 51.64,-10.31 22.46,-12.03 15.39,-21.48 0.82,-28.51 -17.46,-8.44 -31.75,-12.58 -51.44,-13.17 l 0.58,9.81 c 11.45,2.81 23.29,5.66 33.4,11.32 6.96,3.91 8.75,7.07 8.75,7.07 0,0 -6.79,7 -17.58,10.94 -7.89,2.93 -19.14,2.89 -25.31,3.91 l -0.86,8.94 z m -655.392,-12.97 18.442,-28.04 -21.84,-37.15 -20.93,32.03 24.328,33.16 z m 371.961,-3 c 0.621,-5.28 7.223,-25.86 3.75,-21.88 l -12.23,14.03 8.48,7.85 z m 284.571,-2.74 c 10.19,-0.9 20.93,-1.21 28.35,-4.84 -8.63,-6.8 -18.39,-8.32 -28.16,-10 l -0.19,14.84 z m 255.82,-14.06 c 6.13,0 11.13,-5.04 11.13,-11.29 0,-6.25 -5,-11.33 -11.13,-11.33 -6.18,0 -11.14,5.08 -11.14,11.33 0,6.25 4.96,11.29 11.14,11.29 z m -575.32,-19.61 9.531,-9.34 -12.301,-14.53 22.301,-23.822 27.578,26.252 3.672,-16.68 -258.59,-258.291 -14.34,1.063 16.449,19.726 -18.711,19.411 7.692,13.953 22.039,-19.934 40.43,39.262 -32.739,35 28.008,29.18 10.59,-9.258 -16.098,-17.653 23.399,-24.257 42.3,42.226 -33.082,36.524 26.403,25.578 9.687,-9.328 -12.258,-13.204 24.098,-25.507 35.66,37.648 -32.418,36.289 28.789,28.481 8.871,-8.981 -13.281,-15.039 24.25,-25.469 38.871,40.578 -32.031,35.282 25.231,24.84 z m 549.42,-6.72 c 6.17,0 11.17,-5.08 11.17,-11.33 0,-6.25 -5,-11.32 -11.17,-11.32 -6.14,0 -11.14,5.07 -11.14,11.32 0,6.25 5,11.33 11.14,11.33 z m -210.2,-0.51 c 17.58,-20.93 28.17,-44.212 30.24,-69.29 -14.03,21.602 -31.88,40.78 -55.28,57.42 l 4.03,10.51 21.01,1.36 z m 248.01,-1.71 0,-25.28 C 1451.64,922.469 1356.56,854.578 1258.91,807.32 l -16.61,20.508 c 115.47,52.301 199.07,117.301 287.7,210.002 z m -115.27,-17.62 -31.76,-25.038 0,10.858 31.8,14.18 -0.04,0 z m -163.68,-1.88 c 27.04,-13.4 49.69,-36.01 63.21,-69.568 -36.92,-23.551 -77.42,-42.582 -116.06,-61.563 -18.51,30.313 -37.18,58.711 -51.83,97.731 59.57,0.429 75.9,33.48 76.33,33.72 14.33,-5.51 17.34,-6.18 28.35,-0.32 z m 213.95,-4.92 c 5.59,-0.12 11.13,-4.41 11.33,-10.86 0,-6.249 -5,-11.331 -11.17,-11.331 -6.14,0 -11.14,5.082 -11.14,11.331 1.21,7.78 6.1,10.98 10.98,10.86 z m -82.38,-7.42 0.08,-10.939 c -15.24,-13.512 -44.77,-35.43 -44.77,-35.43 l -12.23,0.668 3.99,31.012 c 18.51,3.789 36.44,9.259 52.93,14.689 z m -777.89,-1.29 29.141,-24.341 -8.91,-37.73 -28.711,22.109 8.48,39.962 z m 391.68,-7.11 2.692,-10.942 L 759.488,746.18 745.859,748.449 996.41,997.59 z m 442.03,-9.328 c 6.17,0 11.17,-5.043 11.17,-11.293 0,-6.25 -5,-11.328 -11.17,-11.328 -6.14,0 -11.14,5.078 -11.14,11.328 0,6.25 5,11.293 11.14,11.293 z m 88.51,0.109 c 1.29,0 2.85,0.078 2.85,-1.172 l 0,-20.82 c -1.17,-0.43 -2.42,-0.66 -3.75,-0.66 -6.13,0 -10.27,5.07 -10.27,11.32 0,6.25 5,11.332 11.17,11.332 z m -27.07,-25.23 c 6.17,0 11.17,-5.082 11.17,-11.332 0,-6.25 -5,-11.329 -11.17,-11.329 -6.13,0 -11.13,5.079 -11.13,11.329 0,6.25 5,11.332 11.13,11.332 z m -93.67,-0.121 c 6.17,0 11.17,-5.079 11.17,-11.329 0,-6.25 -5,-11.332 -11.17,-11.332 -6.13,0 -11.13,5.082 -11.13,11.332 0,6.25 5,11.329 11.13,11.329 z m -80.59,-3.508 11.49,-0.364 -21.33,-12.886 c 3.91,4.957 7.58,8.789 9.84,13.25 z m 204.34,-5.282 0.16,-23.281 c -54.81,-55.59 -124.03,-113.277 -229.85,-168.91 l -13.51,13.871 c 86.29,41.762 167.26,100.309 243.2,178.32 z M 1374.3,941.539 c 6.17,0 11.17,-5.078 11.17,-11.328 0,-6.211 -5,-11.289 -11.17,-11.289 -6.14,0 -11.14,5.078 -11.14,11.289 0,6.25 5,11.328 11.14,11.328 z m 99.1,-0.859 c 6.17,0 11.17,-5.039 11.17,-11.289 0,-6.25 -5,-11.332 -11.17,-11.332 -6.13,0 -11.13,5.082 -11.13,11.332 0,6.25 5,11.289 11.13,11.289 z M 363.32,895.289 c 37.809,22.262 68.2,24.883 111.52,18.16 l 12.93,-25.937 c -42.18,7.617 -86.598,6.918 -124.61,-22.852 -39.41,25.27 -69.332,32.539 -101.68,28.442 l -0.582,27.339 c 42.192,5.981 80,-8.671 102.422,-25.152 z m 980.27,24.641 c 6.14,0 11.14,-5.071 11.14,-11.321 0,-6.25 -5,-11.328 -11.14,-11.328 -6.17,0 -11.17,5.078 -11.17,11.328 0,6.25 5,11.321 11.17,11.321 z m 101.92,-4.641 c 6.17,0 11.13,-5.078 11.13,-11.328 0,-6.25 -4.96,-11.332 -11.13,-11.332 -6.17,0 -11.13,5.082 -11.13,11.332 0,6.25 4.96,11.328 11.13,11.328 z m -135.43,-16.918 c 6.13,0 11.13,-5.082 11.13,-11.332 0,-6.25 -5,-11.277 -11.13,-11.277 -6.17,0 -11.17,5.027 -11.17,11.277 0,6.25 5,11.332 11.17,11.332 z m 103.9,-6.562 c 6.18,0 11.18,-5.079 11.18,-11.329 0,-6.25 -5,-11.289 -11.18,-11.289 -6.13,0 -11.13,5.039 -11.13,11.289 0,6.25 5,11.329 11.13,11.329 z M 1275.7,878.371 c 6.25,0 11.29,-5.109 11.29,-11.441 0,-6.371 -5.04,-11.489 -11.29,-11.489 -6.25,0 -11.29,5.118 -11.29,11.489 0,6.332 5.04,11.441 11.29,11.441 z m 108.52,-9.492 c 6.13,0 11.13,-5.078 11.13,-11.328 0,-6.211 -5,-11.289 -11.13,-11.289 -6.17,0 -11.17,5.078 -11.17,11.289 0,6.25 5,11.328 11.17,11.328 z M 1242.7,861.07 c 6.13,0 11.13,-5.082 11.13,-11.332 0,-6.25 -5,-11.328 -11.13,-11.328 -6.18,0 -11.18,5.078 -11.18,11.328 0,6.25 5,11.332 11.18,11.332 z m -492.821,-10.242 27.742,-25.777 -28.672,-29.223 -10.508,10.242 15.969,16.95 -10.82,14.769 6.289,13.039 z m 603.561,-2.5 c 6.17,0 11.17,-5.066 11.17,-11.316 0,-6.25 -5,-11.332 -11.17,-11.332 -6.14,0 -11.14,5.082 -11.14,11.332 0,6.25 5,11.316 11.14,11.316 z m -32.07,-19.18 c 6.13,0 11.13,-5.039 11.13,-11.289 0,-6.25 -5,-11.32 -11.13,-11.32 -6.17,0 -11.17,5.07 -11.17,11.32 0,6.25 5,11.289 11.17,11.289 z m -34.89,-19.218 c 6.14,0 11.14,-5.032 11.14,-11.282 0,-6.25 -5,-11.328 -11.14,-11.328 -6.17,0 -11.17,5.078 -11.17,11.328 0,6.25 5,11.282 11.17,11.282 z m -573.281,-31.989 9.071,-7.5 -14.219,-17.339 -10.821,0.16 15.969,24.679 z M 538.09,731.148 C 506.52,715.25 491.48,705.211 469.449,685.762 l -31.558,44.449 100.199,0.937 z m -214.969,-0.32 84.149,-1.207 -27.969,-40.191 c -18.442,19.718 -37.153,33.16 -56.18,41.398 z m 100.238,-4.406 c 9.102,-2.934 32.969,-37.461 44.18,-56.293 23.941,19.34 47.383,40.902 72.93,52.5 -30.391,-32.578 -57.071,-66.25 -76.059,-98.828 -5.39,14.687 -20.351,56.719 -39.289,75 -29.922,-28.321 -41.723,-62.539 -41.723,-62.539 -16.097,27.816 -35.468,55.707 -57.886,81.758 -3.711,5.082 27.258,-14.45 57.968,-44.758 8.629,22.097 31.719,52.297 39.879,53.16 z M 322.301,704.738 c 14.461,-11.636 53.75,-62.808 58.25,-93.59 l -18.832,-1.218 c -10,31.609 -26.797,63.211 -39.418,94.808 z m 209.219,-5.226 c -14.219,-29.614 -31.872,-59.891 -44.532,-92.66 l -18.59,0.82 c 20.352,45.156 27.774,53.437 63.122,91.84 z M 424.922,686.34 c 0.156,0 0.348,-0.039 0.43,-0.121 17.699,-24.489 26.019,-48.278 31.289,-77.219 l -13.672,0.539 c 0,0 -9.528,29.07 -16.059,39.301 -4.25,6.289 -7.648,5.469 -10.621,0.269 -6.758,-12.257 -9.258,-24.57 -13.051,-37.961 L 387.5,612.32 c -2.891,21.95 31.879,73.442 37.422,74.02 z m -2.5,-84.371 c 6.406,-0.078 13.09,-7.11 13.047,-19.457 0.472,-5.782 -3.949,-18.633 -8.75,-19.293 -8.91,-4.809 -19.449,10.109 -16.797,22.543 2.269,10.617 6.879,16.277 12.5,16.207 z m -30.942,-2.348 c 12.622,-1.133 15.36,-29.883 10.239,-35.742 -5.899,-5.938 -21.41,-1.719 -22.891,8.519 -5.078,13.043 4.184,27.114 12.652,27.223 z m 62.27,0.199 c 13.75,-1.992 10.27,-33.558 3.16,-38.172 -11.051,-5.929 -19.488,3.993 -15.738,18.832 3.008,11.95 7.457,19.032 12.578,19.34 z m 31.801,-5.242 c 15.738,-1.789 6.64,-29.609 -0.242,-35.226 -10,-7.93 -19.649,3.91 -14.84,18.007 3.711,10.93 9.883,17.301 15.082,17.219 z m -127.153,-0.859 c 11.442,-1.867 18.082,-28.199 11.25,-35.699 -3.558,-4.301 -13.91,1.992 -18.628,9.179 -5.711,8.672 -0.36,26.563 7.378,26.52 z m 121.954,-57.34 c 1.367,-13.828 -8.903,-13.789 -38.473,-7.07 -14.969,3.402 -41.449,1.25 -55,-1.25 -22.777,-4.18 -25.981,-2.579 -25.938,6.839 0.079,10.891 12.809,17.114 42.379,18.043 21.129,0.668 73.75,0.86 77.032,-16.562 z m 46.019,8.133 c -35.242,-3.364 -44.609,-48.211 -40.711,-64.774 3.09,-27.66 1.762,-56.679 -3.469,-75.699 -3.793,-13.68 -7.113,-28.25 -13.171,-40.668 -9.29,-18.711 -6.911,-32.609 6.839,-40.082 11.289,-6.129 25.192,-4.059 33.911,5.43 15.742,17.191 17.609,53.64 8,136.332 -3.43,29.179 -1.598,35 12.351,33.359 29.289,0.238 28.117,46.059 -3.75,46.102 z m -4.223,-37.66 c -7.886,3.078 -13.238,-4.18 -12.187,-22.313 0.269,-8 1.68,-17.07 2.699,-24.25 11.36,-79.34 7.11,-132.5 -16.879,-135.117 -20.902,-3.402 -35.082,12.226 -24.883,28.359 5.782,9.141 10.782,10.391 21.993,5.578 15.468,-9.718 11.597,4.461 -2.301,14.891 -8.949,6.398 -9.61,6.398 -4.809,26.441 6.449,26.989 8.598,46.25 6.25,80.43 -3.32,24.18 4.61,56.207 34.918,58.129 30.672,0.93 21.41,-43.238 -4.801,-32.148 z M 305.82,402.32 c 9.961,-4.89 19.649,-4.058 29.141,-0.082 3.711,16.871 3.949,30.903 15.117,53.871 -18.629,18.903 -49.957,11.481 -58.789,-8.359 -8.828,-19.852 -0.629,-38.012 14.531,-45.43 z m 29.879,58.551 c 11.289,-2.422 9.61,-14.449 -1.008,-10.543 -25.351,12.102 -46.019,-24.34 -25.55,-38.047 10.429,-5.902 15.039,-2.5 4.687,5.617 -4.258,4.961 -3.168,6.961 -0.629,11.961 5.321,10 24.61,8.36 23.281,1.09 -4.41,-23.09 -7.3,-29.73 -14.14,-29.801 -39.328,-2.039 -46.75,72.731 13.359,59.723 z m 334.223,-41.48 c 0,0 -117.223,-134.532 -173.672,-203.403 l 707.58,3.321 -134.65,188.55 c -115.508,-27.07 -251.211,-19.25 -399.258,11.532 z m -3.512,-42.969 c 17.649,-0.203 37.77,-13.242 55.149,-56.684 0.941,-0.386 77.82,118.524 144.382,-4.609 10.86,27.66 73.547,99.73 146.009,7.23 25.75,61.911 85.12,40.969 90.67,19.371 -1.25,4.649 -56.57,17.969 -80.51,-23.082 -4.41,-8.679 -4.65,-16.918 0.43,-21.796 11.95,-11.524 -1.06,-28.012 -14.69,-18.633 -5.31,3.672 -5.97,11.32 -1.91,16.871 12.03,9.101 -12.62,37.422 -32.85,47.621 -27.82,13.937 -66.61,7.769 -85.238,-12.27 -10.043,-10.781 -16.172,-20.472 -17.653,-28.242 -0.75,-3.59 -0.277,-5.469 1.832,-7.847 8.09,-9.922 2.739,-23.481 -8.203,-21.84 -14.34,2.148 -12.418,15.777 -2.848,23.207 2.969,1.48 1.829,3.203 0.93,5.742 -26.172,74.84 -123.711,60.578 -134.25,8.789 -0.39,-1.922 -1.211,-3.871 -0.781,-5.82 1.09,-4.961 3.941,-9.141 2.851,-13.008 -4.5,-15.942 -24.109,-11.371 -25,1.84 -0.39,5.968 5.969,7.769 9.098,13.238 1.871,3.43 2.731,7.648 0.942,11.441 -26.45,56.207 -71.801,44.457 -94.34,31.758 -0.469,-0.269 20.16,26.992 45.98,26.723 z m -29.34,-32.621 c 9.692,0.347 18.481,-4.449 26.719,-14.141 27.691,14.879 47.383,-10.859 44.102,-13.359 -39.219,25.859 -51.95,-34.371 -13.282,-32.11 -16.988,-35.66 43.672,-50.929 36.84,-5.351 37.461,-13.281 43.629,38.91 5.699,38.129 12.262,21.519 44.063,15.621 57.543,2.109 15.821,19.602 54.649,0.934 58.508,-15.816 -43.551,22.648 -47.969,-46.614 -5.777,-31.883 -12.5,-44.059 54.609,-37.77 36.058,0.199 41.75,-13.949 36.09,49.453 -4.96,36.602 -2.5,3.281 32.46,39.922 57.851,5.468 3.43,6.09 43.117,25.93 64.839,-5.238 -47.069,16.129 -38.159,-48.121 -4.448,-35.351 -8.992,-42.579 51.788,-35.661 36.288,0.621 47.11,-12.102 26.25,60.789 -6.88,33.871 5.39,29.301 45,17.148 44.57,12.621 0,0.039 21.06,23.09 44.61,6.207 -36.8,-3.16 -24.3,-53.52 10.47,-39.18 -0.35,-17.109 13.63,-28.437 32.58,-22.621 l 29.72,-42.219 -678.28,-4.339 54.18,65.589 c 18.128,-15.238 36.921,-8.05 39.261,15.821 39.418,-24.571 49.688,33.75 12.66,36.289 7.539,5.191 14.528,7.851 21.129,8.082 z m -37.89,-18.942 c 2.34,-1.679 -0.821,-9.769 -6.02,-7.429 l 6.02,7.429 z m 528.87,-16.918 c 2.03,-2.929 3.43,-4.839 5.47,-7.769 0.97,-2.621 -10.59,1.406 -5.47,7.769 z"
         inkscape:connector-curvature="0"
         id="path34"
         style="fill:#000000;fill-opacity:1;fill-rule:nonzero;stroke:none" /><path
         d="m 480.512,1857.01 c 0,0 -37.153,61.05 -87.274,132.81 -33.547,48.04 -60.347,100.04 -62.847,144.84 -2.852,51.17 24.179,102.54 73.199,105 48.949,2.5 68.832,-39.45 76.922,-74.02 8.078,34.57 27.968,76.52 76.949,74.02 48.988,-2.46 76.059,-53.83 73.199,-105 -2.5,-44.8 -29.289,-96.8 -62.851,-144.84 -50.11,-71.76 -87.297,-132.81 -87.297,-132.81 z"
         inkscape:connector-curvature="0"
         id="path36"
         style="fill:#d40000;fill-opacity:1;fill-rule:nonzero;stroke:none" /><path
         d="m 1305.08,657.469 c 0,0 -37.15,-61.047 -87.31,-132.809 -33.51,-48.051 -60.35,-100.039 -62.81,-144.84 -2.89,-51.172 24.18,-102.5 73.2,-105 48.95,-2.5 68.83,39.45 76.92,74.02 8.08,-34.57 27.97,-76.52 76.95,-74.02 48.99,2.5 76.06,53.828 73.2,105 -2.5,44.801 -29.33,96.789 -62.85,144.84 -50.11,71.762 -87.3,132.809 -87.3,132.809 z"
         inkscape:connector-curvature="0"
         id="path38"
         style="fill:#d40000;fill-opacity:1;fill-rule:nonzero;stroke:none" /></g></g></svg>