<?xml version="1.0" encoding="UTF-8" standalone="no"?>
<!-- Created with Inkscape (http://www.inkscape.org/) -->

<svg
   xmlns:dc="http://purl.org/dc/elements/1.1/"
   xmlns:cc="http://creativecommons.org/ns#"
   xmlns:rdf="http://www.w3.org/1999/02/22-rdf-syntax-ns#"
   xmlns:svg="http://www.w3.org/2000/svg"
   xmlns="http://www.w3.org/2000/svg"
   xmlns:inkscape="http://www.inkscape.org/namespaces/inkscape"
   version="1.1"
   width="223.75"
   height="313.75"
   id="svg2"
   xml:space="preserve"><metadata
     id="metadata8"><rdf:RDF><cc:Work
         rdf:about=""><dc:format>image/svg+xml</dc:format><dc:type
           rdf:resource="http://purl.org/dc/dcmitype/StillImage" /></cc:Work></rdf:RDF></metadata><defs
     id="defs6" /><g
     transform="matrix(1.25,0,0,-1.25,0,313.75)"
     id="g10"><g
       transform="scale(0.1,0.1)"
       id="g12"><path
         d="m 88.9805,2500.55 1607.7795,0 c 47.11,0 85.04,-37.93 85.04,-85.04 l 0,-2316.4397 c 0,-47.1094 -37.93,-85.039 -85.04,-85.039 l -1607.7795,0 c -47.1016,0 -85.03128,37.9296 -85.03128,85.039 l 0,2316.4397 c 0,47.11 37.92968,85.04 85.03128,85.04 z"
         inkscape:connector-curvature="0"
         id="path14"
         style="fill:#ffffff;fill-opacity:1;fill-rule:nonzero;stroke:none" /><g
         transform="scale(0.999366,-1.00063)"
         id="g16"><path
           d="m 89.0448,-2498.96 1608.7852,0 c 47.14,0 85.1,37.9 85.1,84.98 l 0,2314.9764 c 0,47.0795 -37.96,84.9852 -85.1,84.9852 l -1608.7852,0 c -47.1432,0 -85.09698,-37.9057 -85.09698,-84.9852 l 0,-2314.9764 c 0,-47.08 37.95378,-84.98 85.09698,-84.98 z"
           inkscape:connector-curvature="0"
           id="path18"
           style="fill:none;stroke:#000000;stroke-width:7.9738698;stroke-linecap:butt;stroke-linejoin:miter;stroke-miterlimit:4;stroke-opacity:1;stroke-dasharray:none" /></g><path
         d="m 141.051,1942.54 c 0,0 -17.692,25.47 -41.6018,55.35 -15.9687,20.04 -28.789,41.68 -29.9609,60.36 -1.3672,21.32 11.5312,42.73 34.8907,43.75 23.351,1.05 32.851,-16.45 36.672,-30.86 3.871,14.41 13.359,31.91 36.679,30.86 23.36,-1.02 36.29,-22.43 34.93,-43.75 -1.211,-18.68 -13.988,-40.32 -29.961,-60.36 -23.91,-29.88 -41.648,-55.35 -41.648,-55.35 z"
         inkscape:connector-curvature="0"
         id="path20"
         style="fill:#d40000;fill-opacity:1;fill-rule:nonzero;stroke:none" /><path
         d="m 1644.69,572.031 c 0,0 -17.74,-25.429 -41.6,-55.351 -16.02,-20 -28.79,-41.68 -29.97,-60.352 -1.36,-21.328 11.53,-42.687 34.89,-43.75 23.36,-1.008 32.81,16.453 36.68,30.863 3.86,-14.41 13.32,-31.871 36.68,-30.863 23.36,1.063 36.25,22.422 34.88,43.75 -1.17,18.672 -13.95,40.352 -29.96,60.352 -23.87,29.922 -41.6,55.351 -41.6,55.351 z"
         inkscape:connector-curvature="0"
         id="path22"
         style="fill:#d40000;fill-opacity:1;fill-rule:nonzero;stroke:none" /><path
         d="m 480.59,1857.07 c 0,0 -37.149,61.02 -87.309,132.82 -33.511,48.04 -60.351,100.04 -62.812,144.84 -2.891,51.17 24.179,102.5 73.203,105 48.949,2.5 68.828,-39.45 76.918,-74.06 8.082,34.61 27.961,76.56 76.949,74.06 48.981,-2.5 76.051,-53.83 73.199,-105 -2.5,-44.8 -29.289,-96.8 -62.847,-144.84 -50.121,-71.8 -87.301,-132.82 -87.301,-132.82 z"
         inkscape:connector-curvature="0"
         id="path24"
         style="fill:#d40000;fill-opacity:1;fill-rule:nonzero;stroke:none" /><path
         d="m 1305.16,1857.07 c 0,0 -37.15,61.02 -87.31,132.82 -33.51,48.04 -60.35,100.04 -62.85,144.84 -2.85,51.17 24.22,102.5 73.2,105 48.99,2.5 68.87,-39.45 76.96,-74.06 8.08,34.61 27.96,76.56 76.95,74.06 48.98,-2.5 76.05,-53.83 73.2,-105 -2.5,-44.8 -29.33,-96.8 -62.85,-144.84 -50.16,-71.8 -87.3,-132.82 -87.3,-132.82 z"
         inkscape:connector-curvature="0"
         id="path26"
         style="fill:#d40000;fill-opacity:1;fill-rule:nonzero;stroke:none" /><path
         d="m 892.891,1065.9 c 0,0 -37.192,61.06 -87.301,132.85 -33.559,48.01 -60.36,100.04 -62.86,144.81 -2.851,51.21 24.219,102.54 73.211,105.04 48.981,2.46 68.829,-39.5 76.95,-74.07 8.089,34.57 27.968,76.53 76.91,74.07 49.029,-2.5 76.059,-53.83 73.209,-105.04 -2.5,-44.77 -29.3,-96.8 -62.85,-144.81 -50.121,-71.79 -87.269,-132.85 -87.269,-132.85 z"
         inkscape:connector-curvature="0"
         id="path28"
         style="fill:#d40000;fill-opacity:1;fill-rule:nonzero;stroke:none" /><path
         d="m 1305.16,657.539 c 0,0 -37.15,-61.051 -87.31,-132.809 -33.51,-48.05 -60.35,-100.039 -62.85,-144.839 -2.85,-51.18 24.22,-102.539 73.2,-105 48.99,-2.5 68.87,39.449 76.96,74.019 8.08,-34.57 27.96,-76.519 76.95,-74.019 48.98,2.461 76.05,53.82 73.2,105 -2.5,44.8 -29.33,96.789 -62.85,144.839 -50.16,71.758 -87.3,132.809 -87.3,132.809 z"
         inkscape:connector-curvature="0"
         id="path30"
         style="fill:#d40000;fill-opacity:1;fill-rule:nonzero;stroke:none" /><path
         d="m 480.59,657.539 c 0,0 -37.149,-61.051 -87.309,-132.809 -33.511,-48.05 -60.351,-100.039 -62.812,-144.839 -2.891,-51.18 24.179,-102.539 73.203,-105 48.949,-2.5 68.828,39.449 76.918,74.019 8.082,-34.57 27.961,-76.519 76.949,-74.019 48.981,2.461 76.051,53.82 73.199,105 -2.5,44.8 -29.289,96.789 -62.847,144.839 -50.121,71.758 -87.301,132.809 -87.301,132.809 z"
         inkscape:connector-curvature="0"
         id="path32"
         style="fill:#d40000;fill-opacity:1;fill-rule:nonzero;stroke:none" /><path
         d="m 58.1992,2195.16 25.7813,0.27 c 4.9297,-15.9 15.789,-32.03 30.5505,-36.52 41.719,-10 68.559,13.79 77.379,41.21 10.75,33.24 -0.23,79.92 -28.941,96.52 -23.789,13.71 -59.141,2.15 -75.3909,-27.26 l -18.0468,11.25 9.6875,109.57 117.8512,0 0,-25.9 -95.511,0 -1.52,-45.62 c 20.582,14.72 52.191,14.57 72.731,4.21 38.91,-18.9 57,-61.95 49.46,-112.69 -10.511,-50.47 -33.64,-79.06 -85.781,-83.13 -58.0076,-0.54 -78.4802,40.12 -78.2498,68.09 z"
         inkscape:connector-curvature="0"
         id="path34"
         style="fill:#d40000;fill-opacity:1;fill-rule:nonzero;stroke:none" /><path
         d="m 1727.5,319.422 -25.74,-0.242 c -4.92,15.859 -15.78,32.031 -30.55,36.492 -41.72,10 -68.55,-13.793 -77.42,-41.172 -10.7,-33.289 0.27,-79.969 28.98,-96.531 23.79,-13.75 59.14,-2.149 75.39,27.23 l 18.05,-11.25 -9.69,-109.57 -117.89,0 0,25.902 95.55,0 1.48,45.66 c -20.54,-14.73 -52.14,-14.57 -72.69,-4.261 -38.91,18.949 -56.99,62 -49.45,112.742 10.46,50.43 33.59,79.019 85.74,83.117 58.01,0.551 78.51,-40.148 78.24,-68.117 z"
         inkscape:connector-curvature="0"
         id="path36"
         style="fill:#d40000;fill-opacity:1;fill-rule:nonzero;stroke:none" /></g></g></svg>