<?xml version="1.0" encoding="UTF-8" standalone="no"?>
<!-- Created with Inkscape (http://www.inkscape.org/) -->

<svg
   xmlns:dc="http://purl.org/dc/elements/1.1/"
   xmlns:cc="http://creativecommons.org/ns#"
   xmlns:rdf="http://www.w3.org/1999/02/22-rdf-syntax-ns#"
   xmlns:svg="http://www.w3.org/2000/svg"
   xmlns="http://www.w3.org/2000/svg"
   xmlns:inkscape="http://www.inkscape.org/namespaces/inkscape"
   version="1.1"
   width="223.75"
   height="313.75"
   id="svg2"
   xml:space="preserve"><metadata
     id="metadata8"><rdf:RDF><cc:Work
         rdf:about=""><dc:format>image/svg+xml</dc:format><dc:type
           rdf:resource="http://purl.org/dc/dcmitype/StillImage" /></cc:Work></rdf:RDF></metadata><defs
     id="defs6" /><g
     transform="matrix(1.25,0,0,-1.25,0,313.75)"
     id="g10"><g
       transform="scale(0.1,0.1)"
       id="g12"><path
         d="m 88.9102,2500.56 1607.7698,0 c 47.11,0 85.04,-37.93 85.04,-85.04 l 0,-2316.4106 c 0,-47.1094 -37.93,-85.0391 -85.04,-85.0391 l -1607.7698,0 C 41.8008,14.0703 3.87109,52 3.87109,99.1094 l 0,2316.4106 c 0,47.11 37.92971,85.04 85.03911,85.04 z"
         inkscape:connector-curvature="0"
         id="path14"
         style="fill:#ffffff;fill-opacity:1;fill-rule:nonzero;stroke:none" /><g
         transform="scale(0.999363,-1.00064)"
         id="g16"><path
           d="m 88.9629,-2498.96 1608.7971,0 c 47.14,0 85.09,37.91 85.09,84.98 l 0,2314.9337 c 0,47.0794 -37.95,84.9849 -85.09,84.9849 l -1608.7971,0 c -47.1394,0 -85.09716,-37.9055 -85.09716,-84.9849 l 0,-2314.9337 c 0,-47.07 37.95776,-84.98 85.09716,-84.98 z"
           inkscape:connector-curvature="0"
           id="path18"
           style="fill:none;stroke:#000000;stroke-width:7.9738698;stroke-linecap:butt;stroke-linejoin:miter;stroke-miterlimit:4;stroke-opacity:1;stroke-dasharray:none" /></g><path
         d="m 242.77,2306.57 c 0.671,-632.97 -0.469,-1409.14 0,-2098.511 l 1300.2,0 0,2098.511 -1300.2,0 z m 380.55,-11.91 c 224.379,-6.14 450.16,0.5 676.21,-1.29 0,0 -82.11,-144.03 -107.03,-189.38 -5.43,-9.96 -5.98,-17.03 -3.05,-21.17 4.53,-6.37 4.18,-17.19 -0.93,-23.48 -2.19,-2.65 -3.17,-4.41 -3.32,-6.01 -0.2,-1.6 1.25,-3.36 2.42,-6.25 4.02,-13.79 -6.37,-23.36 -17.23,-27.81 -7.3,-2.97 -23.51,-4.93 -35.47,-4.34 -75.04,3.59 -222.15,67.42 -282.772,72.38 -42.07,11.84 -96.41,7.7 -141.207,5.16 -8.48,-0.55 -6.992,19.34 -6.992,19.34 -7.07,65.58 -53.211,122.65 -80.629,182.85 z m 688.4,-7.23 214.65,0 0,-33.48 -90.86,-92.07 c -8.4,-8.63 -15.04,-15.74 -15.04,-15.74 l -0.51,-83.12 c -60.86,32.93 -72.97,72.26 -84.06,115.5 -101.68,-75.54 -106.45,-240.82 4.57,-325.93 0.9,36.99 28.87,109.61 78.44,115 l 0.7,-287.93 -60.98,59.96 -132.58,-1.72 c 21.88,35.7 22.35,64.06 8.21,97.5 -23.83,54.69 -60.59,179.53 -57.78,179.1 0,0 1.06,2.7 4.07,3.36 10.97,2.46 17.97,13.12 14.84,25.98 -0.59,4.14 -0.59,3.16 2.23,8.55 10.78,18.52 -2.07,38.63 -2.07,38.63 l 116.17,196.41 z m -703.279,0 79.571,-145.31 c 0,0 -1.063,-6.64 -0.633,-10.55 0.633,-5.62 2.5,-10.62 5.672,-15.82 2.109,-3.48 3.668,-8.2 4.14,-12.58 0.778,-7.19 0.778,-7.19 11.25,-16.68 2.18,-1.99 2.61,-3.2 1.789,-5.27 -3.468,-8.79 -1.441,-26.8 5.391,-48.28 8.641,-27.11 10.899,-26.76 -5.191,-63.05 -3.36,-7.58 -7.418,-17.69 -11.801,-26.99 -19.84,-41.06 -22.891,-52.19 11.172,-74.1 9.609,-6.14 12.429,-11.49 10,-23.75 -1.871,-9.69 -2.262,-15.86 2.347,-21.29 3.012,-3.52 5.704,-4.1 4.961,-6.84 -0.507,-1.83 -2.73,-9.88 -1.988,-16.64 1.988,-18.2 -18.871,-45 -37.93,-54.41 -3.832,-2.7 -4.89,0.62 -7.07,4.41 -19.73,34.81 -68.871,20.7 -72.109,-20.82 -0.864,-10.98 -0.551,-15.74 -3.364,-18.05 -0.937,-0.82 -3.828,-2.46 -3.828,-2.46 0,0 -73.519,-48.12 -120.269,-72.89 -3.051,-1.6 -5.781,-4.25 -7.93,-4.72 -2.5,-0.47 -4.34,-0.04 -5.902,1.52 -17.231,33.05 -7.699,72.11 -6.207,85.94 -0.352,4.92 -4.532,5.82 -10.782,5.9 -10.671,0.11 -25.941,-10.75 -29.261,-20.86 -2.848,-8.6 -4.649,-14.18 -7.231,-14.14 -2.578,0.03 -3.828,3.51 -10.226,15.89 -13.321,25.82 -15.391,29.07 -27.852,44.07 -9.93,11.95 -18.398,13.55 -28.129,4.65 -6.801,-6.22 -6.562,-0.83 -12.301,2.3 -9.96,6.84 -24.929,0.7 -25.281,-8.87 -0.308,-8.04 -0.39,-14.1 -8.469,-14.65 -9.031,-0.58 -12.929,-12.3 -10.39,-29.02 1.32,-8.83 1.601,-10.23 -1.102,-13.44 -8.707,-10.54 -9.84,-17.81 -5.039,-32.5 13.672,-41.83 33.481,-70.04 52.11,-108.08 0,0 -45.969,-27.03 -74.059,-42.74 l 0,780.12 345.941,0 z m 919.329,-41.87 1.1,-676.65 -101.53,100.51 c 0,0 -1.99,129.65 -1.87,182.66 0.12,53.05 0.86,106.01 0.66,115.9 -0.23,9.84 0.51,51.79 0.82,94.84 0.67,90.24 -7.54,79.1 9.14,96.41 l 91.68,86.33 z m -198.43,-81.14 5.58,-16.33 c -42.54,-24.57 -94.61,-161.36 0.98,-261.79 l -1.92,-20.71 c -100.19,91.49 -81.64,222.7 -4.64,298.83 z m 7.26,-19.29 c 14.61,-30.36 31.25,-57.23 53.91,-73.68 -12.23,-29.33 -17.46,-61.68 3.2,-105.31 -14.49,-8.01 -34.65,-29.26 -55.47,-72.81 -75.43,76.72 -58.63,187.93 -1.64,251.8 z m -561.01,-57.35 c 41.789,-0.08 85.43,-6.95 125.43,-19.06 25.191,-128.4 69.492,-214.69 69.332,-264.96 0,0 -3.512,0.58 -10.942,5.97 -18.238,13.25 -42.14,5.86 -54.961,-11.01 -12.148,-15.98 0.082,-38.2 -6.129,-47.5 -11.8,-17.38 -42.07,-49.53 -47.148,-48.48 -3.711,0.78 -3.121,2.42 9.879,22.46 13.519,20.94 23.91,39.89 19.461,44.5 -1.922,1.95 -2.934,-2.19 -13.012,-19.85 -23.711,-41.44 -44.57,-67.07 -52.809,-63.75 -3.871,1.56 -1.882,5 15.661,28.36 19.847,26.37 25.347,42.85 23.359,50.16 -1.481,5.58 -4.57,-3.48 -12.813,-19.69 -8.75,-17.11 -24.609,-36.25 -37.418,-54.57 -4.07,-6.64 -9.261,-10.51 -15.941,-13.52 -4.961,-2.14 -12.848,-5.7 -17.418,-5.11 -2.351,0.31 -0.711,1.72 2.5,4.88 25.27,26.21 47.027,55.47 59.367,83.52 1.922,3.67 -0.816,8.9 -3.937,5.03 -18.949,-33.51 -45.281,-75.31 -73.871,-93.78 -6.129,-3.95 -15.391,-7.31 -23.711,-6.61 -14.059,0.43 -9.098,3.6 3.711,11.88 27.461,17.73 65.98,68.79 72.191,86.83 1.481,4.26 -0.16,6.72 -2.891,6.41 -22.582,-36.37 -52.39,-76.41 -87.07,-93.12 -18.68,-9.03 -42.269,-10.82 -53.832,-5.12 -8.519,4.18 -6.367,5.62 8.711,6.6 36.25,3.63 78.711,37.89 99.762,74.14 12.308,20.08 3.679,15.47 -10.391,-3.91 -24.019,-33.04 -71.68,-64.72 -101.25,-62.22 -29.879,1.8 -47.07,25.12 -43.238,45.12 2.308,12.07 10.859,24.41 27.578,27.93 28.629,6.05 47.34,-39.61 21.172,-48.21 -8.942,-2.93 -12.344,-0.74 -9.102,2.89 19.45,8.56 10.782,32.07 -5.59,34.46 -10.308,1.52 -22.3,-5.47 -22.769,-21.57 0.269,-11.99 10.078,-23.75 29.769,-24.02 23.36,-0.31 59.141,16.6 80.891,47.73 15.399,23.79 1.219,15.75 -10.269,-0.11 -10.153,-14.03 -42.93,-33.64 -45.43,-32.89 l 1.129,16.13 c 0.508,-2.81 50.429,31.64 47.5,57.26 -1.871,18.6 0.828,24.26 20.039,24.07 14.379,-0.2 32.66,-5.28 37.969,-11.92 5.472,-6.56 11.64,-8.63 8.91,2.43 -4.418,18 0.859,20.93 -9.449,17.53 -7.149,-2.34 -13.481,3.44 -20.668,8.56 -7.852,5.62 -17.813,8.01 -29.692,7.58 -8.898,-0.32 -12.89,0.23 -11.48,8.67 1.019,5.94 2.148,11.33 0.429,15.23 -2.769,6.33 -13.91,12.89 -26.449,22.23 -14.84,10.98 -12.109,11.64 19.5,84.96 13.281,30.78 13.32,37.11 5.391,59.84 -12.582,35.94 -14.571,50.32 8.98,55.36 13.36,1.52 27.11,2.3 41.059,2.26 z m 133.789,-20.82 12.223,-3.51 c 0.078,0 38.199,-131.29 60,-195.39 6.679,-19.58 11.718,-46.02 13.007,-70.83 -0.589,-34.17 -19.73,-58.71 -43.007,-61.4 -16.524,-1.88 -34.411,6.72 -42.622,25.23 -6.91,17.58 -1.71,38.32 18.211,45.47 34.489,12.38 59.719,-31.91 25.93,-45.55 -17.5,-7.07 -34.101,5.67 -26.242,20.47 5.543,10.36 21.051,9.22 24.762,-1.48 2.968,-11.41 7.929,-6.02 5.82,1.72 -6.41,24.61 -37.813,18.79 -40.352,-3.87 0,-28.12 30.551,-34.73 48.789,-18.94 14.102,12.61 15.582,35.43 12.071,55.19 -4.848,41.06 -27.93,94.34 -44.34,155.12 -8.16,30.39 -20.039,66.56 -24.25,97.77 z m 486.711,-1.44 22.97,-9.18 -0.54,-76.21 -19.46,-6.76 c -25.51,39.22 -4.29,92.11 -2.97,92.15 z m -465.539,-4.96 16.828,-6.53 c 9.223,-53.79 52.661,-156.64 68.011,-233.4 4.26,-46.13 4.96,-59.68 -26.089,-84.25 l 0,0.35 -16.762,0 c 0,0 -0.117,1.01 7.262,6.56 40.669,30.62 16.371,98.05 1.058,149.88 -26.757,82.81 -50.66,167.5 -50.308,167.39 z m -157.352,-5.36 c -2.148,-0.04 -4.289,-0.11 -6.48,-0.23 -25.391,-1.37 -29.571,-3.01 -29.649,-8.59 -0.16,-10.47 4.102,-15.12 27.731,-12.54 20.429,2.22 50.039,-0.98 70.429,-9.81 23.29,-10.08 28.79,-12.46 37.149,-16.8 21.019,-10.89 17.351,-0.03 -1.641,12.5 -38.75,25.67 -65.539,35.86 -97.539,35.47 z m 183.172,-3.71 15.82,-6.05 c 0,0 4.18,-12.42 5.661,-19.53 15.386,-68.68 57.188,-145.9 62.068,-226.25 1.13,-26.33 -3.36,-50.86 -22.54,-62.74 l -14.45,0 c 15.47,15.47 25.74,19.96 21.45,73.75 -6.84,69.1 -52.11,155.43 -68.009,240.82 z m 28.039,-11.17 14.57,-5.39 c 16.76,-92.77 99.97,-231.33 47,-298.2 l -13.21,0 c 11.8,18.55 16.68,34.84 14.93,59.88 -5.16,84.3 -47.86,166.05 -63.29,243.71 z m 24.42,-8.51 15.7,-4.85 c 21.29,-93.94 103.09,-247.97 44.77,-290.55 l -11.49,0.32 c 43.95,82.73 -22.69,168.32 -48.98,295.08 z m 27.34,-8.79 c 4.81,-2.7 11.72,-3.99 16.95,-5.51 16.49,-71.06 46.68,-140.94 60.4,-207.11 4.6,-36.25 -3.29,-63.36 -25.9,-73.67 l -4.81,0 c 20.28,30.82 16.45,69.72 5.63,111.79 -14.57,56.53 -42.85,118.71 -52.27,174.5 z m -247.111,-1.21 c -7.258,0.03 -14.879,-1.06 -22.969,-3.64 -8.238,-3.16 -7.219,-9.69 0.43,-8.36 2.621,0.47 7.191,1.29 10.242,1.84 18.828,3.28 41.988,-3.52 70.117,-20.67 6.75,-4.14 14.141,-8.12 15.973,-9.49 5.16,-3.9 10.668,-3.86 8.789,1.06 -0.782,1.99 -11.602,10.43 -21.172,15.86 -20.508,12.46 -39.528,23.16 -61.41,23.4 z m 273.751,-6.18 15.82,-2.46 c 29.73,-137.5 94.92,-222.97 39.14,-273.98 l -13.94,0 c 15.27,15.7 22.15,40.31 17.11,69.33 -5.2,29.69 -20.39,76.76 -33.05,118.17 -14.61,48.01 -26.41,88.59 -25.08,88.94 z m 22.66,-3.86 13.4,-2.54 c 15.66,-55.9 42.3,-125.16 58.32,-182.89 9.84,-35.47 5.9,-79.22 -16.1,-87.27 l -11.32,-0.19 c 18.67,25.11 21.36,51.28 12.81,85.15 -17.5,69.45 -44.03,130.08 -57.11,187.74 z m 82.62,-0.08 c 13.51,-57.97 45.97,-146.37 57.61,-176.88 15.55,-31.17 10.86,-77.34 -12.46,-95.62 l -11.01,-0.24 c 13.32,12.58 17.89,33.71 15.78,55.67 -6.02,61.95 -49.57,147.89 -65.35,213.9 l 15.43,3.17 z m -58.71,-2.74 13.78,-1.29 c 13.83,-60.62 40.75,-119.53 58.21,-180.15 3.24,-13.71 6.05,-30.39 4.92,-42.7 -2.38,-25.82 -12.97,-46.17 -22.31,-46.17 l -9.53,0 c 19.46,23.32 18.48,55.08 10.2,89.26 -13.75,56.44 -46.99,124.49 -55.27,181.05 z m -359.419,-0.31 c -5.742,-0.04 -5.859,-5.35 3.32,-13.44 5.629,-4.96 5.199,-3.32 4.879,-6.44 -1.359,-13.44 0.75,-25.74 6.219,-11.92 1.48,3.72 3.59,7.86 5.742,7.35 4.059,-1.25 1.988,-8.75 3.938,-12.54 3.32,-6.72 -0.188,-8.32 -8.239,-6.25 -5.781,1.48 -6.09,-1.68 -9.691,-5.7 -6.289,-7.04 -5.27,-11.22 4.422,-9.03 1.597,0.35 2.929,-0.11 4.179,-0.39 3,-0.7 5.782,-2.62 12.969,-8.12 9.211,-7.11 22.301,-16.57 30.781,-18.01 13.59,-2.31 10.54,4.22 -0.589,8.51 -9.532,3.72 -21.371,13.91 -21.332,16.72 0,2.19 3.05,0.9 20.242,5.67 7.461,2.03 17.929,6.68 22.34,8.71 7.308,3.4 7.66,3.36 19.058,3.01 19.461,-0.59 22.422,0.07 8.789,10.27 -27.578,20.59 -64.328,33.98 -83.828,25.43 -5.89,-2.58 -5.781,-0.98 -10.039,1.48 -5.582,3.25 -10.152,4.69 -13.16,4.69 z m 394.419,-1.87 c 19.1,-74.07 56.05,-140.47 65.03,-210.75 2.04,-20.07 -1.29,-39.72 -17.89,-56.71 l -11.21,-0.2 c -1.64,0 15.63,26.87 14.14,49.88 0.47,12.31 -0.9,25.47 -4.37,38.48 -21.68,62.46 -43.05,119.1 -59.65,178.63 l 13.95,0.67 z m -343.72,-24.5 c 4.34,-0.78 4.418,-2.89 2.969,-5.46 -2.219,-4.03 -6.207,-11.8 -6.207,-11.8 0,0 -5.274,-1.06 -6.371,0.31 -1.789,2.62 4.301,15.16 7.82,16.91 0.578,0.36 1.207,0.16 1.789,0.04 z m 12.039,-2.22 c 0.582,0 1.281,-0.28 2.422,-0.74 5,-2 13.668,-6.06 9.918,-9.22 -4.449,-3.75 -21.641,-5.43 -20.82,-3.87 l 5.742,10.7 c 1.211,2.27 1.758,3.13 2.738,3.13 z m -52.738,-64.73 c -0.43,-0.04 -0.82,-0.16 -1.09,-0.31 -1.019,-0.63 1.25,-4.65 4.57,-9.22 15.188,-20.66 -5.863,-26.8 -20.82,-15.74 -14.141,11.09 -36.062,10.04 -32.891,-1.57 1.129,-4.1 0,-6.13 7.93,-6.25 7.031,-0.07 8.86,-0.46 15.192,-4.84 24.257,-16.72 55.589,5.67 40.269,29.61 -2.891,4.53 -10.031,8.48 -13.16,8.32 z m 59.84,-32.34 c -8.821,0 -14.371,-6.6 -3.352,-8.6 39.371,-7.11 12.961,-48.2 -14.808,-27.03 -25,22.74 -58.481,22.58 -58.911,6.45 -0.07,-4.07 0.161,-4.22 6.098,-5.32 13.942,-2.65 34.762,-9.06 42.731,-13.12 4.691,-2.38 9.613,-4.57 10.98,-4.92 16.68,-6.1 38.051,1.83 42.301,15.97 3.871,12.93 0.75,36.57 -25.039,36.57 z M 325.859,1750.71 c 5.27,-0.08 10.86,-4.73 14.879,-11.52 9.223,-15.71 20.473,-42.11 27.621,-56.68 1.84,-3.67 1.911,-6.95 1.801,-8.67 0.539,-8.56 3.391,-11.76 8.43,-7.93 4.93,3.79 11.801,10.11 3.75,11.13 -8.078,6.13 -12.61,15.16 -7.61,20.66 3.711,4.03 2.258,6.64 -0.71,6.84 -11.36,0.16 -28.239,34.14 -20.27,41.44 10.738,9.89 22.621,-2.34 47.969,-52.92 11.133,-22.35 11.64,-46.8 2.109,-34.69 -3.277,3.04 -2.617,1.48 -6.406,-8.13 -2.891,-7.22 -5.231,-10.66 -16.172,-21.25 -13.281,-12.89 -21.371,-23.04 -21.641,-25.27 -0.589,-4.26 7.192,-0.31 12.852,7.15 12.617,12.42 13.09,15.74 12.969,-0.74 -0.078,-14.93 -0.86,-17.66 1.84,-17.54 4.14,0.15 6.359,11.95 8.32,26.17 2.301,12.81 8.898,19.3 19.922,26.4 3.008,1.96 3.078,3.32 2.5,8.99 -2.032,18.08 8.199,51.83 12.847,43.51 0.621,-1.87 2.661,-6.28 3.75,-9.37 0.86,-4.77 3.832,-10.12 8.403,-10.47 5.66,-4.26 5.617,-6.56 7.578,-22.19 0.66,-5.07 2.89,-12.73 4.449,-16.79 2.93,-7.54 5.551,-12 3.91,-14.26 -1.019,-1.1 -3.211,-3.2 -3.211,-3.2 l -92.187,-55 c 0,0 -7.223,-4.03 -9.84,-5.16 -7.301,-3.32 -11.762,-0.86 -15.352,4.65 -19.531,29.29 -32.929,62.19 -46.679,92.54 -8.239,18.04 -0.16,29.96 10.468,15.43 4.141,-5.67 2.032,-9.26 0,-20.16 -0.347,-1.99 1.442,-1.21 4.883,-1.8 5.391,0.59 7.969,-4.25 7.77,-12.46 -3.391,-11.76 1.328,-5.43 3.558,-4.84 4.262,-0.04 5.192,-2.62 7.582,-7.5 1.481,-6.92 4.489,-4.92 8.899,-0.35 3.64,3.75 3.64,3.67 -3.711,12.46 -12.649,13.79 -30.188,44.96 -34.719,63.94 -1.25,5.24 -0.789,9.42 0.149,12.19 5.711,12.97 13.671,13.01 22.351,-5.08 1.481,-3.08 4.371,-8.04 6.442,-11.05 3.359,-4.85 5.386,-9.03 5.308,-16.76 -2.57,-6.48 -3,-6.6 -0.781,-7.5 5.512,-2.19 15.281,-12.19 15.711,-21.13 0.461,-9.1 1.988,-13.95 9.101,-8.56 8.118,6.17 4.649,8.64 -3.32,16.53 -8.402,10.04 -8.91,18.75 -3.91,26.01 0.777,2.42 0.469,3.09 -2.621,2.81 -9.719,-0.97 -19.18,11.45 -12.418,20.86 3.09,5.55 2.738,6.96 -1.641,7.11 -2.301,0.08 -6.09,-0.35 -7.972,0.71 -2.848,5.43 -8.86,13 -8.789,19.21 2.82,8.75 7.23,12.27 11.878,12.23 l -0.039,0 z m 577.731,-0.47 c 16.019,-9.88 31.84,-20.15 49.808,-24.84 -41.636,-75.47 -108.558,-115.9 -164.57,-131.68 1.91,-9.69 3.281,-19.3 12.543,-25.24 -0.32,1.49 -4.422,18.6 -3.519,22.15 77.148,19.81 145.078,95.94 162.418,135.16 l 339.07,3.71 c -251.33,-242.77 -261.37,-584.49 -56.29,-870.859 l -23.6,-13.871 c -158,238.32 -156.4,467.97 -108.98,621.76 33.59,109.03 93.91,192.31 139.73,239.92 0,0 -183.83,2.54 -275.36,-0.86 -13.281,-20.46 -25.621,-37.18 -43.512,-56.52 0,0 46.481,45.2 45.313,53.05 84.769,0.04 172.229,5 256.909,-0.94 -99.1,-119.41 -147.96,-242.7 -156.44,-358.67 -0.31,-15.08 -1.21,-6.68 -6.17,-12.23 l -15.63,-24.41 -12.54,25.39 c -8.51,2.77 -25.27,-1.68 -32.42,0.9 -34.838,-156.6 0.39,-345.629 46.25,-468.988 0,0 -11.52,-6.481 -25.66,-5.391 -15.55,3.481 -19.34,-0.859 -32.78,-3.59 -15.43,-2.972 -20.859,-2.929 -24.25,-6.882 -1.922,-2.18 -5.359,-5.231 -9.262,-7.379 -37.66,-13.75 -81.839,-65.391 -81.839,-64.692 l -41.438,18.75 C 879.57,869.5 924.41,896.691 1003.2,930.199 l -7.341,33.75 C 911.949,932.469 858.52,894.77 816.41,821.57 c -51.101,0.7 -258.129,2.192 -258.32,1.52 84.41,96.68 151.012,242.54 158.281,356.25 1.789,22.15 -1.293,11.49 8.43,18.09 l 15.32,18.36 11.988,-18.09 c 0,0 8.672,-11.13 14.18,-1.83 15.391,158.55 -0.898,339.33 -76.758,465.39 13.438,0.86 26.879,1.25 39.77,-6.45 29.679,-67.65 47.148,-151.25 54.758,-213.94 9.613,-79.3 8.242,-168.79 -1.559,-244.73 l 5.078,-0.7 c 14.801,98.71 9.762,203.75 -3.789,295.51 -6.988,47.89 -29.41,122.77 -44.84,157.34 -4.258,9.57 -7.578,12.03 -3.519,13.44 92.461,7.85 134.961,38.9 168.16,88.51 z m -256.36,-8.36 c 7.071,0 12.809,-5.74 12.809,-12.89 0,-7.11 -5.738,-12.89 -12.809,-12.89 -7.07,0 -12.82,5.78 -12.82,12.89 0,7.15 5.75,12.89 12.82,12.89 z m 695,-6.56 c -27.07,-24.65 -48.83,-50.23 -71.68,-77.46 67.61,-93.63 142.77,-195.16 205.93,-276.25 0,0 21.88,13.05 21.8,14.69 -0.08,0.86 -1.76,5.15 -2.15,4.18 -0.93,-2.23 -17.69,-11.68 -17.69,-11.68 l -200,264.26 c 0,0 10.86,13.08 14.18,17.18 15.54,5.12 58.79,59.07 60.9,57.93 33.9,-26.09 136.05,-136.87 175.39,-170.82 l 0.5,-307.46 c -4.06,-12.3 -112.96,-59.73 -189.92,-236.6 -38.67,-21.802 -81.56,-33.56 -121.4,-52.54 0,0 10.15,-16.051 15.11,-20.469 -6.09,13.239 -7.18,15.778 6.64,21.449 l 287.86,118.12 -0.55,-23.87 c -28.87,-22.46 -219.73,-161.519 -278.44,-194.371 -275.472,386.681 -99.88,717.341 60.67,871.951 l 32.85,1.76 z m -896.96,-20.86 c 7.5,-0.15 5.589,-17.69 2.82,-23.75 -5.551,-4.41 -11.059,-0.51 -10.942,7.7 0,2.69 -0.507,5.23 -1.168,5.66 -4.14,2.66 2.809,10.47 9.29,10.39 z m 168.21,-10.98 c 6.321,-4.84 8.668,-11.28 11.008,-17.73 -8.547,1.37 -31.398,7.97 -20.66,13.09 l 9.652,4.64 z m -41.601,-22.81 C 770.551,1378.13 761.641,1056.84 539.922,813.289 l 280.508,0.43 c 35.699,70.941 95.191,114.179 171.289,140.82 l 6.64,-22.269 C 910.898,903.988 866.641,857.121 831.449,792.16 l -334.539,0 c 128.52,139.25 187.43,256.87 196.68,416.01 8.832,151.53 -29.449,289.96 -145.738,456.49 l 24.027,16.01 z m 55.973,-3.47 46.878,-22.31 -6.96,-48.4 -49.059,22.78 9.141,47.93 z m -84.454,-13.6 C 793.949,1281.96 686.48,1013.52 486.449,790.129 l -36.84,-0.629 -85.898,80.352 1.559,-488.243 c 0,0 -83.75,-82.621 -93.36,-92.5 -9.531,-9.218 -16.64,4.922 -16.64,4.922 l 0.199,647.27 3.75,25.347 1.133,139.492 53.398,28.32 200.16,-264.179 c 0,0 -8.051,-11.953 -11.762,-14.062 4.262,-9.61 18.442,14.371 19.653,18.242 C 449.18,965.051 314.18,1142.39 314.18,1142.39 l -56.211,-29.57 c 0,0 1.64,115.82 0.621,160.27 2.148,10.47 9.961,7.66 15.238,12.35 73.082,47.81 133.363,116.52 184.613,233.71 38.981,12.77 79.84,30.9 118.981,47.19 l -56.371,85.11 22.347,12.15 z m -153.558,-4.88 c -2.11,0.04 -7.5,-2.42 -14.762,-9.06 -13.398,-12.27 -31.098,-32.43 -31.168,-36.25 3.59,-1.33 6.789,0.78 9.68,3.71 11.211,16.68 28.601,23.2 38.75,37.81 1.57,2.73 -0.07,3.83 -2.5,3.79 z m 126.211,-17.7 c 0,0 38.871,-57.03 48.789,-72.18 -102.418,-40.82 -209.57,-94.77 -304.531,-129.65 l 0,22.85 c 0,0 178.281,134.61 255.742,178.98 z m 152.39,-37.69 38.321,-19.92 -10.821,-43.52 -38.671,21.76 11.171,41.68 z m 31.598,-72.42 31.481,-23.09 -14.372,-36.91 -31.718,21.99 14.609,38.01 z M 443.16,1503.88 c 0,0 -4.879,-17.15 -13,-32.47 -38.949,-68.16 -77.07,-128.71 -155.859,-181.32 -2.973,2.69 -11.571,17.81 -11.571,17.81 l -0.781,20.19 c 41.762,33.79 77.821,58.6 133.129,157.7 l 16.012,6.56 13.68,-5.94 9.21,16.61 9.18,0.86 z m 163.828,-0.16 C 570.699,1426.18 535,1346.18 477.148,1285.79 L 635.43,1063.33 c 52.07,157.07 32.73,304.26 -28.442,440.39 z m -199.097,-16.91 -7.621,-13.25 13.171,-7.65 7.579,13.24 -13.129,7.66 z m -21.481,-1.45 c -28.68,-64.53 -71.719,-114.22 -128.211,-149.92 l -2.179,94.72 130.39,55.2 z m 10.07,-19.26 -7.57,-13.24 13.121,-7.66 7.617,13.25 -13.168,7.65 z m 323.442,-2.77 28.558,-27.27 -16.96,-30.08 -29.25,24.38 17.652,32.97 z m 437.068,-13.4 c 0,-0.04 -0.08,-0.08 -0.08,-0.08 -50.11,-156.91 -35.07,-306.83 33.71,-437.3 33.76,84.57 61.45,141.17 127.35,231.21 -40.59,53.51 -156.88,207.85 -160.98,206.17 z m -771.72,-2.54 -7.969,-13.01 12.929,-8 7.969,13 -12.929,8.01 z m 218.789,-18.28 c 45.203,-108.79 41.211,-206.88 17.191,-291.91 l -112.891,143.59 c 41.332,51.72 68.789,100.66 95.7,148.32 z m -230.43,-0.39 -8.551,-12.62 12.543,-8.67 8.551,12.7 -12.543,8.59 z m -12.609,-18.09 -9.379,-12.07 11.988,-9.41 9.34,12.07 -11.949,9.41 z m 371.91,-12.85 25.59,-24.41 -16.141,-31.72 -25.969,23.91 16.52,32.22 z m -386.68,-5.94 -9.801,-11.6 11.52,-9.88 9.84,11.6 -11.559,9.88 z m 824.61,-3.43 113.87,-147.97 c -38.09,-45.63 -69.73,-99.42 -98.05,-157.42 -31.72,100.11 -46.06,198.51 -15.82,305.39 z m -840.59,-14.96 -10.5,-11.06 10.929,-10.58 10.512,11.05 -10.941,10.59 z m 266.019,-14.81 -52.109,-75.86 59.769,-76.8 c 6.403,41.57 7.852,89.81 -7.66,152.66 z m -283.008,-2.46 -11.211,-10.35 10.27,-11.29 11.211,10.35 -10.27,11.29 z m -16.441,-14.8 -11.84,-9.65 9.609,-11.88 11.762,9.65 -9.531,11.88 z m 445.07,-7.82 21.41,-25.19 -21.718,-25.9 -20.313,23.01 20.621,28.08 z m 272.04,-4.53 14.53,-0.55 c -23.83,-236.71 23,-356.519 64.45,-460.66 0,0 -0.12,-4.179 -1.48,-5.429 -6.76,-2.34 -20.43,-4.84 -31.37,4.839 -55.78,144.3 -67.932,322.08 -46.13,461.8 z m -736.251,-3.05 -12.308,-8.98 8.871,-12.38 12.34,8.94 -8.903,12.42 z m 910.851,-8.43 c -3.67,0 -6.91,-97.39 7.04,-144.92 l 52.42,71.48 -59.46,73.44 z m -135.5,-16.06 17.54,-23.71 -18.6,-25.51 -19.02,24.18 20.08,25.04 z m -789.57,-6.44 c 0.86,0.15 2.301,-2.35 5.11,-4.3 2.621,-2.73 2.269,-2.54 -0.699,-4.88 -4.571,-3.67 -5.942,-3.09 -5.86,2.65 0.391,4.73 0.739,6.41 1.449,6.53 z m 479.45,-17.82 19.371,-27.89 -21.442,-27.77 -18.32,29.22 20.391,26.44 z m 308.59,-35.35 20.39,-25.04 -17.53,-27.42 -22.27,26.21 19.41,26.25 z m 472.35,-5.27 1.79,-28.87 -7.07,10.55 -12.93,-10 9.03,-12.07 11.33,8.87 0.7,-11.64 c -71.88,-52.27 -102.85,-112.31 -131.99,-157.39 l -12.97,-5.5 -14.77,4.72 -7.22,-12.85 -12.54,-3.01 c -0.35,0.08 25.19,55.24 68.9,111.33 38.95,49.96 107.54,106.29 107.74,105.86 z m 8.32,-45.16 0.62,-102.54 -128.59,-50.03 c 33.36,57.26 72.73,110.39 127.97,152.57 z m -31.96,12.46 -11.71,-9.68 10.11,-11.68 11.68,9.68 -10.08,11.68 z m -18.04,-15.43 -11.33,-10.15 10.55,-11.33 11.32,10.23 -10.54,11.25 z m -429.38,-5.66 24.26,-26.01 -17.77,-30.67 -25.24,24.34 18.75,32.34 z m 411.1,-10.94 -10.59,-10.93 11.6,-11.25 10.63,10.93 -11.64,11.25 z m -16.72,-17.26 -10.2,-11.37 12.35,-10.74 10.23,11.33 -12.38,10.78 z m -16.8,-19.34 -9.45,-11.99 12.85,-10 9.45,12.03 -12.85,9.96 z m -369.26,-18.4 30.32,-19.8 -14.81,-36.29 -30.27,23.2 14.76,32.89 z m 354.65,-0.15 -8.9,-12.42 13.67,-9.42 9.02,12.85 -13.79,8.99 z m -13.71,-19.61 -8.24,-12.85 13.83,-8.95 8.2,13.28 -13.79,8.52 z m -12.23,-19.42 -7.57,-13.24 14.33,-8.24 7.58,13.4 -14.34,8.08 z m -11.05,-20.07 -7.58,-13.25 15.86,-6.91 6.29,12.62 -14.57,7.54 z m -301.25,-8.21 31.01,-21.13 -13.71,-38.052 -32.73,23.322 15.43,35.86 z m 448.83,-37.38 0,-783.868 -338.99,0 c 0,0 -15.97,28.359 -49.41,93.75 -14.14,27.699 -26.09,39.457 -27.35,61.367 1.29,12.852 -4.6,27.461 -15.07,33.359 -3.52,1.954 -9.42,-0.429 -7.46,5.082 2.18,6.051 -4.46,15.391 -6.29,17.379 -2.07,3.52 -0.78,4.371 -0.98,17.422 -0.23,12.617 -0.9,17.891 -3.59,27.418 -6.76,24.071 -8.28,36.102 -4.38,48.563 10.08,31.636 20.59,55.937 34.18,85.429 7.93,17.297 6.72,24.02 -17.54,36.598 -18.2,9.371 -20.58,9.262 -18.32,23.012 1.1,6.398 2.07,10.469 0.74,13.59 -0.82,1.879 -3.82,4.531 -5.58,6.058 -2.38,2.031 -1.68,6.25 0.74,9.371 2.38,3.09 2.42,7.461 0,14.809 -4.96,15.391 6.29,35.82 27.5,49.922 9.38,6.211 9.1,4.918 18.91,-5.43 28.59,-30.242 71.09,-11.25 71.17,31.399 0,13.289 -4.49,12.5 8.01,18.75 42.3,27.109 129.14,76.41 128.59,75.082 5.63,-11.602 7.54,-21.524 11.09,-34.024 3.09,-10.699 2.7,-11.519 1.57,-32.379 -1.06,-18.871 -1.64,-23.25 2.77,-24.461 25.08,-2.769 30.78,6.141 35.59,22.422 2.07,7.192 6.09,5.75 8.55,2.699 9.53,-17.461 21.6,-35.629 29.53,-48.05 9.88,-15.86 26.6,-23.75 35.31,-16.25 1.84,6.171 3.36,6.332 14.42,3.832 13.44,-3.082 21.05,4.488 22.34,14.418 0.55,3.98 -2.34,3.82 4.85,7.73 17.85,13.281 11.05,31.441 8.35,42.34 0.24,-0.578 7.62,4.531 7.78,14.769 0.86,53.082 -44.85,129.571 -43.83,127.622 l 66.8,40.27 z m -430.24,-30.591 36.29,-17.648 -8.55,-43.641 -37.27,16.879 9.53,44.41 z m 353.01,-16.211 c 20.86,-24.41 35.98,-65.078 43.79,-91.558 3.83,-13.2 4.3,-28.239 0.86,-30.352 -3.4,-2.066 -4.96,0.152 -4.34,8.051 0.55,6.562 0.75,11.641 -2.07,11.562 -8.08,-2.113 -8.4,10.27 -7.58,13.161 0.55,1.957 1.57,3.32 2,4.378 1.99,4.801 -3.25,4.141 -8.64,4.219 -4.76,-0.121 -6.01,2.813 -5.78,7.379 -0.15,5.043 -6.79,4.063 -10.58,0.192 -3.48,-3.469 -2.74,-7.61 1.95,-10.5 6.72,-4.18 13.09,-14.379 28.79,-49.61 9.1,-20.43 6.41,-34.93 -4.45,-34.769 -7.5,0.238 -16.29,20.98 -23.4,36.289 -1.8,3.949 2.77,8.359 4.37,10.511 4.18,5.508 3.56,7.219 -2.61,7.34 -5.79,0.078 -8.25,-0.429 -11.76,6.758 -1.29,2.691 -2.27,6.84 -1.8,9.449 2.97,7.934 -3.12,9.852 -9.1,6.801 -7.46,-3.16 -7.42,-9.879 4.02,-20.898 7.35,-12.153 5.43,-11.332 -1.56,-19.493 -1.45,-2.886 -0.59,-4.687 2.5,-4.726 8.83,2.738 18.48,-13.32 15.86,-18.793 -2.73,-2.379 -10.12,-10.899 -2.97,-9.25 14.57,3.98 23.4,-17.5 14.84,-24.77 -12.77,-6.449 -15.82,-4.449 -35.5,35.2 -6.14,12.261 -13.48,25.5 -14.38,26.871 -0.9,1.332 -1.33,4.961 -1.29,7.89 0.86,7.192 -2.15,8.789 -8.36,5.942 -4.65,-1.102 -8.83,-4.961 -2.93,-8.602 6.84,-11.91 9.3,-13.859 5.51,-16.871 -8.59,-6.879 -4.84,-6.598 4.77,-8.519 4.68,-1.442 7.11,-3.86 8.4,-6.79 4.96,-11.25 13.75,-27.109 14.64,-30.32 2.89,-8.238 -2.34,-11.949 -9.57,-11.601 -7.54,-0.188 -10.97,5.82 -14.65,10.941 -13.67,19.18 -23.55,38.16 -37.53,59.922 l 1.87,20.348 c 0,0 3.67,-0.821 5.74,0.199 4.03,1.953 6.41,8.281 8.71,16.761 3.68,7.34 25.36,24.059 33.64,33.04 1.56,1.019 2.85,2.699 2.85,3.71 -0.08,3.29 -9.42,1.098 -15.55,-6.011 -9.06,-8.09 -12.93,-5.309 -12.62,5 -0.89,12.769 -8.63,6.371 -9.02,-6.09 -1.01,-9.848 -4.41,-15.859 -11.25,-21.367 -12.89,-10.391 -10.74,-7.782 -10.16,-22.192 1.06,-25.191 -8.59,-45.898 -14.92,-32.148 -2.22,4.848 -4.84,10.387 -10.5,10.629 -3.99,0.187 -5.98,4.14 -8.17,13.859 -3.28,15.789 -7.81,25.899 -11.99,40.43 l 119.92,68.398 z m -321.56,-54.258 41.8,-16.75 -7.82,-44.031 -41.4,15.942 7.42,44.839 z m 318.71,-4.058 c -0.27,0 -0.63,-0.082 -0.98,-0.231 -11.76,-8.953 -22.61,-19.031 -35.47,-26.722 -4.8,-2.848 -10.43,-10.27 -10.46,-12.231 0,-1.949 5.74,-1.867 11.32,0.59 5.32,2.301 35.63,30.981 35.67,33.633 2.07,2.309 1.87,5.078 -0.08,4.961 z M 1062.46,853.48 c 9.88,0.04 4.14,-2.921 -17.42,-18 -21.06,-14.691 -55.739,-61.171 -59.81,-78.441 -1.789,-7.848 3.129,-8.437 8.68,2.301 25.58,49.5 73.9,94.691 118.2,92.66 21.68,-0.98 33.4,-6.871 15.43,-9.449 -49.18,-6.063 -85.98,-34.34 -118.16,-90.672 0,-1.25 2.92,-1.168 6.28,0.98 29.46,36.289 62.66,84.34 120.98,80.43 42.07,-2.539 54.02,-52.93 19.1,-70.117 -30.43,-15 -58.51,21.527 -33.28,43.168 8.2,7.031 13.32,3.941 5.43,-3.25 -16.87,-15.43 3.83,-42.891 24.41,-32.461 12.5,5.281 17.58,23.32 6.53,36.961 -24.53,30.308 -77.42,7.262 -114.26,-41.719 -3.87,-5.16 -7.19,-16.332 -3.95,-15.121 5.71,2.379 9.18,6.879 12.54,11.949 13.17,18.36 23.25,27.582 41.06,37.461 13.79,7.621 14.61,6.219 9.49,-7.031 -2.19,-5.578 -3.91,-7.418 -9.26,-10.899 -22.42,-15.421 -36.36,-36.089 -36.91,-49.25 -0.43,-9.609 6.56,-22.191 -1.02,-24.769 -12.85,-6.09 -47.89,-1.09 -57.34,11.059 -6.801,8.75 -9.45,3.71 -4.34,-10.551 3.359,-9.379 3.25,-14.688 8.32,-13.75 6.45,3.441 10.86,2.66 23.36,-4.219 6.02,-3.32 16.68,-6.41 23.21,-7.93 11.83,-2.73 14.33,-1.601 14.06,-6.761 -0.08,-1.559 0.47,-6.008 0.12,-8.829 -1.96,-15.582 10.97,-20.851 28.55,-31.089 10.27,-5.981 6.21,-12.11 -5.66,-41.719 -6.21,-13.402 -11.49,-31.442 -19.1,-45.043 -7.15,-15.27 -7.74,-32.027 -3.17,-51.09 8.56,-35.391 14.69,-53.359 -0.51,-56.559 -39.14,-5.941 -125.579,-5.71 -172.809,12.54 -12.07,91.25 -76.012,226.558 -67.813,261.558 16.372,-24.848 85,-18.277 64.332,51.211 0,0 5.629,8.481 16.801,19.883 28.828,29.418 35.938,34.297 22.231,8.359 -10.512,-19.922 -23.91,-45.902 -24.223,-50.941 -0.238,-4.02 2.852,-4.961 5.27,-1.75 1.8,2.379 3.953,8.16 5.82,12.539 17.152,40.5 46.531,76.992 66.762,85.781 5.199,2.262 4.918,-0.16 1.328,-4.609 -23.789,-29.813 -41.989,-57.391 -54.918,-93.403 -0.551,-3.707 4.679,-5.269 6.32,-1.718 22.348,47.109 29.027,57.808 56.449,90.98 10.78,13.039 20.82,19.649 28.87,18.942 6.91,-0.622 4.84,-1.762 -1.56,-8.672 -4.89,-5.231 -12.15,-12.578 -23.829,-27.379 -20.672,-26.172 -41.449,-68.789 -33.789,-66.571 1.328,-3.511 7.808,7.782 13.316,18.598 15.121,25.512 31.132,59.262 66.992,81.402 7.5,3.129 15.66,4.93 22.89,5 z m -693.358,-8.199 63.867,-64.261 128.402,1.64 c -21.172,-33.121 -9.851,-84.488 1.789,-114.531 22.891,-58.82 56.449,-155.969 53.949,-157.379 0,0 -18.668,-4.84 -20.347,-16.762 -2.5,-17.687 5.117,-16.359 -5.864,-32.34 -2.457,-3.589 -0.859,-10.347 1.762,-15.738 1.75,-3.949 3.391,-9.89 0.149,-14.531 l -113.278,-203.207 -217.031,0 0,39.379 109.73,109.719 -1.332,80.75 c 58.711,-17.579 78.872,-78.559 83.903,-123.75 106.058,97.46 103.437,244.179 3.25,336.21 C 438.48,573.172 368.52,552.98 370.078,554.891 l -0.976,290.39 z m 798.628,-11.562 c 6.88,-0.508 16.14,-1.598 22.43,-5.039 -4.26,-2.539 -7.27,-5.59 -10.12,-8.75 -3.44,6.129 -8.05,9.492 -12.31,13.789 z m 178.01,-0.699 c 5.71,0.039 12.74,-16.84 8.71,-20.79 -2.26,-2.179 -9.65,-3.039 -12.26,-1.359 -3.4,2.5 -1.68,22.149 3.55,22.149 z M 1143.2,803.801 c 7.39,0 13.32,-6.02 13.32,-13.442 0,-7.418 -5.93,-13.437 -13.32,-13.437 -7.38,0 -13.36,6.019 -13.36,13.437 0,7.422 5.98,13.442 13.36,13.442 z m -564.802,-19.141 9.614,-0.238 c -17.461,-23.551 -19.852,-43.832 -13.633,-73.203 6.992,-33.09 60.191,-157.34 63.633,-191.559 0.109,-1.57 0.269,-5.898 0.269,-5.898 l -13.051,-0.903 c 0,0 -0.968,3.52 -1.402,4.879 -18.277,61.992 -36.488,109.223 -49.219,145.352 -12.699,38.949 -32.109,96.68 3.789,121.57 z m 70.313,-0.238 c 0.117,0 0.199,-0.043 0.238,-0.043 l 9.25,-0.07 c -0.347,-0.239 -13.789,-29.258 -14.758,-46.879 -1.101,-20 3.707,-41.758 10.27,-63.2 15.551,-46.492 38.238,-98.21 50.898,-156.878 0.121,-0.661 1.52,-6.372 1.52,-6.372 l -13.707,1.879 c 0,0 -1.332,5.981 -1.481,6.84 -9.461,51.563 -35.82,105.11 -51.531,155.891 -8.039,23.09 -13.672,51.449 -10.781,73.129 2.031,15.312 17.269,35.39 20.082,35.703 z m 111.801,-0.113 c -9.813,-15.278 -18.711,-34.418 -19.34,-49.418 -0.551,-27.891 7.5,-51.442 15.59,-76.09 C 781.559,582.898 793.59,542.859 806.02,482 l -13.211,5.66 c 0,0 -0.508,3.442 -0.778,4.418 -7.07,38.121 -7.5,34.801 -48.91,162.973 -9.68,30.777 -18.941,57.769 -17.141,83.359 0.43,14.61 13.079,43.512 26.399,45.82 l 8.133,0.079 z m 15.816,0 12.301,0 c 0,0 -6.75,-7.231 -8.707,-9.93 C 758.398,744.34 764.609,712.121 775.309,673.719 790,620.871 817.148,561.77 831.371,481.18 c 0.27,-1.481 0,-9.258 0,-9.258 l -14.652,5.937 C 803.398,551.73 770.59,628.328 754.77,694.73 c -9.34,39.032 -6.68,63.68 14.839,84.93 5.352,4.18 6.719,4.649 6.719,4.649 z m -150.199,-0.43 9.223,0 c 0,0 -15.391,-25.469 -15.391,-40.43 -2.582,-26.84 7.07,-56.449 18.129,-87.5 17.031,-47.738 39.531,-105.429 46.398,-135.789 0.282,-1.211 1.211,-6.64 1.211,-6.64 l -16.09,0.82 c 0,0 -0.82,7.39 -1.8,10.75 -18.508,65.308 -36.598,107.57 -57.887,167.18 -3.242,9.031 -8.363,44.73 -2.301,67.859 4.758,18.16 18.508,23.75 18.508,23.75 z m -24.649,-0.039 9.93,-0.281 c 0,0 -1.488,-2.731 -5.281,-9.25 -18.117,-33.047 -10,-63.207 1.211,-96.797 15,-44.852 38.519,-99.614 53.211,-151.41 0.82,-2.93 1.949,-11.762 1.949,-11.762 l -14.34,0.199 c 0,0 -2.93,10.59 -3.121,11.723 -8.051,48.008 -51.641,128.078 -63.008,188.976 -6.211,32.703 -0.859,52.934 19.449,68.602 z m 133.008,0 c 0,0 -15.66,-27.352 -17.066,-42.578 -2.813,-29.883 6.598,-54.614 17.348,-88.321 18.589,-58.132 44.8,-126.371 47.14,-157.543 0.078,-1.019 0.469,-4.808 0.469,-4.808 l -16.168,5.789 c 0,0 -0.699,3.242 -1.012,4.371 -14.07,56.449 -30.711,112.621 -53.09,175.98 -5.507,21.36 -12.73,42.848 -12.109,61.25 3.281,24.489 7.422,31.129 21.91,45.661 l 12.578,0.199 z m 71.024,-0.039 13.008,-0.281 c 0,0 -3.872,-2.11 -13.168,-12.071 -51.25,-47.14 31.949,-180.39 51.128,-301.679 0.2,-1.321 0.821,-5.891 0.821,-5.891 l -14.332,5.191 c -1.328,6.059 -2.348,13.399 -4.02,20 -15.551,61.989 -36.289,125.782 -55.32,183.59 -10.699,42.149 -14.609,79.262 4.609,100 6.024,7.192 17.274,11.141 17.274,11.141 z m -133.711,-0.082 13.859,-0.391 c -10,-12.617 -15.89,-32.308 -16.398,-49.808 -0.551,-20.7 4.957,-40.821 11.718,-62.141 13.86,-43.68 33.711,-91.141 47.301,-150.078 0.778,-3.91 1.41,-6.41 1.758,-8.09 0.582,-2.691 2.109,-6.992 2.109,-6.992 l -14.609,2.929 c 0,0 -1.488,3.832 -2.461,5.821 -1.488,3.011 -2.848,6.871 -4.027,11.48 -7.102,30.75 -33.121,100.512 -48.981,149.422 -12.582,30.82 -16.019,84.719 9.731,107.848 z m 172.847,-0.547 c 17.692,0.668 33.711,-14.492 37.5,-28.672 3.672,-15.121 -1.058,-32.148 -17.539,-40.551 -26.757,-13.668 -55.55,22.621 -34.41,42.621 15.973,15.121 39.641,3.95 34.492,-15.429 -3.32,-12.621 -22.312,-13.442 -25.472,-0.7 -0.86,4.219 -2.969,8.469 -4.489,6.129 -9.808,-23.281 23.239,-34.14 36.989,-12.5 8.121,17.34 -7.379,39.692 -30.199,35.43 -31.29,-5.82 -34.879,-45.82 -21.872,-92.422 18.122,-73.707 61.332,-172.848 61.25,-218.359 0,-0.59 0.153,-2.457 0.153,-2.457 l -13.711,4.097 c 0,0 -0.11,0.782 -0.192,1.45 -8.238,63.55 -55.117,168.781 -68.558,249.64 -5.86,36.922 8.441,63.68 40.512,70.981 1.878,0.429 3.707,0.66 5.546,0.742 z M 708.91,782.59 c -9.648,-12.969 -15.941,-32.43 -16.25,-46.328 -0.281,-20.352 6.988,-40.203 12.961,-61.41 15.16,-52.34 50.629,-149.024 49.34,-167.153 0.348,-1.91 1.328,-7.929 1.328,-7.929 l -13.711,4.07 c 0,0 -0.508,0.89 -1.558,3.359 -4.571,18 -26.25,95 -50.59,161.563 -9.34,26.758 -13.91,47.617 -13.239,65.386 1.95,24.454 8.938,34.692 19.571,48.321 l 12.148,0.121 z m 260.66,-86.801 c -35.468,-2.027 -32.07,-45.59 -10.082,-52.969 7.852,-2.191 12.461,-0.308 13.711,1.41 1.449,1.989 -0.148,4.961 -5.308,5.739 -14.922,4.922 -20.27,22.621 -6.801,30.043 7.39,3.867 19.109,1.367 33.289,-9.184 25.311,-18.906 56.361,-20.078 52.301,-0.976 -0.98,4.609 -2.97,5.238 -21.52,7.777 -15.04,2.07 -21.84,6.871 -28.398,10.43 -10.352,5.621 -19.461,7.961 -27.192,7.73 z M 461.559,655.281 c 91.679,-90.152 78.089,-231.441 -0.231,-302.152 -1.598,5.711 -5.039,19.691 -5.387,19.301 58.86,61.679 86.598,162.851 1.36,266.519 0.429,-0.39 1.879,7.5 4.258,16.332 z m 574.531,-2.383 c -0.86,-0.039 -1.64,-0.117 -2.3,-0.347 -23.75,-6.531 -28.67,-30.16 -13.24,-39.891 9.41,-5.969 16.68,-2.301 4.92,4.891 -10.04,6.211 -5.08,22.418 7.11,22.258 5.31,-0.079 8.94,-2.418 22.5,-12.5 11.17,-8.239 21.64,-8.899 24.06,2.312 1.41,6.68 -0.82,9.649 -7.93,7.891 -3.12,-0.742 -4.96,1.09 -9.22,4.058 -9.49,6.641 -19.84,11.45 -25.9,11.328 z M 452.07,635.199 c 82.66,-96.558 56.129,-197.301 0.391,-256.289 -15.27,45.469 -52.813,73.828 -52.813,73.828 14.141,31.571 22.582,64.532 -3.867,106.172 24.61,22.391 44.957,46.961 56.289,76.289 z m 536.91,-35.23 c -3.902,0.082 -2.609,-3.707 6.532,-10.117 21.758,-14.922 23.628,-17.622 2.5,-17.262 -5.352,0.308 -13.711,-3.52 -18.481,-5.121 -27.543,-9.258 -28.871,-8.52 -42.07,-5.391 -4.371,1.012 -8.832,2.891 -10.781,1.133 -2.969,-2.731 -6.289,-4.531 -2.539,-8.633 2.738,-2.969 7.808,-5.238 13.98,-8.789 32,-18.48 34.891,-22.891 72.499,-23.867 4.34,-0.113 6.53,2.148 9.07,2.148 6.13,0.078 9.37,-1.41 15.54,-7.109 11.37,-10.473 11.92,-2.891 5.16,10.82 -3.55,7.188 -6.64,8.91 -4.92,14.379 3.98,12.461 -1.68,14.918 -9.06,3.899 -5.55,-8.629 -6.18,-8.43 -11.45,2.66 -6.95,13.871 -3.67,20.269 6.88,11.25 8,-6.879 10.04,-1.758 13.16,3.672 4.06,7.109 3.44,13.519 -3.87,12.968 -4.18,-0.347 -8.12,1.602 -11.4,5.231 -6.49,7.109 -18.87,16.019 -30.75,18.129 z m 9.032,-37.539 c 0.898,-0.039 1.476,-0.391 1.758,-1.328 0.109,-4.571 -3.008,-13.903 -5.59,-18.793 -0.821,-2.18 -2.231,-2.457 -4.18,-2.848 -6.602,-1.25 -7.031,0.82 -5.859,4.918 2.418,6.371 4.41,15.391 12.929,18.012 0.352,0.039 0.66,0.039 0.942,0.039 z m -16.762,-3.16 c 2.699,0.191 2.77,-0.942 1.719,-3.36 -1.918,-4.101 -5.27,-8.012 -7.77,-11.25 -5.277,-3.441 -13.871,7.11 -10.078,9.801 5.309,2.109 9.289,4.301 14.84,4.648 0.508,0.082 0.937,0.121 1.289,0.161 z m -591.949,-6.879 c 1.437,0 2.89,-0.27 4.371,-0.942 20,-27.179 18.629,-68.551 3.129,-91.398 -1.18,-1.723 -2.352,-2.031 -4.301,-1.371 -6.68,3.98 -15.16,5.468 -21.52,7.769 l 0,79.571 c 6.52,1.371 12.18,6.371 18.321,6.371 z M 916.25,545.91 c -1.52,-0.082 -2.148,-1.14 -0.199,-3.129 29.148,-21.25 69.258,-45.859 106.289,-36.332 3.4,0.75 6.14,2.621 5.47,6.141 -0.39,2.18 -4.18,4.101 -8.24,3 -8.48,-2.262 -24.769,-2.531 -31.449,-1.481 -25.461,4.219 -47.922,20.621 -67.5,30.2 -1.441,1.132 -3.16,1.64 -4.371,1.601 z m -8.52,-20.281 c -1.281,0.082 -1.171,-1.25 -0.351,-3.707 4.101,-12.301 45.351,-40.973 77.93,-50.473 28.011,-8.121 68.211,-0.109 65.861,13.25 -1.21,6.992 -6.33,8.672 -24.18,6.36 -39.291,-7.688 -77.15,8.519 -105.861,26.492 -7.731,4.918 -11.719,8.008 -13.359,8.078 l -0.04,0 z M 650.309,508.801 c 17.152,0.187 34.179,-1.211 52.582,-4.301 35.859,-6.129 77.339,-17.301 112.5,-33.711 59.687,-22.539 134.73,-39.961 198.439,-37.578 15.55,-0.473 43.63,0.898 49.06,2.699 14.22,3.199 18.13,0.149 21.52,-17.582 0.59,-3.867 1.8,-4.957 6.72,-8.359 7.54,-5.117 6.29,-10.199 5.35,-21.559 -0.78,-9.57 4.97,-14.93 27.97,-57.66 26.17,-48.629 51.68,-105.121 51.68,-105.121 -229.368,0.16 -448.2,8.711 -682.892,1.371 21.102,50.391 78.641,141.289 114.731,214.219 -8.75,22.422 2.031,26.25 -2.5,31.562 -7.309,12.5 -2.028,30 13.441,33.949 10.738,1.211 21.09,1.95 31.399,2.071 z"
         inkscape:connector-curvature="0"
         id="path20"
         style="fill:#131f67;fill-opacity:1;fill-rule:nonzero;stroke:none" /><path
         d="m 495.898,225.441 c 0,0 75.192,153.008 106.832,198.868 45.59,58.16 251.25,-25.278 353.52,-46.137 41.602,-8.082 137.97,-4.293 137.97,-4.293 l 80.55,-146.18 -678.872,-2.258 z m -156.058,173.868 -3.199,476.32 23.558,-14.758 5.391,-478.48 -101.719,-98.082 -0.59,28.75 76.559,86.25 z m 61.57,54.332 c 24.211,49.097 -2.82,109.058 -2.82,109.058 14.031,-3.508 53.211,71.332 56.68,69.18 59.929,-74.02 70.32,-184.289 -2.891,-252.649 -18.508,47.54 -50.738,74.411 -50.969,74.411 z m 44.719,336.918 c 45.551,46.832 81.641,83.351 117.742,135.781 2.969,4.25 -192.109,253.79 -189.101,258.16 30.109,33.48 70.429,58.09 101.832,98.52 0,0 160,-210.86 163.668,-209.03 16.21,66.02 28.089,125.74 25,194.73 -9.879,176.48 -84.801,284.53 -85.348,282.42 C 554.57,1388.99 305.66,1143.37 256.641,1160.87 l -0.27,113.32 c 2.969,-5.67 157.688,100.23 198.469,240.23 2.969,10.04 123.012,48.75 122.191,50.2 -5.082,13.16 -57.621,87.97 -57.621,87.97 0,0 21.211,9.96 23.559,9.92 68.121,-85.24 119.492,-197.54 136.953,-304.49 21.207,-115.16 34.918,-331.68 -194.453,-568.168 l -39.34,0.707 z m 687.621,297.961 c -35.9,112.15 -34.92,228.29 -18.4,309.38 25.2,146.95 117.42,252.15 191.37,332.38 l 32.07,-0.04 c 0,0 -38.36,-39.96 -52.31,-54.53 -23.94,-27.65 -58.67,-85.39 -58.67,-85.39 l 191.45,-251.91 109.1,23.75 c 0,0 -3.28,-112.74 0.08,-112.74 -84.77,-70.66 -145.74,-134.61 -189.46,-237.58 -26.83,-10 -115.7,-48.59 -115.7,-48.59 -42.26,10.391 125.7,275.63 93.79,280.12 -13.16,10.94 -158.91,208.86 -161.76,208.44 -67.15,-207.08 -1.64,-424.54 116.57,-576.451 -13.44,-8.75 -25.55,-15.55 -24.46,-13.48 -50.62,70.711 -94.96,155.121 -113.67,226.641 z m -349.691,103.83 c 7.582,-11.79 41.64,252.7 -47.887,464.46 8.519,6.52 82.379,20.74 82.379,20.74 l 19.89,-63.4 -50.39,-21.49 9.289,-29.72 c 39.109,19.1 123.789,47.3 175.859,134.41 0,0 253.131,2.19 258.521,1.76 5.23,-0.47 -51.64,-55.35 -105.55,-166.45 -24.65,-50.74 -44.26,-116.4 -48.32,-193.43 -0.82,-15.24 -57.93,71.56 -57.93,71.56 14.22,73.36 52.31,145.55 90.24,217.73 0,0 -58.21,3.32 -98.87,2.11 -63.239,-69.57 -102.892,-106.25 -198.239,-139.45 34.801,-112.15 247.459,-166.05 200.149,-155.82 -9.65,2.3 -21.872,-103.09 -11.64,-221.84 1.96,-94.96 52.7,-253.239 54.49,-251.989 0,0 -33.82,-7.652 -36.56,-2.191 5.71,1.371 -50.31,-12.93 -50.31,-12.93 l -20.039,59.031 54.219,25.118 -8.751,33.281 c -0.23,0 -119.648,-36.371 -178.129,-141.289 L 554.879,822.23 c 100.902,110.239 142.031,219.26 163.949,363.4 21.402,-3.86 65.231,6.72 65.231,6.72 z m 643.361,951.6 c 32.89,27.74 98.91,99.89 98.91,99.89 l 0.86,-37 -74.92,-78.43 0.74,-484.38 -25.35,24.45 -0.24,475.47 z m -34.65,-177.26 c -13.47,-6.49 -40.39,-38.32 -53.2,-74.1 -86.8,78.08 -51.05,221.6 -3.52,251.44 13.79,-31.33 53.72,-72.85 52.78,-71.99 -9.18,-32.81 -16.21,-66.09 3.94,-105.35 z m -768.469,325.15 669.409,-1.17 c -38.2,-75.7 -73.24,-136.91 -113.83,-211.44 -21.09,-25.67 -478.239,82.85 -480.392,72.03 l -75.187,140.58 z"
         inkscape:connector-curvature="0"
         id="path22"
         style="fill:#e2cf00;fill-opacity:1;fill-rule:nonzero;stroke:none" /><path
         d="m 262.422,321.879 -4.453,635.98 76.09,-74.41 4.492,-488.437 -76.129,-73.133 z m 349.137,123.25 c -15.739,-2.43 -6.829,12.262 -3.938,26.211 1.598,7.769 -5.859,15.07 -5.82,17.461 0.187,13.789 10.469,19.609 57.027,19.097 109.723,-7.699 166.442,-43.046 229.41,-59.488 60.282,-15.75 120.042,-15.43 186.532,-13.91 4.88,-2.809 22.73,-49.059 19.41,-53.672 -150.469,-29.879 -342.5,81.371 -482.621,64.301 z M 882.77,774.461 c -15.821,11.559 -30.7,13.711 -45.43,16.211 25.82,45.707 57.07,87.348 109.262,113.437 l 24.296,-60.507 C 940.199,827.699 910.039,808.762 882.77,774.461 z M 565.781,931.57 c 0,0 -22.543,-37.07 -43.793,-55.121 C 458.789,961.809 317.5,1143.45 317.5,1143.45 l -59.961,-30.59 c 0,0 -0.238,35.2 1.133,37.66 161.949,84.02 273.09,242.85 321.988,391.56 0,0 26.102,-26.8 22.66,-38.13 -43.789,-117.3 -118.672,-234.96 -228.789,-323.2 l 191.25,-249.18 z m 201.989,173.09 204.46,-0.28 9.059,-71.6 c -78.277,-26.4 -142.891,-80.35 -203.32,-142.768 l -96.989,1.679 c 31.79,70.149 75.969,141.329 86.79,212.969 z m 757,301.52 c 6.6,-20.2 -0.08,-41.95 2.5,-41.02 -244.93,-121.99 -314.93,-389.64 -314.93,-389.64 0,0 -23.24,37.07 -22.18,42.81 126.75,283.67 211.6,292.11 227.89,322.93 l -192.82,251.25 43.6,59.72 206.79,-270.97 c 20.59,9.53 32.27,17.54 49.15,24.92 z m -120.79,-367.03 c 41.57,75.23 84.38,118.94 127.07,149.02 l -2.07,-99.26 -125,-49.76 z m -1144.96,295.19 1.058,96.29 126.133,54.65 C 351.371,1408.72 303.98,1367.7 259.02,1334.34 z m 562,86.57 -7.469,67.73 c 76.609,33.63 144.258,78.59 198.869,140.2 58.67,2.81 98.75,-1.18 98.44,-0.39 0.12,0.11 -55.82,-82.47 -92.85,-212.47 l -196.99,4.93 z m 634.49,711.4 69.72,70.94 2.19,-634.14 -70,68.32 -1.91,494.88 z m -612.619,-515.35 -22.11,62.77 c 34.77,13.13 61.129,41.72 85.668,70.04 16.641,-15 38.082,-20.27 45.539,-23.16 10.203,-2.42 -70.539,-100 -109.097,-109.65 z m -130.7,475.24 c 0,0 -8.671,5.03 -7.742,12.18 2.891,9.26 -9.289,30.2 -9.289,30.2 148.43,45.35 364.61,-82.27 492.93,-55.39 -1.1,-9.03 0.39,-19.81 -3.25,-28.28 4.03,-18.09 6.88,-18.68 -10.62,-29.73 -90.16,-25.66 -185.161,29.1 -273.169,55.27 -71.832,22.78 -130.192,16.96 -188.86,15.75 z"
         inkscape:connector-curvature="0"
         id="path24"
         style="fill:#d40000;fill-opacity:1;fill-rule:nonzero;stroke:none" /><path
         d="m 616.641,2300.75 27.109,-51.41 -4.691,-3.2 c 7.39,-12.38 13.64,-26.33 21.211,-38.59 l 5.429,0.62 c 8.91,-17.19 12.5,-23.55 24.18,-43.9 l -5.27,0.04 c 2.692,-9.07 9.653,-15.08 9.801,-21.57 0.078,-8.08 -1.988,-16.29 2.93,-21.76 5.859,-6.48 6.57,-8.28 5.359,-12.07 -3.211,-10.07 5.891,-21.25 15.071,-20.23 64.929,8.71 131.019,1.33 197.152,-18.79 47.539,-15.12 89.728,-32.03 129.688,-43.91 12.62,-3.78 38.05,-9.76 59.96,-11.36 60.82,-4.49 94.92,7.97 84.69,33.44 -0.82,2.03 -2.66,3.55 -2.81,4.57 -0.28,1.95 0,4.06 3.47,6.91 9.96,10.23 4.38,17.69 -1.68,29.06 0,0 78.05,140.43 117.03,210.39 l -688.629,1.76 z m 675.899,-12.62 -56.95,-99.02 c -30.47,5.55 -37.62,-20.23 -38.09,-23.87 -39.57,10.2 -33.48,-41.44 -13.63,-44.92 1.29,-7.5 -32.54,-16.8 -50.35,0.74 27.38,-3.67 37.07,32.78 3.63,40.86 44.1,33.01 -38.6,82.42 -39.57,14.14 -38.91,6.92 -33.83,-44.84 -9.18,-48.83 -12.62,-14.02 -49.73,-14.41 -69.1,15.12 32.97,-17.26 50.82,27.27 16.56,39.73 42.3,37.34 -40.508,71.76 -38.559,11.4 -31.211,18.64 -52.692,-28.82 -11.012,-36.13 -2.379,-8.51 -56.949,-8.59 -70.777,13.48 38.668,-8.87 40.468,38.55 6.328,42.42 34.25,43.79 -52.738,65.94 -38.129,6.17 -33.59,13.36 -46.289,-28.83 -13.59,-42.38 1.828,-6.68 -52.973,-12.42 -72.191,11.8 42.148,6.36 27.422,47.5 0.121,44.22 0,0 0.39,1.17 1.91,5.15 12.891,41.29 -56.371,44.73 -46.801,0.98 1.57,-4.03 3.25,-9.42 3.25,-9.42 -19.109,3.95 -30.789,-3.9 -29.379,-21.95 4.77,-23.94 17.309,-22.19 33.399,-17.42 6.718,-7.07 -38.789,-30.78 -67.379,-9.61 35,10.12 17.258,51.44 -12.031,45.86 -1.219,13.16 -15.43,31.68 -33.989,22.66 l -19.652,38.86 665.161,-0.04 z m 57.26,-550.23 -41.13,-0.63 c -28.87,-29.68 -238.05,-223.71 -202.85,-516.79 15.08,-125.32 49.84,-233.789 142.77,-361.878 l 24.85,14.648 3.83,-2.539 257.53,149.179 0.16,45.31 -298.98,-126.29 c -5.94,6.328 -9.42,13.442 -14.42,21.25 l 119.81,51.29 c 0,0 2.89,7.31 3.79,10.71 39.41,100.35 119.41,172.97 189.06,229.1 -0.35,98.79 -0.82,305.62 -0.82,305.62 l -180.12,180.63 c -23.12,-21.25 -43.59,-43.13 -64.06,-66.84 l 206.8,-274.14 -18.32,-11.99 -204.65,272.69 c 24.22,29.34 50.54,54.93 76.75,80.67 z m 183.75,-178.24 c 0,0 -1.01,470.62 -2.34,697.89 l -107.34,-110.9 0.39,-477.03 109.29,-109.96 z m -9.14,653.08 -75.82,-78.79 0.86,-484.88 -19.49,19.34 0,471.83 94.73,99.96 -0.28,-27.46 z m -738,11.68 c 2.262,-4.02 1.289,-9.61 -2.351,-14.18 -15.508,-19.33 33.211,-53.01 68.242,-47.15 26.679,4.46 49.418,20.59 39.609,32.86 -7.961,10 -2.769,20.07 6.84,20.03 9.84,-0.07 17.77,-7.96 9.219,-18.82 -19.02,-24.07 10,-52.35 54.371,-52.93 31.41,-0.39 41.84,7.38 40.16,29.88 -0.78,10.55 1.25,13.48 8.55,15.08 11.65,2.54 17.5,-10.9 7.86,-21.13 -20.82,-22.11 2.85,-54.65 42.26,-56.76 14.42,-0.78 17.27,0 33.36,9.14 12.58,7.15 17.03,17.97 10.86,26.33 -7.93,10.82 2.77,23.71 15.12,18.39 8.83,-3.78 13.16,-10.62 3.4,-22.14 -12.82,-15.2 -6.76,-27.7 17.93,-36.18 19.25,-6.56 32.57,-5.74 41.6,2.54 2.77,2.58 9.02,7.93 8.94,6.29 -6.05,-10.51 -11.44,-20.31 -11.44,-20.31 -40.28,-18.09 -71.72,15.78 -70.71,17.07 -41.52,-24.14 -78.32,-19.06 -109.41,21.48 -8.09,-4.53 -66.019,-15.15 -107.808,31.06 -42.192,-21.33 -81.371,-12.38 -116.211,11.44 -25.75,-24.45 -52.891,-28.35 -81.102,-16.6 l -8.359,16.92 c 2.109,0.82 11.211,-16.96 55.32,-8.67 14.84,2.77 40.309,27.85 26.051,40.07 -6.52,9.3 -6.723,13.52 -0.981,19.14 5.711,5.59 15.391,2.7 18.68,-2.85 z m -108.129,-22.19 c 2.457,-4.8 2.809,-12.77 0.078,-8 -1.41,2.54 -8.91,13.83 -8.558,14.18 3.48,0.27 6.961,-3.32 8.48,-6.18 z m 846.169,-3.86 0.51,-625.74 -64.61,64.53 -3.08,490.19 67.18,71.02 z m -747.891,-30.31 20.351,-12.86 -36.441,0.2 16.09,12.66 z m 114.339,-10.75 17.071,-16.72 -35.899,7.58 18.828,9.14 z m 319.882,-8.67 -7.66,-15.74 c -4.37,4.92 -5.66,15.47 7.66,15.74 z m 129.02,-260.16 c 12.97,29.34 30.32,66.65 58.36,78.52 -20.89,41.8 -18.16,83.59 -3.36,106.48 -21.17,19.89 -42.92,43.68 -56.44,77.93 -66.99,-59.57 -77.74,-181.87 1.44,-262.93 z m -1.99,251.49 4.61,-11.45 c -59.65,-73.51 -41.25,-170 1.96,-221.52 l -6.22,-12.97 c -52.81,56.1 -75.89,174.61 -0.35,245.94 z m -356.638,-41.6 c 69.138,-20.43 124.488,-52.27 204.418,-23.91 l 0.35,-15.66 c -50.86,-32.85 -152.19,1.87 -220.67,27.3 -110.04,40.9 -195.661,38.52 -256.829,33.87 -5.39,1.05 -9.691,15.19 -1.062,15.31 114.422,1.25 95.941,15.63 273.793,-36.91 z m 15.629,27.73 22.689,-24.26 c -17.03,5.39 -33.631,11.37 -49.06,18.79 l 26.371,5.47 z m 346.479,-6.01 4.45,-6.18 c 1.92,-2.65 -12.57,-4.06 -10.15,-0.89 l 5.7,7.07 z m -390.042,-44.38 c 82.502,-31.17 173.362,-62.3 232.972,-34.37 0,0 0.39,-11.92 -6.41,-15.28 0,0 -6.28,-5.11 -27.34,-8.04 -96.48,-7.97 -159.101,32.26 -236.991,56.01 -29.528,9.03 -76.989,19.96 -125.699,21.99 -28.95,1.33 -73.211,-2.89 -73.211,-2.89 -9.649,0.82 -9.489,6.57 -9.61,12.19 83.91,11.25 161.02,2.85 246.289,-29.61 z m 399.032,29.92 c 1.05,0.04 2.14,-0.04 3.2,-0.19 l 8.44,-10.86 -10,-16.02 c 0,0 -8.83,8.21 -13.32,16.21 -2.47,5.24 4.21,10.51 11.68,10.86 z m -243.13,-3.04 26.13,-19.85 c -19.65,-0.97 -41.75,-1.72 -63.63,7.03 l 37.5,12.82 z m 221.33,-10.12 c 2.03,0.04 4.22,-2.15 6.72,-6.49 4.88,-8.35 4.22,-9.96 -5.2,-13 -12.38,-4.03 -13.36,-3.13 -9.37,8.04 2.73,7.66 5.19,11.37 7.85,11.45 z m 39.69,-5.12 17.65,-14.92 c -9.76,-25.59 -16.13,-58.01 3.44,-104.57 -2.15,-0.16 -14.84,-12.77 -18.83,-14.92 -11.21,4.72 -35.86,96.99 -2.26,134.41 z m -20.12,-19.57 -4.49,-28.24 c -0.35,-2.31 -19.53,13.4 -17.74,21.25 3.4,9.3 15.08,7.3 22.23,6.99 z m -31.68,-9.92 c 2.3,0 5.94,-5.66 10.43,-13.05 3.48,-5.74 2.77,-7.93 -4.96,-14.92 -11.37,-11.56 -13.6,-7.81 -11.1,11.88 1.25,9.72 2.97,16.13 5.63,16.09 z m 23.48,-25.59 c 1.56,-0.04 2.89,-0.43 3.9,-1.21 l 1.29,-27.54 c 0.12,-2.46 -21.33,0.98 -24.14,11.49 -3.59,6.72 10.63,17.42 18.95,17.26 z m -28.32,-23.28 c 1.56,0.24 6.36,-3.01 10.89,-5.7 7.89,-4.73 8.09,-6.8 1.29,-15.63 -8,-10.31 -11.99,-8.67 -13.2,9.34 -0.47,6.6 -0.94,11.72 1.02,11.99 z m 31.52,-10.51 c 0.66,0 1.29,-0.23 1.84,-0.66 3.78,-3.28 9.6,-30.86 7.14,-33.75 -3.47,-4.1 -21.79,1.33 -25.86,7.81 -3.9,6.18 10.2,26.57 16.88,26.6 z m -22.42,-32.5 c 2.11,0.16 5.9,-1.32 11.6,-4.1 3.44,-1.68 9.18,-4.8 10.47,-7.5 2.22,-4.72 -1.49,-11.72 -6.29,-17.5 -3.17,-3.86 -6.13,-1.01 -12.31,11.88 -4.96,10.35 -6.99,16.99 -3.47,17.22 z m 36.95,-12.34 c 0.43,0 0.82,-0.08 1.17,-0.27 6.21,-3.48 5.2,-13.83 -2.19,-21.49 -8.86,-9.18 -16.56,-2.26 -10.43,9.42 3.87,7.38 8.52,12.26 11.45,12.34 z M 844.961,1696.92 c -5.391,-0.23 -13.789,-5.15 -17.461,-9.92 -4.648,-6.02 -8.711,-5.23 -13.871,-4.8 -6.09,0.11 -15.43,-1.25 -28.039,-7.07 -7.149,-3.29 -10.43,-4.03 -20.899,-4.54 -6.839,-0.35 -13.711,-1.28 -15.242,-2.11 -1.519,-0.78 -6.437,-2.53 -10.929,-3.82 -9.141,-2.74 -5.899,-5.35 -0.629,-17.23 26.718,-68.98 45.898,-149.41 52.847,-214.88 7.852,-75.16 5.473,-166.25 -4.957,-235.82 -25.582,-0.2 -41.64,1.13 -68.59,0.66 C 698.789,1046.96 648.91,927.469 549.262,820.012 l 269.449,-0.703 c 30.859,82.921 171.758,146.171 176.367,141.48 l 7.422,-30.23 c 0,0 -101.328,-14.61 -169.609,-144.11 6.988,4.262 32.418,1.332 49.179,-16.211 33.551,42.782 88.52,70.742 88.871,70.082 l 1.829,5.16 c 0,0 10.082,3.469 18.949,5.149 2.851,0.551 8.671,1.641 12.541,3.012 5.97,2.109 8.94,4.339 18.2,3.558 19.18,-1.84 38.48,3.75 38.09,3.86 -57.23,158.831 -70.749,302.231 -48.4,468.791 21.09,-0.15 67.3,-0.97 67.3,-0.97 4.65,46.79 10.51,93.63 24.81,137.81 18.32,56.76 40.43,109.49 76.01,157.69 20.12,30.28 37.66,51.84 58.44,80.24 l -263.788,-0.63 c -34.883,-59.06 -102.152,-108.4 -156.211,-128.98 -18.402,-6.95 -20.981,-5.9 -24.02,2.81 -5.472,15.55 -5.203,14.88 9.18,19.02 4.801,1.37 20.188,9.54 44.18,20.86 50.929,26.02 85.929,73.68 106.519,105.82 8.2,12.7 2.7,9.85 -11.332,9.96 -12.808,1.02 -18.668,5 -30.187,15.83 -4.262,3.98 -6.102,6.83 -8.012,6.6 -15.078,-21.76 -40.348,-50.47 -60.039,-58.99 l -0.039,0 z m 61.918,50.28 c 11.871,-12.78 25.93,-20.24 44.449,-22.66 -29.609,-46.76 -65.738,-83.32 -107.269,-105.55 l -21.129,59.81 c 51.761,24.26 65.621,48.59 83.949,68.4 z M 1336.8,1728.17 C 1057.85,1468.48 1074.26,1141.1 1269.61,875.199 l -20.47,-12.418 c -183.48,247.579 -216.64,613.789 63.67,866.529 l 23.99,-1.14 z m -175.86,-31.68 68.4,0.16 -46.57,-60.74 -62.46,0.23 40.63,60.35 z m -10.71,-0.47 -38.04,-60.39 -102.58,-1.32 c -61.372,-76.22 -127.309,-113.4 -194.45,-138.75 l -13.09,65.07 c 0,0 106.289,25.78 175.121,136.21 l 173.039,-0.82 z m -104.25,-5 -23.75,-26.48 24.68,-25.31 22.54,25.7 -23.47,26.09 z m 53.86,0.63 -24.1,-25.24 18.79,-25.35 24.96,24.61 -19.65,25.98 z m -118.789,-4.61 -4.102,-39.65 31.021,-10.23 4.49,33.9 -31.409,15.98 z m 188.519,-1.48 -22.5,-35.4 33.87,-0.54 23.67,35.23 -35.04,0.71 z m -353.98,-9.03 21.949,-61.25 -19.301,-9.37 -19.527,63.98 16.879,6.64 z m -25.981,-9.84 22.621,-63.36 -18.949,-6.29 -20.781,65.94 17.109,3.71 z m 27.11,-250.16 c 2.543,-88.12 3.793,-141.25 -10.86,-218.71 -0.738,-4.02 -16.48,-0.47 -16.48,-0.47 1.992,-0.66 8.859,87.54 8.32,142.93 -1.058,105.51 -18.789,209.88 -59.929,314.45 7.851,4.81 27.191,7.27 27.191,7.27 25.937,-79.3 48.949,-164.57 51.758,-245.47 z m -273.867,244.3 C 632.891,1540.56 697.27,1377.31 686.48,1216.26 676.172,1028.99 605.66,921.102 481.84,791.41 l -31.961,-0.738 c 146.601,141.527 211.449,262.618 216.57,422.418 5.852,183.79 -49.89,306.02 -143.75,436.25 l 20.153,11.49 z m -288.082,-165.35 0.308,-43.83 306.832,132.5 -44.25,65.62 -262.89,-154.29 z m 719.101,143.51 -33.402,-1.68 1.09,-33.94 34.851,0.86 -2.539,34.76 z m 297.689,6.45 198.83,-262.5 -49.18,-36.8 -189.53,246.68 39.88,52.62 z m -155.82,-17.93 59.53,-0.9 -23,-38.48 -57.54,0.47 21.01,38.91 z m -10.97,-0.94 c -27.39,-51.25 -65.12,-109.65 -86.33,-204.1 l -195.901,-0.16 c -0.348,21.57 -3.129,43.13 -6.328,64.69 84.41,31.09 149.809,77.62 197.889,139.06 l 90.67,0.51 z m 36.21,-2.69 -25.55,-14.85 15.62,-18.05 28.13,10.83 -18.2,22.07 z m -233.21,-18.91 -8.43,-33.44 31.75,-12.3 5.898,39.72 -29.218,6.02 z m 182.7,-24.96 57.11,-0.35 -24.06,-48.36 -56.57,0.86 23.52,47.85 z m 135.94,6.33 188.16,-245.59 -17.66,-14.02 -183.86,240.04 13.36,19.57 z m -114.26,-10.24 -25.74,-21.56 19.37,-22.54 23.71,19.1 c 0.51,0.39 -17.34,25 -17.34,25 z m -249.728,-1.76 -7.891,-32.53 33.008,-8.83 5.902,34.88 -31.019,6.48 z m -45.66,-21.64 -6.723,-31.99 31.09,-8.48 6.57,30.86 -30.937,9.61 z M 560,1555.91 c 1.602,0.35 -5.199,-38.09 -15.199,-45 -4.801,-3.32 -7.262,-2.58 -11.403,1.91 -2.847,3.13 -15.777,24.34 -15.777,24.34 l 11.051,5.62 c 13.398,-21.6 13.398,-11.17 18.437,7.23 l 12.891,5.9 z m -51.559,-22.11 c 4.368,0.04 9.68,-5.47 15.661,-16.06 8.668,-15.35 8.398,-16.36 -5.864,-20.78 -25.66,-6.83 -35.187,-8.48 -27.297,8.56 8.508,18.36 11.868,28.24 17.5,28.28 z m 76.36,3.04 17.539,-30.27 C 531.949,1326.1 418.398,1196.61 262.109,1118.29 l -0.347,30 c 184.258,105.59 259.84,230.35 323.039,388.55 z m 478.639,-13.04 55.39,-1.02 -14.77,-42.65 -58.9,0.43 18.28,43.24 z m -571.639,1.83 C 446.68,1417.43 385.039,1323.02 261.84,1243.29 l -0.469,28.75 c 138.359,83.98 198.16,241.25 198.16,241.29 l 32.27,12.3 z m 700.309,0.2 c 32.81,-0.9 67.34,-36.92 63.83,-66.6 -2.46,-20.94 1.52,-36.45 7.15,-27.89 12.5,18.94 49.33,6.36 49.02,-16.37 -0.2,-12.11 -8.2,-14.06 -12.81,-3.16 -6.8,16.13 -25.94,16.52 -28.75,-0.4 -2.66,-15.82 10.7,-27.46 46.36,-40.46 41.8,-9.85 66.96,-47.58 52.07,-69.26 -5.15,-5.74 -8.28,-7.15 -9.25,-4.18 -0.28,0.86 -1.29,5.35 -2.23,9.92 -4.77,22.73 -15.59,32.3 -28.71,24.49 -6.6,-3.9 -5.74,-9.1 -1.91,-15.94 5.11,-9.06 1.91,-12.61 -7.23,-7.96 -14.49,7.3 -19.26,24.64 -5.24,32.61 16.68,6.72 11.02,8.17 -10.27,15.43 -45.35,15.59 -64.8,44.22 -67.19,98.71 0.86,24.89 -2.5,33.71 -14.1,37.11 -10.62,3.13 -22.65,-10.47 -15.04,-17.61 4.14,-3.91 7.54,-7.46 5.31,-9.61 -7.03,-6.88 -24.64,4.29 -24.49,16.32 0.12,7.82 3.09,9.46 14.73,18.68 3.24,2.54 0.47,7.38 -4.26,7.46 -17.81,-5.78 -16.56,17.93 -6.99,18.71 z m -102.7,-6.29 -27.69,-16.02 14.41,-20.31 30.67,14.49 -17.39,21.84 z M 550.469,1503.8 c 3.16,0 5.781,-2.58 5.781,-5.78 0,-3.25 -2.621,-5.86 -5.781,-5.86 -3.199,0 -5.778,2.61 -5.778,5.86 0,3.2 2.579,5.78 5.778,5.78 z m 56.761,-2.54 c 58.469,-128.48 72.379,-275.39 31.68,-422.19 l -157.859,206.84 c 60.551,68.67 101.289,147.26 126.179,215.35 z m -213.519,-9.42 -140.859,-59.61 -0.782,-106.36 c 78.711,54.1 112.071,109.45 141.641,165.97 z m 135.43,0.9 c 13.871,0.43 7.031,-37.3 -11.02,-50.19 -6.601,-5.12 -11.051,-4.49 -13.242,5.74 -1.129,5.31 -6.68,16.52 -13.629,25.55 -8.129,10.5 -8.051,10.78 3.828,11.52 13.082,-0.2 23.832,6.13 34.063,7.38 z m -13.75,-16.05 c -10.231,0.15 -13.282,-4.65 -7.192,-11.25 5.121,-5.59 9.223,-4.38 12.66,3.63 2.11,4.92 0.231,7.54 -5.468,7.62 z m -254.063,-137.97 0.313,90.27 120.507,51.1 c -24.179,-52.78 -68.91,-105.04 -120.82,-141.37 z m 1070.232,-72.93 -16.05,-16.25 -155.51,204.14 9.73,25.78 161.83,-213.67 z m -852.341,206.48 c 5.191,-0.07 17.031,-18.28 20.351,-31.32 2.461,-9.69 -0.16,-11.76 -18.398,-14.5 -7.582,-2.07 -28.012,-0.07 -26.371,5.43 2.969,7.89 22.578,40.43 24.418,40.39 z m 563.441,-2.07 56.75,-0.62 -13,-46.88 -59.46,0.9 15.71,46.6 z m 25.07,-2.85 -26.4,-18.44 20.9,-20.7 27.97,17.38 -22.47,21.76 z m 89.03,-20.15 157.34,-205.63 c -46.95,-60.12 -93.75,-129.18 -124.53,-220.47 -56.02,131.96 -76.52,260.35 -32.81,426.1 z m -638.99,-17.5 c 3.171,0 5.781,-2.58 5.781,-5.79 0,-3.2 -2.61,-5.85 -5.781,-5.85 -3.2,0 -5.782,2.65 -5.782,5.85 0,3.21 2.582,5.79 5.782,5.79 z m -18.122,-7.86 c 9.84,-0.7 0.551,-32.18 -14.218,-43.67 -11.641,-9.06 -16.68,-4.84 -19.379,11.72 -0.973,5.98 -7.223,16.17 -12.692,24.18 -6.168,8.99 -3.629,10.39 11.95,6.8 10.863,-2.11 24.3,0.47 34.339,0.97 z m 525.822,-7.69 59.53,-0.35 -9.18,-71.17 -50.35,71.52 z m -579.771,-3.28 c 9.379,-8.79 21.211,-39.69 15.16,-41.92 -7.07,-2.57 -39.058,1.18 -42.66,4.89 -2.461,2.54 -2.461,2.54 2.781,9.61 2.891,3.86 8.36,11.6 12.18,17.18 3.481,4.07 7.309,15.12 12.539,10.24 z m 33.129,-1.06 c -9.058,-0.31 -9.648,-1.56 -5.348,-11.4 3.508,-8.01 5.93,-8.71 11.95,-3.48 8.398,7.34 4.879,15.27 -6.602,14.88 z m 1044.452,-6.17 2.15,-35.12 C 1296.68,1254.31 1211.05,984.578 1209.8,984.578 l -16.6,31.132 c 104.96,260.43 244.53,335.82 330.08,387.93 z M 445.469,1362.12 c 13.59,0.27 17.582,1.21 17.5,-3.87 0.152,-13.67 -12.539,-33.05 -28.008,-40.39 -10.473,-4.92 -10.699,-5.04 -11.871,7.34 -0.899,9.53 -3.988,21.8 -8.871,31.57 -1.559,3.59 -7.457,11.91 0,9.53 7.422,-2.35 22.769,-4.34 31.25,-4.18 z m 30.551,3.16 c 3.16,0 5.742,-2.58 5.742,-5.78 0,-3.2 -2.582,-5.78 -5.742,-5.78 -3.211,0 -5.75,2.58 -5.75,5.78 -0.04,3.2 2.539,5.78 5.75,5.78 z m -72.899,-7.97 c 2.469,0.04 4.809,-5.04 7.617,-12.58 6.141,-16.32 8.012,-25.19 6.172,-29.02 -2.769,-5.94 -40.308,-2.11 -46.68,4.53 -1.25,-0.93 27.579,33.75 32.891,37.07 z m 27.039,-4.06 c -5.39,-0.39 -2.539,-3.63 1.442,-13.09 2.777,-6.56 6.519,-7.61 10.777,-3 5.711,6.13 6.492,11.01 2.891,13.63 -5.309,2.11 -9.219,2.42 -15.11,2.46 z m 1094.72,-35.51 0.2,-11.76 c -8.91,2.66 -14.42,6.49 -24.57,9.89 -6.25,2.11 -9.92,3.59 -4.42,10.19 8.64,10.35 17.86,16.8 28.36,23.21 l 0.08,-13.32 c -16.8,-7.47 -15.15,-14.38 0.39,-18.21 l -0.04,0 z m -661.169,11.96 63.168,0 0,-42.04 49.449,0 -3.828,-47.85 -45.621,0 0,-42.03 -63.168,0 0,42.03 -45.16,0 3.64,47.85 41.52,0 0,42.04 z m 142.699,-0.16 c -32,-159.65 -2.62,-329.14 46.71,-467.27 l -24.88,-2.77 c -38.51,110.469 -69.099,267.7 -37.97,469.96 0,0 11.14,0.2 16.14,0.08 z m 469.06,-3.09 c 3.16,0 5.74,-2.57 5.74,-5.82 0,-3.2 -2.58,-5.78 -5.74,-5.78 -3.2,0 -5.74,2.58 -5.74,5.78 0,3.25 2.54,5.82 5.74,5.82 z M 363.789,1313.06 c 2.07,0.03 8.512,-2.74 14.223,-4.34 8.547,-2.38 15.347,-3.44 23.16,-3.59 15.707,-0.32 17.777,-0.16 11.019,-13.17 -4.89,-9.37 -15.863,-21.76 -23.519,-25.51 -10.863,-5.86 -15.043,-5.07 -14.371,5.71 0.078,7.3 -3.09,20 -7.192,29.02 -3.199,7.03 -6.839,11.76 -3.32,11.88 z m 66.441,-5.16 c 3.168,0 5.79,-2.58 5.79,-5.78 0,-3.21 -2.622,-5.82 -5.79,-5.82 -3.16,0 -5.742,2.61 -5.742,5.82 0,3.2 2.582,5.78 5.742,5.78 z m 1063.29,0.78 c 4.45,0.12 12.1,-2.66 19.06,-6.05 18.47,-9.07 17.97,-11.14 -7.03,-28.99 -18.21,-13.91 -22.5,-15.47 -23.13,6.45 -0.66,18.43 1.29,28.39 11.1,28.59 z m -1139.219,-5.27 c 7.34,-0.12 15.469,-38.56 8.859,-42 -10.269,-5.31 -42.031,5.08 -41.91,13.83 0,2.85 29.801,28.21 33.051,28.17 z m 1117.149,1.56 c 4.37,0.19 4.96,-3.24 4.57,-15.51 -0.24,-6.48 0.89,-17.07 1.32,-22.03 0.94,-10.23 0.08,-10.94 -7.96,-6.37 -5.16,2.93 -15.63,7.74 -26.92,8.75 -9.3,0.78 -9.96,4.65 -7.07,10.78 8.16,13.64 23.01,23.25 36.06,24.38 z m -1089.93,-5.78 c -6.399,0.04 -4.801,-3.4 -0.821,-13.01 2.821,-6.84 7.66,-7.5 12.66,-1.68 7.032,8.16 5.661,12.46 -4.531,14.02 -2.187,0.36 -5.816,0.67 -7.308,0.67 z m 1081.45,-9.14 c -2.66,-0.28 -6.29,-2.39 -8.05,-3.52 -6.01,-3.79 -8.47,-6.52 0.28,-9.53 7.73,-2.69 11.87,-3.87 11.25,2.89 -0.36,4.06 -0.08,9.92 -3.48,10.16 z m -593.13,-5 0,-41.84 50.32,0 0,41.84 -50.32,0 z m 548.17,-3.64 c 3.2,0 5.78,-2.57 5.78,-5.78 0,-3.2 -2.58,-5.78 -5.78,-5.78 -3.17,0 -5.74,2.58 -5.74,5.78 0,3.21 2.57,5.78 5.74,5.78 z m -941.76,-6.52 158.711,-205.12 -10.551,-26.75 -163.469,216.56 15.309,15.31 z m 1049.65,0.98 0.35,-26.8 c -17.93,-13.24 -131.8,-96.29 -190.7,-236.17 l -30.86,-13.201 c 43.43,120.351 136.29,223.431 221.21,276.171 z M 318.52,1264.5 c 10.351,-3.16 20.191,-10.39 29.96,-11.68 11.211,-1.37 15.071,-0.66 12.032,-6.48 -6.801,-13.09 -19.614,-26.76 -33.172,-31.21 -9.68,-3.21 -14.25,-2 -12.731,4.06 2.852,11.33 3.36,20.62 2.969,30.97 1.524,5.63 -3.238,13.52 0.942,14.34 z m -12.11,-2.38 c 6.602,-5.67 5.27,-41.53 -2.07,-49.22 -3.828,-4.06 -15,-0.35 -31.719,9.18 -10.941,6.25 -12.973,10.04 -7.5,13.87 9.258,5.62 36.328,27.5 41.289,26.17 z m 1133.9,-0.78 c 3.4,0.07 7.66,-0.51 12.78,-1.68 19.76,-4.5 24.18,-9.03 7.3,-22.54 -6.21,-4.96 -12.85,-11.17 -14.77,-13.52 -9.06,-11.21 -15.39,-3.08 -17.34,17.23 -1.4,14.26 0.7,22.34 12.03,20.51 z m -24.76,-1.92 c 3.2,0 5.27,-1.68 5.19,-5.7 -0.08,-5.16 3.6,-27.42 5.63,-33.52 3.59,-10.43 0.97,-12.77 -7.58,-8.24 -6.25,3.4 -22.77,5.98 -31.72,5.24 -10.16,-0.79 -9.88,1.95 -6.87,10.54 5.27,15.28 25.7,31.68 35.35,31.68 z M 328.199,1252 c -3.859,0 -4.019,-5.23 -1.398,-17.27 0.859,-3.82 4.14,-3.59 10.269,0.79 7.309,5.15 7.032,8.39 -1.211,13.36 -3.398,2.03 -5.898,3.12 -7.66,3.12 z m 44.961,-1.33 c 3.211,0 5.75,-2.58 5.75,-5.78 0,-3.2 -2.539,-5.78 -5.75,-5.78 -3.16,0 -5.738,2.58 -5.738,5.78 0,3.2 2.578,5.78 5.738,5.78 z m 1023.6,-22.5 c 2.73,-2.69 12.97,-2.58 14.72,-0.97 2.7,2.5 1.41,14.14 -0.82,15.54 -5.74,1.96 -17.38,-10.27 -13.9,-14.57 z m -952.619,-22.11 c 3.48,-16.56 26.64,-15.66 24.019,1.6 -1.519,10.12 -1.871,9.89 3.129,9.65 23.91,-1.17 19.762,-39.1 -7.769,-36.17 -5.75,-0.7 -6.532,-3.05 -1.641,-5.08 4.801,-2.03 23.32,-6.79 26.172,-6.79 29.961,0.07 73.199,-46.29 72.148,-87.46 -0.711,-26.92 8.352,-46.29 17.61,-48.52 7.39,-1.72 18.089,5 17.152,13.24 -1.289,11.41 7.891,7.85 13.199,-0.31 8.051,-11.29 -2.34,-27.58 -21.558,-26.33 -8.161,-1.6 6.019,-6.8 16.519,-9.88 9.539,-0.55 1.488,-12.35 -0.312,-14.451 -5.387,-6.329 -23.039,-1.489 -36.868,9.761 -16.992,13.83 -24.3,32.34 -26.293,68.71 -1.289,23.4 -3.046,28.17 -9.808,18.52 -12.141,-21.53 -41.211,-11.02 -44.84,11.72 -2.031,12.03 8.48,20.7 11.879,9.8 9.019,-22.66 31.09,-17.23 27.5,5.31 -2.391,14.85 -17.149,23.05 -46.289,31.29 -35.039,9.96 -45.469,22.03 -52.309,50.98 -3.011,12.81 -2.543,19.53 4.18,26.21 3.32,3.32 7.539,6.68 7.539,6.68 0,0 4.691,-19.45 6.641,-28.48 z m 916.879,18.36 c 3.2,0 5.74,-2.58 5.74,-5.78 0,-3.2 -2.54,-5.78 -5.74,-5.78 -3.17,0 -5.75,2.58 -5.75,5.78 0,3.2 2.58,5.78 5.75,5.78 z m -1100.161,-5.51 c 10.43,-3.78 19.411,-9.45 30.161,-13.12 6.992,-2.38 5.07,-8.01 -2.149,-16.02 -8.09,-9.57 -15.98,-14.29 -27.191,-19.64 l 0.16,16.21 c 13.551,4.76 22.219,16.17 -0.629,19.84 l -0.352,12.73 z m 1127.301,-9.02 c 3.99,-0.04 9.57,-0.19 16.14,-1.56 16.64,-3.48 18.59,-4.96 8.59,-16.72 -3.71,-4.38 -9.22,-10.94 -12.23,-14.65 -9.84,-13.79 -15.15,-9.06 -19.72,8.79 -5.67,18.59 -6.99,25.74 7.22,24.14 z m -1075.148,-6.64 c 3.16,0 5.738,-2.62 5.738,-5.82 0,-3.2 -2.578,-5.78 -5.738,-5.78 -3.211,0 -5.742,2.58 -5.742,5.78 0,3.2 2.531,5.82 5.742,5.82 z m 1058.398,-12.62 c 1.6,-5.9 3.98,-13.36 5.82,-18.67 9.06,-20.04 3.32,-12.3 -12.85,-10.55 -10.86,1.22 -28.17,-0.62 -32.47,2.39 -1.83,2.46 -0.11,8.9 3.36,16.17 4.93,10.19 13.83,18.91 20.47,22.85 16.88,7.85 12.97,-2.11 15.67,-12.19 z m -971.719,7.11 181.289,-241.33 -14.218,-20.43 -186.453,248.17 19.382,13.59 z m 1136.129,-0.9 c -94.22,-68.55 -130.43,-151.79 -137.77,-162.65 l 138.16,53.67 -0.39,108.98 z m -179.92,-7.85 c -5.16,-1.44 -12.58,-11.09 -9.38,-14.88 1.88,-1.95 9.5,-2.23 13.13,-0.86 5.62,2.07 1.8,15.78 -3.75,15.74 z M 561.449,927.98 522.852,878.988 321.641,1141.02 l 50.781,36.92 189.027,-249.96 z m 964.331,254.68 1.45,-90.07 -118.21,-49.61 c 39.57,67.34 78.36,108.94 116.76,139.68 z m -808.01,-7.61 47.308,-62.07 -57.808,1.33 10.5,60.74 z m 598.48,-5.08 c 3.16,0 5.74,-2.62 5.74,-5.82 0,-3.2 -2.58,-5.78 -5.74,-5.78 -3.2,0 -5.78,2.58 -5.78,5.78 0,3.2 2.58,5.82 5.78,5.82 z m 34.65,-14.69 c 21.68,-0.31 28.9,-1.48 22.58,-12.19 -8.4,-10.46 -13.36,-20.39 -22.5,-30.07 -5.28,-5.39 -11.92,5.78 -17.43,23.63 -4.45,14.45 -2.22,18.08 6.25,18.2 8.48,0.12 9.93,0.43 11.1,0.43 z m -25,-19.53 c 1.8,-5.7 5.94,-15.08 9.22,-20.82 3.28,-5.74 6.99,-12.07 6.76,-13.2 -0.55,-2.7 -3.09,-2.89 -8.79,-0.75 -12.35,5.63 -41.33,-0.31 -42.07,2.47 -4.34,6.17 2.14,23 14.29,34.68 5.98,5.71 11.41,9.42 14.53,9.46 3.17,0.07 3.75,-4.34 6.06,-11.84 z M 314.691,1140.16 519.41,872.469 505.23,855.09 298.199,1127.98 c 0,0 -32.648,-16.14 -42.301,-21.49 l 1.332,-138.47 -5.628,0.269 0.859,-701.328 114.219,114.687 -1.481,475.903 c 24.25,-22.973 45,-47.461 72.731,-69.961 l 47.5,0.351 c 124.019,127.028 191.949,235.739 206.871,430.389 9.969,130.23 -33,294.02 -146.949,452.69 l -27.852,-16.99 55,-83.44 -116.48,-51.99 c -46.411,-98.47 -101.411,-189.37 -202,-241.4 l -0.54,-127.47 -1.761,-2.65 1.332,-40 61.64,33.08 z m 1000.969,-9.14 c -5.43,-0.39 -13.94,-12.22 -10.04,-16.25 4.58,-2.18 11.65,-2.03 14.61,1.92 2.04,3.87 1.53,12.07 -4.57,14.33 z m -610.738,-27.57 60.117,-0.32 -15.699,-51.95 -58.559,1.13 14.141,51.14 z m 571.128,0.23 c 3.21,0 5.79,-2.58 5.79,-5.78 0,-3.2 -2.58,-5.78 -5.79,-5.78 -3.16,0 -5.74,2.58 -5.74,5.78 0,3.2 2.58,5.78 5.74,5.78 z m -306.28,-1.56 7.769,-67.46 C 911.949,1010.67 841.25,969.93 779.41,895.051 c -10.582,0.66 -94.922,-0.742 -94.922,-0.742 2.114,-0.321 78.172,144.141 86.922,206.831 l 198.36,0.98 z m -238.129,-6.29 -27.582,-19.06 21.562,-23.13 28.52,19.45 -22.5,22.74 z m 573.789,-0.27 c 5.86,0.03 13.75,-0.71 20.04,-1.84 10.15,-1.95 11.64,-2.15 8.24,-10.63 -4.57,-11.17 -14.88,-31.4 -17.5,-33 -9.33,-5.82 -30,35.86 -22.97,43.08 1.88,1.49 5.86,2.35 12.19,2.39 z m -26.37,-12.82 c 2.7,0.24 6.21,-5 7.27,-9.49 1.29,-5.47 10.66,-19.22 16.6,-25.82 7.42,-8.28 7.03,-9.45 -3.63,-10.27 -12.66,-1.06 -25.08,-3.56 -32.19,-6.18 -11.09,-4.02 -12.58,-3.16 -11.17,9.89 2.15,19.61 15.15,41.17 23.12,41.87 z m -9.68,-40.58 c 1.36,-3.79 18.55,3.16 19.49,7.73 -0.16,2.03 -6.92,13.87 -10.94,14.42 -6.88,-1.1 -9.77,-16.8 -8.55,-22.15 z m -580.2,2.65 56.84,-0.54 -18.641,-47.149 -56.168,0.149 17.969,47.54 z m 25.429,-6.33 -27.23,-17.34 21.211,-20.62 26.101,18.08 -20.082,19.88 z m 577.891,-8.55 c 4.84,0.08 9.96,-0.39 11.02,-2.19 3,-5 -9.26,-32.97 -9.26,-32.97 l -20.04,-8 c -4.3,8.941 -11.68,18.2 -13.48,27.89 -0.7,4.22 1.45,5.74 6.06,8.36 6.91,3.9 17.69,6.83 25.7,6.91 z m -53.63,-2.27 c 3.16,0 5.74,-2.57 5.74,-5.78 0,-3.2 -2.58,-5.82 -5.74,-5.82 -3.21,0 -5.75,2.62 -5.75,5.82 0,3.21 2.54,5.78 5.75,5.78 z m -259.14,-0.82 c 0,0 12.258,-69.84 12.93,-62.141 C 897.891,928.762 842.461,875.711 816.172,823.988 l -177.813,0.121 39.692,61.993 105.269,0.546 c 50.899,62.192 113.668,111.762 196.41,140.192 z m -22.781,-16.44 -8.789,-28.201 26.57,-17.07 10.04,30.312 -27.821,14.959 z m 291.291,-0.55 c 2.23,0.24 4.46,-3.59 9.03,-11.76 3.39,-6.051 7.81,-14.801 7.81,-14.801 l -7.93,-2.969 c -6.41,22.03 -12.31,13.828 -12.97,-5.621 l -10.9,-4.379 c 0,0 1.17,18.75 7.38,29.73 3.6,6.33 5.59,9.65 7.58,9.8 z m -579.611,-19.291 55.082,-0.707 -23.012,-48.043 -56.051,1.519 23.981,47.231 z m 240.351,-3.868 -4.371,-35.671 29.692,-6.321 4.058,33.903 -29.379,8.089 z m -216.91,-0.429 -27.23,-17.703 17.859,-23.668 26.211,17.738 -16.84,23.633 z m 174.34,-31.211 -5.629,-32.852 27.848,-6.371 6.332,33.051 -28.551,6.172 z m -605,-1.961 69.641,-69.531 3.828,-485.149 -69.258,-69.961 -4.211,624.641 z m 379.059,-17.731 c -0.239,-0.39 55.582,-1.597 55.582,-1.597 l -22.34,-40.633 -19.102,0.859 25.121,17.274 -16.101,20.738 -25.82,-16.949 14.382,-20.981 -37.703,0.821 25.981,40.468 z m 359.41,-12.031 18.911,-62.93 -22.739,-3.988 -17.102,59.219 c 6.992,3.641 13.942,5.43 20.93,7.699 z m -178.75,-3.949 0.391,-37.731 30.359,-2.578 1.211,35.391 -31.961,4.918 z m 150.98,-6.008 17.301,-59.812 -14.449,-4.137 -20.66,56.797 c 5.66,3.359 11.558,5.82 17.808,7.152 z M 945.738,901.02 968.012,842.469 C 937.27,829.93 905.391,803.09 881.41,776.262 c -17.781,13.16 -28.25,14.566 -39.18,17.539 30.231,56.719 65.93,86.519 103.508,107.219 z m -335.699,-14.68 58.441,-1.762 -40.628,-61.129 -66.133,0.071 48.32,62.82 z m 173.981,-2.27 -3.821,-35.742 31.321,-18.629 4.73,36.711 -32.23,17.66 z m -37.692,-5 -22.269,-23.672 23.64,-27.148 21.68,28.32 -23.051,22.5 z m -49.769,-1.25 -26.399,-24.41 21.012,-27.621 24.18,27.77 -18.793,24.261 z m -336.598,-22.769 2.578,-473.949 -97.07,-94.723 -0.699,25.461 77.14,81.18 c 0.121,160.308 -0.43,320.621 -0.93,480.929 l 18.981,-18.898 z m 258.277,15.308 -26.789,-36.8 31.789,-0.079 23.051,35.629 -28.051,1.25 z M 452.93,641.02 c -10.59,-38.321 -59.301,-79.84 -60.16,-79.141 24.109,-34.801 23.281,-84.449 2.031,-108.899 0.078,0.54 38.789,-31.8 44.219,-48.601 3.05,-6.68 4.261,-14.801 8.171,-21.438 1.008,-1.761 4.289,-6.132 4.289,-6.132 94.5,96.48 49.5,209.531 1.45,264.211 z m 1.41,-10.04 c 91.75,-114.601 31.281,-219.492 -0.75,-248.75 l -6.09,10.161 c 68.16,79.769 39.262,177.769 -0.469,224.179 l 7.309,14.41 z m -9.93,-22.3 c 0.629,-1.84 4.18,-7.231 1.531,-6.91 l -4.57,0.929 3.039,5.981 z m -0.699,-12.77 c 1.988,0 3.668,-0.629 4.57,-2 1.879,-3.121 -7.621,-29.488 -13.48,-23.351 -1.75,3.472 -3.821,6.519 -5.461,10.113 -1.918,4.297 -0.629,6.367 3.711,10.668 3.039,2.93 7.34,4.57 10.66,4.57 z m 13.199,-7.148 c 4.649,-0.352 11.25,-15.043 11.84,-25.551 0.309,-1.09 -15.66,2.461 -19.879,7.379 0.508,4.301 4.488,15.238 8.039,18.172 z M 421.02,576.77 c 27.609,-55.899 25.89,-99.61 1.601,-139.77 l -19.07,16.41 c 12.82,30.539 19.148,63.16 -2.422,104.649 l 19.891,18.711 z m 18.628,-13.989 c 1.911,0.16 7.813,-0.703 13.051,-2.383 18.473,-5.976 19.18,-18.128 1.36,-27.07 -7.34,-3.707 -9.649,-2.066 -13.899,16.563 -2.109,9.218 -3.68,12.621 -0.512,12.89 z m 35.704,-21.441 c 3.558,0.039 5.199,-6.762 5.668,-18.442 0.39,-11.089 -1.961,-11.988 -10.821,-4.058 -9.609,8.551 -11.25,10.621 -2.469,17.648 2.579,2.071 6.02,4.852 7.622,4.852 z M 450.16,523.02 c 1.75,0.152 6.871,-3.129 11.871,-6.961 12.617,-9.68 9.809,-16.36 -4.531,-21.047 -9.961,-3.242 -9.449,-3.633 -9.219,13.668 0.117,8.59 -0.39,14.14 1.879,14.34 z M 617.5,507.23 c -15.43,-3.941 -21.91,-17.808 -16.801,-30.269 2.352,-5.66 5.903,-5.699 1.723,-9.18 -4.613,-5.39 -7.07,-17.851 -1.992,-22.383 6.019,-3.476 7.582,2.5 1.25,-9.179 l -116.25,-215 697.66,1.332 -83.87,158.121 c 0.19,0.238 6.72,26.098 -6.72,29.219 -4.3,0.98 -6.76,5 -7.62,8.871 1.1,11.008 -3.86,15.699 -8.04,21.367 -66.33,-9.418 -123.949,-4.731 -171.531,6.051 C 836.762,461.691 787.77,488.559 755.941,497 711.988,508.68 658.98,513.719 617.5,507.23 z m 37.578,-1.48 c 54.063,0.309 114.57,-16.328 156.91,-34.77 43.953,-18.281 90.512,-31.91 137.5,-38.902 38.832,-4.918 77.542,-2.418 114.652,0.512 4.06,0.621 8.28,0.07 11.29,-3.168 7.69,-8.594 2.46,-13.981 -16.8,-15.781 -30.9,-2.582 -69.22,-1.481 -103.2,3.668 -53.871,6.211 -110.899,22.621 -160.16,43.171 -61.52,23.239 -118.04,31.008 -162.692,24.141 -24.527,-3.75 -28.129,-4.34 -28.047,2.301 0.199,12.93 10.821,18.828 50.547,18.828 z m -177.109,-37.5 c -2.379,-5.512 -19.18,12.461 -19.02,17.5 0.352,2.23 13.981,11.172 19.371,14.809 2.621,2.031 2.418,0.972 2.461,-1.411 0.117,-6.757 -0.429,-24.218 -2.812,-30.898 z m -25.899,13.199 c 7.77,-1.008 20.508,-22.109 9.301,-25.39 -9.961,-2.887 -18.992,-4.758 -20.199,1.961 5.117,16.519 7.027,23.039 10,23.39 0.308,0.039 0.629,0.039 0.898,0.039 z m 451.129,-71.988 c 49.531,-8.633 114.531,-13.789 157.001,-10.473 24.37,2.5 29.49,1.684 29.33,-8.508 -0.08,-6.41 0.63,-6.25 -30.82,-6.25 -26.13,-1.718 -49.65,1.09 -74.921,2.379 -52.309,2.621 -99.84,11.68 -143.789,27.032 -48.75,12.738 -90.98,37.187 -138.672,42.23 -43.75,4.328 -83.09,-3.48 -91.328,-8.09 -2.77,0.039 -4.18,4.141 -4.02,7.93 0.149,3.711 1.52,6.68 4.61,9.059 125.351,31.839 192.461,-36.36 292.609,-55.309 z M 468.48,451.609 c 4.141,-0.039 2.809,-6.25 -4.031,-19.449 -5.777,-11.211 -8.078,-11.14 -11.359,0.352 -3.52,12.297 -3.168,13.629 3.789,15.429 4.101,1.008 7.57,3.161 11.601,3.668 z m -29.3,-6.25 c 4.922,-0.078 11.871,-22.379 8.32,-26.597 -2.852,-3.321 -13.051,-1.063 -16.02,2.847 -4.761,6.332 1.329,23.871 7.7,23.75 z m 219.179,-6.019 c 19.45,0.199 38.832,-1.91 56.68,-5 -10.269,-3.82 -20.469,-7.34 -31.129,-13.512 -7.39,6.371 -15.75,12.543 -25.551,18.512 z m 25.27,-27.11 c 68.75,38.598 97.742,-14.679 107.699,-23.281 60.082,13.403 71.832,6.801 105.352,-29.64 60.16,29.601 89.34,4.41 114.45,-11.528 29.46,27.739 66.8,28.52 86.29,14.571 3.63,-6.133 8.71,-13.903 9.1,-16.211 0.36,-1.832 -2.42,0.269 -9.18,5.16 -35.35,25.469 -93.98,-6.25 -78.32,-39.813 4.22,-9.019 3.56,-12.929 -2.77,-16.558 -8.95,-6.09 -19.961,4.019 -13.71,14.379 10.43,17.261 2.58,31.711 -22.77,45.031 -35.75,18.832 -94.11,-2.219 -82.11,-30 7.692,-8.82 0.539,-15.07 -9.57,-14.762 -11.488,0.352 -15.391,8.082 -8.012,16.371 9.184,10.539 6.762,21.25 -3.949,33.473 -32.07,46.019 -96.988,27.777 -88.399,-12.582 3.75,-10 -6.949,-14.059 -18.121,-9.57 -7.07,2.82 -6.019,13.871 1.762,17.742 8.899,0.898 10.188,13.937 9.098,22.297 -1.52,12.152 -19.34,24.101 -36.949,30.472 -12.739,4.61 -24.61,5.59 -33.95,4.731 -19.73,-1.801 -30.742,-15.313 -27.5,-35.512 1.91,-11.949 -1.371,-24.301 -15.269,-17.73 -7.621,3.589 -5.711,12.218 2.07,20.23 27.301,26.879 -27.699,59.531 -60.902,37.031 -5.629,-4.652 -9.731,-5.472 -9.731,-5.472 20.821,52.191 86.024,3.32 85.391,1.171 z m 90.512,7.04 41.519,-15.75 c -9.57,-1.911 -16.32,-4.61 -23.082,-7.301 l -18.437,23.051 z m -108.36,-17 c -38.32,7.308 -40.39,-35.782 -15.429,-42.809 -34.332,-47.5 55.589,-65.902 39.058,-7.301 45.59,-8.281 37.352,43.942 3.481,43.43 7.89,19.461 70.429,4.73 67.73,-9.719 -42.262,-4.492 -25.351,-43.281 -7.07,-43.32 -44.211,-42.153 44.258,-81.02 41.918,-17.5 35.472,-7.5 39.652,39.961 5.551,43.078 12.5,17.699 57.101,6.531 69.492,-13.707 -35.242,-4.723 -33.012,-35.863 -5.473,-40.902 -34.918,-44.801 51.051,-61.321 42.109,-9.25 30.821,-10.668 47.731,30.699 7.813,42.539 40.898,24.531 85.269,-12.039 80.469,-12.778 -46.641,2.778 -37.34,-44.301 -3.59,-41.761 -21.488,-48.86 63.63,-51.598 42.07,-0.891 38.28,-0.707 34.92,43.98 -1.76,46.949 23.08,16.953 49.14,18.442 65.9,2.582 -34.93,-9.262 -20.43,-50.121 14.72,-38.789 3.25,-34.18 30.86,-26.961 31.45,-25.902 l 24.73,-46.41 -669.38,-1.09 57.11,106.172 c 33.789,-1.762 32.582,30.98 31.09,31.8 22.46,-16.132 46.609,23.981 13.75,35.469 26.839,28.281 66.64,2.149 64.261,0.11 z m -217.929,2.968 c -1.372,-1.437 -1.762,-2.297 -4.063,-0.148 -5.82,6.719 10.039,7.301 4.063,0.148 z m 138.437,-17.769 c 2.93,-2.418 0.902,-9.098 -1.488,-11.367 -6.012,-6.481 -8.082,-5.973 -2.77,5.238 1.559,3.39 3.047,6.172 4.258,6.129 z m 293.242,-3.008 34.809,-8.481 -16.531,-9.371 c -6.09,6.68 -11.989,12.422 -18.278,17.852 z m 108.789,-14.102 37.85,-2.461 c -5,-3.398 -9.92,-6.597 -16.05,-12.847 -4.77,5.109 -13.792,10.187 -21.8,15.308 z m 126.09,-38.871 c 2.11,-4.41 10.47,-19.797 9.69,-20.187 -12.26,-2.153 -15.55,16.168 -9.69,20.187 z"
         inkscape:connector-curvature="0"
         id="path26"
         style="fill:#100f08;fill-opacity:1;fill-rule:nonzero;stroke:none" /><path
         d="m 482.34,1857.08 c -41.289,68.28 -84.762,134.69 -139.059,191.37 54.297,56.71 97.77,123.08 139.059,191.4 41.332,-68.32 84.769,-134.69 139.07,-191.4 -54.301,-56.68 -97.738,-123.09 -139.07,-191.37 z"
         inkscape:connector-curvature="0"
         id="path28"
         style="fill:#d40000;fill-opacity:1;fill-rule:nonzero;stroke:none" /><path
         d="m 144.34,1942.59 c -17.192,28.43 -35.32,56.09 -57.9298,79.72 22.6098,23.64 40.7378,51.29 57.9298,79.77 17.219,-28.48 35.308,-56.13 57.961,-79.77 -22.653,-23.63 -40.742,-51.29 -57.961,-79.72 z"
         inkscape:connector-curvature="0"
         id="path30"
         style="fill:#d40000;fill-opacity:1;fill-rule:nonzero;stroke:none" /><path
         d="m 1303.24,657.469 c -41.29,-68.321 -84.76,-134.688 -139.06,-191.41 54.3,-56.68 97.77,-123.079 139.06,-191.36 41.29,68.281 84.77,134.68 139.06,191.36 -54.29,56.722 -97.77,123.089 -139.06,191.41 z"
         inkscape:connector-curvature="0"
         id="path32"
         style="fill:#d40000;fill-opacity:1;fill-rule:nonzero;stroke:none" /><path
         d="m 1641.25,572.039 c -17.19,-28.437 -35.31,-56.09 -57.93,-79.73 22.62,-23.629 40.74,-51.289 57.93,-79.758 17.23,28.469 35.31,56.129 57.93,79.758 -22.62,23.64 -40.7,51.293 -57.93,79.73 z"
         inkscape:connector-curvature="0"
         id="path34"
         style="fill:#d40000;fill-opacity:1;fill-rule:nonzero;stroke:none" /><path
         d="m 150.699,2156.06 26.449,0 -38.828,97.15 -29.691,-41.01 0.199,-56.14 20.863,0 0,-28.94 -73.441,0 0,28.94 24.1797,0 0,208.95 -24.1797,-0.08 0,25.31 74.488,0 0,-26.17 -20.539,0 -0.429,-101.84 65.031,102.7 -22.961,0 0,25.31 79.25,0 0,-25.31 -20.891,0 -53.558,-83.95 52.418,-124.96 23.281,0 0.121,-28.94 -81.52,0 -0.242,28.98 z"
         inkscape:connector-curvature="0"
         id="path36"
         style="fill:#d40000;fill-opacity:1;fill-rule:nonzero;stroke:none" /><path
         d="m 1634.92,358.559 -26.44,0 38.82,-97.149 29.69,41.059 -0.23,56.09 -20.82,0 0,28.953 73.44,0 0,-28.953 -24.22,0 0,-208.938 24.22,0.078 0,-25.277 -74.54,0 0,26.137 20.59,0 0.43,101.832 -65.04,-102.692 22.97,0 0,-25.277 -79.3,0 0,25.277 20.94,0 53.55,83.942 -52.46,124.961 -23.28,0 -0.12,28.949 81.53,0 0.27,-28.992 z"
         inkscape:connector-curvature="0"
         id="path38"
         style="fill:#d40000;fill-opacity:1;fill-rule:nonzero;stroke:none" /></g></g></svg>