<?xml version="1.0" encoding="UTF-8" standalone="no"?>
<!-- Created with Inkscape (http://www.inkscape.org/) -->

<svg
   xmlns:dc="http://purl.org/dc/elements/1.1/"
   xmlns:cc="http://creativecommons.org/ns#"
   xmlns:rdf="http://www.w3.org/1999/02/22-rdf-syntax-ns#"
   xmlns:svg="http://www.w3.org/2000/svg"
   xmlns="http://www.w3.org/2000/svg"
   xmlns:inkscape="http://www.inkscape.org/namespaces/inkscape"
   version="1.1"
   width="223.75"
   height="313.75"
   id="svg2"
   xml:space="preserve"><metadata
     id="metadata8"><rdf:RDF><cc:Work
         rdf:about=""><dc:format>image/svg+xml</dc:format><dc:type
           rdf:resource="http://purl.org/dc/dcmitype/StillImage" /></cc:Work></rdf:RDF></metadata><defs
     id="defs6" /><g
     transform="matrix(1.25,0,0,-1.25,0,313.75)"
     id="g10"><g
       transform="scale(0.1,0.1)"
       id="g12"><path
         d="m 89.1016,2500.56 1607.7784,0 c 47.1,0 85.03,-37.93 85.03,-85.04 l 0,-2316.4106 c 0,-47.1094 -37.93,-85.0391 -85.03,-85.0391 l -1607.7784,0 C 41.9883,14.0703 4.05859,52 4.05859,99.1094 l 0,2316.4106 c 0,47.11 37.92971,85.04 85.04301,85.04 z"
         inkscape:connector-curvature="0"
         id="path14"
         style="fill:#ffffff;fill-opacity:1;fill-rule:nonzero;stroke:none" /><g
         transform="scale(0.999363,-1.00064)"
         id="g16"><path
           d="m 89.1623,-2498.96 1608.7977,0 c 47.14,0 85.09,37.91 85.09,84.98 l 0,2314.9337 c 0,47.0794 -37.95,84.9849 -85.09,84.9849 l -1608.7977,0 c -47.1394,0 -85.0933,-37.9055 -85.0933,-84.9849 l 0,-2314.9337 c 0,-47.07 37.9539,-84.98 85.0933,-84.98 z"
           inkscape:connector-curvature="0"
           id="path18"
           style="fill:none;stroke:#000000;stroke-width:7.9738698;stroke-linecap:butt;stroke-linejoin:miter;stroke-miterlimit:4;stroke-opacity:1;stroke-dasharray:none" /></g><path
         d="m 893.012,1857.08 c -41.332,68.28 -84.774,134.69 -139.063,191.37 54.289,56.71 97.731,123.08 139.063,191.4 41.289,-68.32 84.718,-134.69 139.058,-191.4 -54.34,-56.68 -97.769,-123.09 -139.058,-191.37 z"
         inkscape:connector-curvature="0"
         id="path20"
         style="fill:#d40000;fill-opacity:1;fill-rule:nonzero;stroke:none" /><path
         d="m 141.172,1942.59 c -17.192,28.43 -35.313,56.09 -57.9337,79.72 22.6207,23.64 40.7417,51.29 57.9337,79.77 17.226,-28.48 35.348,-56.13 57.969,-79.77 -22.621,-23.63 -40.743,-51.29 -57.969,-79.72 z"
         inkscape:connector-curvature="0"
         id="path22"
         style="fill:#d40000;fill-opacity:1;fill-rule:nonzero;stroke:none" /><path
         d="m 1644.8,412.551 c -17.22,28.469 -35.31,56.129 -57.92,79.758 22.61,23.64 40.7,51.293 57.92,79.73 17.19,-28.437 35.32,-56.09 57.93,-79.73 -22.61,-23.629 -40.74,-51.289 -57.93,-79.758 z"
         inkscape:connector-curvature="0"
         id="path24"
         style="fill:#d40000;fill-opacity:1;fill-rule:nonzero;stroke:none" /><path
         d="M 893.012,274.77 C 851.68,343.09 808.238,409.461 753.949,466.18 808.238,522.859 851.68,589.27 893.012,657.551 934.301,589.27 977.73,522.859 1032.07,466.18 977.73,409.461 934.301,343.09 893.012,274.77 z"
         inkscape:connector-curvature="0"
         id="path26"
         style="fill:#d40000;fill-opacity:1;fill-rule:nonzero;stroke:none" /><path
         d="m 66.3711,2127.63 1.2891,16.25 c 4.0586,50.11 14.8007,67.03 75.8598,119.41 29.601,25.35 39.332,37.89 40.699,52.42 3.871,34.26 -26.41,44.92 -46.129,45.08 -25.551,0.23 -54.4611,-15.31 -40.6681,-51.52 l -28.6719,-8.6 c -5.7812,33.75 0.1602,65.43 26.9883,79.49 35.8637,18.32 81.8007,11.14 104.9997,-17.73 15.59,-19.37 19.141,-46.17 10.782,-67.15 -24.411,-53.59 -107.34,-77.19 -114.1802,-139.18 l 91.6402,0 0,34.53 27,0 0,-63.55 -149.6089,0.55 z"
         inkscape:connector-curvature="0"
         id="path28"
         style="fill:#d40000;fill-opacity:1;fill-rule:nonzero;stroke:none" /><path
         d="m 1719.57,387 -1.25,-16.25 c -4.06,-50.121 -14.8,-67.031 -75.86,-119.371 -29.65,-25.399 -39.34,-37.93 -40.7,-52.43 -3.87,-34.289 26.4,-44.961 46.09,-45.109 25.59,-0.238 54.49,15.308 40.7,51.519 l 28.68,8.59 c 5.78,-33.75 -0.16,-65.429 -27,-79.488 -35.85,-18.32 -81.79,-11.133 -105,17.738 -15.58,19.371 -19.18,46.172 -10.82,67.141 24.46,53.601 107.39,77.191 114.22,139.18 l -91.64,0 0,-34.532 -26.99,0 0,63.563 149.57,-0.551 z"
         inkscape:connector-curvature="0"
         id="path30"
         style="fill:#d40000;fill-opacity:1;fill-rule:nonzero;stroke:none" /></g></g></svg>