<?xml version="1.0" encoding="UTF-8" standalone="no"?>
<!-- Created with Inkscape (http://www.inkscape.org/) -->

<svg
   xmlns:dc="http://purl.org/dc/elements/1.1/"
   xmlns:cc="http://creativecommons.org/ns#"
   xmlns:rdf="http://www.w3.org/1999/02/22-rdf-syntax-ns#"
   xmlns:svg="http://www.w3.org/2000/svg"
   xmlns="http://www.w3.org/2000/svg"
   xmlns:inkscape="http://www.inkscape.org/namespaces/inkscape"
   version="1.1"
   width="223.75"
   height="313.75"
   id="svg2"
   xml:space="preserve"><metadata
     id="metadata8"><rdf:RDF><cc:Work
         rdf:about=""><dc:format>image/svg+xml</dc:format><dc:type
           rdf:resource="http://purl.org/dc/dcmitype/StillImage" /></cc:Work></rdf:RDF></metadata><defs
     id="defs6" /><g
     transform="matrix(1.25,0,0,-1.25,0,313.75)"
     id="g10"><g
       transform="scale(0.1,0.1)"
       id="g12"><path
         d="m 88.9102,2500.56 1607.7698,0 c 47.11,0 85.04,-37.93 85.04,-85.04 l 0,-2316.4106 c 0,-47.1094 -37.93,-85.0391 -85.04,-85.0391 l -1607.7698,0 C 41.8008,14.0703 3.87109,52 3.87109,99.1094 l 0,2316.4106 c 0,47.11 37.92971,85.04 85.03911,85.04 z"
         inkscape:connector-curvature="0"
         id="path14"
         style="fill:#ffffff;fill-opacity:1;fill-rule:nonzero;stroke:none" /><g
         transform="scale(0.999363,-1.00064)"
         id="g16"><path
           d="m 88.9629,-2498.96 1608.7971,0 c 47.14,0 85.09,37.91 85.09,84.98 l 0,2314.9337 c 0,47.0794 -37.95,84.9849 -85.09,84.9849 l -1608.7971,0 c -47.1394,0 -85.09716,-37.9055 -85.09716,-84.9849 l 0,-2314.9337 c 0,-47.07 37.95776,-84.98 85.09716,-84.98 z"
           inkscape:connector-curvature="0"
           id="path18"
           style="fill:none;stroke:#000000;stroke-width:7.9738698;stroke-linecap:butt;stroke-linejoin:miter;stroke-miterlimit:4;stroke-opacity:1;stroke-dasharray:none" /></g><path
         d="m 892.809,1857.08 c -41.329,68.28 -84.758,134.69 -139.098,191.37 54.34,56.71 97.769,123.08 139.098,191.4 41.293,-68.32 84.73,-134.69 139.071,-191.4 -54.341,-56.68 -97.778,-123.09 -139.071,-191.37 z"
         inkscape:connector-curvature="0"
         id="path20"
         style="fill:#d40000;fill-opacity:1;fill-rule:nonzero;stroke:none" /><path
         d="m 140.98,1942.59 c -17.191,28.43 -35.32,56.09 -57.9292,79.72 22.6092,23.64 40.7382,51.29 57.9292,79.77 17.219,-28.48 35.309,-56.13 57.969,-79.77 -22.66,-23.63 -40.75,-51.29 -57.969,-79.72 z"
         inkscape:connector-curvature="0"
         id="path22"
         style="fill:#d40000;fill-opacity:1;fill-rule:nonzero;stroke:none" /><path
         d="m 1644.61,412.551 c -17.23,28.469 -35.31,56.129 -57.97,79.758 22.66,23.64 40.74,51.293 57.97,79.73 17.19,-28.437 35.31,-56.09 57.93,-79.73 -22.62,-23.629 -40.74,-51.289 -57.93,-79.758 z"
         inkscape:connector-curvature="0"
         id="path24"
         style="fill:#d40000;fill-opacity:1;fill-rule:nonzero;stroke:none" /><path
         d="m 892.809,1065.95 c -41.329,68.28 -84.758,134.64 -139.098,191.36 54.34,56.72 97.769,123.09 139.098,191.41 41.293,-68.32 84.73,-134.69 139.071,-191.41 -54.341,-56.72 -97.778,-123.08 -139.071,-191.36 z"
         inkscape:connector-curvature="0"
         id="path26"
         style="fill:#d40000;fill-opacity:1;fill-rule:nonzero;stroke:none" /><path
         d="M 892.809,274.77 C 851.48,343.09 808.051,409.461 753.711,466.18 808.051,522.859 851.48,589.27 892.809,657.551 934.102,589.27 977.539,522.859 1031.88,466.18 977.539,409.461 934.102,343.09 892.809,274.77 z"
         inkscape:connector-curvature="0"
         id="path28"
         style="fill:#d40000;fill-opacity:1;fill-rule:nonzero;stroke:none" /><path
         d="m 55.6602,2184.73 20.2382,14.93 c 17.5821,-28.64 37.2226,-47.5 67.2616,-44.26 45.078,3.08 63.75,50.43 54.301,86.05 -9.102,32 -46.441,47.58 -76.09,30.51 -7.031,-4.02 -13.793,-7.34 -15.082,-7.34 -3.129,0 -10.1601,14.06 -9.2187,18.32 19.9177,29.14 68.2817,80.15 68.2817,80.15 l -75.5512,0 0,-34.18 -28.9805,0 0,61.33 147.6597,0 0,-20.82 c 0,0 -39.57,-41.09 -52.66,-63.59 32.231,-1.17 58.16,-21.6 67.5,-53.91 5.43,-17.03 3.008,-55.94 -4.14,-72.69 -11.879,-27.97 -44.34,-50.63 -74.02,-51.96 -49.8514,-3.32 -76.2889,31.64 -89.4998,57.46 z"
         inkscape:connector-curvature="0"
         id="path30"
         style="fill:#d40000;fill-opacity:1;fill-rule:nonzero;stroke:none" /><path
         d="m 1729.88,329.891 -20.23,-14.922 c -17.54,28.633 -37.19,47.5 -67.23,44.261 -45.08,-3.089 -63.75,-50.429 -54.33,-86.058 9.14,-31.992 46.44,-47.582 76.13,-30.512 6.99,4.031 13.75,7.352 15.08,7.352 3.12,0 10.15,-14.063 9.18,-18.321 -19.93,-29.14 -68.28,-80.16 -68.28,-80.16 l 75.58,0 0,34.18 28.99,0 0,-61.289 -147.66,0 0,20.777 c 0,0 39.53,41.102 52.62,63.602 -32.19,1.168 -58.17,21.597 -67.46,53.898 -5.43,17.031 -3.01,55.942 4.1,72.699 11.87,27.973 44.37,50.622 74.06,51.954 49.8,3.32 76.25,-31.641 89.45,-57.461 z"
         inkscape:connector-curvature="0"
         id="path32"
         style="fill:#d40000;fill-opacity:1;fill-rule:nonzero;stroke:none" /></g></g></svg>