<?xml version="1.0" encoding="UTF-8" standalone="no"?>
<!-- Created with Inkscape (http://www.inkscape.org/) -->

<svg
   xmlns:dc="http://purl.org/dc/elements/1.1/"
   xmlns:cc="http://creativecommons.org/ns#"
   xmlns:rdf="http://www.w3.org/1999/02/22-rdf-syntax-ns#"
   xmlns:svg="http://www.w3.org/2000/svg"
   xmlns="http://www.w3.org/2000/svg"
   xmlns:inkscape="http://www.inkscape.org/namespaces/inkscape"
   version="1.1"
   width="223.75"
   height="313.75"
   id="svg2"
   xml:space="preserve"><metadata
     id="metadata8"><rdf:RDF><cc:Work
         rdf:about=""><dc:format>image/svg+xml</dc:format><dc:type
           rdf:resource="http://purl.org/dc/dcmitype/StillImage" /></cc:Work></rdf:RDF></metadata><defs
     id="defs6" /><g
     transform="matrix(1.25,0,0,-1.25,0,313.75)"
     id="g10"><g
       transform="scale(0.1,0.1)"
       id="g12"><path
         d="m 89.0195,2500.56 1607.7805,0 c 47.11,0 85.04,-37.93 85.04,-85.04 l 0,-2316.4106 C 1781.84,52 1743.91,14.0703 1696.8,14.0703 l -1607.7805,0 C 41.9102,14.0703 3.98047,52 3.98047,99.1094 l 0,2316.4106 c 0,47.11 37.92973,85.04 85.03903,85.04 z"
         inkscape:connector-curvature="0"
         id="path14"
         style="fill:#ffffff;fill-opacity:1;fill-rule:nonzero;stroke:none" /><g
         transform="scale(0.999363,-1.00064)"
         id="g16"><path
           d="m 89.0841,-2498.96 1608.7959,0 c 47.14,0 85.1,37.91 85.1,84.98 l 0,2314.9337 c 0,47.0794 -37.96,84.9849 -85.1,84.9849 l -1608.7959,0 c -47.1394,0 -85.09719,-37.9055 -85.09719,-84.9849 l 0,-2314.9337 c 0,-47.07 37.95779,-84.98 85.09719,-84.98 z"
           inkscape:connector-curvature="0"
           id="path18"
           style="fill:none;stroke:#000000;stroke-width:7.9738698;stroke-linecap:butt;stroke-linejoin:miter;stroke-miterlimit:4;stroke-opacity:1;stroke-dasharray:none" /></g><path
         d="m 141.09,1942.59 c -17.219,28.43 -35.309,56.09 -57.9298,79.72 22.6208,23.64 40.7108,51.29 57.9298,79.77 17.23,-28.48 35.32,-56.13 57.93,-79.77 -22.61,-23.63 -40.7,-51.29 -57.93,-79.72 z"
         inkscape:connector-curvature="0"
         id="path20"
         style="fill:#d40000;fill-opacity:1;fill-rule:nonzero;stroke:none" /><path
         d="m 1305.2,1857.08 c -41.33,68.28 -84.77,134.69 -139.11,191.37 54.34,56.71 97.78,123.08 139.11,191.4 41.28,-68.32 84.72,-134.69 139.06,-191.4 -54.34,-56.68 -97.78,-123.09 -139.06,-191.37 z"
         inkscape:connector-curvature="0"
         id="path22"
         style="fill:#d40000;fill-opacity:1;fill-rule:nonzero;stroke:none" /><path
         d="m 1644.69,412.551 c -17.19,28.469 -35.31,56.129 -57.93,79.758 22.62,23.64 40.74,51.293 57.93,79.73 17.22,-28.437 35.31,-56.09 57.97,-79.73 -22.66,-23.629 -40.75,-51.289 -57.97,-79.758 z"
         inkscape:connector-curvature="0"
         id="path24"
         style="fill:#d40000;fill-opacity:1;fill-rule:nonzero;stroke:none" /><path
         d="m 480.621,1857.08 c -41.32,68.28 -84.762,134.69 -139.062,191.37 54.3,56.71 97.742,123.08 139.062,191.4 41.289,-68.32 84.77,-134.69 139.07,-191.4 -54.3,-56.68 -97.781,-123.09 -139.07,-191.37 z"
         inkscape:connector-curvature="0"
         id="path26"
         style="fill:#d40000;fill-opacity:1;fill-rule:nonzero;stroke:none" /><path
         d="m 892.891,1065.95 c -41.289,68.28 -84.77,134.64 -139.063,191.36 54.293,56.72 97.774,123.09 139.063,191.41 41.289,-68.32 84.769,-134.69 139.059,-191.41 -54.29,-56.72 -97.77,-123.08 -139.059,-191.36 z"
         inkscape:connector-curvature="0"
         id="path28"
         style="fill:#d40000;fill-opacity:1;fill-rule:nonzero;stroke:none" /><path
         d="m 480.621,274.73 c -41.32,68.329 -84.762,134.692 -139.062,191.411 54.3,56.679 97.742,123.089 139.062,191.371 C 521.91,589.23 565.391,522.82 619.691,466.141 565.391,409.422 521.91,343.059 480.621,274.73 z"
         inkscape:connector-curvature="0"
         id="path30"
         style="fill:#d40000;fill-opacity:1;fill-rule:nonzero;stroke:none" /><path
         d="m 1305.2,274.699 c -41.33,68.281 -84.77,134.68 -139.11,191.36 54.34,56.722 97.78,123.089 139.11,191.41 41.28,-68.321 84.72,-134.688 139.06,-191.41 -54.34,-56.68 -97.78,-123.079 -139.06,-191.36 z"
         inkscape:connector-curvature="0"
         id="path32"
         style="fill:#d40000;fill-opacity:1;fill-rule:nonzero;stroke:none" /><path
         d="m 58.2383,2195.2 25.7422,0.24 c 4.9297,-15.86 15.8203,-32.03 30.5895,-36.49 41.719,-10 68.551,13.75 77.379,41.18 10.711,33.24 -0.23,79.96 -28.937,96.52 -23.832,13.75 -59.184,2.15 -75.4339,-27.27 l -18.0078,11.29 9.6914,109.57 117.8473,0 0,-25.9 -95.507,0 -1.524,-45.66 c 20.543,14.73 52.152,14.57 72.692,4.26 38.949,-18.95 57.031,-61.99 49.46,-112.74 -10.468,-50.47 -33.601,-79.06 -85.75,-83.12 -57.9995,-0.55 -78.4683,40.15 -78.2417,68.12 z"
         inkscape:connector-curvature="0"
         id="path34"
         style="fill:#d40000;fill-opacity:1;fill-rule:nonzero;stroke:none" /><path
         d="m 1727.54,319.422 -25.78,-0.231 c -4.92,15.899 -15.78,32.028 -30.55,36.52 -41.72,9.961 -68.55,-13.789 -77.38,-41.211 -10.74,-33.238 0.23,-79.961 28.94,-96.52 23.79,-13.75 59.18,-2.152 75.39,27.258 l 18.05,-11.289 -9.69,-109.527 -117.85,0 0,25.898 95.51,0 1.52,45.629 c -20.58,-14.73 -52.18,-14.57 -72.73,-4.219 -38.91,18.899 -56.99,61.95 -49.42,112.692 10.47,50.469 33.6,79.058 85.75,83.129 58,0.539 78.47,-40.121 78.24,-68.129 z"
         inkscape:connector-curvature="0"
         id="path36"
         style="fill:#d40000;fill-opacity:1;fill-rule:nonzero;stroke:none" /></g></g></svg>