<?xml version="1.0" encoding="UTF-8" standalone="no"?>
<!-- Created with Inkscape (http://www.inkscape.org/) -->

<svg
   xmlns:dc="http://purl.org/dc/elements/1.1/"
   xmlns:cc="http://creativecommons.org/ns#"
   xmlns:rdf="http://www.w3.org/1999/02/22-rdf-syntax-ns#"
   xmlns:svg="http://www.w3.org/2000/svg"
   xmlns="http://www.w3.org/2000/svg"
   xmlns:inkscape="http://www.inkscape.org/namespaces/inkscape"
   version="1.1"
   width="223.75"
   height="313.75"
   id="svg2"
   xml:space="preserve"><metadata
     id="metadata8"><rdf:RDF><cc:Work
         rdf:about=""><dc:format>image/svg+xml</dc:format><dc:type
           rdf:resource="http://purl.org/dc/dcmitype/StillImage" /></cc:Work></rdf:RDF></metadata><defs
     id="defs6" /><g
     transform="matrix(1.25,0,0,-1.25,0,313.75)"
     id="g10"><g
       transform="scale(0.1,0.1)"
       id="g12"><path
         d="m 89.0586,2500.52 1607.7814,0 c 47.11,0 85.04,-37.93 85.04,-85.04 l 0,-2316.4019 c 0,-47.1093 -37.93,-85.039 -85.04,-85.039 l -1607.7814,0 c -47.1094,0 -85.03907,37.9297 -85.03907,85.039 l 0,2316.4019 c 0,47.11 37.92967,85.04 85.03907,85.04 z"
         inkscape:connector-curvature="0"
         id="path14"
         style="fill:#ffffff;fill-opacity:1;fill-rule:nonzero;stroke:none" /><g
         transform="scale(0.999997,-1)"
         id="g16"><path
           d="m 89.0588,-2500.52 1607.7812,0 c 47.11,0 85.04,37.93 85.04,85.04 l 0,2316.406 c 0,47.1093 -37.93,85.0389 -85.04,85.0389 l -1607.7812,0 c -47.1095,0 -85.03926,-37.9296 -85.03926,-85.0389 l 0,-2316.406 c 0,-47.11 37.92976,-85.04 85.03926,-85.04 z"
           inkscape:connector-curvature="0"
           id="path18"
           style="fill:none;stroke:#000000;stroke-width:7.9738698;stroke-linecap:butt;stroke-linejoin:miter;stroke-miterlimit:4;stroke-opacity:1;stroke-dasharray:none" /></g><path
         d="m 141.129,2102.04 c -34.328,-43.75 -71.0509,-68.9 -71.6798,-103 -0.1875,-11.02 6.4922,-29.81 27.461,-33.4 13.6018,-2.31 32.3088,7.5 32.6988,27.46 -0.121,3.98 4.692,3.87 4.653,-1.56 -0.633,-15.75 -6.211,-34.07 -15.59,-48.99 l 44.957,0 c -9.367,14.92 -14.957,33.24 -15.578,48.99 -0.082,5.43 4.719,5.54 4.648,1.56 0.391,-19.96 19.102,-29.77 32.692,-27.46 20.937,3.59 27.621,22.38 27.418,33.4 -0.618,34.1 -37.34,59.25 -71.68,103 z"
         inkscape:connector-curvature="0"
         id="path20"
         style="fill:#000000;fill-opacity:1;fill-rule:nonzero;stroke:none" /><path
         d="m 1644.77,412.512 c -34.34,43.75 -71.06,68.91 -71.68,103.008 -0.2,11.019 6.48,29.808 27.42,33.402 13.59,2.297 32.3,-7.5 32.69,-27.461 -0.08,-3.949 4.73,-3.871 4.65,1.559 -0.62,15.742 -6.21,34.101 -15.58,48.992 l 44.96,0 c -9.38,-14.891 -14.93,-33.25 -15.59,-48.992 -0.08,-5.43 4.73,-5.508 4.69,-1.559 0.39,19.961 19.1,29.758 32.65,27.461 20.98,-3.594 27.66,-22.383 27.47,-33.402 -0.63,-34.098 -37.35,-59.258 -71.68,-103.008 z"
         inkscape:connector-curvature="0"
         id="path22"
         style="fill:#000000;fill-opacity:1;fill-rule:nonzero;stroke:none" /><path
         d="m 140.27,2390.21 0,-27.58 26.718,0 c 0,0 0.672,-26.52 0.903,-82.85 0.199,-54.69 1.328,-81.84 -2.192,-97.42 -9.328,-35.9 -61.289,-36.1 -71.5974,-10.28 -6.0118,15 -4.4102,26.68 -4.6914,41.8 l -28.75,0 c 0,0 0.1992,-7.62 0.2382,-16.91 0.1524,-40.36 13.5118,-59.69 44.7616,-67.31 32.11,-8.67 69.649,4.57 83.012,32.07 7.969,15.67 7.066,16.72 7.226,111.45 0.153,63.16 1.09,89.45 1.09,89.45 l 24.614,0 0,27.58 -81.332,0 z"
         inkscape:connector-curvature="0"
         id="path24"
         style="fill:#000000;fill-opacity:1;fill-rule:nonzero;stroke:none" /><path
         d="m 1645.59,124.391 0,27.539 -26.72,0 c 0,0 -0.63,26.519 -0.86,82.851 -0.2,54.731 -1.33,81.828 2.15,97.418 9.37,35.903 61.32,36.09 71.64,10.27 6.01,-15 4.41,-26.68 4.68,-41.789 l 28.72,0 c 0,0 -0.16,7.609 -0.2,16.91 -0.2,40.39 -13.52,59.691 -44.77,67.308 -32.11,8.672 -69.68,-4.57 -83.04,-32.07 -7.93,-15.668 -7.03,-16.719 -7.23,-111.449 -0.12,-63.16 -1.05,-89.449 -1.05,-89.449 l -24.61,0 0,-27.539 81.29,0 z"
         inkscape:connector-curvature="0"
         id="path26"
         style="fill:#000000;fill-opacity:1;fill-rule:nonzero;stroke:none" /><path
         d="m 239.879,2309.9 0,-2105.24 1306.141,0 0,2105.24 -1306.141,0 z m 414.922,-11.57 591.679,-2.15 -91.71,-140.19 c -119.57,37.81 -313.598,13.28 -413.641,-5.86 -26.289,43.87 -64.41,98.95 -86.328,148.2 z m -397.731,-5.35 379.84,0 89.219,-162.03 c 3.25,-4.53 0.16,-13.87 -1.789,-19.1 -10.981,-30.94 -20.75,-48.87 -43.012,-85.74 -21.098,-34.93 -28.668,-66.92 -21.168,-88.4 1.129,-2.66 2.11,-6.64 1.719,-10.04 -1.258,-10.7 -10.277,-23.13 -22.539,-31.6 -8.36,-1.33 -25.711,-2.42 -35.75,-12.31 -8.59,-8.51 -15.621,-20.93 -14.531,-43.63 0.511,-8.12 1.562,-13.28 1.562,-13.28 -113.473,-47.11 -194.801,-102.31 -192.101,-104.34 -1.059,0.51 -100.399,45.82 -141.45,57.03 l 0,513.44 z m 1010.51,0 260.74,0 0,-744.37 -98.44,64.76 c 8.21,5.71 13.28,9.1 21.92,14.96 1.52,0.43 4.45,0.51 6.32,0.9 17.43,3.91 29.61,16.92 23.56,30.39 -4.1,9.18 1.48,8.6 6.56,16.06 5.67,8.43 4.49,15.9 0.86,22.97 -1.8,3.51 -0.78,4.88 2.23,11.36 7.97,9.89 2.22,26.64 -8.13,32.03 -1.05,1.61 1.14,4.07 1.64,6.33 2.93,13.4 -2.42,25.16 -14.02,28.17 -5.98,1.52 -7.97,2.57 -5.86,7.89 3.75,9.45 -1.21,12.97 -8.98,16.01 -13.05,5.16 -9.38,5.98 6.79,13.24 33.09,14.85 40.86,58.99 18.13,99.03 -2.89,5.08 -10.63,17.03 -15.86,25.04 -6.13,9.33 -12.07,17.42 -12.07,17.42 l 43.79,60.94 c 0,0 -30.51,36.01 -41.37,55.93 2.58,9.85 33.09,40.75 37.07,70.75 6.21,47.03 -29.57,77.11 -63.44,73.59 -23.47,-2.46 -52.34,-17.46 -50.19,-60.98 0.7,-13.51 5.97,-27.5 15.58,-44.41 6.68,-12.66 15.36,-26.02 23.68,-38.91 l -44.07,-60.07 44.53,-56.29 c 0,0 -0.58,-0.9 -1.56,-2.46 -4.41,-7.04 -17.3,-27.74 -22.85,-39.85 -16.44,-32.42 -22.26,-68.01 11.45,-93.05 5.89,-3.63 10.46,-6.71 12.96,-9.18 3.33,-3.28 1.25,-5.78 -4.06,-7.03 -6.25,-1.29 -12.65,-1.21 -19.26,-3.82 -21.13,-7.7 -42.3,-20.12 -57.38,-32.27 -8.47,-6.84 -22.11,-28.44 -30.43,-45.98 -9.02,-19.1 -11.56,-23.32 -11.56,-23.32 l -154.88,98.95 c 0,0 -3.91,3.08 -5,4.3 -2.89,3.2 -1.84,5.07 0.15,8.67 1.72,3 1.76,11.91 1.02,18.67 -0.2,12.97 -0.12,13.05 7.38,24.96 2.62,4.18 3.71,8.36 2.19,14.84 -2.42,7.27 -2.66,4.96 1.99,9.96 1.8,2.23 3.99,3.32 4.34,5.71 0.47,3.24 0.19,8.86 0.23,19.37 0.12,21.06 -0.16,19.3 11.68,28.56 14.73,11.48 20.2,16.91 22.54,22.11 3.36,7.46 0,13.08 -8.28,27.93 -3.75,6.79 -9.61,15.97 -12.42,21.09 -5.32,9.22 -12.93,21.37 -16.57,32.97 -5.5,8.91 -4.68,24.33 0.43,33.4 6.37,11.36 8.17,18.24 7.93,41.25 -0.19,21.33 -1.75,19.33 3.68,26.48 40.7,53.75 105.31,155 105.31,155 z m 165.78,-79.96 c 0.9,0 1.8,0 2.66,-0.08 12.81,-0.58 25.54,-4.68 37.34,-16.13 16.09,-16.05 15,-39.26 9.73,-63.36 -2.47,-6.99 -4.26,-14.14 -9.22,-21.44 -2.74,-4.07 -5,-7.86 -5,-8.36 0,-0.51 -3.95,-6.88 -8.79,-14.18 -4.73,-7.11 -10.2,-17.07 -10.2,-17.07 0,0 7.58,-13.52 21.02,-30.47 10.12,-15.04 16.68,-28.13 17.46,-27.35 0,0 -2.58,-6.48 -6.09,-11.09 -10.67,-13.98 -30.28,-43.09 -31.06,-46.13 -0.19,-0.71 -2.19,-1.45 -2.15,-2.19 0.12,-2.7 4.03,-5.9 9.89,-13.95 35.35,-48.47 40.39,-89.37 13.78,-113.39 -13.2,-11.96 -26.25,-15.71 -40.23,-14.22 -25.66,2.73 -49.34,24.61 -46.56,56.44 1.25,14.61 0.47,18.99 9.1,35.98 3.91,9.61 12.73,26.01 18.59,34.26 5.12,5.93 10.59,14.41 10.59,14.41 0,0 -12.58,19.34 -35.7,46.52 -4.18,4.96 -6.76,11.68 -6.76,11.68 l 39.65,58.64 c 0,0 -4.61,11.36 -12.35,22.85 -15.86,23.59 -26.09,48.67 -25.97,62.81 0.23,35.16 23.28,55.78 50.27,55.82 z m 98.75,-837.19 c -23.44,-12.42 -46.21,-54.88 -1.68,-25.27 l 1.13,-24.41 c -23.16,-32.82 -68.47,-8.75 -56.95,25.23 -31.29,-4.06 -36.17,27.62 -34.57,42.7 -41.13,8.94 -26.92,52.42 -26.92,52.42 -23.78,19.84 -27.92,40.58 -8.67,62.5 -19.49,12.07 -24.96,19.8 -46.36,28.59 16.4,-145.58 95.15,-221.17 178,-288.59 -2.18,0 -2.42,-46.88 -7.65,-38.24 -118.32,88.24 -194.38,189.14 -207.46,352.3 -1.02,-2.54 -56.1,42.58 -65.2,40.16 -19.1,-264.22 191.68,-437.93 279.38,-472.15 0,0 1.25,-36.84 -0.28,-36.96 -132.85,57.82 -280.58,227.58 -309.06,429.54 l -78.4,-121.18 -29.37,12.58 126.79,199.3 -85.74,53.59 -139.57,-220.66 c 0,0 -3.71,-18.4 6.41,-18.13 195.9,-20.89 487.26,-255.78 389.65,-638.041 -8.48,3.321 -21.96,9.879 -22.62,9.61 15.31,32.929 58.01,246.321 -70.51,418.711 -58.87,78.98 -150.16,163.04 -296.68,187.85 12.11,-24.92 6.84,-81.49 6.84,-81.49 l 34.14,-6.87 c -11.53,12.15 -21.17,22.15 -25.74,35.35 -6.37,20.51 2.96,32.7 25.78,20.47 9.02,-5.08 11.32,-4.88 20.11,1.68 18.36,13.59 39.26,-0.43 34.46,-23.05 -0.71,-3.36 0.15,-5.47 8.86,-6.25 19.73,-1.95 39.61,-11.68 52.5,-26.99 6.29,-8.09 7.74,-6.87 13.32,-2.03 13.79,11.95 36.61,-4.61 32.5,-23.05 -2.3,-10.58 -1.01,-13.08 3.87,-15.15 26.92,-11.29 33.52,-18.4 41.88,-41.92 3.08,-8.59 5.58,-11.44 7.18,-10.94 1.1,0.32 5.55,1.8 9.42,3.29 20.08,7.57 31.87,-16.65 17.62,-35.67 -2.93,-3.87 -0.75,-7.62 4.41,-10.43 16.72,-9.1 28.09,-30.86 30.08,-53.67 0.74,-8.67 1.64,-8.67 10.35,-8.32 22.23,0.94 32.81,-29.02 14.73,-40.04 -6.29,-3.87 -5.12,-8.83 -0.24,-14.61 12.97,-15.35 16.02,-26.44 14.88,-43.94 -1.52,-23.29 -0.03,-22.82 7.39,-25.67 21.64,-8.199 17.58,-42.652 -3.6,-42.539 15.28,-35.511 -4.84,-78.793 -4.18,-79.57 40.71,-22.851 3.95,-47.152 -7.89,-42.891 0,0 -6.01,-15.941 0.82,-24.14 -35.74,-47.192 -82.5,-55 -134.29,-78.442 l -1.6,166.063 c 21.52,-17.313 42.89,-33.441 64.21,-49.531 0,0 5.39,1.601 0.47,6.172 -9.49,8.75 -33.36,24.136 -40.04,30.269 -14.41,10.938 -67.26,61.328 -76.64,73.277 -4.22,7.973 -10.58,3.364 -10.39,2.891 6.33,-10.891 11.02,-23.59 19.22,-34.918 17.66,-24.449 34.81,-51.601 33.01,-78.473 -0.04,-15.039 -6.02,-30.589 -9.38,-38.128 -2.5,-10.309 -18.98,1.761 -14.8,10.429 7.3,23.832 13.4,43.36 -12.81,81.602 -12.78,18.668 -29.34,52.539 -29.34,52.539 l -10.59,-2.539 0.4,-216.68 c -8.87,-0.351 -31.41,-6.172 -26.76,-6.332 70.19,13.992 91.68,-86.25 23.9,-89.488 -12.89,-0.473 -26.21,-22.582 -27.54,-34.571 0.59,-29.101 4.85,-59.8 -16.48,-87.73 -5.62,-7.391 -8.2,-19.031 -13.4,-28.211 -26.05,-46.008 -37.69,-72.418 -35.04,-84.289 0.71,-3.051 1.33,-7.07 1.33,-7.07 -82.972,-20.711 -145.19,-26.02 -228.831,-27.969 -0.82,1.328 28.09,82.379 49.18,123.937 15.55,30.75 23.601,51.723 19.222,58.051 -66.293,-3.277 -53.59,93.711 9.84,90.27 0,0 15.938,55.902 33.719,81.101 16.871,9.371 50.82,-3.398 69.84,9.18 44.8,13.711 74.14,-39.18 74.14,-39.18 l 12.07,50.352 -396.331,1.867 c 0,0 -38.59,-15.969 -59.45,-7.34 -13.32,5.512 -32.339,20.039 -32.339,20.039 0,0 152.851,244.492 175.109,279.532 1.801,2.81 -3.938,8.95 -3.981,8.99 -0.82,7.96 -181.41,-282.58 -181.41,-282.58 -101.949,65.148 -230.109,147.609 -343.707,220.039 l -0.312,108.861 c 82.5,51.88 75.043,73.05 -1.328,16.53 -1.051,-0.9 -1.602,40.86 -1.602,40.86 58.16,51.87 9.762,35.62 -1.719,17.65 0.27,12.93 -2.73,30.51 5.59,38.24 25.43,23.4 55.391,1.92 56.91,-32.65 33.16,-6.49 29.059,-35.59 37.578,-47.27 33.832,-19.06 16.012,-47.97 24.411,-57.81 35.632,-22.42 10.781,-58.44 3.242,-57.62 4.5,-3 48.75,-32.651 52.539,-31.561 -3.82,155.271 -159.289,280.591 -179.918,295.741 l 3.629,33.48 c 0,0 214.148,-136.68 212.269,-356.022 L 535.352,909.93 C 529.262,1134.97 427.191,1287.51 255,1384.15 l -2.23,41.68 c 144.5,-67.15 278.558,-203 309.769,-425.66 l 80,123.94 28.199,-13.63 -128.468,-205.699 80.23,-52.66 c 62.23,81.758 114.141,182.029 145.781,229.729 -0.859,4.33 -2.582,10.58 -2.582,10.58 -305.929,50.36 -478.238,336.45 -396.129,635.36 l 21.289,-9.34 c -63.789,-221.37 40.231,-540.04 372.93,-605.19 -0.668,23.55 -4.809,81.44 -4.809,81.44 0,0 -43.71,13.13 -37.261,7.85 10.703,-9.1 34.761,-48.51 24.57,-62.5 -7.309,-1.01 -19.527,3.05 -32.93,12.85 -5.039,3.71 -5.16,2.89 -10.859,-3.12 -15.699,-16.76 -38.551,-7.15 -38.789,15.86 -0.082,9.72 -0.43,11.79 -14.262,11.87 -20.969,0.16 -30.39,3.75 -42.929,20.51 -8.899,11.91 -8.079,11.95 -18.59,8.36 -20.078,-9.53 -36.129,10.51 -29.84,27.03 3.121,7.74 -0.199,10.24 -9.34,11.72 -17.77,2.97 -37.93,25.23 -41.602,43.44 -0.777,3.71 -2.617,4.65 -13.128,4.29 -20.579,-0.7 -31.95,11.76 -23.86,29.18 4.41,9.46 5.621,13.25 -2.582,19.65 -10.078,7.82 -15.777,13.24 -20.277,22.74 -3.512,7.54 -4.063,12.34 -6.481,28.4 -0.859,5.54 -2.73,6.48 -10.039,7.42 -21.25,2.77 -29.652,24.49 -14.019,38.59 4.758,4.3 4.758,4.18 -2.5,13.56 -13.91,17.96 -19.141,41.44 -13.051,57.07 1.641,4.25 0.039,9.41 -4.922,10.66 -19.41,4.8 -19.769,26.29 -1.168,38.36 5.391,3.52 5.66,5.82 1.598,12.89 -7.149,12.38 -6.797,44.8 0.121,60.31 4.449,10 4.41,10.24 -2.5,14.65 -14.731,9.42 -10.551,35.27 6.91,39.53 8.48,2.07 9.02,3.17 6.762,13.44 -4.063,18.28 -4.774,23.05 6.008,30.27 29.769,19.26 105.941,56.14 105.941,56.14 l 25.199,11.95 c 0,0 2.5,-153.44 0.891,-171.6 -0.973,-7.81 6.058,-12.54 14.219,-20.67 16.921,-16.6 26.179,-36.68 48.75,-50.58 0,0 14.07,7.81 22.781,13.4 l 0.859,218.63 c 1.789,4.96 3.039,5.51 8.789,6.21 4.801,0.94 16.871,2.27 20.93,3.44 9.691,2.85 11.25,6.76 -1.52,5.47 -3.871,-0.39 -9.609,-2.04 -16.058,-3.32 -39.879,-11.96 -69.41,50.03 -39.02,81.28 5.821,5.2 27.617,14.26 37.5,14.89 2.848,-0.04 11.367,10.43 17.188,20.08 5.859,9.72 8.281,16.91 4.922,26.64 -7.032,20.47 -0.313,51.87 20.699,86.17 22.82,32.38 40.39,68.47 49.609,106.95 80.75,9.69 149.223,29.73 222.192,25.31 2.847,-24.61 -79.77,-169.72 -62.5,-178.2 65,-15.55 42.808,-92.5 -6.602,-89.92 -7.418,0.04 -8.129,-0.63 -12.848,-16.95 -8.992,-23.87 -14.769,-42.07 -24.421,-64.26 0,-5.71 -32.258,-4.18 -59.29,-3.99 -11.64,-8.9 -61.371,-33.12 -88.601,28.79 l -0.969,-52.93 c 0,0 372.22,5.9 438.43,-2.38 1.41,16.6 36.8,-12.81 36.8,-12.81 l -181.679,-285.2 8.519,-8.28 c 26.21,31.72 184.33,286.21 184.33,286.21 l 342.03,-220.27 c -2.81,-32.74 0.47,-106.17 0.47,-106.17 -93.86,-49.73 -65.19,-75.08 -0.58,-14.85 l 1.13,-42.93 z m -566.758,779.96 c 0,0 96.878,-0.78 145.468,-8.55 42.54,-6.8 40.35,-5.55 40.16,-36.41 -0.12,-21.87 -0.12,-21.36 -5.78,-31.87 -10.36,-19.38 -8.6,-38.44 7.81,-65.16 15.94,-25.94 27.58,-45.08 27.58,-48.75 0,-5.74 -0.98,-12.73 -14.77,-22.34 -16.29,-11.37 -19.41,-19.3 -19.18,-30.82 0.2,-9.34 -1.56,-12.38 -7.15,-12.35 -2.26,0 -10.15,-3.67 -18.67,-7.65 -14.96,-7.07 -15,-7.07 -28.94,-6.96 -7,0.08 -10.4,2.7 -12.35,1.96 -3.75,-1.76 -7.15,-14.3 -7.03,-17.97 0.39,-1.29 2.38,-0.51 6.48,0.9 23.17,7.89 57.58,4.33 58.56,0.9 4.65,-4.22 4.69,-10.75 -2.38,-17.5 -4.57,-7.19 -6.64,-10.86 -4.73,-21.96 2.62,-15.08 0.66,-21.05 -7.07,-26.25 -23.52,-15.86 -54.92,-17.89 -105.2,-8.24 -52.93,10.16 -89.14,30.31 -119.25,66.37 -13.441,16.13 -16.801,21.79 -10.121,22.89 8.199,1.29 17.301,2.97 25.699,6.6 37.231,15.98 36.563,83.98 -13.547,91.05 -20.472,0.75 42.219,96.96 64.411,172.11 z m 47.808,-46.83 c -18,-10.08 -27.422,-22.35 -27.461,-28.99 0,-2.73 0.629,-2.26 9.223,3.4 24.918,16.37 90.668,40 114.098,26.37 16.92,-10.16 23.48,-6.84 13.68,6.8 -22.97,31.95 -84.97,5.78 -109.54,-7.58 z m 64.26,-10.74 c -2.65,0 -5.43,-0.32 -8.2,-0.86 -17.34,-3.87 -36.45,-18.17 -52.23,-30.71 -7.81,-6.21 -18.869,-18.47 -20.58,-21.68 -3.91,-7.26 4.72,-15.27 16.44,-8.86 6.84,3.71 7.46,2.89 14.03,1.95 15.15,-4.53 32.42,-11.6 59.1,-9.34 2.5,-0.58 2.3,-1.17 1.44,-3.51 -1.6,-4.26 -11.05,-12.38 -23.4,-21.49 -6.36,-4.72 -11.91,-8.55 -12.38,-9.25 -1.95,-3.17 6.56,-3.4 15.9,1.87 13.2,7.5 28.44,24.06 37.77,37.34 0.86,1.29 2.11,2.35 2.5,3.72 0.94,3.04 -4.65,1.79 -7.61,2.61 -1.29,0.35 -1.06,3.6 -1.37,5.08 -0.9,3.91 0.62,10.35 1.37,15.9 0.54,4.49 5.39,8.05 8.55,11.33 13.95,14.49 12.85,21.05 -5.9,9.92 -3.16,-1.88 -5.66,-3.01 -8.71,-3.24 -27.69,-0.86 -43.67,0.19 -66.76,-19.22 -10.27,-8.24 -16.44,-9.06 -7.3,-0.27 13.94,11.28 31.4,27.3 50.7,31.52 11.64,2.89 22.74,-6.02 27.85,-3.71 0.04,6.36 -9.68,11.01 -21.21,10.9 z m -4.02,-40 c 3.16,-2.07 6.29,-12.89 5.98,-16.53 -0.32,-4.26 -7.62,-2.5 -8.64,-0.47 l -3.94,12 c -1.72,4.06 3.51,6.32 6.6,5 z m -14.1,-2.46 c 3.4,-3.33 4.18,-10.55 6.09,-16.53 -1.25,-4.3 -28.48,1.53 -31.91,6.33 4.1,5.31 18.16,11.64 25.82,10.2 z m 47.77,-77.5 c -2.03,0.15 -4.73,-0.86 -7.19,-3.36 -12.26,-12.54 -8.32,-33.87 6.45,-40.79 7.19,-3.35 18.05,-0.89 34.06,4.03 7.66,2.34 13.16,3.4 14.61,3.4 6.25,-0.04 9.65,9.64 5.27,14.1 -5.07,5.12 -17.11,4.37 -30.07,-5.63 -6.53,-5.04 -11.22,-7.5 -16.53,-7.42 -12.93,0.16 -19.26,13.48 -6.01,27.42 4.41,4.69 2.85,8.05 -0.59,8.25 z m -90.78,-91.84 c 15.27,-12.31 44.3,-5.86 63.79,6.99 17.42,11.52 24.65,14.92 38.63,12.5 17.15,-2.93 16.52,3.79 9.1,12.27 -8.43,9.57 -29.22,6.6 -46.6,-4.89 -38.55,-25.5 -52.5,-29.76 -63.67,-15.97 -12.03,14.8 2.26,33.83 16.44,23.47 11.61,-7.89 11.41,-1.95 6.61,3.44 -27.93,23.52 -48.129,-18.63 -24.3,-37.81 z m -135.509,-12.11 c 19.449,-24.61 38.09,-44.96 66.059,-59.96 l 0.308,-4.65 -90.429,0.2 c 6.293,11.01 24.261,63.67 24.062,64.41 z m -306.25,-64.14 c -1.953,-37.11 4.731,-58.91 26.52,-84.84 23.129,-27.58 21.41,-70.55 6.527,-97.11 -6.598,-11.76 -20,2.69 -13.668,10.19 8.981,11.29 9.531,38.83 5.27,56.02 -9.532,28.43 -31.168,42.38 -39.918,72.42 -2.934,12.81 -1.992,35.9 -1.992,35.9 l 17.261,7.42 z m 28.278,-3.13 c 1.601,0.24 4.101,-1.4 7.851,-4.61 12.82,-11.05 10.629,-42.69 -4.019,-63 -4.493,-6.14 -8.2,-4.38 -12.5,1.33 -5.782,5.7 -3.789,6.28 1.089,16.28 5.079,10.47 6.68,22.23 5.668,35.98 -0.699,9.26 -0.386,13.63 1.911,14.02 z m 829.771,-10.86 c 11.29,0.16 25.39,-2.22 26.68,-6.28 1.21,-5 -1.49,-8.99 -7.78,-11.64 -16.52,-6.96 -38.36,2.81 -32.85,14.68 1.37,2.11 7.15,3.17 13.95,3.24 z m -28.63,-2.69 c 3.24,0.08 5.74,-0.74 7.73,-1.64 5.43,-2.77 -3.09,-21.8 23.87,-21.45 6.44,-0.93 11.21,0.55 10.31,-2.34 -1.33,-4.38 -12.89,-10.98 -25.43,-12.81 -37.54,-5.55 -35.94,-3.67 -34.22,-30.16 1.09,-17.3 0,-23.12 -2.38,-33.59 -4.06,-18.21 -5.67,-35.74 -2.93,-29.96 3.67,7.69 13.01,32.11 12.97,45.97 -0.12,20.47 7.22,24.5 10.15,9.69 1.25,-9.84 -3.16,-15.35 3.44,-25.35 3.75,-5.63 5.47,-5.55 2.97,-14.26 -2.23,-7.69 -0.7,-9.96 1.99,-13.87 2.74,-3.9 5.43,-4.84 3.17,-10.31 -4.97,-11.87 2.81,-23.08 14.06,-24.06 5.19,-0.43 6.64,-2.7 5.08,-4.69 -2.74,-3.4 -8.25,-5.04 -12.78,-6.01 l -119.29,76.05 c 0,0 8.86,17.7 11.48,22.46 17.15,37.5 30.74,54.57 80.82,74.18 3.48,1.49 6.45,2.07 8.99,2.15 z m 63.35,-24.61 c 3.32,0.12 5.75,-1.6 8.52,-5.16 7.3,-9.41 0.94,-21.13 -17.07,-31.25 -15.39,-8.71 -19.88,-9.76 -23.2,3.95 -0.78,2.5 -2.82,5.51 -4.14,6.76 -3.56,3.24 -2.78,5.93 1.79,8.36 2.15,1.13 9.07,3.94 14.61,7.61 9.61,6.33 15.28,9.57 19.49,9.73 z m -50.74,-27.27 c 3.75,-0.07 7.62,-0.97 10.51,-2.81 4.77,-3.12 4.81,-10.9 0,-13.98 -9.61,-3.91 -24.73,1.33 -23.44,10.11 0.63,4.46 6.64,6.76 12.93,6.68 z m 61.33,-9.6 c 3.4,0.11 5.98,-1.49 8.09,-4.77 5.62,-8.63 -0.98,-17.34 -19.89,-26.56 -12.46,-6.1 -28.36,-8.75 -27.34,-5.16 0.86,2.85 -3.59,17.07 -5.55,19.34 -0.78,2.42 0.2,0.23 15.94,5.19 5.66,1.8 12.54,4.77 15.74,6.72 5.39,3.4 9.61,5.16 13.01,5.24 z m -894.8,-22.47 c -8.75,-20.97 -10.16,-30.23 -5.981,-52.3 3.481,-18.4 7.5,-27.58 26.371,-54.73 14.372,-20.66 18.981,-28.71 15.5,-35.23 -2.421,-3.52 -7.929,-6.8 -11.32,-3.44 -7.039,9.18 -11.25,20.31 -18.09,30.51 -26.41,38.67 -28.242,48.51 -31.64,79.02 -1.52,13.95 6.519,43.64 13.359,48.09 7.691,3.01 14.18,-7.07 11.801,-11.92 z m 610.07,9.69 c -7.18,-5.35 -11.68,-16.13 -15.43,-23.87 0.79,-5.54 5.32,-1.91 17.23,15.51 2.85,4.18 0.9,8.71 -1.8,8.36 z m 227.27,-9.49 c 10.55,-0.31 14.3,-9.77 9.57,-14.69 -6.91,-7.19 -19.3,-1.76 -19.3,8.32 0,4.26 2,6.49 9.73,6.37 z m 58.59,-13.44 c 6.06,-0.27 6.88,-6.29 3.68,-15 -4.03,-8.08 -8.87,-9.45 -23.4,-13.98 -17.42,-5.39 -20.24,-4.61 -22.85,11.36 -1.02,6.14 -0.51,4.77 15.5,9.03 6.88,1.8 14.93,5.08 19.22,6.83 3.21,1.33 5.86,1.84 7.85,1.76 z m -1027.258,-7.19 4.289,-32.22 6.961,24.14 -11.25,8.08 z m 970.738,-10.82 c 8.59,-0.03 13.16,-7.69 8.83,-12.26 -2.42,-2.58 -8.6,-2.62 -11.56,-1.13 -6.8,4.96 -5.59,13.43 2.73,13.39 z m -261.41,-16.83 16.68,-10.28 -135.5,-213.47 -16.33,0.35 -1.56,3.4 136.71,220 z m 307.43,-2.07 c 10,0.15 10.86,-9.26 -1.25,-17.93 -4.97,-3.17 -10.51,-3.95 -14.85,-4.14 -6.01,-0.24 -10.08,1.33 -10.54,5.47 -2.62,10.19 -4.11,12.73 5.19,12.11 1.88,-0.12 6.91,0.19 10.98,1.91 4.14,1.76 7.65,2.54 10.47,2.58 z m -41.41,-9.34 c 6.91,-0.04 11.29,-7.5 6.64,-11.17 -5.7,-4.53 -12.85,-1.72 -12.81,5.12 0,4.37 1.21,6.09 6.17,6.05 z m -974.919,-15.08 -36.882,-32.57 c 13.519,-15.98 24.851,-31.88 36.57,-48.64 l 0.312,81.21 z m 745.349,-2.11 c 16.01,0.67 21.25,-7.07 13.67,-12.26 -10.31,-6.88 -19.14,-6.52 -30.86,-4.92 -15.47,2.85 -3.16,15.23 13.83,16.99 1.13,0.12 2.3,0.16 3.36,0.19 z m -16.99,-23.2 c 3.24,0.08 8,-0.82 14.18,-2.89 10.43,-3.55 23.47,-14.49 22.85,-20.59 -0.98,-9.8 -19.49,-4.72 -34.42,9.34 -9.37,8.83 -9.72,13.95 -2.61,14.14 z m -14.14,-0.15 c 9.06,-0.86 18.12,-31.49 11.09,-40.9 -6.91,-9.26 -19.06,10.62 -16.84,26.21 0.86,6.21 2.43,14.33 4.85,14.65 0.27,0.04 0.58,0.07 0.9,0.04 z m -592.461,-6.72 c 5.071,-1.25 11.641,-8.28 10.231,-13.64 -1.059,-2.14 -3.2,-1.52 -5.508,-0.97 -4.223,1.75 -7.461,7.61 -6.641,12.46 0.391,1.33 0.938,2.07 1.918,2.15 z m 687.501,-5.28 26.64,-18.04 -26.64,-1.06 0,19.1 z m -110.47,-36.52 c 20.47,-0.12 24.76,-6.68 9.53,-14.73 -6.37,-3.36 -21.8,-3.98 -29.81,-1.21 -12.69,4.42 2.54,16.06 20.28,15.94 z m 165.43,-13.71 1.36,-18.52 -51.29,-4.49 -2.65,19.26 52.58,3.75 z m -177.43,-9.22 c 3.56,0.2 9.22,-1.45 16.64,-5.23 13.95,-7.19 21.88,-19.18 14.69,-23.01 -6.52,-3.44 -18.16,0.66 -26.36,9.26 -10.9,11.4 -11.76,18.55 -4.97,18.98 z m -17.46,-0.04 c 9.3,-0.59 17.39,-26.05 11.25,-38.67 -3.36,-6.92 -7.61,-5.39 -13.75,5.94 -5.9,10.97 -6.21,30.39 0.59,32.5 0.62,0.19 1.29,0.27 1.91,0.23 z m -667.461,-7.23 -22.457,-45 40.668,-35.39 -18.211,80.39 z m 868.641,-34.64 3.63,-17.82 -49.26,-12.11 -4.8,19.38 50.43,10.55 z m -215.12,-3.52 c 6.01,-0.08 11.68,-1.52 14.92,-4.37 4.49,-3.95 3.52,-5.71 -7.11,-10 -18.91,-7.7 -42.19,-3.05 -28.67,8.43 4.76,4.03 13.12,6.1 20.86,5.94 z m 320.04,1.05 c -18.83,-12.57 -0.71,-19.49 12.73,-10 -1.01,3.25 -8.79,9.97 -12.73,10 z m -333.83,-25.23 c 13.44,-0.43 39.84,-18.87 34.22,-27.66 -3.09,-4.84 -20.74,-0.74 -27.74,5.98 -9.22,8.83 -14.1,20.63 -9.02,21.52 0.78,0.16 1.64,0.2 2.54,0.16 z m -16.99,-0.86 c 6.95,1.29 18.04,-31.01 9.65,-39.3 -3.13,-3.08 -3.99,-2.89 -9.26,1.76 -10.51,9.3 -8.71,26.41 -2.42,36.02 0.62,0.9 1.28,1.4 2.03,1.52 z m 413.51,-17.03 c -1.83,3.44 -4.14,5.04 -6.64,6.91 -65.43,-25.07 -48.63,-48.98 6.64,-6.91 z m -155,-2.19 6.53,-18.04 -49.61,-19.61 -7.31,19.72 50.39,17.93 z m -848.591,-34.14 -16.797,-44.14 c 18.277,-0.12 34.726,-8.71 51.406,-16.37 l -34.609,60.51 z m 865.081,-12.97 10.5,-17.73 -46.64,-25.2 -9.33,18.68 45.47,24.25 z m -1084.07,-34.53 19.11,-13.47 -28.09,-34.85 -2.539,4.92 0.309,28.91 11.21,14.49 z m 1109.57,-10.97 11.29,-16.25 -44.92,-31.14 -11.01,17.66 44.64,29.73 z m -1061.402,-20.9 20.622,-15.86 -32.61,-39.3 -19.73,15.08 31.718,40.08 z m 227.071,-9.69 -0.981,-47.27 48.602,-1.87 -47.621,49.14 z m 561.331,-21.33 55.19,-31.72 -8.32,48.44 c -14.41,-2.81 -32.93,-12.19 -46.87,-16.72 z m 303.16,9.92 12.89,-15.97 -41.52,-34.81 -13.28,16.64 41.91,34.14 z m -1049.409,-13.98 19.219,-17.85 -33.911,-36.57 -17.808,16.76 32.5,37.66 z m 1084.879,-25.94 14.92,-15.16 -37.81,-39.25 -14.92,15.15 37.81,39.26 z m -1041.168,-19.26 14.879,-17.34 -38.711,-30.7 -14.34,17.42 38.172,30.62 z m 223.039,-4.06 10.859,-46.29 c -0.781,3.36 48.211,13.79 54.61,10.31 l -65.469,35.98 z m 570.279,-3.91 46.21,-48.71 5.19,46.92 -51.4,1.79 z m 285.9,-7.65 16.72,-13.05 -31.06,-44.14 -18.91,14.84 33.25,42.35 z m -1045.902,-29.42 13.75,-19.88 -40.547,-24.1 -11.519,17.54 38.316,26.44 z m 1089.692,-4.68 2.57,-2.58 -0.04,-31.49 -12.89,-18.9 -17.57,10.35 27.93,42.62 z m -261.53,-35.39 40.9,-74.22 11.52,55.35 c -15.11,0.23 -39.06,9.88 -52.42,18.87 z m -795.818,-9.93 9.726,-21.4 -42.847,-19.49 -9.77,21.28 42.891,19.61 z m 23.168,-51.09 7.808,-21.48 -45.589,-15.08 -7.188,20.7 44.969,15.86 z m -203.789,-38.91 14.219,-9.92 c 73.941,38.79 50.89,50.24 -14.219,9.92 z m 417.929,24.69 c 2.809,0.28 6.008,-3.55 8.59,-12.07 3.95,-12.89 1.879,-28.83 -6.871,-28.63 -5.898,0.74 -8.09,15.82 -8.129,20.19 -0.082,12.89 2.809,20.12 6.41,20.51 z m 40.54,-7.69 17.621,-1.92 -0.082,-4.96 -140.27,-222.23 -16.988,10.789 139.719,218.321 z m -75.54,-5.16 c 5.579,-0.04 13.79,-3.91 21.051,-11.6 4.219,-4.57 8.75,-11.1 9.879,-17.74 -0.109,-2.22 -3.898,-1.36 -7.539,-0.86 -9.293,1.29 -23,7.74 -27.383,15.67 -5.347,9.76 -2.34,14.57 3.992,14.53 z m 644.84,-7.93 18.67,-91.02 c 5.82,22.82 18.05,35.94 27.11,53.83 -23.83,10.94 -33.63,23.91 -45.78,37.19 z m -805.898,-18.4 4.418,-23.55 -47.27,-10.9 -4.879,22.85 47.731,11.6 z m 176.25,-8.16 c 0.668,0 1.328,0 1.957,-0.08 17.301,-1.91 19.723,-5.78 8.121,-13.55 -7.031,-4.73 -26.09,-5.4 -29.262,-0.36 -3.359,5.39 9.141,13.87 19.184,13.99 z m -342.852,-13.83 14.692,-8.55 c 25.117,18.12 -2.313,21.75 -14.692,8.55 z m 317.969,-7.93 c 5.27,-0.08 8.481,-9.49 10.313,-18.12 1.796,-8.362 2.418,-15.901 -0.821,-20.119 -3.941,-5.161 -7.812,-6.063 -10.98,-0.981 -9.211,14.92 -8.903,39.34 1.488,39.22 z m -38.949,-13.67 c 2.461,0.08 5.59,-0.51 9.18,-1.88 12.269,-4.65 28.519,-23.361 21.679,-25.932 -10.148,-3.828 -32.301,7.262 -36.48,18.472 -2.11,5.67 0.191,9.14 5.621,9.34 z M 520,996.379 l 1.129,-23.277 -49.68,-1.993 -1.488,23.121 50.039,2.149 z M 641.719,976.77 c 4.922,0.16 9.801,-0.508 13.75,-2.192 7.109,-3.078 1.91,-8.629 -10.27,-12.848 -8.09,-2.808 -19.578,-3.511 -23.597,-0.308 -9.411,7.418 5.429,14.957 20.117,15.348 z M 257.07,974.078 c 34.02,-20.629 104.61,-66.566 104.61,-66.566 -3.321,-0.66 -6.879,-3.282 -10.16,-5.821 -2.54,-2.07 -5.309,-4.019 -7.692,-5 -3.75,-1.519 -7.226,-1.761 -10.387,-2.421 -21.961,-4.758 -32.703,-17.149 -25.82,-32.579 2.688,-6.05 3.359,-5.082 -1.293,-10.152 -13.09,-12.461 -11.488,-16.211 -6.84,-32.148 0.082,-2.27 -15.578,-21.411 -1.758,-35.821 7.661,-6.679 8.051,-2.5 5.282,-17.621 -0.981,-9.097 1.476,-16.558 14.758,-19.179 7.39,-3.36 7.269,-2.192 4.652,-8.442 -1.801,-8.937 0.777,-12.648 7.066,-15.898 5.711,-3.551 8.012,-4.532 3.992,-7.649 -44.179,-22.582 -57.742,-61.84 -16.101,-119.691 4.922,-6.828 17.269,-26.051 17.269,-26.051 -14.027,-20.82 -27.457,-37.93 -41.757,-56.527 l 41.679,-58.16 c -6.761,-10.59 -22.539,-32.032 -32.23,-53.243 -14.57,-31.8 -4.961,-76.41 36.961,-89.769 17.969,-5.699 41.719,-1.051 56.679,16.289 12.11,14.062 18.75,41.992 7.649,71.09 -14.02,32.621 -30.82,48.601 -36.25,57.859 l 44.652,55.934 c 0,0 -30.742,44.136 -43.011,60.16 83.679,102.226 15.32,130.816 2.191,139.566 -2.031,1.371 -1.563,7.891 -1.563,7.891 75.192,8.633 100.864,49.84 122.973,102.031 44.84,-28.832 109.059,-67.582 154.02,-97.89 4.339,-4.02 7.187,-6.52 6.519,-8.711 -0.539,-1.84 -2.262,-10.118 -2.34,-18.629 2.071,-13.559 1.09,-19.692 -4.371,-24.891 -5.16,-4.879 -4.148,-7.109 -3.328,-12.379 1.449,-9.18 2.859,-10.121 -1.281,-14.73 -5.039,-5.7 -6.762,-8.352 -5.82,-22.18 0.582,-8.211 1.64,-14.34 -0.551,-19.18 -2.77,-6.332 -10.43,-9.492 -20.508,-17.39 -17.582,-13.782 -15.231,-18 9.098,-68.078 20.711,-42.704 23.05,-52.422 15.121,-67.582 -6.602,-12.622 -9.102,-22.379 -8.321,-40.59 0.231,-4.641 0.621,-9.641 0.59,-12.102 -0.039,-5.898 0.031,-5.238 -3.359,-8.906 -2.66,-2.852 -7.07,-8.563 -9.77,-12.621 C 589.41,333.059 513.398,221.93 513.398,221.93 l -256.328,0 0,752.148 z m 358.95,-20.117 c 3,0.187 6.601,-5.16 10.699,-15.981 2.383,-6.21 2.109,-17.07 -1.719,-21.25 -7.578,-8.281 -18.09,11.168 -14.77,26.559 1.489,6.961 3.442,10.473 5.79,10.672 z m 719.02,11.68 c 0.04,-39.422 -0.82,-90.59 -14.42,-128.282 l 15.43,-7 c -5,38.75 1.18,70.512 36.76,87.27 -16.17,10.98 -28.55,29.492 -37.77,48.012 z M 577.699,940.789 c 1.25,0.039 2.653,-0.269 4.211,-0.777 5.789,-1.602 12.82,-4.961 17.07,-9.293 7.309,-7.43 14.891,-16.367 12.969,-17.231 -12.109,-5.269 -42.769,10.903 -38.75,23.551 0.86,2.66 2.422,3.68 4.5,3.75 z m -53.75,-1.68 0.313,-19.289 -29.731,18.942 29.418,0.347 z m 678.511,-9.289 c 4.81,-0.39 12.27,-6.679 11.09,-11.058 -2.07,-4.723 -4.6,-4.293 -7.93,0.668 -4.14,6.211 -5.82,10.082 -3.16,10.39 z M 600.43,905.949 c 7.23,0.199 13.441,-1.41 14.101,-5.16 0,-3.551 -5.511,-8.117 -12.261,-10.187 -16.879,-5.204 -29.54,-1.883 -24.93,6.41 2.89,5.457 13.789,8.707 23.09,8.937 z m 588.36,-21.91 c -7.15,-12.777 -8.05,-53.641 4.57,-70.277 19.57,-21.602 37.66,-49.684 35.55,-87.071 l -18.79,-8.402 c 1.01,30.75 -0.2,50.75 -24.26,77.27 -28.63,31.05 -21.91,84.882 -12.03,100.703 8.51,15.629 20.7,-6.481 14.96,-12.223 z m -824.22,16.992 c 6.02,0.348 13.399,-3.203 26.719,-11.953 34.02,-24.066 52.5,-33.316 86.25,-57.148 4.922,-4.61 4.691,-3.95 3.832,-7.578 -12.891,-49.301 -50.391,-88.403 -105.941,-95.59 -6.41,-0.821 -3.09,3.207 -6.95,10.937 -3.992,7.973 -11.371,11.41 -19.531,11.481 -22.929,0.242 -3.328,13.05 24.68,16.718 9.262,1.454 20.391,2.704 26.293,8.25 1.289,-0.589 -4.844,38.551 1.449,52.34 3.199,12.383 0.149,18.403 -3.32,10.782 -2.153,-4.801 -5.199,-17.379 -6.84,-30.231 -1.41,-10.898 -3.711,-12.391 -6.25,-7.109 -1.172,2.422 -1.172,8.121 0.699,12.609 2.07,10.281 -10.89,18.012 -8.281,27.391 3.48,7.851 -0.109,16.48 -4.488,19.332 -2.379,5.117 -2.11,8.789 -1.801,12.347 0.75,8.282 -4.801,16.289 -13.551,19.762 -3.867,1.957 -2.738,4.059 1.289,6.059 1.91,0.929 3.75,1.48 5.742,1.601 z m -27.851,-14.062 c 2.23,0.043 4.41,-0.199 6.48,-0.707 4.531,-2.774 8.172,-18.321 3.129,-18.942 -1.879,-0.242 -7.656,-0.941 -12.148,-2.269 -15.231,-4.449 -22.461,-3.832 -22.149,4.879 0.309,8.949 12.809,16.84 24.688,17.039 z m 20.269,-1.571 c 5.981,-0.039 10.821,-7.027 7.032,-10.777 -3.86,-3.832 -11.36,-1.012 -11.321,4.527 0,3.012 1.36,6.25 4.289,6.25 z m 4.063,-24.289 c 1.719,0.071 3.64,-0.281 5.668,-1.211 5.582,-2.578 8.793,-12.148 5.23,-15.668 -2.687,-2.652 -10.429,-1.718 -14.527,1.801 -7.383,6.25 -3.832,14.797 3.629,15.078 z m -18.903,-1.371 c 3.473,-0.078 5.942,-1.168 6.602,-3.558 0.59,-2.071 -0.391,-3.942 0.551,-6.871 1.437,-4.571 4.371,-8.09 1.828,-9.918 -11.68,0.66 -35.93,-13.95 -42.93,-13.243 -5.859,0.782 -6.519,6.133 -1.437,14.84 5.859,10.082 25.039,18.942 35.386,18.75 z m 7.071,-28.316 c 2.543,0.187 2.972,-1.211 1.953,-4.922 -0.742,-2.66 -0.121,-8.949 1.68,-12.969 1.918,-4.383 5.386,-6.953 3.597,-8.633 -3.008,-0.859 -13.008,-2.886 -21.449,-6.019 -10.898,-6.02 -41.449,-24.098 -33.75,4.84 2.461,9.652 13.672,16.371 33.32,23.211 7.418,2.609 12.11,4.332 14.649,4.492 z m 16.011,-0.352 c 4.731,0.352 10.122,-1.922 12.54,-7.781 7.07,-14.059 -13.239,-16.09 -19.719,-4.367 -3.871,6.949 1.129,11.719 7.179,12.148 z m 3.911,-32.781 c 10.55,-0.027 18.75,-13.117 11.089,-18.078 -5.699,-3.402 -12.73,-2.742 -19.25,-1.133 -9.769,4.25 -5.281,19.293 8.161,19.211 z M 1380.59,798.02 c 40.19,-20.981 94.72,-40.348 147.73,-54.731 l 0,-521.359 -362.27,0 -99.21,172.73 c 0,0 -3.32,5.59 -4.38,8.051 -1.99,4.687 -1.25,8.469 0.08,13.359 3.32,11.719 13.24,34.692 22.42,51.008 23.99,43.91 58.01,92.07 39.57,134.223 -2.11,4.847 19.06,31.019 19.06,31.019 32.58,-2.66 59.5,18.508 49.85,68.551 68.01,27.738 124.02,50.277 187.15,97.149 z M 350.391,795.48 c 0.937,0.04 -1.84,-11.402 3.91,-18.402 3.59,-5.5 3,-5.308 -9.18,-10.109 -4.57,-2.5 -9.141,-6.25 -11.723,-8.52 -17.457,-15.59 -34.769,4.77 -17.886,21.129 13.629,12.231 27.886,14.891 34.648,15.75 0.11,0.113 0.149,0.152 0.231,0.152 z m 830.899,-10.742 c 5.86,-1.058 13.44,-8.828 11.01,-13.09 -8.28,-13.82 -8.63,-21.25 -9.37,-35.539 -0.82,-15.98 1.91,-18.32 -4.22,-15.589 -3.94,1.878 -11.41,5.039 -13.05,9.101 -3.86,9.379 5.98,56.801 15.63,55.117 z M 344.691,744.66 c 6.481,0.121 13.321,-2.031 17.149,-6.949 3.199,-4.102 3.512,-7.621 0.351,-9.262 -7.582,-4.019 -32.621,-1.91 -33.871,3.199 -1.949,7.891 6.879,12.864 16.371,13.012 z M 723.98,734.512 c 30.59,-0.121 66.25,-6.614 93.911,-18.684 39.218,-14.719 73.75,-52.379 81.558,-68.43 2.391,-4.929 -2.5,-4.929 -6.679,-5.359 -46.719,-7.687 -62.258,-65.07 -22.848,-92.5 12.379,-7.687 22.348,-6.867 22.348,-6.867 10,0.859 -44.418,-103.363 -66.098,-168.281 -67.031,2.73 -117.692,-7.582 -183.242,14.918 -7.032,11.679 -5.352,37.461 -0.231,50.781 4.723,12.109 10.891,21.449 7.922,35.351 -5.23,24.219 -27.34,55.821 -34.762,75.821 -6.48,15.277 -6.089,20.976 5.231,29.726 13.359,10.313 16.64,12.461 20.281,17.692 3.43,4.851 1.988,5.98 2.027,16.922 0.082,13.277 -0.238,11.207 10.743,13.16 3.828,0.668 12.89,3.558 19.808,7.187 14.289,7.539 24.289,7.27 32.731,2.621 3.629,-1.019 3.281,2.77 4.84,7.809 0.671,2.191 2.23,5.742 2.07,6.84 -0.231,2.261 -5.07,1.601 -10.43,0.859 -21.359,-3.008 -38.199,-3.637 -46.871,-0.43 -7.539,2.813 -7.539,7.852 -3.168,16.211 3.949,7.461 6.68,7.34 5.078,22.93 -1.988,19.531 0.75,23.672 9.891,30.07 11.359,8.012 32.07,11.762 55.89,11.653 z m 110.551,-17.231 99.418,0 c -9.769,-15.703 -20.629,-39.922 -26.801,-62.89 -0.898,-1.801 -1.949,-3.563 -4.257,-1.25 -13.403,19.179 -28.672,39.648 -68.36,64.14 z M 752.07,647.43 c -11.871,-0.352 -26.718,-6.051 -45.39,-16.75 -12.7,-7.231 -23.09,-11.758 -36.559,-9.258 -7.699,1.406 -8.672,0.308 -9.691,-2.192 -4.532,-11.21 12.3,-23.242 29.3,-15.351 4.918,2.07 42.809,21.641 44.918,23.32 2.262,1.84 17.973,6.449 22.114,6.41 12.5,-0.16 20.226,-10 18.707,-21.328 -2.028,-15.16 -23.559,-15.941 -24.957,-2.461 -1.102,10.391 -5.434,5.782 -5.821,0.66 -0.043,-4.332 3.278,-14.3 6.868,-16.519 18.171,-11.332 42.152,10.738 30.671,33.437 -7.031,13.903 -16.679,20.391 -30.16,20.032 z m -81.558,-52.809 c -12.352,-2.34 -20.352,-7.152 -33.672,-8.242 -10.981,-2.418 -10.16,-11.129 -3.289,-15.66 5.277,-3.52 11.918,-1.41 31.097,10.781 18.872,11.949 35.043,-12.969 19.961,-25.711 -9.488,-8.039 -3.007,-10.148 3.512,-5.309 16.68,12.418 7.109,48.829 -17.609,44.141 z M 728.91,530.48 c -1.449,0.122 -3.75,-0.429 -6.801,-1.832 -14.14,-6.449 -25,-13.25 -31.757,-22.308 -1.172,-1.988 -0.551,-5.309 -1.09,-7.93 -0.434,-2.031 -2.071,-4.609 -1.801,-6.012 0.269,-1.218 4.258,-2.5 4.84,-3.636 2.469,-4.614 0.898,-16.364 -0.539,-24.84 -0.672,-4.102 -6.723,-5.352 -9.141,-7.813 -7.973,-8.05 -5.98,-10.55 2.539,-7.39 5.891,2.191 3.391,6.293 18.039,3.441 19.031,-3.672 34.071,1.488 48.992,9.77 16.598,9.218 22.61,14.289 23.278,13.199 1.133,-1.801 0.23,-2.77 -11.598,-12.578 -29.652,-24.61 -51.68,-30.313 -68.32,-21.09 -5,3.359 -8.992,4.758 -5.199,-2.5 0.468,-0.781 4.488,-3.91 7.308,-5.16 17.11,-7.692 38.512,-1.211 65.781,20.308 6.008,4.731 11.289,10 18.2,15.789 22.621,18.903 16.679,27.532 -8.871,18.364 -8.079,-2.903 -10.348,0.226 -21.211,4.449 -14.649,5.66 -19.45,6.211 -36.289,6.48 -14.649,0.278 -16.829,-1.089 -16.829,1.368 0.039,3.121 9.879,14.179 20.938,19.019 10.82,4.692 13.859,10.594 9.531,10.902 z m 26.949,-46.64 c 2.731,-2.77 -1.211,-4.531 -11.757,-9.531 -5.981,-2.809 -11.481,-5.161 -12.262,-5.161 -0.942,-1.679 -10.899,20.75 -8.168,21.84 1.129,0.473 25.547,-1.597 32.187,-7.148 z m -38.359,2.34 c 2.422,-5.071 4.301,-10.391 5.27,-15.309 0.199,-1.519 1.289,-3.711 -1.09,-3.672 -1.879,-0.269 -4.961,-0.429 -6.09,1.289 -2.391,3.75 -5.039,16.524 -4.141,18.981 1.832,2.5 5.031,0.75 6.051,-1.289 z m 86.949,-40.309 c -0.898,-0.043 -2.539,-0.66 -5.148,-2.223 -42.071,-24.769 -92.5,-37.699 -124.961,-25.468 -10.942,4.14 -12.93,2.691 -8.949,-4.809 2.769,-5.152 8.238,-11.25 16.558,-13.512 26.492,-7.308 69.18,3.282 102.031,24.801 13.36,8.75 24.301,21.211 20.469,21.211 z M 1051.99,379.43 c 0.08,0 81.6,-152.891 88.79,-160.078 l -604.8,2.578 101.911,143.859 c 0.898,-8.078 245.781,-41.68 414.099,13.641 z"
         inkscape:connector-curvature="0"
         id="path28"
         style="fill:#131f67;fill-opacity:1;fill-rule:nonzero;stroke:none" /><path
         d="m 539.801,221.969 97.66,143.941 c 144.488,-27.422 274.449,-12.93 416.799,12.418 l 94.8,-159.566 -609.259,3.207 z m 765.899,536.402 -0.62,85.469 29.84,-11.051 c -10.35,39.723 15.78,81.25 39.57,82.93 -76.05,57.261 -12.85,118.511 -14.18,119.801 -83.2,42.85 -41.44,108.63 -47.22,114.53 -101.37,26.25 -61.8,106.56 -69.46,98.24 -59.02,-17.69 -91.52,31.68 -92.5,71.8 -51.05,-28.91 -129.96,12.03 -105.23,58.01 0,0 27.03,-12.81 31.8,-10.24 41.71,30.28 38.43,-13.16 47.1,-22.57 31.1,4.49 49.46,-19.26 57.19,-30.78 45.9,-0.08 43.99,10.89 44.42,-33.48 34.53,-8.75 33.16,-27.42 53.2,-52.89 43.55,-0.47 36.21,-14.61 26.37,-38.67 31.4,-24.96 33.94,-44.5 39.1,-67.19 34.26,-12.38 40.43,-17.42 18.04,-46.25 30.24,-45.24 15.71,-71.45 20.32,-73.91 37.69,-27.151 18.83,-36.948 2.38,-47.382 5.7,-36.09 10.27,-41.367 -3.01,-78.09 43.36,-30.699 -6.87,-44.527 -9.41,-43.898 l -0.16,-30.391 -67.54,-43.988 z M 256.41,981.18 255.512,1087.08 622.891,850.172 576.48,777.469 256.41,981.18 z m 488,-155.821 86.84,181.411 -31.172,197.89 248.872,-5.43 c 27.96,-63.47 44.84,-117.42 116.52,-222.5 l -75.74,-23.55 2.61,-127.192 -347.93,-0.629 z m 212.86,47.7 c -2.54,5.269 -3.95,8.832 -3.481,11.171 0.941,3.051 3.242,2.891 6.211,1.25 10.59,-5.121 21.172,-9.531 28.949,0.161 3.903,5.078 2.891,12.339 -0.429,16.519 -5.981,12.11 -24.731,3.32 -31.059,2.891 -5.859,-0.121 -8.121,4.808 -3.281,11.801 2.851,3.046 4.648,6.41 5.121,10.386 3.32,27.692 -44.071,17.852 -27.621,-9.019 7.461,-10 3.121,-15.981 -7.852,-9.688 -12.109,6.949 -28.867,0.469 -28.316,-14.101 0.429,-11.02 14.289,-17.852 26.008,-11.211 2.699,1.562 4.808,3.242 6.718,4.062 5.434,2.34 9.34,0.391 7.543,-5.703 -4.883,-7.617 -10.582,-18.598 -5.82,-25.816 4.809,-10.512 21.25,-9.543 26.918,-2.973 3.902,4.492 5,11.832 0.391,20.27 z m 574.1,556.131 -368.09,238.05 c 22.77,29.45 36.29,53.2 48.95,76.87 l 319.53,-205.07 -0.39,-109.85 z m -575.472,80.47 37.692,-192.19 -256.988,-3.67 c -14.102,64.53 -102.383,210.59 -102.153,208.05 l 68.563,168.05 340.968,0.39 -88.082,-180.63 z m -96.449,71.56 c 6.531,5.94 6.063,15.04 -1.09,25.24 -6.949,9.92 -3.871,17.07 7.262,10.35 6.18,-4.14 15.981,-5 22.578,-2.89 8.403,2.85 11.922,9.57 10.672,18.01 -1.531,10.19 -12.851,13 -25,8.55 -3.519,-0.74 -5.633,-3.59 -8.672,-4.96 -6.527,-2.85 -9.148,5 -3.129,15.16 6.602,11.29 -0.269,23.36 -12.461,24.41 -13.05,1.13 -20.781,-13.63 -15.468,-21.76 7.621,-11.64 2.07,-19.76 -8.871,-11.95 -15.739,11.21 -36.29,-3.01 -27.77,-19.69 4.141,-8.08 17.66,-10.19 29.77,-5.08 10.152,4.26 13.16,-0.66 6.992,-11.01 -12.621,-21.29 8.117,-40 25.187,-24.38 z m -372.847,188.71 -2.692,-102.42 c -38.441,23.48 -32.738,23.75 -34.14,23.4 11.281,-30.78 -1.918,-68.83 -34.5,-87.5 58.75,-55.04 27,-93.71 17.351,-119.8 75.078,-43.52 36.988,-118.68 37.301,-114.77 74.027,-0.43 72.5,-65.04 74.648,-91.95 91.52,5.7 79.258,-67.27 91.328,-73.52 44.372,19.81 96.172,13.01 109.922,-46.52 8.91,-33.75 -23.711,-1.21 -37.929,-2.62 -50.59,-31.44 -40.86,16.53 -43.711,23.2 -41.91,-3.94 -47.539,15.98 -65.899,30.12 -45.23,-8.71 -41.519,6.17 -38.871,33.6 -35.5,7.18 -43.199,29.29 -57.34,50.93 -49.019,-1.6 -29.019,32.97 -28.832,39.73 -5.968,5.31 -34.097,32.97 -35.508,64.61 -50.308,14.18 -18.71,39.53 -16.91,48.2 -19.019,23.67 -24.019,41.14 -17.66,70.94 -44.64,20.86 -7.34,40.35 -4.18,52.19 -14.57,38.83 -3.98,50.47 1.801,71.48 -28.75,33.63 -11.562,31.76 9.449,52.19 2.661,3.67 -4.679,20.55 -4.289,30.51 l 80.661,48 z m 258.128,379.58 -80.589,143.9 575.389,0 c 0,0 -62.62,-86.6 -86.87,-130.15 -143.52,22.57 -277.781,11.87 -407.93,-13.75 z"
         inkscape:connector-curvature="0"
         id="path30"
         style="fill:#d40000;fill-opacity:1;fill-rule:nonzero;stroke:none" /><path
         d="m 343.09,315.441 c -50.469,11.411 -59.031,74.731 -11.641,127.387 3.821,4.25 6.403,10.82 6.403,10.82 -16.372,25.231 -23.903,34.141 -40.622,59.18 14.758,22.262 31.989,39.211 43.079,58.512 -0.661,3.359 -5.579,6.719 -11.481,15.351 -34.18,50.239 -37.93,70.118 -20.59,100 16.293,28.09 55.282,31.329 78.953,6.598 25.618,-26.75 24.45,-51.09 -8.832,-100.539 -7.308,-10.859 -12.578,-20.672 -12.578,-20.672 9.18,-18.508 24.809,-35.699 40.739,-58.976 -14.758,-18.243 -29.801,-35.352 -42.809,-56.372 0,0 1.328,-4.492 4.219,-7.73 52.89,-59.809 48.711,-128.48 -11.09,-134.301 -3.09,-0.308 -10.551,0.16 -13.75,0.742 z m 425.308,762.969 c -1.367,2.27 -190.277,-302.769 -190.277,-302.769 l 21.57,-13.832 180.7,282.031 c 2.73,-2.07 5.39,-4.53 4.839,-7.97 0,0 -148.82,-242.03 -173.628,-280.698 -0.661,-1.063 36.918,-23.281 38.168,-23.32 55.351,27.226 286.21,3.628 439.49,13.007 0.62,-0.468 -2.35,-53.75 -2.35,-53.75 0,0 -34.96,40.352 -42.03,40.621 -34.84,1.211 -71.482,-13.628 -97.732,-11.949 -16.796,-5.121 -35.937,-66.101 -39.687,-81.41 -30.512,3.559 -59.961,-28.32 -52.93,-57.973 9.957,-32.968 27.11,-30.468 45.668,-31.007 -1.719,-37.352 -67.777,-135.672 -68.051,-184.141 69.84,5.512 145.391,6.762 217.382,28.43 0,0 27.07,77.66 61.21,128.832 11.25,19.566 16.64,48.949 12.07,67.457 -2.89,20.281 5.86,25.429 13.71,39.609 4.77,8.871 22.35,8.524 24.61,9.141 45.78,13.25 29.42,72.39 9.92,82.89 -24.29,13.129 -58.67,-7.218 -71.87,19.379 -13.98,28.16 -9.45,86.371 -9.45,86.371 l -345.859,-1.64 c 0,0 97.731,185.311 95.231,186.681 -26.723,14.61 -70.352,65.5 -70.704,66.01 z M 537.07,909.738 c 1.641,18.75 4.61,323.282 -283.75,474.692 l 1.559,40.04 c 1.762,2.07 262.312,-117.35 307,-427.579 l 80.391,125.739 29.57,-11.56 C 628.16,1045.52 541.211,886.461 537.07,909.738 z M 361.949,1019.47 c 11.922,35.15 -7.57,16.52 -25.347,17.93 -12.153,6.6 -24.063,15.11 -35.352,22.53 84.262,44.58 34.102,42.39 -15,11.1 -12.73,6.91 -28.828,21.99 -29.84,20.7 95.07,61.06 59.41,62.31 -1.449,18.09 2.109,41.44 0.629,25.9 1.449,39.84 51.871,55.47 3.551,25.31 0,24.65 -12.781,55.35 48.32,43.75 53.899,1.91 10.742,-7.96 31.882,-17.85 38.132,-52.14 29.329,-18.68 26.25,-34.11 24.879,-56.41 11.481,-11.33 41.09,-35.2 6.52,-57.27 l -17.891,9.07 z m -109.371,252.54 1.953,30.58 c 3.989,12.5 226.367,-145.82 210.348,-349.301 2.621,1.449 -24.609,14.223 -32.418,21.223 0.117,149.678 -159.141,281.318 -179.883,297.498 z M 1528.12,1100.25 c -148.39,67.85 -289.29,230.51 -296.71,442.03 l -83.79,-140.08 -29.77,12.58 c 2.77,-2.31 66.29,115.31 131.68,196.6 18.44,-266.87 123.32,-390.98 282.23,-481.13 l -3.64,-30 z m -777.1,97.58 c -143.79,17.81 -351.68,213.16 -289.54,478 8.79,26.88 147.469,-122.11 147.469,-122.11 0.891,6.76 124.762,-192.38 121.281,-231.29 104.54,-29.72 308.6,-1.56 308.6,-1.56 169.69,-37.81 347.11,-220.47 283.05,-480.108 0,0 -45.08,29.566 -82.78,63.937 -114.53,110.471 -150.86,201.251 -191.44,301.371 -146.609,13.28 -284.07,-12.97 -296.64,-8.24 z m 778.47,220.54 c 2.5,-13.16 0.9,-40.51 1.37,-40.47 -38.2,-41.52 -42.15,-42.26 5.74,-28.9 -5.94,-39.85 -35.43,-46.37 -52.97,-32.82 -6.44,5 -6.52,32.43 -6.52,32.43 -29.06,7.26 -39.02,15.97 -34.92,47.18 -33.44,3.99 -32.11,20.24 -29.38,54.18 -30.47,17.11 -22.89,44.34 -4.84,55.94 l 15.08,-10.35 c -4.85,-4.34 -2.5,-31.37 24.22,-11.25 0,0 21.32,-17.7 31.6,-24.57 -77.27,-49.57 -30.43,-38.67 17.18,-6.09 8.91,-6.1 21.1,-16.02 27.47,-20.32 -62.7,-44.88 -83.29,-82.38 5.97,-14.96 z m 3.75,-168.55 -2.54,-35.74 c -152.54,93.12 -193.86,215.97 -205.19,346.79 0,0 20.47,-15.04 29.84,-21.29 13.6,-168.79 168.48,-282.73 177.89,-289.76 z m -835.74,442.85 365.82,-2.31 -97.031,-185.19 51.211,-60.39 c 0,0 127.11,197.65 191.02,301.21 l -22.11,13.16 -182.39,-286.05 -7.258,8.01 179.798,285.86 c -10.78,7.03 -31.17,18.32 -31.17,18.32 0,0 -311.562,-4.96 -446.949,-4.42 4.368,18.64 5.309,51.68 5.309,51.68 19.961,-28.59 41.371,-54.14 87.93,-26.01 0,0 55.082,-1.88 57.109,0.74 6.723,10.9 18.672,45.08 32.582,83.71 53.117,3.55 47.848,29.18 53.859,37.58 -4.058,75.35 -46.402,34.76 -42.73,62.15 11.949,48.82 73.121,159.29 65.391,168.98 -15.782,10.47 -172.27,-20.27 -217.77,-25.9 -4.223,1.64 -26.449,-70.9 -49.891,-101.87 -25.5,-33.75 -34.609,-69.92 -21.601,-104.03 -13.469,-37.5 -39.328,-33.67 -60.109,-44.29 -23.598,-25.47 -17.071,-64.46 5.39,-79.53 15.621,-10.51 39.641,-9.97 64.102,9.84 L 697.5,1692.67 z m 726.95,261.95 -42.81,57.35 41.52,60.35 c -16.4,25.94 -43.39,65.58 -38.55,97.03 10.59,62.34 94.8,53.16 102.15,-6.45 3.98,-27.69 -16.21,-61.64 -36.76,-90.5 13.55,-24.65 19.38,-28.68 39.1,-56.96 -11.72,-20.62 -40.23,-60.97 -40.23,-60.97 17.77,-29.85 42.5,-62.74 40.74,-93.09 -1.91,-26.05 -30.35,-52.5 -56.91,-46.91 -82.62,17.26 -36.49,105.43 -8.25,140.15 z"
         inkscape:connector-curvature="0"
         id="path32"
         style="fill:#e2cf00;fill-opacity:1;fill-rule:nonzero;stroke:none" /><path
         d="m 650.512,2299.97 c 22.687,-42.54 87.109,-157.26 87.109,-157.26 153.238,31.72 282.069,39.76 417.499,10.19 l 96.72,146.37 -601.328,0.7 z m 19.957,-8.63 27.691,0 54.34,-111.6 93.75,18.71 -15.98,92.66 26.57,-0.16 13.39,-89.1 137.74,3.48 17.85,86.01 25.39,-0.31 -18.2,-87.38 109.06,-14.69 53.36,102.38 36.68,0 -81.17,-126.41 c -144.34,28.05 -287.741,18.64 -407.78,-10.85 l -72.691,137.26 z m 52.261,0 80.86,0 19.422,-75.31 c -9.961,-5.2 -47.032,-14.02 -59.461,-12.77 -14.801,25.89 -30.11,63.35 -40.821,88.08 z m 155.981,0 123.049,0 -10.51,-64.14 -103.199,-3.28 -9.34,67.42 z m 195.079,0 94.84,0 -37.42,-77.89 -71.52,9.73 14.1,68.16 z m 361.09,-77.97 c -5.54,0.04 -10.66,-0.43 -15.35,-1.4 -24.61,-5.16 -37.5,-24.03 -37.69,-54.81 -0.12,-14.14 10.31,-39.1 26.17,-62.69 7.73,-11.49 12.89,-22.11 12.89,-22.11 l -41.29,-60.51 43.91,-57.27 c 0,0 -6.84,-8 -10.9,-13.75 -20.12,-28.4 -29.46,-55 -28.17,-76.79 1.41,-23.52 15.16,-41.49 40.94,-50.12 14.14,-4.73 34.3,1.05 47.85,13.32 10.94,9.88 16.45,22.73 16.68,37.85 0.35,21.56 -10.08,47.7 -30.9,76.21 -5.66,7.74 -8.43,13.83 -8.43,13.83 0,0 29.14,41.37 40.11,60.31 l -39.8,57.03 c 31.64,47.46 38.05,57.97 38.9,87.15 -1.4,28.91 -22.42,53.6 -54.92,53.75 z m -3.94,-3.47 c 1.36,0.03 2.73,0 4.1,-0.12 36.13,-2.77 55.23,-29.57 50.43,-63.99 -4.92,-32.81 -34.53,-63.36 -39.3,-73.9 14.26,-23.13 41.13,-55.98 41.13,-55.98 -11.4,-20.7 -40.85,-60.78 -40.85,-60.78 0,0 1.71,-3.32 3.55,-5.98 30.74,-43.47 39.22,-64.02 37.11,-90.07 -1.68,-20.55 -17.93,-38.87 -38.2,-42.62 -32.15,-5.9 -58.48,16.87 -61.72,47.58 -1.99,26.91 15.39,53.04 28.9,73.43 5.71,8.56 10.63,16.72 10.63,16.72 l -43.75,57.35 c 13.32,21.09 30.15,41.79 42.54,59.61 0,0 -6.53,10.46 -12.58,20 -23.98,37.81 -30.66,57.22 -26.99,78.12 4.53,25.7 24.49,40.27 45,40.63 z m 3.24,-19.38 c -13.36,-0.35 -26.09,-10.19 -31.17,-24.41 -7.35,-26.64 20.74,-66.96 33.55,-77.78 23.95,27.5 39.22,58.32 30.35,79.93 -5.82,13.04 -19.37,22.61 -32.73,22.26 z m 3.32,-8.63 c 24.18,-0.51 33.24,-29.18 14.57,-61.8 -6.45,-11.13 -15.94,-22.73 -15.94,-22.73 0,0 -8.86,11.01 -14.18,19.33 -21.64,33.79 -16.05,60.16 10.51,64.89 1.72,0.23 3.4,0.35 5.04,0.31 z m -481.559,-14.92 c -63.363,-0.32 -148.011,-10.86 -222.39,-27.7 -6.481,-39.84 -26.481,-79.76 -48.321,-111.48 -21.05,-34.3 -28.671,-64.18 -21.64,-84.61 6.609,-19.18 -11.36,-47.78 -31.129,-49.57 -24.531,-2.23 -40.16,-19.3 -39.883,-43.56 -0.699,-38.94 26.211,-62.81 62.774,-49.57 3.668,0.47 6.128,-1.91 6.128,-1.91 l -2.14,-222.78 c -20.551,-3.24 -34.301,-7.69 -51.762,-16.95 -32.539,36.95 -59.609,63.13 -84.527,81.49 -0.75,49.57 1.328,99.41 -0.903,148.9 -36.757,-14.18 -75.898,-37.38 -108.128,-58.75 -10.782,-7.22 -11.872,-11.25 -7.809,-29.53 2.269,-10.27 1.719,-11.37 -6.762,-13.44 -17.418,-4.25 -22.89,-31.99 -8.121,-41.4 6.91,-4.42 6.91,-4.61 2.461,-14.65 -6.91,-15.51 -6.641,-45.2 0.512,-57.58 4.058,-7.07 3.789,-9.34 -1.602,-12.85 -18.558,-12.03 -17.308,-37.85 2.102,-42.7 4.969,-1.21 6.25,-3.36 4.609,-7.57 -6.051,-15.63 -0.539,-39.38 13.399,-57.35 7.23,-9.37 7.191,-9.26 2.421,-13.55 -15.621,-14.1 -7.14,-39.34 14.149,-42.11 7.301,-0.98 7.34,-0.98 8.16,-6.57 2.461,-16.01 3.551,-20.5 7.109,-28 4.493,-9.5 9.84,-15.9 19.922,-23.75 8.239,-6.37 8.239,-6.49 3.871,-15.9 -8.132,-17.42 4.758,-34.73 25.348,-34.02 10.512,0.35 10.512,0.39 11.25,-3.33 3.711,-18.2 25.391,-39.57 43.16,-42.5 9.141,-1.52 10.59,-3.71 7.5,-11.44 -5,-12.42 -1.75,-20.47 10.86,-26.91 8.48,-4.34 10.941,-4.5 20.203,-1.33 10.508,3.59 10.617,3.55 19.527,-8.36 12.539,-16.76 20.902,-20.98 41.832,-21.13 13.828,-0.12 14.34,-0.47 14.457,-10.2 0.192,-23.01 24.613,-32.62 40.313,-15.86 5.66,6.06 5.66,6.02 10.699,2.34 22.148,-16.21 41.762,-20.39 39.93,-5.23 -4.258,35.39 -29.93,56.99 -29.93,56.99 l 32.07,-8.36 c 1.41,-37.38 2.738,-82.46 10.551,-113.63 L 623.238,853.289 c 0,0 -8.668,5.32 -17.808,11.609 -13.442,9.211 -29.879,20.114 -40,26.403 -5.16,3.238 -11.758,7.187 -16.95,11.558 -4.96,4.153 3.079,9.571 4.758,13.95 32.934,58.671 84.461,129.181 121.961,197.731 l -36.289,14.03 c -27.781,-43.64 -48.25,-78.75 -74.109,-118.99 -25.742,188.52 -157.61,354.07 -317.141,423.75 l 0.539,-49.33 c 167.5,-85.51 287.031,-261.92 283.832,-470.039 -0.66,-0.781 -14.019,7.187 -32.07,19.219 -9.531,6.289 -28.672,18.832 -31.051,20.039 7.731,230.461 -221.289,366.711 -221.68,360.271 0,0 -1.449,-29.77 -2.109,-43.56 97.578,-65.27 174.258,-183.98 182.027,-289.641 0.082,-0.859 -45.82,28.591 -45.82,28.591 27.344,13.55 19.801,48.71 0.121,58.24 -6.14,2.78 -6.527,4.1 -3.437,12.39 6.289,17.03 -5.242,42.65 -21.133,46.95 -7,1.87 -8.129,3.71 -8.481,13.47 -0.628,17.86 -10.507,29.54 -28.359,33.44 -4.918,1.1 -4.961,1.14 -5.238,7.31 -1.481,34.57 -35.391,48.63 -60.821,25.27 -2.808,-2.62 -5.82,-7.62 -5.82,-7.62 l -0.191,-37.5 c 8.711,4.77 21.871,21.06 27.301,20.39 5.98,-0.66 3.05,-4.68 -10.391,-16.29 -8.707,-7.5 -17.18,-15.42 -17.18,-15.42 l 0.539,-49.42 c 14.492,9.42 28.992,20 42.582,29.42 11.68,8.16 17.66,10.82 19.102,8.47 1.637,-2.65 -0.973,-6.09 -7.621,-10.08 -17.852,-11.87 -38.59,-25.78 -53.59,-37.46 l -0.039,-34.02 2.887,-4.22 0.863,-29.8 -2.692,-0.67 0.04,-37.539 352.261,-224.57 179.219,282.189 2.969,-2.97 -179.297,-280.981 c 0,0 7.379,-6.32 14.34,-10 7.148,-3.98 16.008,-9.25 23.629,-14.328 3.589,-5.859 9.879,-11.019 16.597,-10.269 6.172,6.707 33.133,13.816 35.711,16.91 100.27,1.476 388.161,-0.473 388.161,-0.473 l 1.6,-45.937 c -12.93,44.527 -54.65,53.75 -87.46,33.789 l -53.871,-0.082 c -0.43,0 -31.867,-57.219 -36.52,-87.11 -22.621,3.09 -52.769,-18.937 -54.3,-41.281 -3.668,-31.797 17.269,-55 44.652,-50.469 0.508,-0.199 -4.301,-31.531 -19.762,-55.98 -20.551,-43.16 -31.14,-67.34 -43.679,-104.18 -8.508,-23.121 -5.579,-27.23 -4.18,-27.808 80.39,1.129 154.34,8.898 230.63,33.468 0,0 -1.41,5.43 -2.11,8.481 -2.74,12.308 7.62,37.539 36.95,89.648 22.7,40.231 29.18,55.59 31.45,74.571 1.13,9.652 0.94,12.113 -2.42,30.043 -0.2,1.679 -1.53,4.097 -1.18,5.898 2.39,12.07 20.82,33.32 21.25,32.77 0,0 6.68,1.25 9.34,1.492 41.56,2.886 54.41,59.25 19.34,84.679 -17.07,10.469 -27.15,11.25 -45.24,6.528 l -0.31,218.551 25.23,-0.942 27.78,13.684 c 44.61,-38.012 73.71,-76.883 121.72,-106.141 l -0.79,-1.91 -35.66,24.41 0.08,-143.199 c 41.29,21.437 79.8,41.207 116.95,71.25 l -7.5,6.437 0.31,20.512 c 34.89,-2.769 38.25,41.559 9.57,46.879 0,0 0.67,3.551 3.44,9.18 8.79,18.039 9.88,35 3.48,53.75 -3.91,11.398 -3.75,14.289 0.9,14.25 21.17,-0.11 19.25,37.429 -2.39,45.67 -7.42,2.81 -6.91,0.47 -5.39,23.75 1.14,17.5 -3.12,29.37 -16.09,44.73 -4.88,5.78 -4.49,8.55 1.84,12.42 18.08,11.01 4.96,42.85 -17.27,41.91 -8.71,-0.35 -8.67,-0.35 -9.41,8.32 -2,22.81 -14.77,44.53 -31.49,53.63 -5.15,2.86 -5.94,5.16 -3.01,9.03 14.22,19.02 0.9,45 -19.18,37.42 -3.86,-1.48 -8,-2.97 -9.1,-3.32 -1.6,-0.47 -2.89,1.72 -5.94,10.35 -8.35,23.44 -15.78,30.78 -42.34,41.95 -5.23,2.19 -5.55,3.75 -3.2,14.46 4.06,18.43 -21.41,35.62 -35.16,23.71 -5.62,-4.85 -5.82,-4.81 -12.11,3.24 -12.58,14.45 -33.04,24.49 -51.25,26.41 -8.71,0.78 -10.04,1.44 -9.29,4.8 4.8,22.62 -17.23,37.38 -35.59,23.75 -8.79,-6.52 -11.09,-6.72 -20.12,-1.64 -19.02,10.63 -27.34,11.06 -29.33,1.41 -0.63,-7.97 1.17,-17.46 3.08,-23.36 4.65,-15.9 10.63,-21.8 23.75,-32.97 0,0 -21.76,6.01 -27.26,7.11 0.54,0.58 -1.57,75.43 -15.86,117.81 l 139.22,221.13 79.72,-52.5 -127.54,-201.32 37.15,-15.04 c 0,0 49.57,82.14 75.51,122.46 16.99,-200.12 172.03,-375.59 312.46,-427.66 -0.47,-0.23 0.43,28.79 1.06,42.81 -148.17,65.12 -289.11,247.03 -280.24,465.36 l 59.49,-38.01 c 17.31,-175 93.68,-277.54 220.98,-364.26 l 0,53.63 c -87.66,64.77 -160.51,149.34 -179.84,284.69 0,0 29.72,-18.75 43.04,-27.66 0,0 -3.75,-2.11 -5.7,-3.75 -15.9,-13.2 -11.13,-40.31 9.84,-55.66 3.44,-2.46 3.44,-2.5 0.24,-11.02 -6.33,-16.95 3.47,-37.42 20.04,-41.68 9.49,-2.46 9.45,-2.34 9.61,-13.2 0.35,-21.09 8.86,-30.82 31.4,-35.86 3.09,-0.66 3.21,-0.97 3.17,-10.43 -0.12,-23.32 22.3,-38.98 41.83,-29.22 6.14,3.05 25.39,19.1 25.39,19.1 l 0,37.5 c 0,0 -8.71,-7.1 -15.04,-12.96 -11.01,-10.24 -14.49,-11.53 -14.45,-5.24 0.04,4.53 5.08,10.47 15.67,18.32 5.5,4.1 13.82,12.78 13.82,12.78 l 0,43.71 c 0,0 -4.92,7.77 -4.65,17.11 0.2,5.07 1.61,12.77 1.61,12.77 l 5.27,-0.12 -0.08,50.59 -6.4,5 0.27,33.51 -348.28,224.89 -181.41,-287.89 -4.53,5.31 181.6,286.09 -48.24,30.74 -29.14,-14.29 c 0,0 -201.599,3.16 -398.2,0.66 0,0 -0.469,5.39 -0.391,20.7 0.11,19.22 0.973,21.92 4.531,13.79 7.969,-18.16 27.692,-29.14 50.622,-28.08 12.929,0.58 14.726,1.13 29.136,8.86 5.352,2.9 6.332,2.97 31.532,2.78 27.031,-0.2 31.871,0.82 31.91,6.52 9.41,21.37 18.672,46.13 24.058,64.81 2.582,9.02 3.75,13 5.864,14.84 1.636,1.45 2.929,1.09 6.878,1.37 17.258,1.09 22.11,2.22 34.532,14.33 25,25.08 10.66,76.02 -25.512,76.21 -9.57,0.04 -3.012,25.47 17.23,66.76 20.93,42.7 23.86,49.26 34.719,77.89 7.071,18.71 10.43,32.11 11.332,40.28 -2.031,0 -4.062,0.04 -6.09,0 z m -1.921,-12.35 c 5,-4.18 -7.5,-35.04 -30.071,-81.72 -18.597,-38.51 -26.918,-57.77 -30.898,-71.75 -1.141,-4.03 -2.781,-9.85 -3.641,-12.89 -1.25,-4.3 -2.851,-6.45 -7.109,-9.5 -3.039,-2.15 -7.262,-5.35 -9.41,-7.07 -6.09,-4.88 -7.582,-3.32 -6.051,6.49 2.769,18.28 10,37.97 26.75,72.22 13.289,27.23 26.25,56.45 36.332,86.25 2.269,6.96 3.316,14.03 7.109,16.61 5.43,3.04 11.168,2.46 16.989,1.36 z m -27.141,-1.76 c 3.43,-2.38 -12.93,-44.64 -41.289,-103.28 -35.36,-73.2 -37.231,-124.45 -5.43,-136.99 25.11,-9.88 50.352,17.7 34.879,37.81 -7.461,9.69 -23.48,10.51 -29.059,0.47 -3.011,-5.47 1.168,-11.79 6.559,-4.1 7.813,11.17 23.512,-1.72 19.731,-14.96 -2.622,-9.06 -15.36,-16.33 -23.211,-14.77 -34.758,6.92 -28.2,55.82 7.82,58.52 34.492,2.58 50.191,-43.63 25.152,-70.08 -7.972,-8.59 -17.261,-12.85 -33.441,-12.81 -22.461,0 -43.43,18.51 -41.32,35.66 2.96,15.71 3.429,28.4 -1.879,40.78 -1.719,3.95 -3.832,7.9 -3.711,12.93 0.308,13.91 11.8,35.47 37.422,88.83 9.136,19.1 20.386,52.23 25.976,73.17 1.953,6.09 0.973,7.81 3.281,8.67 5.743,1.25 13.911,2.97 18.52,0.15 z m -29.609,-0.74 c 5.269,-0.23 -6.84,-38.71 -22.071,-71.52 -11.57,-25.08 -27.347,-57.34 -39.109,-87.15 -3.75,-6.33 -6.25,-6.84 -13.942,-2.69 -8.476,4.49 -5.976,11.71 14.024,51.4 15.117,30.2 29.609,64.34 39.769,98.67 0.938,4.14 2.297,7.7 5.739,9.69 5.23,2.27 10.308,1.84 15.59,1.6 z m -28.168,-4.33 c 2.808,-3.71 -15.512,-55.59 -43.903,-114.11 -6.058,-12.38 -10.16,-23.75 -16.25,-36.44 -2.929,-2.93 -14.219,-4.41 -19.847,-5.59 -5.821,0.78 -0.313,11.68 16.289,45.2 13.519,27.3 17.379,35 24.449,51.64 5.199,12.15 12.738,33.05 19.808,52.54 0.551,1.6 1.09,5.08 2.622,5.9 5.269,2.22 11.679,3.12 16.832,0.86 z m -27.692,-3.28 c 0.469,-1.22 -0.59,-3.79 -0.941,-5.79 -4.489,-20.89 -14.688,-40.31 -22.149,-60.27 -0.859,-2.73 -9.019,-19.73 -18.121,-37.73 -9.109,-18.05 -17.469,-35.28 -18.558,-38.29 -1.09,-3.04 -4.141,-11.09 -6.719,-17.89 -16.332,-34.96 1.25,-62.5 22.848,-64.41 33.75,-2.77 36.921,44.38 13.128,48.95 -8.988,1.48 -18.828,-3.44 -18.91,-13.72 -0.617,-5.39 6.024,-11.64 5.942,-3.9 -0.352,14.06 19.3,13.4 21.761,1.44 4.688,-23.24 -21.8,-34.61 -37.582,-16.36 -6.488,7.54 -6.449,16.13 -5.23,23.82 3.281,20.82 27.301,35.86 49.601,20.16 30.508,-21.52 19.969,-69.06 -19.41,-76.8 -13.48,-3.51 -30.468,0.98 -41.09,11.88 -6.761,6.95 -11.21,17.19 -12.929,29.88 -0.942,7.07 -1.332,15.39 -0.242,23.2 3.211,24.42 21.062,60.08 36.722,90.28 12.071,25.04 21.559,58.12 32.578,84.76 3.09,2.27 19.77,4.34 19.301,0.79 z m -29.73,-3.33 c 1.8,-0.54 -7.418,-29.45 -20.59,-60.7 -14.449,-31.72 -33.199,-68.01 -43.86,-99.18 -3.32,-7.65 -5.781,-7.42 -15.32,1.41 -5.031,4.69 -2.18,11.68 15.43,47.58 27.148,55.27 37.23,78.86 41.289,92.03 1.922,6.17 3.441,13.75 7.5,16.17 5.242,2.46 10.351,4.26 15.551,2.69 z m -27.11,-6.91 c -2.89,-9.3 -12.3,-36.87 -28.359,-69.57 -10.121,-20.62 -19.961,-43.48 -29.922,-64.77 -5.551,-13.12 -5.699,-13.12 -15.199,-15.07 -15.969,-3.32 -15.969,-3.17 -1.871,25.43 4.222,8.47 12.261,24.1 17.972,34.64 10.469,19.46 26.68,57.31 32.579,76.18 1.558,5.04 3.75,9.8 6.32,12.38 1.64,0.86 14.219,4.61 18.48,0.78 z m -34.961,-3.48 c 2.852,0.08 5.43,-0.43 6.641,-1.99 0.699,-6.48 -16.871,-48.01 -27.66,-67.22 -3.32,-5.9 -6.559,-13.56 -10.27,-20.36 -13.789,-21.83 -30.308,-63.82 -34.57,-81.25 -6.801,-27.69 24.922,-48.63 41.371,-28.47 10.43,12.15 -0.43,34.1 -15.473,27.97 -5.238,-2.15 -3.089,-4.5 4.063,-5.08 11.84,-0.98 12.738,-19.22 0.199,-23.21 -13.949,-4.25 -24.219,7.82 -24.18,20.16 0.11,25.35 27.891,34.65 45.27,20.82 17.379,-14.41 20.121,-48.71 -6.129,-61.99 -25.633,-12.93 -57.191,4.61 -63.519,35.31 -4.84,23.44 0.386,44.92 23.007,81.02 12.969,20.78 33.161,56.68 43.481,88.16 2.031,5.35 3.82,9.77 5.66,12.03 1.719,1.99 7.34,3.91 12.109,4.1 z m 686.761,-73.75 -34.42,-43.67 c 9.93,-14.29 33.52,-42.46 33.52,-42.46 l 32.62,42.03 -31.72,44.1 z m 0.31,-24.41 14.22,-18.44 -16.29,-19.18 -15.27,17.89 17.34,19.73 z m 1.29,-94.92 c 0,0 -41.6,-45.47 -32.07,-79.22 8.55,-30.08 53.87,-37.38 64.92,6.6 0.78,3.52 0.16,8.24 -0.31,14.14 -0.94,17.89 -32.54,58.48 -32.54,58.48 z m 0,-8.99 c 0,0 11.91,-17.26 20.35,-32.57 9.41,-14.57 11.91,-55.28 -21.56,-54.03 -18.13,-1.83 -35.47,21.99 -21.02,51.17 3.91,8.91 22.23,35.43 22.23,35.43 z m -686.56,-7.3 c 2.301,0.35 4.61,-4.65 6.051,-8.24 1.988,-4.92 -3.672,-19.1 -9.652,-26.17 -1.129,-1.22 -8.789,-1.84 -20.11,-7.62 -0.039,5.31 3.199,16.95 5.352,22.07 7.73,7.65 14.289,16.76 17.379,19.45 0.308,0.27 0.621,0.43 0.98,0.51 z m -82.89,-2.58 c 5.07,-5.74 10.109,-10.78 9.921,-14.33 -0.32,-5.24 -6.492,-11.72 -11.14,-16.29 -5.852,-5.79 -17.531,-2.35 -17.5,5.11 0,2.78 16.679,25.55 18.719,25.51 z m 176.05,-7.5 c 4.918,-2.62 9.918,-11.64 10.59,-15.7 -7.269,-38.91 -34.031,-86.45 -33.129,-84.65 0,0 -16.441,-2.93 -23.402,0.62 18.051,24.97 30.121,56.8 38.32,82.82 3.52,11.25 5.121,16.87 7.621,16.91 z m -15.191,-5.47 c 2.73,0.2 3.781,-2.03 1.48,-8.08 -10.589,-43.01 -34.449,-88.21 -53.16,-96.45 -24.609,-10.82 -49.07,-1.83 -59.578,16.64 -11.402,20 -9.371,51.56 28.52,58.48 22.308,2.3 45.16,-15.24 33.238,-43.44 -13.238,-20.94 -48.828,-9.3 -38.399,17.7 7.899,9.92 24.418,1.32 19.032,-9.85 -2.742,-5.7 -0.082,-9.18 3.937,-5.23 12.973,12.62 -8.359,34.26 -22.769,23.4 -23.481,-17.66 5.55,-56.49 32.851,-39.81 8.36,5.08 23.399,33.56 29.059,54.3 2.43,8.94 4.648,17.42 10.39,22.85 5.508,5.16 11.84,9.3 15.399,9.49 z m -62.27,-1.68 c 1.332,-0.04 2.891,-0.74 5.082,-1.79 2.731,-1.33 5.93,-3.79 5.579,-6.96 -0.43,-3.67 -2.54,-11.64 -6.75,-15.47 -2.54,0.86 -9.571,3.64 -14.34,4.93 -3.008,0.82 0.98,7.26 2.808,10.86 2.973,5.74 4.614,8.16 7.032,8.39 0.16,0 0.39,0.04 0.589,0.04 z m -77.461,-1.48 c 3.512,0.08 9.141,-3.83 12.813,-4.38 0.738,-5.31 -6.09,-16.75 -17.152,-30.27 -9.098,-11.05 -9.059,-11.09 -15.11,1.09 -3.949,7.93 -4.027,7.7 7.18,21.64 6.019,7.5 8.949,10.9 11.57,11.84 0.192,0.04 0.461,0.08 0.699,0.08 z m 35.153,-3.91 c 0.199,-2.85 -1.281,-9.14 -2.5,-12.81 -12.571,-37.46 -41.949,-74.61 -66.172,-83.71 -31.641,-10.31 -60.578,6.29 -61.328,44.61 0.789,45.15 54.648,57.69 70.937,16.48 7.352,-18.59 -12.648,-46.52 -30,-41.87 -17.457,4.72 -24.718,31.91 -10.347,38.63 9.449,4.41 19.218,-2.97 17.148,-12.97 -0.699,-3.44 -0.508,-3.94 1.52,-3.55 8.992,1.68 4.222,19.68 -6.36,24.14 -20.039,8.47 -35.16,-18.44 -21.648,-38.52 16.179,-24.02 41.648,-19.41 56.289,10.24 2.5,5.04 7.23,12.3 10.512,16.05 8.867,10.27 11.718,14.3 19.527,27.85 4.34,7.46 6.641,12.19 8.871,14.61 3.52,0.24 5.898,-0.7 13.551,0.82 z m 70.98,-1.95 c 3.789,-0.04 6.719,-2.5 6.598,-7.77 -0.078,-4.38 -6.359,-22.9 -9.289,-27.31 -1.141,-1.72 -3.75,-7.66 -4.141,-6.37 -3.719,12.35 -10.32,16.14 -11.25,19.38 -1.097,3.79 2.223,7.42 3.711,10.82 3.16,7.26 9.488,11.29 14.371,11.25 z m 66.84,-5.86 c 4.609,0.04 11.09,-2.07 12.418,-5.47 4.18,-7.3 -24.141,-75.59 -25.16,-75.78 l -21.129,0.94 c 12.699,27.18 23.91,54.18 32.07,80.15 0.551,0.08 1.168,0.16 1.801,0.16 z m 283.629,-108.05 26.87,-15.93 -177.179,-280.98 -25.742,19.65 176.051,277.26 z m -442.07,-5.78 c 165.511,-0.62 393.44,-0.31 393.44,-0.31 l -9.61,-18.24 c 0,0 -248.951,2.42 -383.83,2.15 l 0,16.4 z m -223.442,-11.52 -0.347,-92.35 c -17.11,14.97 -68.942,47.86 -69.18,47.07 0,0 44.648,29.77 69.527,45.28 z m 708.672,-9.18 16.64,-10.47 -186.21,-295.74 -10.35,20.31 179.92,285.9 z m -485.191,-4.1 25.902,0 0,-29.22 -25.902,0 0,29.22 z m 59.332,0 31.488,0 0,-29.22 -31.488,0 0,29.22 z m 68.75,-0.28 32.347,0 0,-29.25 -32.347,0 0,29.25 z m 67.469,-0.11 32.691,0 0,-29.26 -32.691,0 0,29.26 z m 67.96,-0.2 32.27,0 0,-29.26 -32.27,0 0,29.26 z m 67.97,-0.62 33.01,0 0,-20.59 -5,-8.63 -28.01,0 0,29.22 z m 177.93,-9.54 315.78,-203.86 -0.19,-28.17 -328.71,212.03 13.12,20 z m -20.7,-23.82 2.69,-1.96 -13.35,-20.43 -2.78,1.53 13.44,20.86 z m -487.809,-3.05 354.449,0 -10.66,-17.93 -343.789,0.51 0,17.42 z m -291.019,-9.14 c 2.418,0.16 7.07,-1.92 14.296,-5.98 17.422,-9.76 28.403,-30.35 20.864,-37.77 -6.684,-6.64 -22.383,7.54 -32.114,27.77 -5.16,10.74 -6.527,15.78 -3.046,15.98 z m 627.188,-17.62 -114.341,-182.42 c -25.859,35.35 -54.84,65.9 -118.121,45.23 -32.969,25.43 -67.848,29.38 -105,7.78 l 0.434,128.79 337.028,0.62 z m -588.63,-0.08 8.899,-7.73 c -2.649,-5 -3.86,-12.27 -5.539,-18.75 -0.161,8.87 -0.899,17.73 -3.36,26.48 z m 724.92,-1.91 352.3,-231.33 0,-21.44 -364.61,234.41 12.31,18.36 z m -771.682,-5.27 c 4.571,0.07 9.024,-1.84 12.383,-5.86 5.309,-6.41 3.129,-18.13 -4.371,-23.13 -14.89,-9.96 -32.738,9.34 -20.941,22.62 3.711,4.14 8.359,6.29 12.929,6.37 z m 58.321,-2.74 19.261,-15.39 c -33.402,-190.04 61.989,-381.91 267.5,-439.37 l 2.301,-24.38 c 0.391,-1.13 -87.301,26.02 -125.582,54.57 -52.39,35.35 -96.609,85.16 -127.109,143.05 -20.82,37.34 -32.231,78.44 -39.61,111.68 -8.71,56.99 -8.48,113.44 3.239,169.84 z m -21.84,-25.78 c 7.391,-0.31 8.211,-5.62 2.269,-15.78 -7.617,-13.13 -19.027,-22.23 -37.539,-30 -10.199,-4.3 -12.847,-2.34 -11.679,8.51 1.761,16.29 13.16,28.25 32.851,34.58 4.731,1.28 9.489,2.73 14.098,2.69 z m 56.641,-2.07 c 3.011,-2.54 3.949,-3.32 7.66,-6.45 -6.328,-2.14 -10.86,-8.12 -10.86,-15.15 0,-8.83 7.192,-16.02 16.059,-16.02 7.922,0 14.492,5.75 15.781,13.32 2.891,-2.46 5.578,-4.76 7.692,-6.56 -3.711,-9.34 -12.813,-15.94 -23.473,-15.94 -13.949,0 -25.277,11.29 -25.277,25.2 0,9.22 5,17.23 12.418,21.6 z m 12.859,-12.62 c 0.851,0 1.711,-0.15 2.5,-0.39 2.031,-1.68 3.633,-3.08 5.582,-4.72 0.59,-1.18 0.898,-2.47 0.898,-3.87 0,-4.92 -4.019,-8.95 -8.98,-8.95 -4.969,0 -9.027,4.03 -9.027,8.95 0,4.96 4.058,8.98 9.027,8.98 z m -60.629,-5.78 c -2.109,-24.53 -1.449,-50.15 -0.66,-75.78 -4.731,20.31 -15.32,35.51 -32.93,45.94 12.141,8.36 24.879,18.59 33.59,29.84 z m 92.578,-19.26 17.113,-14.72 c -14.73,-201.21 161.95,-277.54 166.719,-274.18 l 7.461,-22.78 C 613.09,1342.24 528.75,1468.1 543.828,1612.47 z m 984.102,-482.3 -0.86,-25.35 c -138.48,53.63 -296.25,251.4 -294.22,440.9 -35.55,-54.38 -55.55,-90.67 -86.05,-139.65 l -24.3,11.52 c 39.96,59.38 77.93,122.89 118.01,181.25 4.53,6.56 8.28,9.61 8.47,-4.8 0,-65.2 20.28,-333.44 278.95,-463.87 z m -1125.629,466.6 c 4.461,0.27 10.82,-1.87 18.828,-7.23 12.66,-8.47 26.883,-34.64 21.961,-40.5 -4.418,-5.24 -23.168,1.01 -32.5,10.86 -18.481,19.49 -19.692,36.13 -8.289,36.87 z m 107.929,-2.62 c 13.95,0 25.282,-11.29 25.282,-25.19 0,-13.91 -11.332,-25.2 -25.282,-25.2 -13.941,0 -25.23,11.29 -25.23,25.2 0,13.9 11.289,25.19 25.23,25.19 z m 56.532,-2.42 16.476,-19.26 C 586.449,1403.61 720,1351.54 718.75,1351.15 l 4.059,-18.17 c -7.457,-1.05 -165.231,70.63 -156.047,258.75 z m -56.532,-6.72 c -8.859,0 -16.05,-7.18 -16.05,-16.05 0,-8.83 7.191,-16.02 16.05,-16.02 8.872,0 16.059,7.19 16.059,16.02 0,8.87 -7.187,16.05 -16.059,16.05 z m 0,-7.07 c 4.969,0 8.989,-4.02 8.989,-8.98 0,-4.92 -4.02,-8.95 -8.989,-8.95 -4.96,0 -8.98,4.03 -8.98,8.95 0,4.96 4.02,8.98 8.98,8.98 z m 85.36,-15.27 c 2.031,0 11.558,-13.83 11.558,-13.83 0,0 -10.468,-3.67 -15,0.9 -4.449,4.53 -2.07,12.97 3.442,12.93 z m 731.29,-6.25 24.72,-16.88 c 11.56,-113.9 76.95,-217.81 175.59,-289.92 l -0.63,-28.2 c -120.11,80.98 -186.79,191.01 -199.68,335 z m -927.232,-1.91 c 0.391,0 0.821,0 1.211,0 15.121,-0.28 21.563,-23.48 5.352,-30.12 -10.191,-4.18 -21.25,1.83 -22.34,12.19 -0.781,7.26 4.649,15.07 12.027,17.22 1.293,0.39 2.543,0.63 3.75,0.71 z m 206.524,-15.24 c 3.949,0 8.277,-2.26 12.379,-6.87 10.828,-12.23 10.75,-15.79 -0.699,-20.39 -16.133,-6.53 -29.493,2.53 -24.141,16.32 2.809,7.23 7.34,10.98 12.461,10.94 z m -164.883,-0.55 c 1.289,0 2.5,-0.15 3.633,-0.58 11.879,-4.65 -13.871,-51.68 -30.902,-56.45 -10.782,-3.04 -13.04,1.17 -9.532,17.7 3.953,18.36 24.141,39.06 36.801,39.33 z m 75.699,-1.09 c 13.953,0 25.242,-11.25 25.242,-25.16 0,-13.9 -11.289,-25.19 -25.242,-25.19 -13.937,0 -25.269,11.29 -25.269,25.19 0,13.91 11.332,25.16 25.269,25.16 z m 0,-9.14 c -8.867,0 -16.047,-7.19 -16.047,-16.02 0,-8.86 7.18,-16.05 16.047,-16.05 8.871,0 16.063,7.19 16.063,16.05 0,8.83 -7.192,16.02 -16.063,16.02 z m -63.117,-1.37 c 2.258,-23.28 6.051,-44.84 16.399,-73.51 -9.719,15.5 -23.59,23.2 -36.872,31.99 9.332,13.83 20.122,27.69 20.473,41.52 z m 63.117,-5.66 c 4.961,0 8.992,-4.03 8.992,-8.99 0,-4.96 -4.031,-8.98 -8.992,-8.98 -4.957,0 -8.976,4.02 -8.976,8.98 0,4.96 4.019,8.99 8.976,8.99 z m 142.891,-2.78 c 26.332,0.59 44.961,-21.05 43.793,-41.79 0.777,-24.06 1.637,-39.49 -0.352,-69.42 l -21.371,39.07 c -0.308,11.09 1.602,19.45 0.75,30.47 -2.429,29.6 -31.527,25.5 -32.898,22.57 l -9.18,14.89 c 6.719,2.77 13.207,4.1 19.258,4.21 z m 92.742,-2.96 c 24.68,0.04 38.981,-13.83 39.719,-38.52 1.449,-47.23 -1.09,-155.12 -1.09,-155.12 l -53.359,-0.04 -29.141,72.07 c 0,0 -1.129,6.96 -0.941,12 1.882,23.08 0.711,48.82 1.492,69.68 3.078,22.15 21.289,39.89 43.32,39.93 z m -123.48,-7.46 c 3.437,0.03 6.597,-1.02 9.019,-3.48 12.391,-12.46 12.309,-20.67 -0.23,-26.29 -16.602,-7.46 -25.2,-6.06 -30.86,5 -5.55,10.86 9.809,24.61 22.071,24.77 z m 778.089,-3.44 13.55,-8.67 c 0,0 -2.85,-4.46 -4.37,-7.11 -7.7,-13.21 5.35,-20.94 23.43,-13.95 3.28,1.29 6.06,3.09 6.06,3.09 l 11.17,-7.58 c 0,0 -8.05,-4.38 -16.84,-8.63 -22.57,-11.06 -38.78,-6.37 -44.25,12.73 -2.15,7.54 0,17.03 4.22,22.58 2.18,2.85 7.03,7.54 7.03,7.54 z m -572.5,-1.56 c 20.622,0.7 40.739,-15.4 45.5,-37.04 2,-10.15 -0.582,-144.18 -0.582,-144.18 l -81.949,0.04 1.442,140.59 c -0.551,8.91 0,17.69 4.769,24.02 9.02,11.17 20,16.17 30.82,16.57 z m -85.121,-6.18 c -16.558,-0.74 -25.98,-27.5 -8.91,-40.11 7.11,-5.28 7.231,-6.29 3.442,-24.11 -4.34,-20.31 0.16,-48.16 10.308,-63.82 7.821,-12.97 6.211,-6.33 2.231,5.23 -5.16,21.68 -2.621,37.62 9.922,62.81 11.207,21.25 22.07,53.87 -13.59,59.77 -1.133,0.19 -2.313,0.31 -3.403,0.23 z m 680.191,-6.09 7.43,-5 c 0,0 -1.14,-0.94 -2.74,-2.5 -2.97,-2.85 -8.83,-3.32 -10.66,-1.09 -3.01,3.63 5.97,8.59 5.97,8.59 z M 839.379,1480.6 c -17.82,0.58 -29.539,-32.34 -6.758,-40.27 5.149,-3.36 6.051,-7.7 2.809,-13.87 -4.301,-8.28 -8.59,-27.93 -7.93,-36.17 0.98,-11.76 3.98,-27.15 6.371,-32.5 5.969,-14.73 4.758,-8.83 3.199,8.16 -0.59,19.02 3.239,32.7 14.34,50.86 13.121,21.76 31.25,57.19 -10.32,63.63 -0.578,0.12 -1.168,0.16 -1.711,0.16 z m -306.141,-0.12 c 13.953,0 25.242,-11.25 25.242,-25.15 0,-13.91 -11.289,-25.2 -25.242,-25.2 -13.937,0 -25.226,11.29 -25.226,25.2 0,13.9 11.289,25.15 25.226,25.15 z m 117.032,-2.54 c 4.339,0.04 7.621,-2.85 11.609,-8.75 10.891,-16.21 9.641,-19.53 -11.367,-31.09 -22.274,-12.23 -37.192,18.51 -15.864,32.73 6.442,4.34 10.973,6.72 14.731,7.07 0.312,0.04 0.582,0.04 0.891,0.04 z m -231.09,-1.21 c 23.48,-0.23 60.16,-33.71 42.269,-38.55 -2.578,-0.71 -5.789,-1.17 -7.148,-1.1 -29.5,1.8 -63.321,39.93 -35.121,39.65 z m 114.058,-5.39 c -8.859,0 -16.047,-7.15 -16.047,-16.01 0,-8.83 7.188,-16.02 16.047,-16.02 8.871,0 16.063,7.19 16.063,16.02 0,8.86 -7.192,16.01 -16.063,16.01 z m 930.162,-4.73 11.72,-7.93 c 0,0 -7.15,-3.28 -15.59,-7.77 -22.93,-12.19 -29.57,-21.17 -21.64,-29.14 2.81,-2.85 6.17,-4.1 12.15,-1.84 15.9,6.18 30.7,17 45.51,25.55 l 8.83,-6.01 c -0.24,0.39 -35.04,-24.73 -54.07,-35.28 -29.84,-15.27 -46.87,15.98 -30.27,36.84 12.81,12.73 26.52,16.91 43.36,25.58 z m -930.162,-2.3 c 4.961,0 8.992,-4.02 8.992,-8.98 0,-4.97 -4.031,-8.99 -8.992,-8.99 -4.957,0 -8.976,4.02 -8.976,8.99 0,4.96 4.019,8.98 8.976,8.98 z m 948.482,-8.4 6.4,-4.3 c 0,0 -0.7,-0.31 -20.27,-11.52 -21.29,-12.23 -22.19,-12.42 -23.4,-10.51 -1.01,0.59 0.43,5.59 6.96,9.96 11.44,7.7 31.71,17.04 30.31,16.37 z m -553.63,-0.62 c 14.488,0.27 29.25,-6.61 37.691,-21.29 4.297,-11.17 4.649,-21.53 4.61,-33.24 l -0.352,-78.72 -82.539,0 c 0,0 -3.828,53.68 0,98.29 3.75,22.42 21.949,34.6 40.59,34.96 z m -256.371,-11.64 c 5.23,0.39 9.101,-4.77 14.062,-15.86 4.957,-11.02 1.25,-17.27 -14.261,-23.95 -1.95,-0.82 -4.18,-1.44 -4.961,-1.41 -15.661,1.53 -22.071,19.54 -10.821,30.47 6.992,6.8 11.922,10.43 15.981,10.75 z m 838.941,-8.05 7.15,-4.45 c 0,0 -3.67,-3.32 -30.31,-22.74 -21.52,-15.66 -24.65,-19.92 -20.16,-28.71 3.64,-7.11 11.53,-6.17 22.39,2.15 15.11,11.6 38.82,31.17 38.82,31.17 l 0.79,-13.4 c -15.63,-12.54 -34.5,-33.9 -49.5,-42.03 -28.94,-14.26 -49.76,24.84 -23.28,44.14 22.82,16.6 54.1,33.87 54.1,33.87 z m -579.449,-0.04 c -21.563,0.16 -29.609,-31.8 -6.41,-38.55 6.679,-3.6 6.14,-5.43 1.679,-21.33 -2.691,-9.65 -3.55,-21.53 -2.101,-29.07 1.75,-9.64 3.902,-9.41 3,0.9 0.043,5.67 5.859,20.75 11.68,30.2 21.531,29.92 15.863,57.54 -7.848,57.85 z m -502.691,-0.39 c 14.21,-0.12 22.179,-19.88 9.839,-28.44 -8.75,-6.01 -27.031,1.37 -26.988,10.9 0.039,8.13 6.438,15.9 14.219,17.27 1.012,0.15 1.988,0.27 2.93,0.27 z m 40.929,-1.68 c 4.5,0.04 7.071,-6.52 7.031,-19.49 -0.031,-18.6 -6.679,-34.81 -18.082,-44.3 -16.488,-13.71 -20.199,23.67 -4.769,48.4 6.449,10.27 11.883,15.39 15.82,15.39 z m 1056.331,-4.92 c 4.06,0.08 3.44,-3.01 -1.29,-6.29 -3.67,-2.54 -9.88,-7.62 -29.1,-23.83 -3.48,-2.93 -8.48,-6.76 -11.09,-8.52 -6.41,-4.25 -11.84,-3.16 -8.71,1.8 3.04,4.88 46.52,36.8 50.19,36.84 z m -967.339,-0.82 c 13.938,0 25.27,-11.29 25.27,-25.2 0,-13.9 -11.332,-25.19 -25.27,-25.19 -13.91,0 -25.242,11.29 -25.242,25.19 0,13.91 11.332,25.2 25.242,25.2 z m 0,-9.14 c -8.871,0 -16.062,-7.19 -16.062,-16.06 0,-8.83 7.191,-16.01 16.062,-16.01 8.86,0 16.09,7.18 16.09,16.01 0,8.87 -7.23,16.06 -16.09,16.06 z M 256.48,1418.14 C 427.27,1331.97 533.711,1170.76 560,987.121 l 82.969,131.329 22.422,-8.44 -120.903,-196.639 -5.226,1.641 C 538.75,1107.12 442.809,1288.84 256.09,1388.57 l 0.39,29.57 z m 301.961,-6.6 c 5,0 9.02,-4.03 9.02,-8.99 0,-4.92 -4.02,-8.94 -9.02,-8.94 -4.961,0 -8.992,4.02 -8.992,8.94 0,4.96 4.031,8.99 8.992,8.99 z m -70.472,-1.02 c 7.461,-16.48 16.562,-33.79 30.621,-53.55 -14.25,13.36 -29.84,12.77 -45.231,14.8 l 14.61,38.75 z m 203.051,-3.59 c 2.652,0.15 5.308,-0.98 7.378,-3.83 6.993,-9.57 8.282,-18.44 3.442,-23.24 -6.68,-6.57 -17.27,-3.99 -22.07,5.39 -4.969,9.72 3.32,21.33 11.25,21.68 z m 837.53,-13.28 0.28,-14.93 c 0,0 -3.17,-3.82 -6.56,-6.95 -9.5,-8.91 -22.54,-23.09 -23.44,-26.68 -3.05,-11.76 8.59,-16.05 20.08,-7.42 3.94,2.97 9.64,7.5 9.64,7.5 l 0,-18.36 c -9.68,-8.2 -19.33,-16.29 -32.53,-13.63 -7.7,2.34 -14.46,8.4 -15.86,16.13 -5.51,23.09 16.91,36.02 34.33,51.48 5.63,4.97 14.06,12.86 14.06,12.86 z m -934.53,-13.01 c 0.429,0 0.859,0 1.289,0 13.953,0 25.242,-11.25 25.242,-25.16 0,-13.94 -11.289,-25.23 -25.242,-25.23 -13.938,0 -25.27,11.29 -25.27,25.23 0,13.44 10.66,24.45 23.981,25.16 z m 507.03,-5.67 c 13.79,0.04 21.06,-18.43 10,-28.9 -4.37,-4.14 -14.17,-7.07 -19.76,-3.21 -15.35,10.67 -4.02,31.41 9.76,32.11 z m -27.46,-14.68 c 7.97,-8.4 14.03,-32.89 9.34,-37.54 -10.39,-10.67 -40.55,24.88 -38.75,48.12 3.2,13.95 26.48,-7.46 29.41,-10.58 z m -369.02,13.36 c 5.782,-0.04 6.84,-5.2 5.551,-8.25 -1.25,-2.89 -5.742,-3.12 -9.34,-1.64 -6.133,2.5 -3.242,9.92 3.789,9.89 z m -109.261,-2.15 c -8.86,0 -16.047,-7.19 -16.047,-16.02 0,-8.87 7.187,-16.05 16.047,-16.05 8.871,0 16.062,7.18 16.062,16.05 0,8.83 -7.191,16.02 -16.062,16.02 z m -120.231,-7.07 c 30.473,-0.04 62.621,-23.95 34.652,-28.71 -20.75,-3.52 -34.179,0.58 -50.351,15.31 -8.207,7.46 -5.277,11.44 9.68,13.08 1.992,0.24 4.031,0.32 6.019,0.32 z m 120.231,0 c 4.961,0 8.992,-4.03 8.992,-8.95 0,-4.96 -4.031,-8.98 -8.992,-8.98 -4.957,0 -9.02,4.02 -9.02,8.98 0,4.92 4.063,8.95 9.02,8.95 z m 42.152,-22.78 c 0.43,0 0.898,0 1.328,0 13.941,0 25.231,-11.25 25.231,-25.15 0,-13.91 -11.29,-25.2 -25.231,-25.2 -13.949,0 -25.269,11.29 -25.269,25.2 0,13.47 10.621,24.49 23.941,25.15 z m 496.249,-1.29 c 7.19,0.12 13.52,-1.21 17.15,-4.57 4.49,-4.06 -2.23,-11.91 -15.94,-18.59 -15.97,-7.77 -43.9,-6.68 -43.87,1.72 0.08,11.17 24.22,21.13 42.66,21.44 z m -607.929,-6.6 c 14.02,-0.08 17.809,-43.4 5.629,-64.14 -6.289,-10.78 -14.808,-3.59 -20.859,17.66 -4.961,17.46 4.57,46.52 15.23,46.48 z m 113.008,-1.25 c -8.867,0 -16.059,-7.18 -16.059,-16.01 0,-8.87 7.192,-16.06 16.059,-16.06 8.871,0 16.051,7.19 16.051,16.06 0,8.83 -7.18,16.01 -16.051,16.01 z m 523.201,-2.81 c 1.21,-0.04 2.74,-0.62 4.73,-1.6 15.27,-7.5 26.37,-42.42 18.4,-58.01 -8.36,-16.44 -27.23,15.16 -27.07,45.35 0.07,9.89 0.7,13.83 3.47,14.22 0.16,0 0.32,0.04 0.47,0.04 z m -675.9,-2.27 c 0.359,0 0.672,0 0.98,0 13.828,-0.35 23.871,-19.41 10.86,-29.17 -5.66,-4.3 -14.45,-4.97 -19.809,-1.57 -10.582,6.72 -10,23.09 1.02,28.83 2.339,1.21 4.687,1.84 6.949,1.91 z m 152.699,-1.95 c 4.961,0 8.981,-4.02 8.981,-8.98 0,-4.96 -4.02,-8.99 -8.981,-8.99 -4.961,0 -8.988,4.03 -8.988,8.99 0,4.96 4.027,8.98 8.988,8.98 z m -94.34,-3.05 c 7.582,-11.21 38.211,-40.85 42.43,-43.43 -13.52,4.37 -27.469,2.54 -41.367,0.66 1.558,10.27 3.199,27.11 -1.063,42.77 z m 492.271,-2.53 c 207.66,-48.52 334.41,-268.36 284.3,-474.65 0,0 -17.5,9.719 -20.28,14.41 7.35,35.668 11.88,92.231 2.7,149.06 -15.59,96.41 -93.91,237.89 -265.51,286.45 -1.91,6.21 -1.21,24.73 -1.21,24.73 z m 111.87,-1.53 c 2.39,-14.1 4.61,-28.32 8.13,-41.01 -14.65,10.5 -31.21,19.53 -48.17,26.79 12.11,2.54 23.17,4.69 40.04,14.22 z m 59.89,-4.53 c 8.28,0.24 16.68,-5.66 16.48,-15.82 -0.08,-4.49 -4.84,-12.5 -8.55,-14.41 -13.83,-7.03 -27.97,6.36 -21.88,20.7 2.7,6.41 8.28,9.37 13.95,9.53 z m -521.679,-5.43 c 13.937,0 25.269,-11.29 25.269,-25.19 0,-13.91 -11.332,-25.2 -25.269,-25.2 -13.949,0 -25.242,11.29 -25.242,25.2 0,13.9 11.293,25.19 25.242,25.19 z m 0,-9.14 c -8.871,0 -16.063,-7.19 -16.063,-16.05 0,-8.83 7.192,-16.02 16.063,-16.02 8.859,0 16.051,7.19 16.051,16.02 0,8.86 -7.192,16.05 -16.051,16.05 z m -429.653,-2.42 c 103.161,-60.74 195.704,-190 202.582,-336.131 l -24.96,16.293 c -10.79,98.428 -61.25,205.538 -178.442,293.318 0,0 0.313,9.45 0.82,26.52 z m 571.332,0 133.36,0 0,-28.67 39.96,20.54 0,-63.43 -39.96,24.14 0,-27.66 -133.36,0 0,29.1 -40.859,-19.69 0.469,63.13 40.39,-22.66 0,25.2 z m -141.679,-4.65 c 4.961,0 9.019,-4.02 9.019,-8.98 0,-4.93 -4.058,-8.95 -9.019,-8.95 -4.961,0 -8.992,4.02 -8.992,8.95 0,4.96 4.031,8.98 8.992,8.98 z m 52.461,-5 c 0.148,0 0.308,0 0.508,0 l 1.558,-9.14 c -0.238,0 -0.508,0.04 -0.738,0.04 -8.91,0 -16.102,-7.19 -16.102,-16.06 0,-8.82 7.192,-16.01 16.102,-16.01 2.109,0 4.18,0.39 6.012,1.17 l 1.558,-9.18 c -2.379,-0.74 -4.922,-1.17 -7.57,-1.17 -13.949,0 -25.281,11.29 -25.281,25.19 0,13.48 10.589,24.46 23.953,25.16 z m 301.208,-3.2 c 0.47,0.04 0.9,0 1.33,0 13.94,0 25.27,-11.25 25.27,-25.16 0,-11.95 -8.4,-21.91 -19.57,-24.49 l -1.52,9.06 c 6.83,1.84 11.87,8.05 11.87,15.43 0,8.87 -7.19,16.02 -16.05,16.02 -0.35,0 -0.75,0 -1.1,-0.04 l -1.52,9.06 c 0.43,0.04 0.86,0.12 1.29,0.12 z m 177.07,-8.52 c 31.17,-0.15 44.06,-18.01 18.55,-25.58 -11.83,-3.52 -27.3,-1.64 -42.57,5.11 -12.78,5.63 4.8,20.59 24.02,20.47 z m -650.899,-1.68 c 7.539,0 14.808,-1.13 20.199,-3.67 13,-6.17 12.73,-10.35 -1.219,-18.36 -19.371,-11.17 -65.109,0.12 -51.281,12.7 6.48,5.89 19.762,9.29 32.301,9.33 z m 173.949,-2.77 c 0.66,0 1.359,-0.08 1.988,-0.24 l 2.813,-16.32 c -1.411,-0.86 -3.051,-1.37 -4.801,-1.37 -5,0 -9.031,3.98 -9.031,8.94 0,4.97 4.031,8.99 9.031,8.99 z m 301.29,-3.2 c 4.92,-0.04 8.94,-4.07 8.94,-8.99 0,-3.91 -2.54,-7.19 -6.02,-8.44 l -2.92,17.43 z m 54.92,-6.41 c 13.94,0 25.27,-11.29 25.27,-25.2 0,-13.9 -11.33,-25.19 -25.27,-25.19 -13.95,0 -25.24,11.29 -25.24,25.19 0,13.91 11.29,25.2 25.24,25.2 z m -491.57,-6.37 c 1.489,0.08 3.211,-0.62 5,-2.07 15.122,-12.38 22.661,-38.47 16.719,-57.93 -5.66,-18.51 -29.25,14.38 -29.14,40.67 0.082,12.11 2.929,19.1 7.421,19.33 z m 653.79,-2.19 c 2.07,-0.03 4.3,-1.6 6.49,-5.23 9.37,-15.62 8.94,-47.89 -0.78,-57.93 -5.55,-5.66 -7.58,-4.61 -13.36,7.03 -9.85,19.88 -2.42,56.21 7.65,56.13 z m -162.22,-0.58 c -8.87,0 -16.06,-7.19 -16.06,-16.06 0,-8.82 7.19,-16.01 16.06,-16.01 8.86,0 16.05,7.19 16.05,16.01 0,8.87 -7.19,16.06 -16.05,16.06 z m -471.53,-4.3 c 19.07,-12.03 38.601,-22.97 58.91,-32.11 -19.02,4.49 -33.051,-1.87 -47.539,-10.43 2.769,15.82 -2.621,28.71 -11.371,42.54 z m 572.93,-3.4 c 14.22,-1.99 28.28,-4.33 44.77,-1.25 -3.05,-13.94 -4.1,-28.12 -2.77,-42.65 -12.27,15.82 -25.94,30.7 -42,43.9 z m -101.4,0.63 c 4.96,0 9.02,-4.03 9.02,-8.99 0,-4.92 -4.06,-8.94 -9.02,-8.94 -4.96,0 -8.99,4.02 -8.99,8.94 0,4.96 4.03,8.99 8.99,8.99 z m -511.722,-8.56 c 11.684,-5.7 11.992,-19.84 0.621,-27.22 -14.25,-9.3 -32.89,6.99 -23.98,21.01 7.929,9.49 13.48,9.42 23.359,6.21 z m 562.382,-8.16 c 13.95,0 25.27,-11.25 25.27,-25.16 0,-13.9 -11.32,-25.19 -25.27,-25.19 -13.94,0 -25.23,11.29 -25.23,25.19 0,13.91 11.29,25.16 25.23,25.16 z m 147.7,-4.22 c 2.46,0.04 5,-0.51 7.5,-1.8 8.98,-4.68 10.86,-16.6 3.71,-23.55 -7.89,-7.7 -18.67,-6.37 -23.99,2.97 -6.09,10.58 2.27,22.19 12.78,22.38 z m -243.56,-3.71 c 124.3,-42.23 207.54,-180.2 187.5,-313.009 l -15.55,14.609 c 11.84,75.27 -29.6,219.1 -168,278.17 l -3.95,20.23 z m 95.86,-1.21 c -8.87,0 -16.05,-7.15 -16.05,-16.02 0,-8.82 7.18,-16.01 16.05,-16.01 8.87,0 16.06,7.19 16.06,16.01 0,8.87 -7.19,16.02 -16.06,16.02 z m 0,-7.03 c 4.96,0 8.99,-4.03 8.99,-8.99 0,-4.96 -4.03,-8.98 -8.99,-8.98 -4.96,0 -8.98,4.02 -8.98,8.98 0,4.96 4.02,8.99 8.98,8.99 z m -472.581,-1.6 c 6.371,-0.55 17.07,0.58 19.57,-5.36 2.821,-7.53 -12.687,-20.58 -32.34,-23.16 -8.007,-0.47 -25.199,-2.5 -28.789,3.24 -3.398,7.19 19.77,25.08 41.559,25.28 z m -394.527,-4.42 c 16.796,0.74 35.699,-21.68 18.707,-39.96 -13.59,-14.06 -41.438,-33.2 -41.438,-33.2 l 0,12.3 c 0,0 27.258,19.92 27.731,28.87 0.039,10.39 -8.551,16.29 -18.122,10.04 -1.921,-1.25 -9.378,-7.34 -9.378,-7.34 l 0.628,20.66 c 5.071,5.55 14.02,8.32 21.872,8.63 z m 429.179,-5.23 c 12.457,-0.47 41.328,-44.92 33.989,-54.03 -5.821,-7.18 -29.301,8.79 -38.09,25.94 -4.731,9.22 -3.321,25.67 2.379,27.81 0.55,0.2 1.14,0.28 1.722,0.28 z m 192.071,-5.39 c 0,0 1.289,-103.4 -4.532,-113.13 -23.32,-42.19 -73.75,-20.23 -78.05,11.37 -3.079,19.06 -1.211,101.56 -1.211,101.56 l 83.793,0.2 z m 7.378,0 80.551,0 c 0,0 -0.39,-145.51 -3.633,-153.87 -2.617,-6.8 -14.339,-18.52 -21.679,-21.72 -23.629,-10.31 -48.949,4.34 -55.199,31.95 -4.489,19.89 -0.04,143.64 -0.04,143.64 z m 87.27,0 53.48,0 c 0,0 1.83,-7.74 3.94,-14.07 3.71,-11.05 16.33,-42.77 17.78,-44.68 6.52,-8.71 6.83,-103.83 0.39,-114.65 -23.6,-35.268 -62.82,-25.042 -77.149,14.02 -3.601,12.54 1.559,159.38 1.559,159.38 z m 62.34,-3.6 c 95.86,-45.43 169.22,-141.79 160.04,-265.432 l -17.61,17.543 c 6.44,85.319 -58.64,191.989 -134.61,223.669 l -7.82,24.22 z m 132,-2.89 c 13.94,0 25.27,-11.29 25.27,-25.19 0,-13.91 -11.33,-25.2 -25.27,-25.2 -13.91,0 -25.24,11.29 -25.24,25.2 0,13.9 11.33,25.19 25.24,25.19 z m 94.57,-2.58 c 9.37,-0.11 20.86,-3.35 29.41,-10.39 10.23,-8.43 11.68,-15.11 3.71,-17.54 -15.35,-4.72 -33.75,-0.15 -45.35,11.22 -10.74,10.58 -1.48,16.91 12.23,16.71 z m -94.57,-6.56 c -8.87,0 -16.06,-7.19 -16.06,-16.05 0,-8.83 7.19,-16.02 16.06,-16.02 8.86,0 16.05,7.19 16.05,16.02 0,8.86 -7.19,16.05 -16.05,16.05 z m -505.121,-2.03 c 13.48,-0.08 19.652,-18.94 9.332,-28.51 -4.211,-3.95 -15.781,-4.77 -20.781,-1.53 -13.821,8.95 -5.739,30.16 11.449,30.04 z m 177.769,-4.8 c -4.449,-12.78 -11.597,-27.19 -17.5,-37.04 -15.898,-26.4 -13.828,-44.14 2.934,-53.08 24.609,-13.13 42.5,22.15 18.238,35.98 -8.512,4.84 -8.512,4.92 -5.43,18 3.829,16.33 4.5,35.78 1.758,36.14 z m 327.352,-0.24 c 4.96,0 9.02,-4.02 9.02,-8.98 0,-4.96 -4.06,-8.95 -9.02,-8.95 -4.97,0 -8.99,3.99 -8.99,8.95 0,4.96 4.02,8.98 8.99,8.98 z m -241.02,-5.15 c -1.129,0.03 -0.269,-6.53 -0.351,-18.17 -0.16,-18.83 -1.719,-24.57 -13.789,-49.8 -15.391,-32.23 -13.321,-54.22 5.742,-61.37 14.848,-5.55 29.258,5.74 29.34,23.01 0.039,8.24 -3.633,14.68 -9.262,16.36 -5.121,0.32 -10.781,2.7 -10.352,5.12 3.122,19.26 19.801,55.51 -1.328,84.85 z m 318.44,-2.62 c 12.46,-7.81 25.27,-15.24 43.83,-16.17 -7.89,-18.91 -7.07,-32.74 -8.4,-47.82 -7.93,20.32 -20.2,42.78 -35.43,63.99 z m -950.78,-2.93 c 1.008,0 1.989,-0.08 2.969,-0.2 11.91,-1.83 21.992,-17.07 18.781,-28.4 -2.808,-9.92 -3.671,-11.6 -41.992,-37.14 -21.289,-14.18 -23.508,-14.77 -23.508,-14.77 l -11.41,7.66 c 0,0 9.649,6.4 24.918,16.68 29.461,19.72 33.75,24.41 30.742,33.24 -3.281,9.57 -14.289,7.58 -31.679,-5.78 -25.781,-19.81 -28.43,-21.14 -28.43,-21.14 l 0,11.84 c 0,0 11.289,8.95 16.168,13.16 11.91,8.44 28.441,24.69 43.441,24.85 z m 761.83,-5.16 c 2.89,0.04 5.12,-2.65 4.14,-5.23 -0.5,-1.21 -2.18,-2.03 -4.45,-1.99 -4.61,0 -4.84,6.56 -0.23,7.18 0.19,0.04 0.35,0.04 0.54,0.04 z m 258.56,-13.75 c 5.43,-18.63 -6.29,-49.65 -13.44,-53.63 -7.66,-7.54 -12.42,-0.35 -14.06,19.14 0.04,15.82 18.2,65.27 27.5,34.49 z m -306.57,10.47 c 2.35,-26.83 3.21,-49.14 -9.41,-70.94 -16.37,-28.24 -12.11,-52.46 5.39,-57.81 17.42,-5.31 32.81,7.11 29.73,24.02 -0.94,5.2 -8.05,13.64 -12.38,14.77 -5.4,1.37 -6.02,4.69 -2.97,15.31 5.93,20.63 3.94,46.72 -5,65.59 -0.82,2.81 -4.11,9.14 -5.36,9.06 z m 58.68,-8.94 c 14.68,-0.08 21.6,-19.14 10.62,-29.22 -6.13,-5.63 -10.04,-3.09 -16.44,10.66 -5.98,12.77 -4.14,18.59 5.82,18.56 z m 136.91,-3.91 c 13.95,0 25.24,-11.25 25.24,-25.16 0,-13.9 -11.29,-25.19 -25.24,-25.19 -13.94,0 -25.27,11.29 -25.27,25.19 0,13.91 11.33,25.16 25.27,25.16 z m 0,-9.14 c -8.87,0 -16.05,-7.19 -16.05,-16.02 0,-8.86 7.18,-16.05 16.05,-16.05 8.87,0 16.06,7.19 16.06,16.05 0,8.83 -7.19,16.02 -16.06,16.02 z m 0,-7.03 c 4.96,0 8.98,-4.03 8.98,-8.99 0,-4.96 -4.02,-8.98 -8.98,-8.98 -4.96,0 -9.02,4.02 -9.02,8.98 0,4.96 4.06,8.99 9.02,8.99 z m -108.36,-6.64 c 2.07,0.08 4.06,-0.28 5.94,-1.17 13.32,-6.41 11.87,-24.77 -2.81,-35.75 -9.3,-6.95 -13.25,-4.53 -21.88,13.4 -4.73,9.73 7.62,23.05 18.75,23.52 z m -770.94,-2.07 c 1.332,-0.04 2.621,-0.28 3.832,-0.59 13.707,-3.79 22.379,-19.73 18.949,-31.87 -7.543,-18.72 -33.172,-25 -52.582,-32.82 l -10.078,7.35 c 0,0 14.219,8.08 28.09,14.45 12.929,5.94 15.039,8.32 14.058,15.82 -1.879,14.69 -8.988,14.14 -41.168,-3.16 -13.132,-7.03 -22.742,-13.28 -22.742,-13.28 l -7.148,5.85 c 10.668,7 17.07,10.86 28.719,18.79 19.449,13.28 30.539,19.03 38.671,19.42 0.469,0 0.938,0.04 1.399,0.04 z m 1024.22,-10.86 c 4.69,-14.22 -4.88,-26.72 -19.29,-21.14 -7.82,3.05 -13.36,13.01 -8.48,22.27 6.44,10.12 24.61,8.4 27.77,-1.13 z m -289.02,4.92 22.69,-40.66 c 0,0 0.28,-11.33 0.51,-17.62 0.86,-26.41 6.53,-35.16 22.03,-32.62 1.1,0.2 6.61,1.8 6.61,1.8 l 9.88,-16.56 c 0,0 -10.67,-4.651 -13.44,-5.24 -18.24,-3.829 -43.52,9.84 -47.42,28.13 -3.83,17.69 -0.86,82.77 -0.86,82.77 z m -743.36,-16.72 c 6.84,-0.51 3.941,-5.74 0.781,-7.42 -13.32,-6.8 -25.941,-14.14 -39.84,-22.15 l -9.301,5.78 c 0,0 7.192,3.99 12.149,7.03 15.23,9.34 30.742,16.53 36.211,16.76 z m 911.91,-5.23 c 13.95,0 25.28,-11.25 25.28,-25.16 0,-13.91 -11.33,-25.2 -25.28,-25.2 -13.9,0 -25.23,11.29 -25.23,25.2 0,13.91 11.33,25.16 25.23,25.16 z m -106.79,-3.44 c 5.78,0.15 10.62,-2.35 13.79,-7.54 6.75,-11.17 -0.39,-24.81 -16.76,-32.11 -9.14,-4.06 -10.67,-3.2 -20.39,11.21 -6.6,9.73 -6.56,11.49 0.74,17.7 8.16,6.91 16.02,10.54 22.62,10.74 z m -886.21,-2.19 361.601,-233.711 -10.312,-17.5 -350.629,229.061 -0.66,22.15 z m 1074.53,-3.05 c 21.95,-0.43 50.62,-25.82 40.47,-35.82 -1.06,-1.09 -3.17,-1.87 -4.65,-1.79 -31.37,1.83 -65.98,38.2 -35.82,37.61 z m -81.53,-0.46 c -8.86,0 -16.05,-7.15 -16.05,-16.02 0,-8.83 7.19,-16.02 16.05,-16.02 8.87,0 16.06,7.19 16.06,16.02 0,8.87 -7.19,16.02 -16.06,16.02 z m -482.93,-4.46 9.57,-24.84 -180,-285.94 -17.652,11.371 188.082,299.409 z m 482.93,-2.58 c 5,0 9.03,-4.02 9.03,-8.98 0,-4.96 -4.03,-8.98 -9.03,-8.98 -4.96,0 -8.98,4.02 -8.98,8.98 0,4.96 4.02,8.98 8.98,8.98 z m 66.1,-2.96 c 8.83,-16.37 23.51,-26.37 40.19,-33.4 -15.74,-13.01 -23.67,-29.85 -23.08,-47.418 -3.99,26.398 -7.46,52.688 -17.11,80.818 z m -951.452,-8.64 c 3.871,-0.04 7.352,-0.86 10.082,-2.73 33.75,-23.05 2.77,-45.86 -0.121,-44.06 l -11.48,7.22 c 3.98,6.53 12.929,15.39 -1.489,23.64 -8.199,3.59 -17.3,-0.71 -25.269,-6.22 l -12.07,8.25 c 0,0 23.629,14.02 40.347,13.9 z m 795.432,-13.04 c 1.25,0.03 2.5,-0.04 3.71,-0.28 19.03,-3.67 17.74,-23.83 -2.18,-33.16 -11.29,-5.31 -13.32,-4.26 -23.17,12.69 -4.65,7.93 9.34,20.32 21.64,20.75 z m -801.522,-7.43 c 2.032,-0.04 4.653,-1.79 4.922,-3.47 0.981,-5.28 -8.832,-10.59 -8.832,-10.59 l -11.289,7.46 c 4.813,2.66 9.891,6.25 15.199,6.6 z m 1014.302,-4.8 c 2.77,0.19 4.76,-1.09 5.58,-4.38 3.87,-15.66 -13.55,-44.72 -29.65,-49.45 -9.41,-2.731 -12.15,1.68 -9.06,14.648 4.34,18.202 23.28,38.402 33.13,39.182 z m -583.329,-1.21 29.301,-21.21 -175.703,-277.148 -30.43,18.046 176.832,280.312 z m 478.169,-2.27 c 13.94,0 25.27,-11.25 25.27,-25.15 0,-13.911 -11.33,-25.2 -25.27,-25.2 -13.95,0 -25.24,11.289 -25.24,25.2 0,13.9 11.29,25.15 25.24,25.15 z m 0,-9.1 c -8.87,0 -16.06,-7.19 -16.06,-16.05 0,-8.829 7.19,-16.02 16.06,-16.02 8.87,0 16.05,7.191 16.05,16.02 0,8.86 -7.18,16.05 -16.05,16.05 z m 0,-7.07 c 4.96,0 9.02,-4.02 9.02,-8.98 0,-4.96 -4.06,-8.989 -9.02,-8.989 -4.96,0 -8.99,4.029 -8.99,8.989 0,4.96 4.03,8.98 8.99,8.98 z m -403.751,-0.94 c 19.063,-21.439 40.512,-69.408 115.27,-46.791 25.511,-20.711 60.671,-32.5 104.031,-9.5 L 1084.65,829 752.578,828.648 865.039,1014.58 z M 258.551,1011.3 585.59,796.539 575.309,778.488 258.238,980.719 l 0.313,30.581 z m 918.089,-0.19 c 0.31,0 0.59,0 0.82,-0.08 16.72,-4.06 18.59,-20.741 3.05,-27.108 -8.32,-3.442 -10,-2.582 -17.97,9.098 -3.16,4.652 -4.96,8.48 -4.49,9.65 1.13,2.85 13.9,8.51 18.59,8.44 z m 209.84,-17.661 c 5.86,-0.039 11.64,-3.121 14.38,-9.179 4.1,-9.141 1.76,-16.801 -6.68,-21.872 -13.98,-8.398 -29.61,6.993 -22.34,22.071 2.89,6.011 8.78,9.019 14.64,8.98 z m -204.76,-17.5 c 7.69,-0.078 14.18,-7.418 10.43,-11.871 -2.5,-2.93 -5.7,-2.109 -9.77,2.613 -4.8,5.508 -5.08,9.258 -0.66,9.258 z m 93.75,-3.238 c 13.94,0 25.23,-11.25 25.23,-25.16 0,-13.903 -11.29,-25.192 -25.23,-25.192 -13.95,0 -25.24,11.289 -25.24,25.192 0,13.91 11.29,25.16 25.24,25.16 z m 71.13,-1.371 c 19.02,-0.121 45.39,-31.828 40.94,-49.262 -1.49,-5.656 -12.15,-2.609 -24.84,7.113 -17.15,13.168 -28.25,42.188 -16.1,42.149 z m -71.13,-7.77 c -8.87,0 -16.06,-7.148 -16.06,-16.019 0,-8.832 7.19,-16.012 16.06,-16.012 8.87,0 16.05,7.18 16.05,16.012 0,8.871 -7.18,16.019 -16.05,16.019 z m 61.17,-3.242 c 5.24,-15.359 10.63,-31.367 34.38,-42.469 -36.84,-17.097 -43.87,-45.929 -38.32,-82.89 l -8.64,5.242 c 7.89,33.117 13.87,70.859 12.58,120.117 z m -61.17,-3.789 c 4.96,0 8.98,-4.027 8.98,-8.988 0,-4.961 -4.02,-8.981 -8.98,-8.981 -4.96,0 -8.99,4.02 -8.99,8.981 0,4.961 4.03,8.988 8.99,8.988 z m -4.69,-40.43 c 13.95,0 25.24,-11.289 25.24,-25.199 0,-8.789 -4.5,-16.519 -11.37,-21.051 l -8.13,6.09 c 6.02,2.313 10.32,8.16 10.32,14.961 0,8.871 -7.19,16.059 -16.06,16.059 -8.44,0 -15.35,-6.528 -15.98,-14.809 l -8.2,6.129 c 3.17,10.32 12.81,17.82 24.18,17.82 z m 114.88,-3.25 c 12.04,-0.031 -6.68,-33.32 -23.82,-42.379 -13.05,-6.871 -25,-7.421 -24.96,-1.128 0.07,16.558 30.42,43.628 48.78,43.507 z m -114.88,-12.961 c 4.96,0 8.99,-4.027 8.99,-8.988 0,-4.922 -4.03,-8.941 -8.99,-8.941 -4.96,0.5 -8.94,4.371 -9.02,8.941 0,4.961 4.06,8.988 9.02,8.988 z m 111.02,-30.32 c 5.9,-0.066 11.75,-2.609 14.25,-7.609 3.25,-6.449 2,-12.188 -3.9,-18.047 -14.53,-14.344 -34.3,0.387 -24.81,18.476 2.58,4.922 8.52,7.301 14.46,7.18 z m -46.45,-13.469 c 20.24,-0.629 35.55,-25.75 31.88,-39.961 -3.21,-3.75 -25.47,13.082 -27.89,14.801 -2.82,5.039 -3.01,13.199 -3.99,25.16 z m -27.58,-15.589 c 21.57,-14.45 42.74,-27.258 63.4,-38.008 l -63.24,-40.5 -0.16,78.508 z m -564.372,-18.79 340.472,-1.25 0.04,-14.3 -349.808,-0.192 9.296,15.742 z m -13.867,-22.339 22.848,0 0,-27.852 -31.399,0 0,15.391 8.551,12.461 z m 327.109,-0.672 27.58,0 0,-27.809 -27.58,0 0,27.809 z m -270.23,-0.188 31.36,0 0,-27.812 -31.36,0 0,27.812 z m 65.192,-0.242 33.867,0 0,-27.809 -33.867,0 0,27.809 z m 69.296,0 32.582,0 0,-27.809 -32.582,0 0,27.809 z m 69.571,-0.461 31.051,0 0,-27.816 -31.051,0 0,27.816 z m -283.438,-34.297 377.579,-0.859 0,-16.723 -388.36,0.903 10.781,16.679 z M 1029.18,728.41 c 38.48,0.391 60.86,-42.422 30.82,-72.461 -27.62,-27.66 -73.711,7.66 -50.7,38.711 12.85,17.379 44.41,3.399 36.52,-15.121 -5.16,-12.18 -22.19,-6.48 -21.68,6.68 0.04,5.32 -3.87,1.679 -4.34,-3.938 -0.58,-7.109 6.76,-15.043 15.32,-15.043 22.34,-0.039 25.66,29.453 4.18,40.274 -19.22,9.687 -39.46,-2.653 -44.101,-27.153 -0.508,-2.687 -3.679,-9.371 -6.097,-14.097 -7.114,-14.223 -9.411,-22.461 -12.973,-38.711 -1.641,-2.031 -6.598,-5.27 -10.078,-6.992 -10.973,-5.469 -10.5,-3.161 -6.403,14.613 11.801,51.25 31.133,84.258 54.732,90.976 5.15,1.442 10.11,2.18 14.8,2.262 z m 113.71,-2.691 c 23.75,0.5 41.6,-18.989 44.73,-34.071 13.63,-45.859 -47.39,-73.976 -68.64,-32.418 -11.91,23.75 12.74,52.11 35.28,41.059 18.44,-9.027 17.26,-37.148 -1.6,-37.027 -10.24,-0.473 -16.49,8.707 -10.82,16.047 2.93,2.89 6.44,0.621 7.93,5.511 0.58,2.032 -2.31,3.629 -9.3,2.219 -11.56,-2.34 -10.39,-25.617 3.05,-30.269 20,-6.872 37.1,14.14 27.57,34.96 -11.44,25.04 -42.42,25.161 -56.6,-1.05 -2.07,-3.789 -5.27,-9.219 -7.07,-11.641 -21.13,-28.641 -22.77,-32.891 -29.06,-48.828 -0.63,-1.602 -1.76,-2.781 -3.67,-2.582 -5.82,0 -11.53,-1.25 -15.43,-2.77 -2.62,0.7 0.86,10.743 1.13,11.481 14.38,44.379 51.37,88.32 82.5,89.379 z M 958.949,713.262 c -5,-8.723 -20.078,-37.043 -30.508,-78.832 -2.781,1.679 -10.16,4.761 -15.55,6.64 -2.032,0.7 -0.352,3.039 -0.469,6.559 3.789,18.871 16.019,51.883 29.457,68.633 2.851,2.109 21.242,2.777 17.07,-3 z m 21.52,-8.364 c -12.891,-16.41 -26.367,-60.078 -29.18,-82.617 -0.391,-3.402 -1.019,-7.152 -1.367,-8.359 -2.031,-6.723 -14.652,7.726 -14.613,16.68 0.121,15.226 16.992,61.558 29.07,79.257 4.211,6.172 4.723,7.18 13.711,7.5 14.41,0.352 8.082,-5.199 2.379,-12.461 z m -630.508,10.864 c -3.16,-0.082 -6.371,-0.512 -9.449,-1.25 -18.672,-4.614 -40.942,-24.383 -43.09,-45.364 -1.051,-0.617 -3.594,-15.269 -1.953,-22.687 6.172,-28.133 22.621,-47.231 42.73,-75.121 0,0 -25.269,-39.102 -42.609,-57.149 l 41.012,-59.261 c -11.332,-22.379 -31.051,-39.289 -36.012,-66.91 -7.738,-36.329 11.32,-71.719 51.91,-75 30.27,-0.899 50.121,19.492 53.871,50.429 1.52,20.551 -6.961,46.371 -37.422,87.11 -1.527,1.992 -4.5,6.171 -4.5,6.171 0,0 3.442,4.032 5.242,6.719 10.739,14.449 38.668,49.84 38.668,49.84 l -41.757,58.949 c 0,0 1.796,3.981 5.039,8.364 34.097,46.41 40.468,70 34.41,93.046 -2.379,9.102 -8.039,16.09 -15.699,23.864 -12.422,12.539 -26.602,18.558 -40.391,18.25 z m -0.981,-5.711 c 13.321,0.199 27.071,-5.153 38.211,-16.762 25.618,-26.75 23.36,-49.367 -9.921,-98.859 -7.309,-10.86 -14.461,-22.821 -14.461,-22.821 l 41.992,-57.89 c -13.75,-19.449 -29.449,-36.68 -43.821,-57.18 7.258,-11.141 19.098,-23.051 26.52,-36.449 8.98,-15.192 14.34,-30.309 15.898,-44.18 3.364,-29.14 -15.628,-60.148 -48.089,-60.941 -31.52,-0.188 -55.508,26.019 -54.797,58.91 0.308,14.652 6.367,28.199 13.75,41.41 7.578,13.43 25.269,39.57 25.269,39.57 L 298.871,514 341.91,571.34 c 0,0 -31.289,38.281 -40.89,65.859 -7.821,31.332 6.832,49.18 8.75,51.91 9.57,13.403 24.14,20.711 39.21,20.942 z m -26.64,-83.082 c 6.25,-16.25 16.449,-28.36 27.93,-39.93 10.671,12.473 22.582,28.832 29.109,44.461 31.48,75.23 -90.039,81.359 -57.039,-4.531 z m 27.461,-32.5 c -15.391,17.89 -26.281,32.769 -27.34,56.359 -1.68,46.801 59.57,41.531 56.519,-0.269 -3.39,-22.77 -15.39,-37.188 -29.179,-56.09 z m 759.259,73.511 c 1.17,-6.601 7.62,-17.73 7.07,-20.39 -3.01,-6.871 -7.34,-10.309 -13.4,-21.68 -1.25,-2.422 -0.66,-2.93 -4.06,-2.34 -3.2,0.469 -8.79,2.192 -11.79,3.039 -1.72,0.512 -3.68,1.45 -2.86,3.641 5.78,13.32 12.31,29.219 25.04,37.73 z m -101.56,-20.152 -7.19,-18.637 c -0.701,-1.992 -0.779,-2.339 -2.888,-1.91 -4.102,0.547 -7.692,0.86 -11.801,0.547 -8.902,1.094 7.899,34.41 10.43,39.492 3.679,-0.629 9.069,-14.851 11.449,-19.492 z m 6.8,-4.297 c 0.15,0.039 0.31,0.039 0.47,0 3.67,-0.472 9.14,-2.422 13.2,-4.222 2.23,-0.899 2.3,-0.981 1.29,-3.75 -2.03,-4.098 -4.57,-15.938 -7.31,-20.079 -0.07,-0.582 -12.73,7.5 -16.36,9.059 -0.12,2.27 4.02,18.359 8.71,18.992 z m 107.34,-2.191 c 4.18,-0.16 9.34,-3.942 12.19,-6.129 1.33,-2.621 0.12,-5.242 -4.57,-13.242 -4.1,-7.11 -8.4,-14.77 -9.46,-13.949 -3.12,2.421 -8.9,5.628 -11.79,9.57 -2.15,2.93 1.95,10.43 4.69,14.531 4.37,6.488 6.48,8.828 8.94,9.219 z m -68.28,0.941 c 3.87,-0.859 -2.27,-20.742 -3.4,-23.242 -3.67,-5.469 -9.37,-12.66 -13.91,-15.551 -2.3,-1.476 -9.41,2.774 -9.25,7.731 0.11,3.519 6.87,21.371 9.14,26.101 0.31,0.7 13.08,4.879 17.42,4.961 z m -157.891,-7.582 c 0.859,0 1.722,0 2.582,-0.039 15.187,0.43 30.859,-7.07 40.699,-23.789 4.648,-7.891 4.691,-8.242 3.629,-15.621 -2.5,-17.391 -1.641,-29.031 2.973,-39.691 5.199,-12.11 4.418,-16.289 -8.364,-43.239 -12.808,-27.148 -28.398,-60.199 -40.226,-90.82 -5.242,-13.172 -10.043,-28.012 -13.051,-40.199 -1.992,-7.653 -11.371,-5.352 -20.699,-5 -4.731,-1.012 6.867,30.82 24.019,68.91 13.75,30.469 32.418,64.801 39.879,98.898 6.102,27.821 4.141,39.262 0.82,50.942 -12.89,33.988 -57.652,25.629 -57.531,-5.66 0.973,-20.282 24.492,-31.129 33.082,-11.25 1.449,9.14 -3.082,3.828 -6.871,-0.629 -8.09,-9.532 -22,1.058 -19.808,15.078 2.847,18.441 26.718,24.488 38.238,9.922 12.621,-15.973 9.851,-32.422 -8.36,-44.762 -18.781,-13.789 -35.89,-5.98 -45.269,8.359 -20.039,32.11 7.34,67.731 34.258,68.59 z m 92.89,-13.48 c 18.631,-0.391 38.871,-15.969 42.151,-28.321 1.76,-8.386 -0.94,-18.238 2.07,-26.359 2.5,-6.488 4.88,-10.199 3.08,-15.98 -15.35,-49.258 -51.558,-101.84 -69.449,-160.161 -2.07,-4.058 -3.941,-4.57 -8.59,-5.886 -7.152,-2.043 -9.922,-1.801 -10.711,1.91 -0.699,3.547 1.68,10.269 5.86,22.887 5,15.16 16.101,41.05 22.582,53.242 15.16,28.359 23.558,47.777 34.568,72.027 2.07,4.531 2.62,7.231 5.86,13.75 13.87,28.012 -1.8,55.672 -30.51,55.82 -22.731,0.122 -32.891,-35.429 -12.969,-45.82 19.461,-10.148 33.989,16.57 16.679,25.981 -4.179,2.3 -5.269,0.121 -1.91,-3.911 7.7,-9.218 0.782,-21.636 -9.922,-16.718 -16.597,7.66 -8.046,35.898 11.332,34.261 29.92,-2.5 33.79,-45.929 3.282,-56.953 -41.961,-15.117 -63.953,52.274 -24.461,74.961 6.527,3.75 13.828,5.391 21.058,5.27 z m 88.361,-1.36 c 11.01,0.27 22.62,-3.64 32.15,-12.781 23.47,-22.457 17.22,-57.148 -22.42,-124.25 -12.97,-22.469 -25.63,-49.5 -32.54,-69.219 -1.72,-4.929 -3.17,-7.39 -7.07,-9.531 -6.88,-3.789 -14.65,-4.258 -15.67,-1.609 -2.58,6.84 17.07,49.179 52.03,115.793 9.18,17.726 20.78,38.316 20.2,59.449 -2.31,16.758 -16.29,28.828 -35,23.32 -12.58,-3.672 -17.74,-21.41 -8.44,-30.312 3.87,-3.75 8.63,-5.707 11.72,-5.391 5.78,-0.199 12.38,5.543 1.17,6.133 -11.87,0.078 -15.94,14.961 -5.9,21.68 14.42,9.687 30.94,-1.719 29.77,-20.512 -2.38,-37.77 -57.7,-32.149 -59.14,6.762 -0.9,24.097 18.04,39.961 39.14,40.468 z M 920.512,559.352 c 8.359,0.66 -6.024,-44.262 -31.133,-94.692 -13.719,-27.89 -24.109,-57.89 -34.77,-87.07 -2.89,-3.91 -20.199,-4.61 -20.16,-0.578 30.711,98.199 52.43,115.109 62.891,152.527 1.84,6.492 3.172,15.82 3.441,16.609 7.739,2.223 14.297,11.524 19.731,13.204 z m -568.633,-6.602 -32.539,-42.352 31.75,-45 33.012,43.012 -32.223,44.34 z m 704.681,-13.09 c 0,-5.082 -9.76,-29.488 -17.03,-44.18 -31.91,-64.179 -39.8,-81.519 -45.311,-98.628 -1.02,-3.09 -2.617,-5.122 -4.61,-5.864 -3.988,-1.476 -15.039,-3.59 -15.98,-2.109 6.762,37.543 58.361,122.891 68.361,160.312 4.03,0.161 14.26,-5.929 14.57,-9.531 z m 25.55,3.91 c 2.15,0.149 3.01,-0.742 2.38,-3.601 -0.97,-4.641 -6.56,-15.617 -16.25,-34.61 -26.83,-52.648 -40.94,-83.859 -45.39,-99.918 -1.05,-3.75 -1.72,-6.679 -3.51,-7.652 -3.68,-1.961 -16.61,-7.148 -17.23,-1.57 4.06,23.832 19.77,39.301 60.39,138.601 1.91,3.239 3.59,4.84 5.35,5.149 5,0.82 9.34,3.172 14.26,3.601 z M 971.949,527.238 c -1.008,-6.09 -8.078,-18.949 -19.719,-42.66 -19.339,-39.449 -31.878,-68.859 -39.5,-94.957 -1.21,-4.223 -2.89,-8.672 -4.57,-9.84 -3.121,-2.152 -17.262,-1.492 -17.262,-1.492 -2.109,10.789 14.922,51.02 33.872,93.32 10.308,23.012 22.3,45.942 30.308,66.571 5.512,-0.821 16.094,-6.102 16.871,-10.942 z m 28.711,10.192 c 5.75,0.039 1.29,-9.571 -12.461,-36.711 -11.168,-22.039 -28.98,-52.891 -40.469,-88.36 -3,-7.82 -6.519,-17.539 -7.808,-21.597 -1.723,-5.282 -3.281,-7.903 -5.434,-8.953 -4.179,-2.071 -14.179,-1.95 -15.968,0.203 -2.782,3.386 12.07,43.316 26.558,73.976 12.774,25.782 21.762,46.481 32.813,70.313 3.007,4.73 3.129,5.039 6.211,5.668 6.367,0.5 12.968,4.761 16.558,5.461 z m -648.238,-5.11 16.758,-22.39 -19.692,-24.41 -16.367,23.75 19.301,23.05 z m -2.543,-96.531 c 0,0 -7.109,-8.16 -14.41,-21.129 -21.41,-35.551 -21.989,-61.832 3.242,-77.422 10.668,-5.386 24.57,-4.218 33.32,3.403 28.59,24.918 7.348,59.097 -11.133,82.3 -4.878,6.84 -11.019,12.848 -11.019,12.848 z m 1.062,-9.098 c 10.7,-12.613 18.547,-22.113 25.7,-37.972 8.238,-21.289 2.968,-38.039 -12.93,-45.93 -25.16,-12.461 -48.012,15.5 -36.09,45.313 8.828,22.109 23.32,38.589 23.32,38.589 z m 703.899,-42.113 c 2.35,-4.488 -239.25,-60.226 -417.5,-12.379 l -108.43,-156.597 626.13,1.089 -100.2,167.887 z m -9.18,-11.09 c 0,0 58.21,-100.547 86.8,-149.769 l -40.16,0 -57.22,122.23 c -30.59,-8.519 -60.779,-14.648 -91.369,-18.519 l 20.348,-103.711 -30.039,0 -16.989,99.109 C 873.16,319.43 828.52,318.141 782.891,319.43 l -19.692,-95.711 -31.437,0 20.148,95.082 c -34.609,4.648 -69.058,9.027 -104.25,14.808 l -58.988,-109.89 -44.41,0 92.578,137.929 c 138.238,-27.687 265.699,-21.168 408.82,11.84 z m -21.87,-53.976 45.39,-95.793 -85.942,0 -15.816,85.472 56.368,10.321 z m -367.97,-6.961 75.121,-9.723 -19.382,-79.109 -101.481,0 45.742,88.832 z m 245.309,-11.789 10.32,-77.043 -129.5,0 14.379,75.511 104.801,1.532 z"
         inkscape:connector-curvature="0"
         id="path34"
         style="fill:#000000;fill-opacity:1;fill-rule:nonzero;stroke:none" /><path
         d="M 480.66,2239.82 C 407.191,2134.9 328.551,2074.51 327.27,1992.67 c -0.43,-26.52 13.859,-71.56 58.71,-80.2 29.059,-5.54 69.141,18.01 69.961,65.9 -0.121,9.53 10.079,9.3 10,-3.79 -1.371,-37.77 -13.32,-81.75 -33.402,-117.54 l 96.25,0 c -20.078,35.79 -31.988,79.77 -33.359,117.54 -0.121,13.09 10.121,13.32 9.961,3.79 0.859,-47.89 40.898,-71.44 69.961,-65.9 44.847,8.64 59.136,53.68 58.707,80.2 -1.289,81.84 -79.918,142.23 -153.399,247.15 z"
         inkscape:connector-curvature="0"
         id="path36"
         style="fill:#000000;fill-opacity:1;fill-rule:nonzero;stroke:none" /><path
         d="m 1305.23,274.738 c -73.47,104.922 -152.11,165.313 -153.39,247.153 -0.43,26.519 13.86,71.558 58.71,80.187 29.06,5.594 69.1,-18 69.96,-65.898 -0.12,-9.532 10.08,-9.289 9.96,3.789 -1.37,37.781 -13.28,81.761 -33.36,117.543 l 96.25,0 c -20.08,-35.782 -31.99,-79.762 -33.4,-117.543 -0.08,-13.078 10.12,-13.321 10,-3.789 0.86,47.898 40.9,71.492 69.96,65.898 44.85,-8.629 59.14,-53.668 58.71,-80.187 -1.29,-81.84 -79.92,-142.231 -153.4,-247.153 z"
         inkscape:connector-curvature="0"
         id="path38"
         style="fill:#000000;fill-opacity:1;fill-rule:nonzero;stroke:none" /></g></g></svg>