<?xml version="1.0" encoding="UTF-8" standalone="no"?>
<!-- Created with Inkscape (http://www.inkscape.org/) -->

<svg
   xmlns:dc="http://purl.org/dc/elements/1.1/"
   xmlns:cc="http://creativecommons.org/ns#"
   xmlns:rdf="http://www.w3.org/1999/02/22-rdf-syntax-ns#"
   xmlns:svg="http://www.w3.org/2000/svg"
   xmlns="http://www.w3.org/2000/svg"
   xmlns:inkscape="http://www.inkscape.org/namespaces/inkscape"
   version="1.1"
   width="223.75"
   height="313.75"
   id="svg2"
   xml:space="preserve"><metadata
     id="metadata8"><rdf:RDF><cc:Work
         rdf:about=""><dc:format>image/svg+xml</dc:format><dc:type
           rdf:resource="http://purl.org/dc/dcmitype/StillImage" /></cc:Work></rdf:RDF></metadata><defs
     id="defs6" /><g
     transform="matrix(1.25,0,0,-1.25,0,313.75)"
     id="g10"><g
       transform="scale(0.1,0.1)"
       id="g12"><path
         d="m 88.9102,2500.52 1607.7698,0 c 47.11,0 85.04,-37.93 85.04,-85.04 l 0,-2316.4019 c 0,-47.1093 -37.93,-85.039 -85.04,-85.039 l -1607.7698,0 c -47.1094,0 -85.03911,37.9297 -85.03911,85.039 l 0,2316.4019 c 0,47.11 37.92971,85.04 85.03911,85.04 z"
         inkscape:connector-curvature="0"
         id="path14"
         style="fill:#ffffff;fill-opacity:1;fill-rule:nonzero;stroke:none" /><g
         transform="scale(0.999997,-1)"
         id="g16"><path
           d="m 88.9104,-2500.52 1607.7796,0 c 47.11,0 85.04,37.93 85.04,85.04 l 0,2316.406 c 0,47.1093 -37.93,85.0389 -85.04,85.0389 l -1607.7796,0 c -47.1095,0 -85.0393,-37.9296 -85.0393,-85.0389 l 0,-2316.406 c 0,-47.11 37.9298,-85.04 85.0393,-85.04 z"
           inkscape:connector-curvature="0"
           id="path18"
           style="fill:none;stroke:#000000;stroke-width:7.9738698;stroke-linecap:butt;stroke-linejoin:miter;stroke-miterlimit:4;stroke-opacity:1;stroke-dasharray:none" /></g><path
         d="m 141.02,2102.04 c -34.34,-43.75 -71.0981,-68.9 -71.6802,-103 -0.2382,-11.02 6.4805,-29.81 27.4219,-33.4 13.5903,-2.31 32.2973,7.5 32.6873,27.46 -0.07,3.98 4.692,3.87 4.653,-1.56 -0.622,-15.75 -6.211,-34.07 -15.582,-48.99 l 44.96,0 c -9.378,14.92 -14.96,33.24 -15.589,48.99 -0.082,5.43 4.73,5.54 4.648,1.56 0.391,-19.96 19.102,-29.77 32.691,-27.46 20.942,3.59 27.661,22.38 27.43,33.4 -0.59,34.1 -37.351,59.25 -71.64,103 z"
         inkscape:connector-curvature="0"
         id="path20"
         style="fill:#000000;fill-opacity:1;fill-rule:nonzero;stroke:none" /><path
         d="m 1644.61,412.512 c -34.34,43.75 -71.06,68.91 -71.68,103.008 -0.2,11.019 6.48,29.808 27.42,33.402 13.6,2.297 32.31,-7.5 32.7,-27.461 -0.08,-3.949 4.72,-3.871 4.68,1.559 -0.66,15.742 -6.25,34.101 -15.62,48.992 l 45,0 c -9.38,-14.891 -14.96,-33.25 -15.63,-48.992 -0.07,-5.43 4.73,-5.508 4.69,-1.559 0.39,19.961 19.1,29.758 32.7,27.461 20.93,-3.594 27.61,-22.383 27.42,-33.402 -0.63,-34.098 -37.34,-59.258 -71.68,-103.008 z"
         inkscape:connector-curvature="0"
         id="path22"
         style="fill:#000000;fill-opacity:1;fill-rule:nonzero;stroke:none" /><path
         d="m 147.34,2156.03 26.449,0 -38.867,97.15 -29.652,-41.02 0.199,-56.13 20.859,0 0,-28.95 -73.4764,0 0,28.95 24.2187,0 0,208.94 -24.2187,-0.07 0,25.31 74.5274,0 0,-26.17 -20.539,0 -0.469,-101.84 65.078,102.7 -22.969,0 0,25.31 79.25,0 0,-25.31 -20.89,0 -53.559,-83.95 52.418,-124.96 23.281,0 0.122,-28.95 -81.524,0 -0.238,28.99 z"
         inkscape:connector-curvature="0"
         id="path24"
         style="fill:#000000;fill-opacity:1;fill-rule:nonzero;stroke:none" /><path
         d="m 1638.24,358.531 -26.44,0 38.86,-97.152 29.65,41.051 -0.19,56.101 -20.86,0 0,28.938 73.47,0 0,-28.938 -24.21,0 0,-208.953 24.21,0.082 0,-25.269 -74.53,0 0,26.129 20.55,0 0.47,101.839 -65.08,-102.699 22.97,0 0,-25.269 -79.26,0 0,25.269 20.9,0 53.55,83.949 -52.42,124.961 -23.28,0 -0.12,28.942 81.53,0 0.23,-28.981 z"
         inkscape:connector-curvature="0"
         id="path26"
         style="fill:#000000;fill-opacity:1;fill-rule:nonzero;stroke:none" /><path
         d="m 239.73,2309.9 1306.13,0 0,-2105.24 -1306.13,0 0,2105.24 z M 1166.8,218.059 c -48.56,88.55 -125.35,232.851 -127.62,233.98 -28.4,-15.187 -317.852,-54.18 -457.071,-16.437 C 534.488,363.68 487.73,292.43 446.289,221.109 l 720.511,-3.05 z M 722.27,482.98 c -7.309,-0.152 -15.43,-4.652 -13.911,-0.742 0.86,2.231 2.93,24.961 3.832,33.09 2.149,3.594 5.231,-5.859 4.879,-14.687 -0.191,-5.039 2.231,-1.45 18.711,-2.313 17.809,-0.93 32.418,-4.289 38.481,-5.617 21.09,-4.57 61.867,-1.289 79.328,11.519 9.5,6.918 13.051,-0.582 3.32,-8.011 -44.058,-33.508 -78.98,-20.739 -117.262,-15.11 -5.699,0.821 -11.488,1.993 -17.378,1.871 z m 18.71,31.84 c -2.742,1.758 -4.531,1.95 -8.05,0.309 -13.52,-6.328 -9.961,2.769 -0.231,11.91 4.449,4.18 4.332,6.332 0.93,10.711 -1.719,2.219 -4.57,2.5 -3.859,5.859 2.929,14.371 23,36.09 45.46,45.821 9.34,4.058 10.821,-0.352 -1.011,-7.352 -18.168,-10.738 -24.02,-19.879 -13.75,-16.129 19.922,7.192 38.082,2.11 63.551,-10.66 7.308,-3.641 10.628,-4.379 16.839,-3.711 4.571,3.82 8.672,-0.789 11.481,-3.168 1.801,-1.441 2.191,-2.109 4.219,-1.64 14.492,3.441 5.82,-5.86 -14.02,-20.391 C 807.031,501.18 768.32,489.27 740.98,514.82 z m 54.641,-6.211 c 14.5,4.371 32.188,13.551 43.051,23.121 13.207,11.641 5.738,9.848 -9.41,2.54 -21.961,-10.622 -37.313,-13.668 -61.992,-13.122 -20.668,0.5 -20,1.321 -20.79,-1.25 -2.609,-9.07 25.821,-18.359 49.141,-11.289 z m -40.07,35.43 c 1.168,3.902 2.07,9.102 1.008,10.82 -1.911,3.039 -6.008,0.782 -11.25,-5.82 -3.239,-4.109 -2.77,-4.687 0.39,-7.891 1.571,-1.097 2.821,-1.918 3.75,-2.468 4.422,-1.871 5.121,2.23 6.102,5.359 z m 9.019,-5.359 c 6.328,21.718 20.551,21.289 30.7,0.511 l 7.152,-0.043 c -14.692,40.43 -43.16,19.961 -44.141,-0.148 3.36,-1.141 6.289,-0.32 6.289,-0.32 z m 53.129,3.679 c 6.711,3.75 5.742,6.289 -2.82,10.743 -6.09,3.117 -9.289,3.75 -10.43,1.718 0.082,-4.461 0.281,-10.859 2.852,-14.422 2.699,-1.636 6.371,-0.039 10.398,1.961 z m -94.148,61.789 c -1.211,2.071 -1.012,5.782 3.679,7.973 28.79,13.359 7.809,41.641 -14.421,20.43 -7.071,-5.781 -17.539,-8.473 -25.661,-5.039 -7.617,3.316 -7.738,12.699 2.383,14.687 3.321,0.629 11.84,2.461 14.957,4.653 38.672,20.777 59.223,-24.383 31.762,-39.422 -5.629,-3.282 -11.602,-5.149 -12.699,-3.282 z M 615.27,645.172 c -15.7,7.148 -17.848,31.906 -3.161,41.558 9.371,6.411 18.942,8.168 44.731,-4.652 18.199,-9.019 28.629,0.711 28.16,-9.797 -0.27,-6.41 -0.66,-12.851 -11.25,-14.422 -17.23,-2.5 -28.949,20.942 -51.051,18.719 -15.937,-1.566 -13.949,-20.707 -2.429,-24.609 15.351,-5.199 6.058,-11.328 -5,-6.797 z m 288.48,-3.594 c -2.891,-1.367 -4.219,4.961 -2.969,8.32 7.809,18.672 15.039,33.512 22.149,50.973 5.66,13.949 9.492,19.918 12.031,19.918 2.578,0 3.789,-2.07 -0.551,-10.617 -6.558,-17.313 -30.621,-70.082 -30.66,-68.594 z m -128.828,4.844 c -6.91,4.957 -5.742,12.297 2.148,6.719 10.16,-7.153 26.801,5.937 23.399,18.32 -4.098,14.961 -23.91,18.551 -40.469,5.187 -26.129,-21.128 -54.801,-22.179 -54.801,-5.699 0.071,4.731 -0.59,5.781 10.27,6.52 12.652,0.859 26.91,6.679 33.98,11.019 31.801,19.453 65.629,6.024 58.641,-26.41 -3.168,-15.308 -21.879,-22.726 -33.168,-15.656 z M 658.359,694.27 c -2.578,0.082 -7.308,-2.5 -8.629,-1.481 -2.66,1.949 -2.269,7.731 -4.46,13.859 -3.86,10.942 -0.071,7.543 6.718,4.571 9.223,-3.547 17.973,-2.891 25.742,-0.149 8.051,2.77 18.598,2.149 35.43,-0.082 13.602,-1.758 21.219,-1.25 33.52,2.301 13.359,4.18 9.84,2.699 7.621,-5.578 -1.449,-5.43 -3.281,-12.742 -5,-14.449 -9.223,5.187 -16.25,3.16 -22.313,-0.364 -10,-4.41 -17.066,-5.187 -25.226,-2.726 -7.703,4.406 -12.274,4.019 -18.442,0.226 -10.621,-5.148 -15.351,3.403 -24.961,3.872 z m 199.301,22.742 c 1.871,3.316 4.61,7.847 7.141,12.957 20.668,41.179 22.078,52.621 7.5,66.492 -19.571,18.629 -36.281,10.551 -55.031,-26.68 -4.571,-9.019 -7.309,-15.82 -9.149,-18.601 -2.101,-3.2 -4.57,-0.739 -5.82,0.511 -2.301,2.387 18.519,41.879 26.679,50.508 21.372,22.582 61.059,4.492 58.559,-26.211 -1.289,-15.429 -4.219,-23.91 -18.32,-52.269 -3.481,-7.028 -6.489,-12.957 -8.36,-15.821 -6.597,-4.449 -5.078,5.75 -3.199,9.114 z m -194.609,1.636 c 3.238,14.68 50.07,21.442 62.418,2.223 1.211,-1.871 0.472,-1.793 -4.809,-0.351 -23.781,7.929 -28.512,7.5 -51.32,-1.559 -3.442,-1.332 -5.899,-1.883 -6.289,-0.313 z m 178.629,2.813 c 0,1.367 1.761,6.801 4.41,12.027 15.59,30.981 19.89,38.442 15.16,44.223 -9.301,11.289 -21.762,1.48 -33.199,-30.859 -4.301,-12.071 -7.192,-9.493 -9.301,-7.582 -3.98,3.628 13.711,41.289 22.27,46.878 19.332,12.383 34.57,-1.957 26.011,-27.226 -6.679,-11.41 -12.191,-28.953 -18.402,-38.203 -2.969,-4.141 -6.949,-2.891 -6.949,0.742 z m -70,50.309 c -0.942,1.558 0.898,3.628 7.582,18.089 9.218,19.801 12.066,27.18 8.359,38.469 -6.68,20.203 -31.883,25.121 -47.152,11.883 -5,-4.262 -8.399,-10.16 -10.739,-15.473 -5.55,-12.308 -10.121,-28.199 -13.402,-31.558 -2.887,-2.891 -6.879,-3.481 -6.598,1.558 3.629,10.742 5.348,19.024 13.942,34.731 21.406,46.711 83.168,25.07 68.707,-24.11 -5.391,-17.847 -11.559,-31.359 -15.188,-35.781 -2.031,-2.418 -5.429,-0.308 -5.511,2.192 z m -14.34,8.558 c 0,1.563 2.351,5.934 4.808,12.031 10.43,25.93 10.512,33.903 -4.726,34.219 -9.102,-1.18 -10.473,-4.93 -18.442,-25.398 -2.609,-6.641 -4.019,-11.36 -5.582,-13.391 -1.636,-2.187 -4.769,-0.898 -6.019,0.43 -3.277,3.32 10.98,36.871 18.519,43.203 17.301,15.156 39.762,-6.371 29.262,-25.66 -4.961,-13.481 -9.18,-22.621 -12.07,-26.801 -2.578,-3.672 -5.789,-3.172 -5.75,1.367 z m -368.75,302.342 -52.61,3.63 c 9.329,-56.52 9.801,-118.788 0.391,-162.929 -8.051,-37.73 -8.172,-65.512 -5.75,-98.242 2.82,-38.051 18.828,-70.348 22.899,-110.738 2.89,-29.301 -3.559,-59.852 -9.301,-88.95 -9.61,-48.632 -7.66,-53.711 -6.207,-110.82 1.289,-52.93 -3.602,-51.012 -6.641,-47.93 -0.43,0.469 -0.859,9.848 -0.82,20.981 0.07,11.129 -0.59,38.316 -1.211,57.226 -1.289,37.774 2.89,71.133 5.93,84.84 6.14,27.934 13.05,56.563 8.789,87.5 -8.629,39.024 -20.86,78.012 -25.149,115.621 -5.281,46.411 7.731,92.93 11.988,126.653 4.18,32.527 -0.238,88.778 -8.707,112.218 -1.453,7.78 -8.402,17.93 -8.402,17.93 -7.93,1.17 -15.898,2.27 -26.988,2.23 -0.629,-223.402 -0.039,-446.921 0.148,-670.312 l 49.071,-45.789 50.39,48.172 2.18,658.709 z m 3.558,-256.248 c 0,0 74.84,-43.363 157.422,-85.942 -7.89,48.711 17.032,56.059 40.469,61.719 -5.629,94.141 80.16,74.84 93.281,-6.949 l 8.481,-0.039 c 14.84,40.777 29.527,68.937 63.398,75.66 26.211,5.199 52.071,-11.519 58.629,-50.859 -1.168,2.777 86.953,52.027 89.371,-52.032 40,25 68.563,3.399 80.121,-28.32 16.88,25.899 59.18,27.031 72.7,28.91 4.68,5.469 13,8.59 28.08,8.508 12.97,0.672 30.35,10.391 39.3,-1.476 13.59,-2.153 23.94,0.308 35.58,-8.711 9.26,-7.071 19.57,-22.852 34.97,-11.993 29.37,14.25 62.38,20.661 88.67,37.813 0,0 -7,9.019 -4.96,7.73 0.74,-0.511 4.02,-4.761 8.94,-6.722 1.76,-0.739 17.89,8.992 17.89,8.992 -109.37,126.758 -199.37,374.219 -139.92,603.119 1.64,3.91 -4.96,5.39 -8.24,6.8 1.01,1.76 17.07,-0.62 10.27,-15.16 -6.87,-43.86 -14.65,-91.4 -16.4,-127.77 0,-4.41 0.39,-8.4 0.39,-8.4 245.27,-113.79 215.19,-360.23 152.18,-446.011 l 9.93,-13.32 c 4.41,-2.93 192.96,107.652 186.71,112.179 l 35.71,17.864 -5.78,483.278 -141.14,10.86 c 0,0 1.53,4.06 3.32,5.11 1.29,29.5 -1.36,73.13 0.08,109.65 0.55,104.38 1.56,139.88 0.24,142.77 -43.52,28.79 -108.44,70.94 -163.05,91.41 2.26,-0.66 -0.9,-43.28 -2.54,-45.7 -51.09,-16.41 -27.38,-37.35 -46.25,-59.88 -12.7,-14.03 -42.38,-16.68 -56.72,0.15 -17.15,16.68 -25.19,54.92 -25.19,54.92 -27.04,-29.06 -21.49,-64.22 -57.66,-77.42 -58.2,-29.02 -76.68,57.77 -73.282,55.74 -22.308,-21.6 -84.847,-39.18 -91.636,52.07 -28.133,-26.01 -59.653,-13.08 -73.012,18.95 -17.191,-0.59 -36.449,-14.14 -53.828,-21.45 -16.133,-7.18 -36.762,-11.4 -52.07,-11.09 -19.141,-2.3 -34.922,-2.23 -52.192,2.93 -8.121,-2.62 -26.398,5.27 -32.031,16.64 -8.629,10.2 -16.168,10.78 -24.367,8.95 -27.934,-14.81 -57.934,-18.4 -90.903,-33.91 -2.07,-1.41 2.891,-4.14 1.211,-3.59 -0.699,0.23 -17.34,-8.21 -17.34,-8.21 167.141,-221.01 176.25,-444.18 141.211,-602.34 -1.371,-5.47 -2.113,-9.45 1.481,-13.75 -5.313,0.9 -5.391,-0.67 -6.371,2.77 l 17.39,132.74 c 0.508,16.05 2.5,14.84 -11.531,20.82 -12.93,5.54 -25.191,10.86 -35.89,17.5 -40.75,30.35 -86.801,67.73 -109.258,114.41 -64.032,100.24 -42.891,219.88 5.078,314.69 l -11.961,12.46 C 331.051,1652.9 248.32,1576.77 248.32,1576.77 l 0.629,-474.22 143.942,-16.68 -0.743,-259.448 z m -69.449,316.638 c -4.609,5.16 -16.371,6.05 -21.289,2.15 -1.14,-0.98 -3.519,-6.02 -4.262,-5.82 -6.527,1.68 -11.019,3.04 -11.878,8.59 l 6.921,10.51 c 5.469,8.36 13.36,11.29 26.68,14.41 4.719,1.14 11.828,2.15 14.367,3.21 10,4.37 13.481,13.75 3.364,9.53 -7.422,-2.03 -17.731,-1.37 -19.102,5.47 -1.129,5.58 -5.859,7.77 -11.172,7.11 -9.726,-2.35 -18.629,-7.5 -27.269,-12.62 -3.829,-2.34 -11.09,-7.62 -11.09,-7.62 -1.168,-1.8 -5.391,11.41 -1.449,15.24 4.89,-0.59 9.101,-0.63 13.871,1.29 11.91,4.76 23.359,10.5 35.39,15.11 7.66,3.05 8.36,2.78 6.328,8.24 -0.98,2 -1.879,8.72 -0.55,12.19 1.371,3.75 1.211,5.63 -1.129,7.19 -5.43,3.63 -18.399,0.27 -36.602,-8.56 -5.547,-2.69 -9.219,-3.75 -12.738,-6.6 2.269,5.78 0.941,6.88 0.898,12.93 7.422,-0.93 14.141,2.03 20.082,5.2 4.879,2.58 10.391,5.12 23.871,6.87 3.668,0.47 1.989,13.99 -2.191,17.93 -3.98,3.71 -12.301,3.79 -22.379,0.78 -8.992,-2.07 -20.16,-4.18 -26.371,-13.9 -7.809,-7.42 0.199,12.34 14.41,20.23 6.25,0.12 20.039,3.09 23.289,3.83 5.461,1.21 6.36,14.18 -1.648,19.73 -5,4.37 18.168,4.49 17.738,3.16 -0.309,-0.78 -0.508,-6.29 1.25,-7.73 10,-3.01 9.883,-11.21 10.781,-14.65 11.45,-18.95 17.071,-7.07 24.961,-0.55 -1.64,-41.21 12.66,-45.9 14.571,-48.48 -19.692,-36.91 -4.84,-37.85 13.597,-46.32 0,0 -7,-2.85 -11.679,-2.58 -7.348,0.47 -21.372,-8.28 -27.5,-13.44 -3.399,-2.85 -3.52,-0.47 -17.071,-0.08 -12.738,0.35 -13.679,-0.58 -19.5,-3.2 -11.48,-5.12 -11.437,-9.92 -0.23,-8.05 11.953,2.03 23.672,-5.23 25.043,-15.19 0.937,-1.88 0.109,-5.2 -0.082,-5.08 -2.5,0.47 -8.129,-0.47 -8.051,0.7 0.082,1.21 0,5.71 -2.18,8.87 z m 17.422,49.92 c 3.238,2.07 3.828,8.01 0.969,10.43 -2.539,2.15 -13.43,1.02 -16.52,-1.8 -6.992,-5.5 5.739,-14.72 15.551,-8.63 z m 6.988,24.81 c 4.02,3.16 4.493,10.7 1.012,15.11 -5.851,7.43 -21.242,2.97 -22.101,-6.4 -0.899,-10 12.73,-15.28 21.089,-8.71 z m -5,34.02 c 0.743,8.2 -7.339,13.44 -14.808,9.53 -9.25,-4.84 -3.629,-15.08 7.969,-14.49 6.449,0.35 6.449,0.35 6.839,4.96 z M 315,1285.13 c -4.34,-2.11 -4.531,-7.23 -0.469,-10.55 16.25,-9.02 11.328,15.16 0.469,10.55 z m 1134.88,-49.1 c -7.11,26.44 -26.79,0.23 -26.83,-0.12 -0.67,27.11 4.41,39.14 -15.78,48.4 20.27,30.9 16.05,35.16 -5.47,47.03 1.99,-0.19 28.55,5.82 33.08,21.06 1.02,-0.71 41.68,-10.79 46.76,11.56 -12.26,-5.63 -36.41,-6.49 -36.68,17.54 2.27,0.7 8.01,-0.51 7.54,-1.25 -3.24,-15.43 24.65,-19.22 29.22,-7.07 0,0 9.37,-6.29 13.48,-7.27 0.46,-0.31 -12.7,-18.67 -24.65,-21.4 -21.6,-7.23 -29.07,-9.15 -29.1,-13.48 0,-1.68 3.55,-1.95 9.96,-3.24 13.39,-0.94 13.12,-3.87 14.88,-8.32 1.56,-3.95 3.09,-4.73 7.54,-4.34 15.31,5.12 23.01,7.81 33.67,18.55 1.29,0.24 2.81,-11.28 3.63,-11.67 0.12,1.83 -10.82,-1.41 -27.69,-11.29 -13.75,-8.13 -19.1,-9.3 -20.86,-11.49 -1.29,-1.6 2.03,-6.72 2.38,-12.26 0.31,-4.65 -2.81,-6.92 -0.51,-8.36 2.62,-1.68 6.72,-1.37 12.11,0.04 11.92,2.85 20.63,7.57 31.33,14.21 -2.27,-4.33 1.52,-15.31 1.52,-15.31 0,0 -5.27,3.75 -9.61,1.8 -8.35,-3.67 -21.87,-8.71 -25.5,-9.57 -3.56,-0.86 -5.08,-1.29 -6.45,-2.5 -1.72,-1.45 -1.44,-4.92 -1.48,-10.04 0,-3.59 -1.02,-6.91 1.21,-8.01 5,-1.6 15.08,-1.09 25.31,2.5 4.38,1.92 13.67,6.99 13.67,6.99 l -2.89,-15.15 c -3.9,4.41 -15.08,1.17 -22.54,-1.8 -3.79,-1.21 -4.92,-3.59 -5.86,-6.91 -1.68,-5.67 1.88,-9.53 6.02,-11.41 2.73,-1.25 6.95,-0.74 6.95,-0.74 -19.37,-7.42 -15.51,-10.16 -26.79,-4.53 -4.93,5.35 -9.69,10.97 -11.57,17.85 z m 20.28,0 c -3.21,3.75 -8.79,5.9 -12.07,4.41 -2.89,-1.56 -1.84,-4.8 -0.94,-7.26 2.46,-6.88 19.49,-4.65 13.01,2.85 z m -11.29,18.9 c 4.53,6.02 -0.47,14.07 -8.87,14.11 -5.82,0.04 -8.95,-3.6 -8.87,-8.21 0.12,-8.71 13.95,-10.9 17.74,-5.9 z m -9.34,22.86 c 8.4,2.3 11.02,10.5 5.2,16.44 -4.14,4.22 -17.11,4.77 -20.59,0.94 -8.87,-9.77 1.06,-21.33 15.39,-17.38 z m 6.99,30 c 4.96,2.54 5.9,6.79 1.53,11.6 -7.89,6.79 -21.72,1.48 -17.27,-8.4 2.19,-4.84 9.73,-6.29 15.74,-3.2 z M 443.98,1535.68 c 7.43,2.73 12.821,8.55 20.629,13 5.27,2.9 3.672,2.43 -3.089,6.41 -5.27,2.46 -15.93,13.28 -16.911,10.7 -2.418,-4.61 -2.07,-29.88 -0.629,-30.11 z m 187.86,-264.57 c 0.308,5.15 0.93,12.93 0.781,18.59 1.008,10.86 -0.941,7.7 -6.762,4.14 -4.339,-2.77 -11.25,-7.03 -13.98,-8.4 -10.707,-5.39 -9.418,-5.66 5.66,-12.97 12.66,-5.7 14.063,-5.15 14.301,-1.36 z m -14.692,25.39 c 10.231,6.48 13.633,9.84 14.102,17.15 0.078,8.36 -0.898,11.4 -8.199,5.62 -24.93,-19.8 -50.551,19.02 -27.742,40.63 4.652,4.37 10.55,11.28 10.589,13 0.391,12.54 -13.628,0.39 -25.078,-16.79 -12.66,-15.63 -20.55,-35.2 -9.41,-53.99 8.86,-13.71 28.668,-16.44 45.738,-5.62 z m -56.597,25.27 c -0.473,6.13 1.25,12.97 2.027,15.04 2.813,7.15 2.692,8.05 -10,2.07 -5.078,-1.68 -11.098,-3.05 -13.437,-3.01 -10.352,0.04 -7.77,-3.24 7.07,-15.7 14.961,-12.54 15.43,-13.67 14.34,1.6 z m 35.308,60 c 1.563,3.79 -1.718,5.24 -4.879,4.53 -0.242,-0.08 -5.671,-4.14 -12.07,-9.22 -19.379,-15.31 -33.558,-17.11 -43.172,-5.43 -9.718,11.84 -5.66,25.9 16.102,42 9.609,7.11 11.91,7.57 7.301,10.66 -3.52,2.38 -3.75,2.03 -17.539,-7.38 -27.813,-18.95 -36.133,-31.92 -33.364,-50.75 0.551,-7.77 4.614,-11.83 8.524,-14.84 26.519,-23.63 63.316,8.99 79.097,30.43 z m 28.051,-11.17 -1.64,26.09 c -28.321,24.53 -55.122,66.45 -64.418,101.14 -9.454,30.89 -1.911,95.27 -0.473,90.5 l -15.309,29.1 c -13.281,-30.89 -19.101,-78.04 -4.648,-126.05 12.308,-40.78 36.918,-90.16 86.488,-120.78 z m -119.14,15.19 c 9.019,17.39 9.289,15.51 -8.09,15.63 -19.801,0.19 -17.578,2.62 -6.45,-14.41 8.989,-13.68 7.469,-14.89 14.54,-1.22 z m 11.91,23.79 c 11.41,3.71 8.832,2.85 23.941,12.78 17.43,11.36 18.129,17.57 0.668,8.82 -22.379,-11.25 -42.07,-8.39 -49.379,6.29 -6.519,13.13 7.07,29.42 29.461,35.82 7.609,2.19 11.68,4.03 11.68,7.39 0.07,10.27 -38.012,-3.44 -53.711,-18.91 -30.32,-29.96 -3.789,-65.47 37.34,-52.19 z m -48.981,46.6 c 1.012,1.57 3.75,5.32 6.25,9.18 10.742,12.54 1.711,8.79 -7.82,12.23 -5.039,1.88 -10.188,3.75 -13.117,3.28 -5.711,-0.86 1.91,-11.95 3.75,-19.1 5.117,-15.9 4.527,-15.43 10.937,-5.59 z m 40.539,28.72 c 19.223,1.87 21.172,3.75 21.211,7.73 0,3.98 -2.34,3.2 -11.988,1.88 -25.551,-3.56 -42.422,2.96 -46.09,16.64 -3.75,14.14 13.508,27.53 36.559,26.75 12.5,-0.43 20.82,3.91 13.199,8.09 -3.938,2.15 -38.32,1.68 -46.09,-0.59 -22.848,-6.68 -32.148,-19.49 -30.078,-37.18 3.16,-21.84 15.039,-28.09 43.949,-26.57 5.5,0.32 12.57,2.54 19.328,3.25 z m 14.883,71.13 c 0,3.44 -5.461,3.9 -23.59,6.64 -24.14,3.59 -34.922,26.05 -20.351,39.57 5.511,5.16 18.629,7.34 25.98,6.02 15.891,-2.93 25.621,-6.22 25.781,-0.79 0,4.85 -4.57,5.2 -34.461,11.53 -45.152,9.61 -69.921,-34.96 -33.82,-56.76 13.711,-8.28 60.43,-13.01 60.461,-6.17 l 0,-0.04 z m 11.18,63.79 c 0,1.72 -1.449,3.01 -4.852,4.37 -5,1.96 -8.32,2.31 -19.527,9.89 -14.883,10.11 -19.41,29.8 -9.453,40.78 9.652,10.27 -7.739,22.34 -21.559,10.78 -14.379,-11.99 -13.172,-30.86 3.391,-45.78 15.238,-13.75 51.961,-28.05 52,-20.04 z m -73.129,2.65 c 15.707,7.43 26.949,3.17 14.957,13.36 -6.75,6.29 -12.5,24.14 -17.18,8.99 -3.558,-9.03 -6.219,-24.92 -6.289,-26.49 1.051,-1.09 0.781,0.75 8.512,4.14 z m 554.878,38.44 c -17.851,4.49 -30.07,25.35 -25.499,45.43 2.539,11.33 13.159,38.05 15.229,39.69 7.89,6.29 6.8,-2.07 -0.43,-16.6 -6.6,-14.85 -11.721,-26.8 -9.69,-35.63 2.891,-12.54 7.97,-22.15 20.94,-25.35 9.14,-2.23 17.74,1.6 23.6,5.74 7.69,5.47 15,19.53 23.71,38.99 2.77,5.47 6.52,22.26 11.13,12.03 2.26,-5.31 -16.33,-40.63 -23.28,-49.57 -8.75,-11.25 -23.52,-17.85 -35.71,-14.73 z m 107.74,11.8 c 8.67,-8.36 23.4,-12.58 33.01,-9.57 23.55,8.36 34.25,30.74 25.35,66.76 -4.53,20.15 -8.4,32.73 -12.31,35.23 -1.87,1.21 -3.94,-1.05 -5.82,-3.87 -1.64,-2.5 0.9,-6.05 3.56,-15.54 11.25,-40 8.32,-58.09 -5.43,-65.75 -19.92,-11.09 -37.03,1.68 -42.81,30.24 -0.94,4.41 -3.64,13.4 -3.64,13.4 -1.56,3.98 -13.9,3.08 -9.41,-10.2 1.37,-10.27 10.78,-34.8 17.5,-40.7 z m 101.09,104.8 c -0.31,14.1 -29.76,75.16 -31.76,68.67 0,0 -0.11,-14.25 1.02,-19.88 0.43,-2.11 1.95,-4.1 3.24,-6.33 25.55,-45.89 21.6,-78.24 -0.54,-85.31 -7.58,-3.44 -9.22,-6.83 -5.82,-10.39 6.83,-7.5 23.94,7.31 27.3,12.66 8.4,12.07 7.23,34.02 6.56,40.58 z m -428.321,10.39 c 9.613,10.82 30.781,48.21 37.269,67.82 20.082,58.36 41.133,125.46 46.953,187.5 0.668,7.85 1.059,19.76 1.449,20.78 -1.57,1.68 -11.531,0.78 -14.851,-0.9 -1.598,-2.11 -0.539,-6.76 -1.09,-12.81 -8.988,-69.77 -25.551,-133.28 -50.117,-197.97 -10.742,-28.09 -20.703,-46.6 -33.672,-66.14 -2.23,-3.43 -5.121,-6.91 -6.25,-8.9 -3.281,-4.77 -0.859,-7.85 2.93,-5.86 6.718,3.83 12.539,11.21 17.379,16.48 z m -32.887,-16.95 c 30.738,42.58 52.617,93.67 69.609,153.98 10.739,39.07 20.199,78.56 25.86,118.83 1.168,8.6 2.109,14.34 0.429,16.92 -4.14,1.13 -11.91,0.43 -14.609,-1.64 -1.641,-2.5 -0.551,-7.54 -2.07,-19.11 -3.911,-29.96 -9.801,-60.07 -19.77,-99.45 -26.211,-87.15 -50.351,-135.97 -82.031,-178.67 -2.57,-3.59 -4.84,-5.94 -4.61,-7.46 0.36,-2.23 3.399,-2.03 8.442,1.13 6.598,5.2 14.098,9.73 18.75,15.47 z m -46.832,-22.66 c 15.039,8.6 41.519,45.98 60.23,86.25 21.02,47.54 38.59,101.22 50.078,147.74 5,20.35 12.114,71.25 11.09,74.61 -1.207,3.98 -15.937,0.66 -13.859,-2.11 0,0 -14.609,-81.8 -30.359,-126.88 -29.18,-83.71 -54.372,-140.5 -81.559,-167.77 -3.551,-3.59 -10.551,-10.59 -10.551,-10.59 0,0 0.121,-3.12 2.391,-3.63 5.429,-0.98 9.058,0.59 12.539,2.38 z m -23.051,3.36 c 33.941,19.11 73.711,108.4 106.172,220.55 5.551,19.18 15.699,83.4 15.699,83.4 0,0 -13.512,-0.51 -16.129,-3.36 -2.621,-3.91 -2.23,-13.79 -5.98,-37.23 -14.602,-70.93 -36.641,-135.62 -69.723,-199.57 -14.297,-28.32 -38.09,-55 -53.09,-62.61 -8.398,-4.26 -10.816,-8.91 -4.687,-9.26 10.359,-0.39 11.25,-2.54 18.789,1.52 l 8.949,6.56 z M 1158.95,752.98 c -25.43,0.079 -47.07,-24.531 -66.33,-55.468 -40.98,-63.364 -68.52,-169.25 -75.24,-225.5 l 15.47,2.918 c -2.3,-1.09 28.91,149.808 76.45,214.379 25.74,40.781 24.65,41.41 39.06,45.121 18.28,4.718 32.89,-15.16 23.83,-27.149 -3.24,-4.062 -6.84,-1.101 -5.82,4.688 3.2,18.472 -23.48,22.031 -30.98,3.902 -8.55,-20.859 14.26,-39.449 36.56,-31.25 19.93,7.07 28.28,35.16 14.3,55.899 -7.19,6.992 -17.62,13.242 -27.3,12.46 z m -133.99,2.579 c -30.511,-38.547 -45.581,-78.2 -64.3,-132.34 -18.711,-54.071 -32.14,-106.957 -37.961,-167.66 l 16.442,2.152 c -0.59,39.019 41.839,224.801 101.449,294.367 3.32,4.422 6.01,8.094 5.74,9.102 -3.28,9.379 -17.42,-1.91 -21.37,-5.621 z m 67.34,14.41 C 1052.77,737.359 1021.21,666.07 1000.43,600.211 977.93,529 967.809,463.719 969.531,463.719 l 15.668,2.351 c -1.14,4.141 44.101,255.039 128.121,300.739 7.27,3.632 8.79,7.339 2.66,8.953 -9.46,1.316 -17.07,-1.801 -23.68,-5.793 z m 44.22,-0.188 C 1050.27,758.328 993.91,491.609 991.988,469.512 c 0,-0.364 -0.308,-2.082 -0.308,-2.082 l 17.19,3.558 c 0,0 0.15,0.864 0.23,1.293 11.84,68.117 23.36,115.899 50.24,177.5 20.93,45.66 49.84,104.02 93.04,109.688 3.52,0.461 6.84,-0.981 5.63,3.16 -2.62,6.519 -15.55,7.383 -21.49,7.152 z m -514.098,84.02 C 591.25,845.719 590.23,808.02 610.98,759.898 c 1.559,-3.636 1.29,-5.628 2.891,-7.039 3.551,-3.121 6.328,1.25 6.719,4.153 0.621,4.367 -1.25,10.226 -4.539,18.777 -12.852,33.32 -9.762,52.539 2.929,61.02 32.622,16.953 41.411,-17.848 46.329,-33.829 1.211,-3.902 1.64,-9.261 3.75,-9.57 6.531,-0.898 9.613,1.449 9.531,1.449 0,0 -8.668,29.961 -13.899,41.211 -8.562,18.2 -28.793,21.989 -42.269,17.731 z M 396.211,818.219 395.898,421.148 336.211,364.621 c -25.621,22.149 -59.262,56.84 -59.262,56.84 l 1.063,671.249 -19.184,1.52 C 254.102,805.828 258.711,511.609 258.52,222.672 l 175.191,0 146.059,230.269 c 0,0 1.832,2.739 2.421,4.18 1.789,4.457 1.598,11.098 0.7,35.551 -0.352,9.957 0.781,17.578 -0.7,19.918 -1.453,2.34 -4.57,0.672 -7.5,-0.66 -2.929,-1.328 -4.73,-0.86 -3.132,2.648 0.902,2 3.832,6.41 6.371,10.594 8.199,13.547 10.191,17.93 7.422,32.969 -0.661,3.711 -4.024,6.828 -6.954,11.211 -24.609,36.597 -34.609,90.859 -22.418,130.578 3.899,17.582 2.5,21.14 -5.902,34.808 l -153.867,83.481 z m 772.539,426.951 c -16.05,8.32 -15.74,8.12 -15.86,-7.62 0.12,-11.76 0.31,-14.61 4.69,-13.01 6.33,3.25 14.06,6.22 19.92,8.72 11.13,3.86 -3.01,8.82 -8.75,11.91 z m 63.52,-40.9 c -12.47,10.04 -7.86,8.87 -11.41,-13.75 -2.11,-13.63 -4.84,-13.98 9.14,-9.49 7.97,2.77 24.3,1.05 16.95,10.47 0.08,-0.2 -12.26,10.66 -14.68,12.77 z M 731.91,857.121 c -19.101,-11.68 -38.59,-68.199 -38.59,-68.199 -66.761,-8.012 -94.73,-74.262 -97.699,-129.531 -2.34,-43.602 -5.269,-94.532 -0.93,-98.993 43.789,19.852 60.618,-3.078 64.758,3.133 1.922,2.688 -9.679,11.641 -24.25,19.649 -3.398,1.871 -8.64,5.23 -10.629,6.871 -5.308,4.461 10.629,0.629 20.66,-6.289 12.86,-8.832 15,-6.953 9.461,18.789 -6.062,28.008 -7.07,31.449 14.258,42.578 8.551,4.41 13.391,8.199 19.531,15.121 4.879,5.539 6.129,6.871 4.329,-1.25 -3.118,-14.102 -15.539,-20.238 -26.719,-25.941 -5.539,-2.887 -7.852,-8.668 -7.891,-13.629 0,-5.078 5.75,-32.461 8.403,-41.211 2.5,-8.321 3.398,-16.641 5.308,-25.117 5,-21.993 5.32,-26.293 2.82,-42.274 -1.492,-9.328 -2.269,-14.68 -1.761,-20.348 0.511,-5.121 1.211,-12.109 1.211,-12.109 0,0.238 -11.95,12.348 -38.09,1.957 -18.82,-7.469 -33.711,0.313 -44.289,5.852 -2.422,-8.629 -1.879,-18.039 -1.571,-28 108.68,-20.039 201.489,-17.352 279.61,-9.102 2.039,23.32 11.879,97.5 32.582,164.371 8.629,27.852 18.359,57.192 29.34,76.762 7.5,13.359 15.117,22.34 17.808,23.898 0.86,0.512 0.942,0.789 0.899,1.141 l 0,2.07 c -0.27,4.328 -1.289,11.051 -5,14.059 -9.02,7.23 -23.399,-2.109 -28.129,-18.32 -4.141,-9.688 -23.039,-51.68 -24.41,-50.938 -1.129,0.707 -3.75,0.738 -2.77,3.988 7.219,17.032 17.18,35 22.77,50.27 7.73,21.992 24.57,33.59 37.148,19.73 4.301,-4.769 6.051,-9.14 8.012,-10.629 1.48,-1.171 3.512,-0.39 4.719,1.489 4.769,7.222 -6.25,23.59 -18.039,26.91 -17,4.73 -29.692,-7.809 -48.989,-48.481 -11.172,-23.429 -13.16,-29.328 -14.922,-27.539 -0.39,-0.148 -3.359,-0.148 -2.269,4.379 2.308,9.801 17.07,38.203 27.82,56.211 15.86,26.641 45.27,28.832 57.649,5.66 1.921,-3.16 1.992,-7.257 4.101,-10.07 3.789,-4.961 10.039,-3.988 11.61,4.18 -1.68,5.39 -12.04,24.84 -19.219,28.242 -16.571,11.48 -36.68,9.258 -53.602,-6.02 -3.828,-3.429 -7.808,-10.472 -19.019,-33.472 -16.52,-36.879 -16.989,-37 -21.481,-31.059 6.641,17.93 24.102,47.07 31.172,64.961 1.328,2.66 1.598,5.508 1.52,8.277 -0.43,13.012 1.679,35.981 -25.551,52.313 -23.199,12.617 -53.86,-0.672 -64.328,-25.551 -7.973,-19.019 -13.832,-32.109 -17.852,-34.801 -5.672,-3.789 -4.609,1.481 -4.031,3.403 8.051,17.218 19.34,34.636 21.141,51.988 1.171,46.949 -45.942,64.289 -76.571,40.621 l -0.039,0 z M 488.672,1736.77 c 36.758,17.27 61.918,25.98 99.418,37.11 5.031,2.27 5.859,2.77 0.461,13.52 -23.711,47.46 41.41,85.31 63.558,38.71 2.93,-6.21 3.629,-9.65 6.52,-6.68 5.473,7.22 11.922,17.46 18.641,29.14 24.921,38.98 36.21,83.47 49.492,122.73 5.508,23.09 13.199,47.19 15.386,71.92 -49.449,86.95 -136.367,246.25 -136.367,246.25 l -347.261,0 0,-696.8 c 96.71,81.56 162.57,111.05 230.152,144.1 z m 389.488,25.66 c 4.219,4.5 7.86,11.92 22.891,43.13 2.699,5.55 6.961,14.18 8.719,18.2 2.261,7.35 10.699,11.92 6.601,-1.21 -0.941,-2.85 -2.543,-6.68 -5.121,-11.76 -5,-9.1 -9.77,-20.23 -13.32,-27.5 -19.219,-38.94 -18.321,-61.64 3.16,-78.55 16.101,-15.51 49.808,-17.27 67.781,7.77 2.649,4.07 5.078,9.22 5.859,11.14 7.77,19.14 13.551,28.71 15,30.58 8,10.24 9.29,-2.46 -2.66,-21.99 -13.672,-22.34 -13.91,-46.6 -2.07,-63.67 17.5,-25.28 50.78,-26.02 71.64,-5.71 10.86,12.86 19.49,29.18 26.45,50.08 1.52,4.65 3.12,8.09 4.25,10.78 1.72,4.18 4.22,5.75 10.71,7 44.45,8.59 81.75,54.68 87.03,105 0.7,6.79 2.62,18.86 3.32,26.01 1.4,14.26 1.44,88.09 0,92.5 -0.74,2.38 -2.07,3.63 -4.96,3.6 -2.23,0 -5.35,-0.79 -9.89,-2.43 -14.64,-5.27 -21.48,-6.64 -35.54,-1.52 -4.65,1.68 -7.85,2.23 -9.77,2.07 -6.21,-0.55 2.03,-9.53 20.12,-19.49 7.77,-4.26 13.91,-10 7.62,-9.57 -1.84,0.12 -23.68,11.52 -26.68,13.4 -9.96,6.17 -7.39,-1.61 -2.23,-22.03 6.88,-27.43 2.89,-35.12 -18.55,-45.86 -3.99,-2 -9.3,-6.18 -12,-8.87 -11.36,-16.99 -8.43,-4.49 -2.69,4.57 9.76,10.31 3.79,13.87 -16.25,6.68 -22.89,-8.17 -33.2,-2.19 -39.61,10.62 -7.23,14.53 6.37,33.21 17.73,32.86 3.68,-0.12 3.01,-1.45 -2.42,-5.2 -6.52,-4.49 -9.65,-8.87 -10.31,-16.56 -1.41,-15.71 9.73,-22.39 25.27,-11.84 7.35,4.96 13.13,8.4 18.67,9.69 5.51,1.25 13.79,-0.82 13.75,-5.27 0,-1.84 -0.27,-6.33 0.12,-7.31 1.49,-5 9.34,2.07 12.77,4.57 11.72,8.83 11.33,10.55 8.13,24.88 -5.23,20.08 -7.85,38.44 -12.85,58.75 -2.66,10.67 -3.13,22.7 -1.49,33.56 0.82,5.47 2.89,16.64 3.32,24.3 0.43,7.65 -0.07,18.59 0.24,18.59 11.64,-8.99 16.37,-10.55 27.69,-6.17 17.54,7.26 28.64,6.48 43.44,-0.67 5.47,-2.61 10.43,-4.49 10.43,-4.49 l 0.7,23.05 c 0,0 -13.71,2.81 -38.98,6.17 -76.17,10.12 -232.418,12.27 -238.239,2.97 -1.492,-2.38 -2.972,-18.83 -7.113,-41.68 -9.219,-47.54 -19.527,-94.92 -33.359,-141.29 -2.848,-9.45 -5.547,-13.28 -4.098,-13.55 0.578,-0.12 3.399,3.55 4.719,5.07 7.43,8.64 1.762,-11.87 -9.449,-36.56 -1.02,-2.23 -1.84,-4.69 -1.84,-5.43 0,-1.48 -7.031,-18.71 -11.871,-29.14 -3.008,-6.44 -5.508,-8.4 -5.469,-4.26 3.398,14.22 12.379,32.62 13.668,45.32 -7.891,-11.49 -19.328,-30.43 -28.008,-41.76 -1.601,-3.05 0.078,-3.99 1.488,-7.74 5.192,-14.06 17.852,-15.31 25.121,-2.61 4.098,7.11 16.719,33.86 21.129,45.58 4.493,12.03 7.692,18.36 9.18,19.18 3.051,1.56 3.633,-5.27 -1.758,-16.68 -16.25,-34.57 -23.242,-53.94 -31.211,-61.09 -6.172,-5.51 -16.871,-5.16 -22.808,4.69 -10.082,16.75 -18.672,11.21 -9.461,-5.94 9.578,-17.74 31.41,-19.42 42.82,-3.44 3.75,5.27 21.438,39.41 27.027,53.28 3.082,7.78 6.403,13.79 7.543,14.22 5.93,2.31 -0.863,-15.39 -17.929,-50.82 -5.551,-13.67 -14.422,-28.01 -26.453,-32.46 -29.219,-6.49 -33.161,9.14 -43.36,26.95 -4.918,4.42 -9.41,-2.65 -7.5,-10.51 3.051,-12.69 8.789,-17.65 17.66,-24.02 18.481,-11.87 44.219,-3.71 53.512,9.84 l 0.039,0 z m 130.39,-74.1 c -2.65,5.9 -2.26,11.92 -0.89,17.54 3.04,12.66 8.12,24.92 14.06,35.59 9.57,4.61 2.26,-13.63 1.05,-16.37 -11.56,-24.37 -12.65,-33.79 -1.87,-36.6 9.26,-2.42 14.26,3.32 23.01,25.16 4.49,11.21 6.25,16.17 7.85,16.83 3.36,1.37 5,0 4.8,-3.44 -5.78,-14.33 -10.31,-29.41 -19.8,-41.32 -9.34,-7.89 -23.32,-7.93 -28.21,2.61 z m -86.788,18.71 c -4.063,0.79 -10.942,6.06 -15.742,10.51 -16.372,15.12 -13.68,36.02 6.601,75.31 1.598,3.05 7.5,14.97 9.367,18.87 3.403,6.99 6.762,4.26 6.723,-0.39 0,-1.29 -5.082,-12.15 -10.191,-22.23 -22.391,-44.21 -21.641,-62.22 0.152,-72.77 21.207,-10.27 30.738,-4.33 47.656,29.42 9.801,25.31 14.652,25.74 14.102,16.13 0,-3.6 -11.879,-27.89 -19.532,-39.18 -11.097,-16.41 -20.699,-19.3 -39.136,-15.67 z m 1.597,21.33 c -8.359,5.24 -11.757,18.21 -6.839,28.79 4.5,8.75 15.98,42.31 21.371,44.18 8.668,0.31 4.058,-7.03 -6.68,-27.66 -12.731,-27.34 -12.262,-34.64 -2.461,-38.82 9.102,-3.87 13.398,4.06 26.801,36.05 2.109,5 5.039,10.2 6.75,9.1 2.148,0.2 5.82,-1.44 -1.211,-15.93 -1.68,-3.44 -4.488,-10.71 -7.649,-17.47 -9.14,-19.76 -19.531,-24.84 -30.082,-18.24 z m 150.511,58.01 c -3.67,1.91 -20.86,8.71 -18.32,14.38 0.31,0.54 1.33,0.11 1.83,-0.24 15.74,-10.62 35.32,-13.36 55.74,1.45 3.44,3.04 6.02,0.97 4.11,-2.86 -6.21,-12.38 -33.71,-17.69 -43.36,-12.73 z m -50.59,17.97 c 0.47,1.17 1.92,4.73 3.17,9.49 1.87,7.15 1.44,12.42 3.12,11.49 7.11,-3.87 19.88,-3.99 26.13,-0.12 6.84,4.22 20.75,5.51 25.78,2.19 7.23,-4.77 10.94,-2.54 15.98,1.44 5.74,4.49 5.82,2.58 16.17,-1.05 7.62,-2.66 10.63,-4.5 13.87,-3.91 1.25,0.23 3.75,3.09 4.57,2.93 2.5,-0.43 2.77,-7.54 5.04,-15.66 2.03,-7.19 0.86,-8.91 -5.51,-4.61 -4.72,3.2 -18.36,4.72 -32.54,0.31 -10.47,-3.24 -12.89,-1.92 -20.58,-0.63 -19.22,3.29 -33.05,5.82 -47.39,-2.54 -7.61,-4.45 -10.39,-6.79 -7.81,0.67 z m -47.729,35.47 c -9.301,18.83 12.07,43.75 30.899,34.96 6.21,-2.93 11.75,-13.99 2.53,-8.91 -42.769,8.71 -32.07,-54.53 13.87,-21.13 30.51,20.47 52.11,23.63 53.91,3.83 -0.86,-7.27 -7.27,-6.1 -12.11,-6.76 -12.66,-1.8 -17.31,-3.87 -31.99,-10.2 -22.31,-7.1 -44.109,-12.89 -57.109,8.21 z m 167.339,-8.71 c -10.43,2.69 -19.49,6.87 -30.35,8.86 -10.78,1.88 -15.66,7.54 -13.71,15.2 2.03,7.93 12.81,8.79 29.02,-1.21 18.01,-11.1 31.02,-13.75 37.62,-9.57 13.32,8.44 6.13,22.19 -6.56,25.7 -9.53,2.7 -2.54,6.41 7.73,3.32 16.52,-6.33 16.88,-36.48 -0.16,-42.73 -5.66,-2.07 -15.7,-1.53 -23.59,0.43 z m -145.66,99.8 c 12.15,7.58 23.86,14.38 28.04,18.87 2.19,2.38 8.28,10.35 3.56,7.93 -24.77,-15.04 -53.521,-2.54 -74.342,7.73 -10.039,4.73 -7.578,2.62 -15.226,2.11 -5.242,-0.35 -9.422,-1.44 -10.352,2.31 -0.39,1.64 -3.32,0.97 -5.16,1.13 -7.73,0.78 -2.852,11.05 13.32,22.38 19.059,13.4 35.7,22.11 52.231,25.71 17.149,3.75 34.649,1.64 47.459,-10.82 4.92,-4.81 4.49,-8.01 8.98,-5.08 10.31,6.72 10.39,-2.19 1.72,-10.43 -5.98,-5.67 -3.79,-7.19 3.52,-12.58 3.47,-2.58 0.62,-5.04 -1.33,-8.75 -0.74,-2.31 -0.16,-4.81 -0.51,-6.56 -1.6,-8.05 -37.93,-36.49 -51.089,-41.33 -9.031,-1.72 -4.301,5.15 -0.821,7.38 z m 25.19,52.31 -6.01,-0.12 c -6.88,-21.13 -19.531,-28.32 -30.082,-2.97 l -4.808,-0.51 c -0.192,-21.48 36.41,-34.96 40.9,3.6 z m -39.65,-19.85 c -2.461,4.22 -5.27,13.87 -7.891,14.03 -7.07,0.27 -16.828,-1.02 -14.527,-5.43 3.668,-7 25.308,-13.48 22.418,-8.6 z m 48.52,3.75 c 6.52,3.99 7.93,6.72 3.67,11.06 -5.51,5.66 -8.36,2.77 -10.08,-6.21 -1.48,-7.74 -0.43,-8.99 6.41,-4.85 z m -88.481,14.89 c 43.711,19.96 60.311,22.53 78.051,17.61 4.14,-1.17 7.77,-3.47 10.08,-3.36 8.51,0.55 3.08,10.16 -12.19,15.67 -17.42,6.29 -28.48,3.4 -61.988,-14.22 -19.653,-10.31 -35.59,-25.59 -13.953,-15.7 z m 126.721,24.21 c -0.62,1.21 -3.28,9.14 -4.02,12.04 -0.78,2.92 -1.45,5.89 -2.27,5.89 -20.27,-3.24 -38.12,0.59 -42.89,1.72 -30.702,7.39 -60.311,5.9 -82.459,-2.85 -5.391,-2.15 -12.11,-5.59 -12.731,-6.21 -1.762,-1.64 -4.34,0.23 -4.34,2.3 0,2.43 13.59,13.25 22.192,17.54 26.008,13.01 53.468,15.24 83.668,7.03 19.65,-7.57 32.3,-6.36 44.88,-0.82 6.17,2.74 1.8,-3.98 -0.15,-12.93 -1.37,-6.21 0.11,-11.52 0.35,-15 0.78,-8.47 -0.16,-12.69 -2.23,-8.71 z m 456.8,-1783.548 0,698.59 C 1352.07,800.129 1275.86,776.07 1193.95,746.379 c 27.38,-56.328 -32.93,-104.527 -67.54,-47.34 -35.63,-40.359 -84.69,-181.68 -86.45,-228.598 0,0 94.77,-165.39 140.98,-247.769 l 345.39,0 z M 893.012,451.648 c 3.16,35.161 10.617,94.774 33.828,164.114 9.719,29.097 21.48,62.5 38.039,92.379 6.641,10.429 7.07,14.449 0,10.699 C 960.43,716.5 940.16,693.41 937.422,687.59 906.328,621.379 891.91,541.852 880.551,481.148 877.969,467.469 877.23,450.52 877.23,450.52 l 15.782,1.128 z m 22.769,2.891 c 7.379,85.391 38.52,200.711 85.309,275.82 4.42,7.192 9.81,13.403 9.61,15.86 -0.58,7.312 -18.63,-5.309 -32.579,-26.867 C 962.5,688.141 946.879,654.859 934.922,617.98 918.051,565.91 905.699,517.828 900.898,452.59 l 14.883,1.949 z m 44.957,7.152 c 4.692,49.18 19.813,94.34 32.5,139.571 15.512,55.316 36.252,96.019 60.392,132.66 7.74,11.758 16.88,22.726 25.55,33.937 1.09,1.371 2.23,3.789 1.99,4.813 -5.58,0.976 -10.04,-0.781 -14.33,-3.203 -6.02,-3.399 -14.5,-12 -19.46,-18.36 -34.37,-44.218 -52.892,-95.898 -70.04,-148.089 -16.481,-50.122 -28.36,-98.282 -30.699,-143.668 l 14.097,2.339 z m -308.828,37.7 c 6.918,0.539 11.41,-0.743 13.399,1.089 1.992,1.84 1.332,6.801 1.961,13.129 1.359,13.551 -0.079,12.813 -8.442,4.063 -13.867,-14.492 -39.219,-20.082 -54.297,-11.332 -7.582,4.422 -12.89,7.5 -13.59,3.832 -0.82,-4.301 0.309,-7.582 3.59,-9.883 18.239,-8.398 35.59,-2.617 57.379,-0.898 z m -16.289,10.39 c 9.609,3.199 19.379,8.399 24.891,16.289 5.226,7.578 5.148,8.629 1.168,7.192 -19.532,-9.692 -32.379,-14.614 -49.84,-11.922 -23.68,3.59 -24.649,0.59 -8.988,-9.301 10.199,-6.48 18.707,-6.68 32.769,-2.258 z m -34.723,30.231 c 3.672,2.738 4.571,13.828 1.641,14.5 -3.008,0.617 -7.34,-4.891 -8.398,-9.383 -1.211,-5.938 3.16,-7.457 6.757,-5.117 z m 36.602,0.508 6.289,0.55 c -3.199,27.852 -33.168,29.059 -38.711,-2.781 l 4.762,-0.699 c 6.18,25.351 24.301,24.691 27.66,2.93 z m 19.77,4.492 c 9.14,5.117 5.968,11.527 -6.372,13.988 -8.128,1.91 -7.66,-4.809 -3.476,-13.871 2.109,-4.488 3.558,-3.668 9.848,-0.117 z m -70.551,34.097 c -0.078,3.09 -1.367,8.09 -2.809,11.141 -10.551,21.789 -16.41,47.578 -15.199,79.648 0.859,22.961 1.129,30.071 -3.59,30.071 -6.601,-3.199 -10.512,-45.93 -2.109,-81.52 5.937,-25.121 24.136,-56.25 23.707,-39.34 z m -0.27,34.77 c -0.668,12.031 1.992,38.91 0.66,44.769 -1.718,7.731 -6.25,14.68 -8.789,16.563 -3.98,2.848 -4.961,-2.66 -3.59,-17.07 3.239,-33.832 8.629,-59.461 11.719,-44.262 z m 3.352,61.601 c 2.578,4.731 1.57,9.77 -4.18,21.098 -22.652,44.531 -25.582,75 -1.91,86.051 2.66,1.25 4.301,1.48 6.059,2.461 7.46,4.18 4.64,11.762 -6.532,8.629 -30.816,-8.629 -36.867,-37.731 -10.898,-91.559 13.211,-26.871 15.281,-30.621 17.461,-26.68 z m 5.59,25.282 c 0.429,1.828 1.211,9.136 1.519,10.617 0.32,1.48 -2.808,5.781 -6.129,14.383 -8.711,22.418 -8.902,31.75 0.59,38.238 3.039,1.828 6.25,1.91 6.719,3.98 0.738,3.282 0.66,8.629 -1.25,10.2 -13.602,-0.121 -19.891,-8.129 -22.27,-15.711 -3.59,-12.028 0.16,-29.641 10.821,-51.481 5.199,-6.797 7.89,-19.258 10,-10.226 z m 10.39,29.019 c 7.27,14.797 0.391,33.938 -9.609,27.418 -6.481,-4.258 -6.832,-8.711 -2.852,-21.051 4.84,-15 7.731,-16.058 12.461,-6.367 z m 25.508,39.571 c 2.891,2.886 0.313,7.07 -5.039,23.437 -4.609,13.981 -2.5,23.551 6.25,26.32 12.578,3.129 17.031,-17.609 19.691,-26.359 1.36,-6.762 5.778,-8.641 9.688,-3.949 1.09,1.328 1.402,2.418 -0.469,9.808 -8.129,32.153 -18.75,42.379 -35.859,34.371 -15.86,-7.421 -13.75,-24.019 -2.27,-58.98 1.52,-4.691 2.578,-8.172 3.668,-8.641 0.903,-0.39 2.699,2.391 4.34,3.993 z m 14.02,10.937 c 3.793,3.75 3.562,2.07 -0.739,15.473 -4.922,15.308 -7.5,18.508 -12.769,13.238 -3.25,-3.238 -1.602,-6.801 2.109,-19.301 4.289,-14.57 5.43,-15.39 11.399,-9.41 z m 657.421,52.383 c 25.04,17.418 14.69,48.629 -18.24,60.226 -3.87,1.372 -8.16,3.012 -9.49,3.68 -15.16,7.344 -26.91,9.602 -26.95,3.863 0,-3.363 4.53,-5.082 19.02,-12.179 21.45,-10.551 26.33,-22.742 15.7,-38.09 -7.61,-11.063 6.68,-23.75 19.96,-17.5 z m 22.7,38.008 c 2.19,8.941 5.39,16.601 6.95,21.789 2.11,8.172 -0.62,6.25 -5.97,5 -13.79,-7.219 -23.64,-3.321 -16.96,-13.199 7.46,-13.2 13.6,-23.399 15.98,-13.59 z m -1.72,31.211 c 17.19,10.39 21.02,37.418 5,50.308 -3.83,3.09 -10.43,7.153 -18.44,9.61 -16.29,5 -39.76,7.269 -48.39,4.652 -1.84,-2.191 -1.92,-5.672 -0.08,-6.68 2.38,-0.902 6.72,-1.492 13,-2.109 23.91,-2.461 35.71,-9.652 34.58,-26.762 -1.18,-17.621 -15.2,-24.41 -40.43,-18.832 -13.6,3.012 -19.93,1.57 -14.46,-1.637 6.49,-3.832 20.39,-8.832 34.14,-11.519 11.72,-2.07 25.12,-2.891 35.08,2.969 z m -82.5,4.449 c 19.34,43.789 29.53,158.59 -81.01,241.56 l 3.63,-22.97 c 65.15,-57.5 80.82,-130.782 67.3,-197.961 l 10.08,-20.629 z m 98.71,78.48 c -6.91,-4.531 -12.69,-9.218 -21.6,-13.211 -5.31,-2.418 -5.43,-3 1.8,-6.949 3.47,-1.949 9.26,-5.469 11.44,-7.851 3.83,-4.18 8.32,-5.778 10.04,-4.258 -0.19,6.527 2.03,28.051 -1.68,32.269 z m -32.73,-8.281 c 22.42,7.109 34.41,17.973 31.83,36.131 -3.75,26.64 -25.86,32.3 -67.26,21.87 -19.96,-5 -21.72,-14.45 -2.81,-9.57 23.9,6.14 42.61,-3.16 40.11,-20.74 -1.48,-15.23 -13.63,-24.058 -34.92,-24.058 -11.25,0 -14.73,-1.024 -13.2,-5.121 1.05,-2.77 37.03,-1.481 46.25,1.488 z m -36.96,63.281 c 36.61,12.65 53.64,32.3 45.28,54.33 -9.85,25.9 -41.8,26.18 -73.91,2.03 -15,-11.05 -12.69,-15.15 1.84,-9.53 18.83,8.75 30.94,10.08 38.67,3.17 13.91,-12.54 4.53,-34.38 -16.6,-42.19 -10.24,-4.3 -13.52,-6.68 -13.56,-9.77 0,-4.88 1.84,-3.71 18.28,1.96 z m 61.76,0.43 c 0.94,7.65 -7.65,34.26 -11.37,28.12 -1.01,-1.6 -4.41,-9.1 -8.74,-13.01 -12.58,-11.36 -10.2,-7.07 2.3,-10.54 6.95,-1.96 16.76,-6.88 17.81,-4.57 z m -96.83,56.83 c 37.03,21.64 51.13,52.46 31.95,72.97 -17.23,18.44 -45.82,7.7 -72.38,-25.82 -12.15,-15.35 -3.01,-13.4 13.39,1.21 19.11,16.99 43.44,8.79 43.29,-12.46 -0.08,-9.06 -12.78,-24.33 -24.85,-31.44 -3.75,-2.19 -4.29,-5.55 -2.97,-7.78 1.45,-2.34 4.46,-0.82 11.57,3.32 z m 64.88,22.58 c -1.95,5.78 -15.86,30.7 -18.87,29.88 -3.12,-6.4 -3.36,-14.8 -7.15,-21.6 -5.15,-10.19 -4.53,-8.59 11.92,-8.55 12.22,0.04 13.71,-1.68 14.1,0.27 z m -108.79,28.17 c 31.09,32.5 33.83,70.58 4.73,79.33 -16.18,4.85 -41.96,-6.91 -42.03,-19.02 -0.08,-7.58 1.36,-8.95 7.89,-6.21 27.5,10.27 49.25,-16.33 24.02,-46.92 -6.13,-8.86 -6.95,-11.09 -5.2,-12.93 2.11,-2.15 3.83,-1.32 10.59,5.75 z m 335.08,278 0,863.64 -182.11,0 -144.57,-229.46 -0.2,-56.29 c 0,-1.95 3.28,-3.16 5.39,-0.7 8.21,6.37 5.04,-0.35 -4.37,-14.84 -9.57,-14.65 -6.64,-26.72 3.79,-42.35 22.15,-33.12 33.67,-93.98 24.26,-126.17 -3.56,-12.15 -4.34,-17.03 -2.04,-23.83 2.66,-7.77 4.3,-11.91 12,-16.91 6.68,-4.73 61.64,-26.29 150.19,-83.67 l -0.43,404.8 55.78,53.91 58.95,-56.84 2.07,-668.32 c 0,-7.07 21.29,-13.44 21.29,-2.97 z m -32.07,669.38 -49.38,46.33 -48.79,-45.63 c -0.23,-217.69 1.25,-664.49 1.25,-664.49 l 48.48,-3.52 c 0,0 3.59,10.2 -0.98,36.53 -6.79,39.57 -6.36,87.85 4.57,161.29 6.84,45.07 0.08,84.14 -10.31,125.27 -8.94,27.42 -9.3,52.77 -7.65,77.3 3.43,39.11 14.14,68.64 15.43,124.93 0.74,32.07 -0.79,63.47 0.39,103 0.5,5.32 2.73,4.65 3.12,-0.82 1.49,-35.78 2.85,-69.8 3.16,-104.76 -1.05,-45.47 -12.1,-92.27 -13.32,-133.91 -0.89,-28.83 -1.36,-38.79 10.75,-73.9 18.98,-55.16 6.48,-139.93 6.25,-141.45 -8.05,-54.3 -13.91,-123.75 13.28,-175.7 l 26.33,-2.39 -2.58,671.92 z m -339.53,-410.67 c 14.53,6.76 17.42,18.64 9.57,47.31 -1.37,5.12 -2.97,11.21 -3.52,13.51 -1.68,7.07 -4.84,7.86 -9.06,2.23 -2.5,-3.36 -0.2,-4.14 3.67,-19.92 5.86,-23.79 2.46,-31.68 -6.33,-31.64 -7.81,0.04 -13.86,6.52 -16.09,21.99 -0.78,5.27 -1.88,8.87 -3.13,10.98 -2.14,3.55 -4.68,2.93 -6.75,-1.02 -2.66,-5.04 2.34,-25.9 8.98,-36.01 7.23,-10.16 12.19,-12.27 22.66,-7.43 z m -3.99,21.41 c 3.09,5.86 -0.74,20.27 -2.73,29.77 -1.88,5.27 -3.95,6.56 -7.42,5.7 -5.16,-1.29 -4.93,-6.99 -3.05,-16.33 3.79,-19.1 5.86,-21.48 13.2,-19.14 z m 44.26,34.38 c 16.68,9.57 18.24,26.09 7.07,56.09 -4.57,12.34 -10.31,20.98 -13.44,21.09 -1.25,-7.85 -2.38,-12.03 -1.01,-15.08 1.29,-2.85 3.47,-7.22 5.04,-10.85 9.49,-22.15 6.95,-34.93 -2.23,-41.84 -8.55,-6.48 -3.13,-11.91 4.57,-9.41 z m -545.23,11.56 c 39.058,8.44 74.289,71.68 96.48,128.12 20.23,56.84 41.719,119.3 45.121,171.37 0,0 -14.769,-0.66 -16.57,-3.75 -1.68,-3.05 -2.422,-9.57 -3.981,-18.87 -10.199,-47.93 -18.281,-84.29 -36.05,-129.33 -12.348,-31.29 -25.821,-66.68 -59.219,-114.18 -10.981,-13.32 -23.563,-21.53 -39.34,-23.75 -3.981,-0.55 -10.742,0.19 -12.461,-1.02 -3.012,-2.15 -0.309,-6.95 7.422,-8.9 6.918,-1.76 13.949,-0.63 18.598,0.31 z m 538.39,7.38 c 5.94,6.41 6.53,13.99 -0.15,30.04 -1.88,4.49 -2.74,7.03 -4.96,6.41 -4.69,-1.33 -10.2,-13.79 -6.96,-24.38 4.26,-13.75 6.72,-17.77 12.07,-12.07 z m -552.07,10.08 c 11.488,1.52 25.98,10.7 36.449,25.08 21.52,28.36 36.371,60.62 47.383,85.74 8.828,20.23 24.769,63.87 29.098,79.69 9.179,33.59 14.218,55.23 18.402,79.29 0.387,2.19 0.738,5.75 0.117,6.88 -4.527,1.25 -14.488,0.51 -17.539,-2.58 -5.469,-38.55 -18.238,-77.23 -27.539,-109.37 -15.742,-54.69 -60.551,-142.19 -85,-146.33 -13.121,-2.19 -28.199,9.29 -25.781,21.09 1.48,7.27 2.5,10.04 6.019,11.84 8.512,3 13.473,-2.82 4.141,-6.64 -10.82,-9.46 8.672,-23.95 20.621,-13.83 20.269,17.15 -9.531,50.04 -33.91,34.92 -27.031,-16.72 -20.071,-45.74 -3.082,-59.53 8.551,-6.92 18.48,-7.93 30.621,-6.25 z m 191.41,39.26 c 16.68,17.26 29.219,39.61 38.359,67.54 19.762,62.73 36.172,134.68 42.11,191.05 0,0 -14.258,1.45 -17.457,-1.56 -2.231,-2.15 -0.082,-4.18 -6.133,-45.39 -10.199,-60 -25.039,-119.65 -46.527,-171.25 -8.832,-20.86 -11.332,-23.44 -17.543,-34.26 -8.668,-15.31 -5.469,-19.22 7.191,-6.13 z m 370.47,130.82 c -1.56,0.78 -1.41,0.27 -2.07,-0.2 -2.31,-1.6 -0.82,-9.61 4.37,-21.99 13.6,-22.11 15.2,-65.08 14.3,-81.21 -0.27,-4.85 -0.74,-7.62 0.7,-11.95 1.45,-4.22 3.99,-9.15 8.05,-0.9 4.49,31.79 0.98,65.11 -11.13,92.07 -4.26,9.57 -8.44,18.94 -14.22,24.18 z m 10.47,-93.79 c 2.38,8.55 -2.03,42.46 -7.5,54.41 -2.19,4.81 -6.17,5.16 -5.71,-0.31 0.08,-11.76 -1.21,-34.1 0,-40.7 5.98,-13.83 10.59,-22.66 13.17,-13.4 l 0.04,0 z m -30.82,137.07 -6.41,0 c 0.2,-22.19 -19.33,-28.36 -26.52,-1.72 l -5.78,-1.33 c 7.65,-37.62 42.42,-20.39 38.71,3.05 z m -39.07,-16.72 c -3.32,9.84 -1.95,13.44 -10.43,9.02 -6.44,-3.4 -10.35,-6.99 -1.21,-11.4 8.09,-3.48 13.75,-3.87 11.64,2.38 z m 48.95,5.66 c 2.7,5.47 2.34,10.39 -1.68,10.43 -3.12,0 -3.98,-2.5 -4.88,-7.81 -1.56,-9.45 2.34,-11.21 6.56,-2.62 z m 3.4,36.88 c 2.46,0.78 1.76,4.3 1.09,8.79 -10.58,14.8 -36.76,10.27 -46.17,7.34 -10.86,-3.55 -13.59,-2.23 -20.98,1.17 -6.13,1.14 -6.99,-0.35 -8.47,-3.28 -1.29,-2.62 -1.53,-7.54 -1.96,-16.09 -0.35,-7.23 -0.11,-10.63 2.39,-8.36 9.72,8.79 20.93,19.73 37.3,20.43 19.85,0.82 36.8,-10.31 36.8,-10 z m -72.11,-20.08 c 0,-2.97 2.5,-1.13 8.98,2.97 23.48,14.06 37.11,12.07 57.23,5.35 4.49,-1.48 7.27,3.24 2.42,7.27 -23.9,19.8 -53.36,7.18 -68.63,-15.59 z m 85.19,91.13 127.5,212.5 -710.46,0.51 120.621,-225.58 c 98.398,22.96 260.309,52.22 462.339,12.57 z"
         inkscape:connector-curvature="0"
         id="path28"
         style="fill:#131f67;fill-opacity:1;fill-rule:nonzero;stroke:none" /><path
         d="m 573.871,417.43 c 15.039,22.621 89.57,-17.649 93.508,-33.629 44.101,34.961 97.66,37.539 140.742,-6.25 44.34,48.789 91.758,45.469 141.141,17.187 -5.551,11.024 63.078,59.731 104.798,28.793 l 112.78,-202.422 -722.5,-2.347 c 42.648,64.566 80.461,141.679 129.531,198.668 z M 258.281,1473.1 c -3.902,10.98 -19.761,123.4 20.43,126.21 65.039,-29.06 148.008,-132.93 186.449,-196.41 47.649,-78.67 95.82,-259.57 69.219,-251.68 -3.828,1.14 82.07,-85.5 87.961,-93.98 9.769,-13.91 -144.801,-273.279 -170.309,-263.978 -7.73,2.808 -59.179,33.777 -59.179,33.777 l 1.488,86.531 1.25,174.61 -141.641,12.46 4.961,38.01 c 47.5,-3.95 96.25,-12.89 140.231,-2.66 28.949,53.44 17.89,133.09 -16.911,165.19 -18.402,11.29 -35.781,7.7 -54.5,5.32 -75.82,12.73 -36.519,141.52 -69.449,166.6 z m 1268.199,-57.74 0.43,-31.95 c -49.92,-10.94 -138.16,31.68 -164.84,-36.99 3.28,-74.14 19.77,-107.38 31.29,-129.81 8.63,-20.07 69.37,2.86 90.74,-17.42 61.37,-76.13 46.88,-177.46 47.42,-268.749 l -26.64,-13.55 c -183.9,109.329 -325.15,448.939 -344.72,545.619 -1.25,62.07 168.75,261.57 168.75,261.57 0.39,0.43 61.91,-37.74 61.91,-37.74 1.52,-0.62 -1.29,-261.83 -1.29,-260.62 48.63,-2.5 95.74,-7.31 136.95,-10.36 z m -364.72,238.72 C 947.27,1275.87 1035,996.07 1192.81,754.621 c 0,0 -13.63,-3.16 -15.11,-1.793 -34.58,30.973 -58.72,25.543 -76.41,25.82 -33.79,0.543 -43.13,-9.609 -62.5,-11.527 -49.528,-4.961 -45.509,-6.211 -87.501,9.731 C 898.32,820.398 827.34,853.762 770.859,871.34 725.59,867.238 656.52,845.68 630.43,863.141 812.07,1200.95 784.84,1417.2 596.84,1771.3 c 15.582,-4.61 18,-19.29 29.68,-22.93 38.64,-15.04 91.878,-9.33 123.789,4.73 50.742,23.24 104.921,-39.26 260.711,-108.09 12.73,-6.6 28.75,3.83 42.77,6.68 28.75,5.86 53.36,18.24 74.8,11.02 6.88,-2.35 33.17,-8.63 33.17,-8.63 z m -432.971,442.1 C 719.57,2113.53 625,2294.86 625,2294.86 l 703.44,-4.26 -105.55,-174.96 c -9.96,-9.49 -59.53,-35.98 -110.12,23.98 -0.93,-8.63 -75,-61.87 -138.711,2.27 -38.321,-35.12 -77.418,-55.47 -141.868,-15.94 -1.453,-11.02 -51.761,-60.43 -103.402,-29.77 z"
         inkscape:connector-curvature="0"
         id="path30"
         style="fill:#e2cf00;fill-opacity:1;fill-rule:nonzero;stroke:none" /><path
         d="m 805.781,381.578 c -68.16,64.41 -139.14,6.281 -137.5,2.613 -26.992,27.618 -53.359,50.278 -88.902,39.137 0,0 0,9.731 0.269,9.934 106.012,-19.582 268.364,-24.653 458.202,15.418 l 9.73,-20.539 c -50.9,18.238 -77.15,-6.371 -99.689,-35.121 -81.719,51.41 -101.641,6.289 -142.11,-11.442 z m 158.949,749.142 48.24,0.93 c 9.06,-141.521 126.21,-358.119 129.02,-358.119 -8.16,11.438 -85.51,2.418 -84.92,0.981 -42.54,114.527 -89.218,228.938 -92.34,356.208 z M 683.52,794.93 c 0,0 -15.508,40.55 -24.809,57.929 50.629,87.27 92.148,177.581 113.437,278.011 l 34.493,-0.31 C 796.41,991.891 686.48,781.34 683.52,794.93 z m 620.27,18.558 c 75.98,138.321 62.85,337.692 -152.62,447.852 0,0 5.63,146.17 21.64,146.49 3.64,-1.14 97.54,1.21 97.54,1.21 24.61,60.93 64.18,134.64 119.49,184.41 l 1.41,-163.32 c -40.94,-4.1 -65.9,-17.27 -78.32,-49.61 l -56.72,-12.73 c 4.18,-164.11 65.35,-315.71 246.76,-451.919 -43.36,-37.582 -191.52,-113.941 -190.98,-112.609 l -8.2,10.226 z m -909.06,103.09 1.598,170.112 c 27.543,6.02 49.223,-2.07 71.91,47.74 0,0 38.133,-18.28 50.821,-25 C 483.398,1045.05 452.66,976.301 394.73,916.578 z m 361.211,301.172 1.868,86.36 81.211,-2.38 c -6.872,-29.26 -9.02,-58.55 0.16,-87.85 l -83.239,3.87 z m 185.309,1.05 c 5.551,28.24 9.488,56.68 -1.988,86.64 l 87.968,-1.48 -2.11,-86.02 -83.87,0.86 z m -167.27,168.87 c -14.64,169.37 -129.601,361.09 -131.21,356.99 13.519,-2.19 37.39,-8.94 50.511,-2.65 15.899,-2.7 29.688,-0.86 30.43,0.62 1.059,5.94 106.879,-245.94 92.769,-354.57 -1.71,-3.67 -39.058,-3.91 -42.5,-0.39 z m 203.29,-1.49 c 12.421,78.25 44.45,221.37 120.11,337.47 8.64,-20.63 15.82,-41.8 27.62,-61.1 -57.03,-83.79 -92.19,-179.53 -113.52,-277.3 l -34.21,0.93 z m -525.942,42.19 c -34.609,71.29 -178.629,183.52 -171.25,172.19 59.613,53.95 126.094,88.2 192.461,122.81 0,0 11.801,-11.29 10.039,-14.14 -40.816,-64.92 -60.59,-202.46 -21.098,-281.29 37.969,-84.22 105.321,-133.98 173.989,-173.08 -5.309,-52.66 -7.93,-90.71 -20.739,-143.05 0,0 -43.128,22.93 -78.519,37.66 -5.621,99.41 -25.981,188.36 -84.883,278.9 z m 381.481,698.64 c 50.742,-31.25 96.211,-27.97 140.312,14.45 55.319,-50.7 115.159,-27.11 140.429,-4.26 23.4,-26.6 53.91,-41.37 98.48,-32.58 l -11.05,-23.4 c 2.65,12.46 -307.46,32.74 -457.5,-9.68 0,0 -8.789,17.65 -7.82,17.81 13.09,0.82 56.531,-15.43 97.149,37.66 z"
         inkscape:connector-curvature="0"
         id="path32"
         style="fill:#d40000;fill-opacity:1;fill-rule:nonzero;stroke:none" /><path
         d="M 614.648,2300.48 740,2064.74 c 0,0 3.672,0.66 5.512,1.02 173.75,34.29 311.368,38.98 459.138,12.73 l 131.4,219.49 c -239.14,2.74 -721.402,2.5 -721.402,2.5 z m 13.981,-10.04 697.071,-0.78 -39.22,-64.92 c -23.47,7.3 -36.56,-3.56 -39.84,-26.29 0,0 -2.93,1.25 -8.36,1.88 -34.33,3.75 -38.67,-42 -6.64,-47.5 8.2,-1.41 9.57,0.23 9.57,0.23 -28.59,-24.26 -44.84,-7.89 -58.28,0.12 -0.39,-2.82 -25.66,-22 -49.49,0.93 34.14,-3.43 39.45,31.1 23.12,44.22 -3.4,3.4 -6.87,6.06 -6.87,6.06 8.01,7.03 9.76,16.44 4.61,27.19 -10.32,21.6 -42.78,20.35 -47.74,-3.25 -1.91,-9.18 -1.99,-10.82 -1.99,-10.82 -26.17,-1.72 -31.52,-26.68 -22.5,-40.54 5.12,-7.86 16.37,-9.57 26.76,-9.03 -14.03,-20.04 -46.06,-13.24 -60.35,3.28 -22.7,-26.95 -48.519,-23.67 -61.449,-9.21 8.789,0.07 14.809,0.23 22.849,7.73 13.79,12.85 7.03,35.66 -12.419,42.03 -3.789,1.25 -6.481,1.49 -6.723,1.52 0.16,0.2 0.512,1.45 1.371,8.29 4.801,39.76 -54.14,35.85 -48.437,-3.29 0.668,-4.53 1.879,-6.95 1.879,-6.95 0,0 -6.25,0.35 -9.852,-1.33 -32.769,-15.23 -10.187,-57.22 15.121,-46.4 2.379,1.01 8.95,4.25 9.879,4.22 -31.359,-39.26 -57.648,-11.45 -64.609,-7.19 -21.168,-31.72 -57.93,-10.08 -58.668,-7.85 2.269,-0.63 9.18,0.82 15.738,4.18 20.711,10.89 14.852,38.98 -1.32,45.07 -4.961,1.76 -10.942,1.96 -17.66,1.41 0,0 0.511,7.07 -0.16,9.57 -10.149,38.2 -57.219,19.1 -45.661,-13.16 1.02,-2.85 3.75,-5.71 3.75,-5.71 0,0 -6.371,-3.9 -9.218,-6.48 -22.461,-20.43 0.39,-54.1 26.64,-40.12 3.399,1.84 6.68,5.63 7.617,5.39 -12.347,-22.77 -31.097,-30.74 -57.808,-11.87 -16.488,-26.41 -43.36,-15.43 -50.942,-2.19 25.122,-2.34 41.442,46.29 -6.878,47.89 -3.75,13.2 -3.551,33.32 -34.18,29.88 l -38.711,73.79 z m 340.391,-83.47 c 5.55,0 10,-4.54 10,-10.12 0,-5.63 -4.45,-10.16 -10,-10.16 -5.5,0 -10,4.53 -10,10.16 0,5.58 4.5,10.12 10,10.12 z m 155.78,-1.21 c 5.86,0 10.59,-4.81 10.59,-10.75 0,-5.93 -4.73,-10.7 -10.59,-10.7 -5.85,0 -10.62,4.77 -10.62,10.7 0,5.94 4.77,10.75 10.62,10.75 z m -305.312,-11.72 c 5.672,0 10.242,-4.61 10.242,-10.32 0,-5.74 -4.57,-10.39 -10.242,-10.39 -5.66,0 -10.269,4.65 -10.269,10.39 0,5.71 4.609,10.32 10.269,10.32 z m 437.352,-12.74 -8.87,-15.94 c -9.81,8.68 -3.05,20.08 8.87,15.94 z m -559.301,-21.95 -8.828,16.48 c 15.82,-1.09 11.168,-12.54 8.828,-16.48 z m 270.191,8.94 c 59.85,-68.86 113.48,-48.47 148.56,-2.69 15.04,-39.02 48.59,-66.02 106.29,-39.77 -3.48,-6.25 -12.27,-17.26 -12.27,-17.26 -50.97,-13.87 -76.29,10.35 -95.97,33.47 -51.88,-43.55 -100.75,-32.96 -141.059,5.39 -34.41,-43.75 -90.121,-53.16 -141.679,-17.42 -23.59,-35.19 -57.422,-49.37 -99.922,-31.79 0,0 -9.02,14.33 -9.801,15.27 6.133,-5.23 84.449,-38.09 103.59,40.94 27.261,-46.76 116.64,-49.26 142.261,13.86 z m 6.02,-28.32 c 67.3,-63.59 137.93,-8.59 139.73,-4.72 1.05,-3.52 39.45,-49.89 94.8,-32.46 l -8.98,-15.59 c -104.18,17.81 -200.038,29.26 -419.53,-3.36 0,0 35.031,10.47 52.73,38.75 9.879,-6.48 86.02,-49.45 141.25,17.38 z m -235.859,-52.69 c 0,0 29.3,-3.48 31.597,-4.06 2.582,-2.04 -24.648,-9.57 -24.758,-9.03 l -6.839,13.09 z m 59.41,-303.4 c -1.789,-0.08 -4.02,-2.07 -7.692,-5.74 -7.929,-7.89 -9.73,-8.95 -17.418,-10.04 -5.82,-0.86 -18.132,-8.01 -25.55,-14.88 -2.032,-1.84 -5.86,-3.4 -10.469,-4.22 -3.981,-0.71 -9.492,-1.64 -12.192,-2.11 -2.73,-0.47 -5.699,-1.37 -6.601,-1.92 -3.899,-2.38 -10.27,-2.77 -17.418,-1.05 -6.871,1.68 -8.012,1.64 -15.582,-0.7 -11.059,-3.44 -18.289,-3.48 -23.758,0 -5.422,3.43 -14.062,4.72 -19.57,2.93 -8.082,-2.66 -29.102,10.03 -29.02,17.57 0,1.68 -11.953,10.75 -14.961,10.75 -10.621,1.6 -104.14,-35.71 -103.672,-37.89 114.84,-143.32 211.481,-361.72 138.672,-628.95 l -12.851,6.21 c 10.82,48.59 15.082,97.46 18.402,147.15 -215.512,94.02 -234.07,312.73 -150.43,450.78 l -14.179,15.31 c -50.711,-27.34 -102.231,-42.89 -227.543,-149.1 l 0.351,-171.99 c 0.309,-155.43 0.231,-306.91 0.231,-306.91 45.359,-5.08 95.277,-9.22 144.539,-13.52 0,0 -0.629,-153.708 -1.762,-213.869 -0.937,-50.863 0.942,-47.652 0.942,-47.652 l 163.082,-86.918 c -11.442,45.777 16.839,63.949 40.507,62.07 -10.468,44.098 15.512,64.34 45.192,58.668 20.039,-3.82 27.039,-15 38.519,-51.91 1.879,-5.98 4.41,-14.019 4.41,-14.019 l 11.45,0.429 c 14.3,31.051 23.871,70.582 57.539,75.7 44.062,6.722 60.472,-23.911 60.429,-54.489 42.692,38.039 93.832,8.59 90.512,-48.211 21.481,13.95 57.891,26.571 80.82,-27.218 8.629,1.828 13,11.519 25.15,14.57 4.53,0.969 14.81,6.559 14.81,6.559 l 0.11,1.839 c 0,0 9.54,3.36 22.31,5.469 10.98,-4.148 7.77,-3.988 13.67,3.352 6.6,3.398 17.27,5.672 25.51,4.929 8.63,-0.781 12.46,-1.41 17.54,0.821 7.89,3.468 15.23,4.332 19.92,-0.899 3.32,-3.793 8.2,-1.953 13.4,-1.761 10.39,0.429 24.26,-3.911 28.59,-13.36 6.37,-6.558 20.31,-13.199 20.31,-13.199 l 11.33,2.617 1.29,4.211 92.38,35.633 C 1100.16,997.398 1105.08,1274 1149.45,1414 l 17.03,-8.28 c -9.02,-41.53 -19.29,-84.14 -17.93,-145.98 169.61,-76.45 254.03,-274.021 151.18,-446.521 l 10.89,-14.18 c 42.78,18.16 150.4,79.223 187.58,112.422 l 7.93,-0.672 c 0,0 22.58,14.77 32.5,22.621 l 1.37,457.7 -7.89,-2.07 -1.41,26.72 -139.88,11.21 c 1.8,1.36 3.13,1.91 3.52,4.57 l -0.79,253.39 c -5.19,8.01 -122.34,77.39 -165.89,93.6 -1.76,0 -0.55,-2.97 0.07,-10.2 2.11,-24.88 -14.49,-46.99 -33.71,-47.03 -6.91,0 -8.12,-3.01 -7.77,-17.26 0.51,-20.28 -6.76,-33.91 -27.89,-41.64 -25.08,-9.14 -42.03,4.14 -55.98,56.25 -3.67,13.67 -10.86,10.23 -17.69,-8.44 -3.4,-9.3 -14.46,-31.84 -21.02,-43.71 -5.08,-9.1 -13.12,-13.17 -24.02,-18.01 -8.52,-4.26 -26.92,-3.52 -37.5,1.91 -19.259,9.89 -26.72,21.76 -32.271,51.14 -0.699,3.82 -3.199,3.51 -9.449,-1.25 -33.95,-25.86 -81.719,0.86 -81.45,45.58 0.079,13.13 -0.429,13.64 -8.039,7.35 -23.05,-18.99 -54.339,-9.38 -66.882,20.58 -2.93,7.03 -4.489,10.16 -6.758,10.08 z m -195.192,-15.86 c 2.379,0.08 9.879,-9.96 9.879,-9.96 6.883,-7.7 16.133,-11.6 25.782,-17.34 0.902,1.36 112.429,-149.93 131.41,-358.52 l 51.871,-0.27 c -9.641,202.69 -64.961,300.11 -90.352,362.61 l 18.602,5.98 c 41.75,-80.82 92.578,-244.8 90.898,-388.36 l -85.668,0 c -12.109,143.79 -67.422,284.02 -144.801,390.35 -5.39,8.21 -9.609,13.87 -8.05,15.35 0.121,0.08 0.269,0.12 0.429,0.16 z m -32.808,-21.41 8.668,-27.57 c 0,0 1.051,6.44 3.711,8.86 16.949,15.43 33.121,-4.88 25.511,-32.42 -1.761,-8.47 -5.121,-25.19 -5.121,-25.19 0,0 -17.031,8.82 -25.59,11.68 -23.589,10.11 -31.48,30.11 -13.429,32.38 3,0.35 9.219,0.62 9.219,0.62 -7.5,5.98 -24.032,19.61 -24.032,19.61 l 21.063,12.03 z m 79.25,-3.08 c 7.109,-4.1 25.508,-8.52 36.097,-4.49 8.551,3.24 15.043,1.44 23.903,0.66 5.121,-0.43 15.277,1.84 15.277,1.84 50.703,-107.86 85.582,-235.82 91.402,-352.86 l -39.878,-0.23 c -15.082,124.34 -62.692,250.63 -123.082,344.3 -2.7,4.1 -6.25,10.62 -3.719,10.78 z m 166.648,-1.88 c 15.461,-0.19 31.602,-15.74 40.391,-41.21 4.922,-14.18 6.789,-13.32 13.359,-11.01 16.871,5.82 34.801,-12.89 12.223,-15.98 -22.152,-3.71 -9.531,-47.54 -11.402,-51.41 -8.989,-1.6 -25.86,35.67 -25.43,46.76 1.09,27.15 -24.18,49.88 -39.852,38.44 -7.457,-5.39 -6.636,-9.22 -8.937,-7.27 -7.031,6.02 -8.481,22.54 -0.242,31.88 5.98,6.8 12.851,9.88 19.89,9.8 z m 458.901,-9.37 c 0,0 0.9,-35.7 -0.43,-43.6 -2.65,-23.82 -33.44,-26.32 -34.61,-7.26 -5.04,-7.62 -8.51,-17.07 -10.51,-25.59 l -21.83,15.16 c 8.32,6.02 16.21,11.29 22.34,18.75 -16.17,-1.25 -25.23,12.89 -14.41,24.96 12.03,13.79 45.27,15.27 59.49,17.58 l -0.04,0 z m -802.42,-11.29 9.648,-10.98 c -85.976,-154.06 -55.668,-350.97 151.91,-454.45 -1.398,-47.27 -7.379,-95.08 -18.547,-139.41 l -76.57,37.53 c 0.508,174.18 -97.07,340.24 -252.851,449.38 56.531,45.9 119.07,86.21 186.41,117.93 z m 626.99,-1.33 c 3.67,-20.31 22.74,-57.15 24.1,-55.04 -0.19,1.21 -79.29,-102.42 -113.67,-275.66 l -29.37,-0.12 c 19.25,115.43 57.65,224.38 118.94,330.82 z m 243.79,-4.8 15.63,-9.57 c -81.96,-69.38 -135.94,-157.31 -175.59,-252.11 l -20.7,9.92 c 61.44,137.54 122.18,198.63 180.66,251.76 z m 21.88,-15.39 c 4.25,-0.28 9.37,-5.75 17.26,-10.12 7.7,-4.3 5.78,-6.56 -8.75,-17.81 -17.15,-13.32 -18.79,-12.74 -18.63,6.29 0.08,12.57 3.24,20.97 9.26,21.6 0.27,0.04 0.54,0.08 0.86,0.04 z m -18.91,-19.57 c 0.94,0.03 1.64,-0.24 2.11,-1.02 1.25,-5 1.13,-16.52 -0.86,-27.89 -1.64,-7.46 -23.67,-26.29 -31.52,-33.71 -3.13,-2.07 -4.57,-1.33 -5.16,2.42 0.23,5.9 0.82,13.75 0.9,21.72 0,2.46 -0.47,5.04 1.72,6.95 10.82,12.85 26.52,31.17 32.81,31.53 z m 40.94,-6.14 c 0.15,0 0.23,0 0.31,-0.08 2.03,-1.21 1.72,-27.03 0.27,-28.75 -6.4,-1.64 -23.59,1.1 -28,3.48 -0.94,2.97 23.32,25.55 27.42,25.35 z m -767.78,-8.32 5.98,-25.31 c 0,0 1.719,3.4 2.149,4.06 11.871,18.32 26.293,7.58 26.051,-17.89 -0.071,-8.04 -7.301,-40.19 -7.301,-40.19 0,0 -44.528,21.6 -48.047,31.09 -3.442,9.34 1.449,17.54 9.648,18.32 3.09,0.35 6.289,0.59 9.809,0 l -19.149,19.77 20.86,10.15 z m 510.08,-3.4 20.2,-7.53 c -42.15,-69.3 -85.67,-137.78 -117.35,-293.87 l -84.719,0 c 11.828,95.39 35.859,189.18 78.709,280.47 0,0 16.64,5.19 26.05,8.24 0,0 -70.04,-161.92 -78.201,-266.06 l 40.941,-0.89 c 21.83,101.48 62.73,206.64 114.37,279.64 z m -160.432,-2.5 c 11.371,0.43 19.774,-7.65 19.141,-22.03 -0.149,-13.12 -1.328,-15.04 -10.539,-9.76 -12.07,6.87 -21.61,7.03 -32.43,-0.78 -5.93,-4.3 -11.789,-7.86 -11.789,-7.86 0,0 5.231,22.82 13.238,29.97 7.661,6.91 15.551,10.19 22.379,10.46 z m -43.468,-33.75 c -0.821,-7.69 -3.051,-11.25 -5.079,-17.85 0,0 6.637,2.62 9.797,4.1 15.043,7.11 30.742,-6.01 30.512,-21.4 0.699,-10.28 -10.352,-22.58 -23.52,-22.7 -4.57,-0.04 -9.41,1.45 -14.101,4.96 3.402,-18.82 4.07,-27.5 -9.527,-36.95 -11.403,-7.66 -35.391,1.09 -34.063,22.15 l 0.859,12.93 -11.527,-1.49 c -32.18,-1.32 -32.769,38.72 -6.793,45 10.391,2.47 21.641,-6.13 21.641,-6.13 -4.918,9.85 -5.039,26.72 1.601,34.53 16.371,19.22 42.231,1.76 40.2,-17.15 z m 281.09,25 c 1.76,-15 7.66,-31.32 5.98,-45.31 -2.54,-17.89 -17.54,-28.47 -29.38,-16.87 -1.44,1.44 -4.1,4.41 -4.1,4.41 -5.31,-6.84 -8.63,-26.13 -8.63,-26.13 l -20.9,13.01 c 0,0 14.49,10.27 18.51,16.13 1.1,1.64 1.64,4.73 1.64,4.73 -11.6,-3.68 -21.48,8.35 -18.32,18.94 6.29,17.34 37.54,23.75 55.2,31.09 z m 145.82,-10.82 c 7.81,0.24 19.92,-1.99 29.45,-3.04 7.35,-1.29 3.28,-5.47 -13.16,-21.64 -15.12,-14.89 -14.65,-13.48 -26.29,-13.28 -27.15,0.46 -31.91,-0.16 -16.09,17.1 8.28,9.03 15.5,17.19 21.48,20.24 1.25,0.35 2.81,0.55 4.61,0.62 z m -48.98,-3.16 c 0.31,0 0.62,-0.12 0.85,-0.35 1.8,-1.72 1.22,-9.45 1.02,-20.9 -0.23,-12.19 -0.08,-12.23 -5.16,-18.59 -6.4,-8.13 -11.75,-16.45 -18.47,-24.3 -5.82,-6.37 -5.63,-5.7 -9.1,9.65 -3.4,14.84 -1.53,19.49 17.46,41.05 6.4,8.32 10.97,13.56 13.4,13.44 z m 84.88,-8.44 0.23,-30.15 c -56.09,-55.43 -94.22,-117.78 -120.11,-186.49 l -19.54,7.85 c 33.83,87.78 84.46,156.25 139.42,208.79 z m -486.17,-18.24 c -9.301,0 -16.801,-7.58 -16.801,-16.95 0,-9.38 7.5,-17 16.801,-17 9.25,0 16.789,7.62 16.789,17 0,9.37 -7.539,16.95 -16.789,16.95 z m -0.121,-5.35 c 6.41,0 11.602,-5.24 11.602,-11.72 0,-6.45 -5.192,-11.72 -11.602,-11.72 -6.41,0 -11.559,5.27 -11.559,11.72 0,6.48 5.149,11.72 11.559,11.72 z m -623.09,-7.15 c 174.922,-113.44 253.36,-289.3 253.012,-440.35 l -9.84,4.49 C 511.09,1375.21 396.289,1506.46 272.23,1591.38 l 5.969,6.25 z m 1035.751,-1.64 c 3.94,0 9.33,-0.63 17.14,-1.52 14.5,-0.79 16.25,-1.72 6.29,-13.29 -2.73,-3.16 -8,-9.8 -11.68,-14.76 -3.71,-5 -8.2,-10.2 -10.27,-10.94 -3.05,-1.05 -28.48,0.16 -35.7,1.17 -2.39,0.32 0.74,2.78 13.12,20.67 9.49,13.71 10.51,18.24 19.49,18.63 0.51,0.04 1.02,0.04 1.61,0.04 z m 72.85,-5.78 c 0,0 3.47,-97.31 0.97,-159.38 -39.92,1.53 -63.36,-13.79 -73.12,-42.77 l -41.92,20.98 c 30.79,79.84 71.92,135.39 114.07,181.17 z m -123.52,-2.27 c 2.27,0 3.56,-4.76 4.22,-14.1 2.62,-16.72 2.34,-18.67 -4.57,-29.41 -3.44,-5.35 -8.16,-12.89 -10.43,-16.8 -4.02,-6.8 -6.88,-8.83 -7.85,-5.55 -5.47,18.05 -7.19,29.22 -5.27,32.85 3.2,5.98 18.08,27.39 20.19,30.16 1.45,1.92 2.7,2.89 3.71,2.85 z m -997.971,-1.79 c 140.632,-88.01 243.519,-238.29 247.781,-419.85 0,0 -29.969,14.22 -48.481,24.61 l -0.98,17.62 9.769,0.31 3.161,-19.88 21.492,0.7 -5.711,49.65 -33.629,-3.2 -6.762,28.12 10.16,2.19 5.621,-18.13 21.879,5.82 -11.64,44.26 -33.75,-9.33 -10.821,29.88 11.211,4.06 9.102,-17.89 20.551,7.23 -19.422,44.33 -31.051,-14.8 -15.777,28.94 12.148,6.53 9.762,-17.19 19.219,10.04 -23.789,40.78 -29.454,-16.64 -14.847,22.46 9.179,6.45 10.079,-11.8 16.921,12.07 -25.902,35.19 -28.207,-22.34 -20.891,24.42 9.61,8.24 14.371,-13.01 16.059,14.18 -30.75,33.91 -26.872,-24.77 -20.039,17.54 9.801,10.98 12.469,-9.65 13.281,15.9 -33.441,27.89 -25.078,-25.08 -24.063,16.05 0,11.96 c 7.813,-3.05 16.094,-6.61 23.473,-10.59 l 12.469,19.06 -35.942,24.49 7.731,8.29 z m 391.64,-7.5 5.352,-31.06 c 5.039,8.44 9.07,14.26 19.969,10.98 13.121,-5.39 13.32,-25.35 2.179,-55.9 -2.07,-5.66 -4.609,-10.55 -4.609,-10.55 0,0 -5.738,2.39 -9.57,5.04 -8,5.55 -21.52,11.84 -28.43,22.85 -7.231,11.53 -7.391,27.66 5.89,26.25 2.661,0 7.86,-1.25 7.86,-1.25 l -19.969,25.71 21.328,7.93 z m -399.371,-9.26 24.371,-15.86 -5.07,-9.3 -19.301,8.79 0,16.37 z m 610.512,-7.31 c 7.031,-10 -17.781,-39.37 14.68,-51.09 0,0 0.82,-6.76 -5.969,-10.86 -15.86,-11.68 -38.711,9.61 -31.602,31.56 4.531,14.03 17.61,30.32 22.891,30.39 z m 67.379,-0.93 c 0,0 9.801,-7.23 11.761,-9.14 18.079,-17.54 18.239,-42.66 1.872,-51.41 -10.903,-5.86 -23.204,-1.17 -27.5,7.34 -1.993,3.91 1.289,8.01 5.429,8.01 7.809,-0.04 13.75,15.04 11.449,30.94 -0.902,6.33 -3.011,14.26 -3.011,14.26 z m 213.321,-5.86 c 0,0 2.19,-21.49 5.27,-30.98 9.49,-26.72 -2.65,-42.97 -20.39,-34.02 -2.54,1.29 -6.99,7.07 -6.99,7.07 l -1.76,-30.67 -25.23,7.42 c 5.47,8.87 13.32,15.16 19.18,25.16 0,0 -3.79,0.12 -7.07,0.16 -15.08,-0.55 -20.67,16.36 -4.85,30.23 11.76,10.27 41.84,25.63 41.84,25.63 z m 131.91,-7.11 c 3.05,0.04 6.88,-0.24 12.11,-0.24 15.98,0 20.12,2.19 13.05,-7.89 -2.74,-3.94 -9.45,-14.84 -11.45,-18.59 -4.02,-7.54 -4.84,-9.92 -11.56,-11.41 -9.73,-1.95 -20.78,-0.58 -31.91,-1.09 -2.39,0.12 2.58,8.47 5.35,13.67 6.8,12.77 10.94,21.52 16.76,24.18 2.3,1.05 4.61,1.33 7.65,1.37 z m -49.45,-9.89 c 1.91,0.12 3.36,-3.39 5.2,-10.62 4.29,-16.91 5.39,-17.31 -1.53,-31.17 -3.51,-7.03 -9.45,-18.87 -11.91,-23.79 -6.29,-12.58 -6.64,-12.46 -10.63,-1.17 -7.58,21.6 -8.24,19.37 4.3,43.63 7.85,15.16 11.72,23.01 14.57,23.12 z m -922.809,-5.89 22.61,-18.36 -6.403,-6.29 -12.539,9.33 -18.48,-20.04 30.391,-28 25.75,25.62 22.031,-23.28 -6.723,-5.78 -12.969,12.62 -19.379,-16.72 28.911,-34.53 29.14,22.46 18.278,-24.18 -7.457,-4.73 -11.911,11.68 -18.953,-13.28 23.563,-33.56 29.719,17.19 16.878,-28.04 -9.378,-4.58 -9.571,15.43 -21.328,-12.42 20.16,-39.29 32.071,13.55 12.886,-30 -9.797,-4.02 -8.211,18.04 -21.601,-8.63 14.461,-41.25 32.57,9.42 7.86,-30.63 -10,-2.81 -4.969,16.95 -20.699,-5 8.628,-41.41 33.129,2.11 3.942,-33.47 -10.27,-0.47 -2.582,20 -21.09,-0.27 c 0.121,-7.04 0.903,-21.41 0.903,-21.41 l -12.742,5.94 c -18.942,127.3 -86.481,233.36 -187.149,307.22 l -0.543,15.2 24.531,-15.7 c 0,0 22.461,20.23 26.332,25.39 z m 966.719,-29.69 c 7.03,0.04 3.9,-5.43 -4.65,-21.92 -9.53,-18.36 -11.21,-18.71 -29.1,-23.12 -21.72,-5.35 -21.1,-6.56 -9.34,18.75 4.53,9.76 7.85,18.32 11.99,21.56 5.43,4.26 15.98,2.62 27.46,4.38 1.41,0.23 2.62,0.35 3.64,0.35 z m -1016.371,-5.43 c 104.531,-68.13 170.59,-209.1 178.789,-294.57 0,0 -2.808,1.91 -8.558,4.57 -7.891,3.67 -9.84,6.05 -12.141,17.69 -20.707,104.54 -79.109,193.21 -157.66,255.82 l -0.43,16.49 z m 942.581,-17.42 c 4.41,0.9 12.5,-31.18 10.08,-37.89 -1.72,-4.85 -17.27,6.56 -22.93,9.02 -2.86,1.21 9.88,28.2 12.85,28.87 z m -504.069,-1.49 -0.461,-33.28 c 0,0 3.941,4.77 6.012,6.25 7.769,5.74 19.648,-2.19 20.078,-12.03 0.621,-13.59 -1.41,-19.14 -12.231,-38.05 -3.32,-5.86 -8.359,-13.32 -8.359,-13.32 0,0 -12.77,9.18 -26.68,23.21 -15.07,15.15 -12.18,35.43 0.981,35.5 3.949,0 7.461,-1.32 10.898,-2.46 -2.809,9.81 -13.437,28.83 -13.437,28.83 l 23.199,5.35 z m 408.599,-24.92 c 0,0 6.8,-9.06 14.65,-32.97 7.5,-22.81 -4.03,-40 -19.69,-31.37 -2.81,1.53 -5.74,4.85 -5.74,4.85 -1.1,-11.06 0.86,-30.94 1.13,-31.1 l -25.23,4.46 c 0,0 13.86,22.22 14.84,27.73 0,0 -1.56,-1.25 -8.52,-1.25 -25.35,0.04 -20.07,30.51 9.22,47.42 4.38,2.54 19.34,12.23 19.34,12.23 z m 145.31,-0.39 c 5.51,0.23 2.89,-5.12 -3.16,-17.66 -6.72,-13.82 -5.04,-12.65 -19.22,-5.31 -19.85,9.77 -18.67,11.33 6.48,18.17 7.93,2.96 13.05,4.68 15.9,4.8 z M 891.41,1449 c 19.879,-0.12 34.531,-19.92 31.559,-48.09 -5.039,-48.36 -2.149,-45.39 3.082,-50.19 9.5,-8.79 -3.352,-14.07 -14.68,-5.71 -7.851,5.86 -10.43,11.6 -10.043,38.28 0.434,30.67 -1.207,38.48 -12.066,35.79 -6.762,-1.65 -8.91,-7.47 -8.172,-28.17 1.058,-29.02 -0.86,-36.33 -11.75,-45.62 -11.762,-9.18 -24.461,-0.98 -13.719,5.07 4.93,5.59 5.859,12.7 3.949,30.24 -2.07,14.92 -10.66,68.67 31.84,68.4 z m 498.79,-24.46 c 38.24,-1.44 134.92,-9.41 134.92,-9.41 l 0.86,-28.87 c -4.34,-2.65 -76.49,8.44 -129.57,7.42 -12.43,-0.23 -21.21,-5.74 -30.16,-1.09 8.59,-3.63 7.81,-47.15 -30.16,-36.6 -32.18,11.68 -16.48,55.66 24.69,66.76 10.59,1.48 19.73,1.95 29.42,1.79 z m -220.32,-19.25 82.66,-41.18 C 1264.1,1207.32 1317.66,1041.69 1500,916.148 1470.47,894.781 1396.37,842.32 1311.64,806.379 l -6.91,7.5 c 100.54,172.891 24.57,363.161 -151.57,449.261 0.47,47.97 6.45,95.31 16.72,142.15 z M 1460.55,1379 c 15.82,0.62 19.96,-1.21 21.33,-8.48 1.28,-6.84 6.32,-8.48 12.26,-6.25 14.57,5.35 23.44,-20.74 11.41,-32.3 -7.5,-7.15 -6.17,-9.93 0,-9.96 15.15,-0.12 14.72,-20.2 -0.71,-31.57 -6.4,-4.72 -6.32,-6.87 0.39,-10.23 11.22,-5.59 8.95,-16.68 -5.31,-25.78 -7.73,-4.96 -7.97,-6.17 -1.6,-7.93 16.13,-4.42 -0.31,-27.62 -17.93,-23.52 -7.27,1.68 -14.14,0.12 -21.01,-4.45 -18.91,-7.93 -22.08,-9.53 -42.43,-6.95 -17.93,3.32 -25.9,9.25 -30.54,25.15 -10.47,32.27 -21.8,68.05 -21.92,103.32 -1.6,21.64 34.3,41.21 51.29,42.03 13.87,2.11 29.77,-2.93 44.81,-3.08 l -0.04,0 z m -1130.12,-0.55 c 18.98,0 34.371,-15.55 34.371,-34.73 0,-19.21 -15.391,-34.76 -34.371,-34.76 -19.02,0 -34.41,15.55 -34.41,34.76 0,19.18 15.39,34.73 34.41,34.73 z m 382.109,-10.19 -3.129,-30.4 c 0,0 5.039,3.99 6.25,5 8.949,7.54 23.09,-0.89 19.891,-12.65 -1.063,-10.35 -18.75,-41.17 -25.821,-47.66 0,0 -28.402,31.29 -31.449,37.38 -6.761,13.6 2.5,27.78 14.77,21.76 1.719,-0.86 6.789,-4.65 6.789,-4.65 l -8.981,28.83 21.68,2.39 z m -379.84,-2.47 c -12.148,-0.39 -23.679,-7.93 -22.109,-17.96 1.012,-4.3 7.5,1.87 13.898,5.93 4.891,3.13 10.742,3.6 16.332,1.17 4.961,-1.79 7.071,-6.36 9.918,-9.96 2.422,-3 5.082,-5.46 6.602,-3.98 1.25,1.6 0.75,3.59 0.39,5.39 -2.609,13.67 -13.781,19.77 -25.031,19.41 z m 925.891,-4.72 12.31,-6.33 c 16.56,-221.56 127.38,-351.8 243.87,-429.381 l -9.26,-5.621 c -142.93,92.542 -242.19,258.322 -246.92,441.332 z m 18.64,-9.06 c 0,0 30.86,-15.98 46.99,-23.36 l 0.62,-20.04 -10.78,-0.39 -3.67,18.86 -22.46,-1.64 7.03,-46.36 36.17,4.49 5.04,-28.01 -12.22,-2.58 -6.29,17.19 -20.75,-5.08 13.44,-45.04 32.62,10.63 10.23,-29.46 -10.97,-4.02 -7,17.27 -21.48,-7.58 16.6,-43.99 33.99,11.06 13.71,-27.5 -10.32,-4.61 -9.84,17.03 -20.35,-10.51 23.87,-41.05 30.66,16.25 14.34,-21.96 -11.25,-7.61 -10.24,13.43 -16.48,-10.97 26.4,-36.49 26.41,20.04 19.77,-23.04 -8.72,-7.82 -13.47,13.83 -15.98,-14.41 31.49,-34.89 27.3,23.99 19.41,-18.28 -5.74,-6.1 -13.04,8.25 -17.31,-18.6 33.05,-29.061 26.21,29.061 22.26,-16.561 0,-12.231 -19.88,10.204 -13.32,-20.274 33.2,-25.398 -0.23,-10 c -189.49,114.26 -239.37,291.49 -249.02,423.33 z m -387.968,-2.23 c 8.199,0.27 16.828,-7.54 31.129,-24.26 39.918,-46.76 29.257,-119.06 -22.93,-156.8 -7.621,-5.5 -10.66,-5 -19.961,3.05 -53.551,46.52 -56.641,108.71 -8.949,163.32 8.25,9.42 14.34,14.49 20.711,14.69 z m 191.398,-6.41 c 9.85,-15.27 22.27,-30.97 23.68,-49.49 -0.71,-18.32 -12.93,-21.72 -25.55,-11.05 -1.6,-9.61 3.83,-28.36 3.83,-28.36 l -22.89,2.5 c 0,0 8.94,15.86 9.33,25.74 -15.9,-11.17 -28.04,3.44 -25.9,15.19 4.57,20 20.82,33.52 37.5,45.47 z m -190.699,-11.95 c -1.871,-0.16 -3.832,-1.45 -6.84,-3.87 -13.941,-11.33 -24.883,-25.39 -30.582,-40 -11.988,-30.82 -4.18,-65.54 22.891,-92.5 13.75,-13.71 18.59,-12.77 39.691,15.55 17.649,23.71 21.289,54.33 10.43,80.94 -5.321,13 -14.93,25.66 -26.449,34.84 -4.454,3.52 -6.762,5.23 -9.141,5.04 z m 440.429,-5.7 17.77,-8.83 c 22.66,-151.1 96.14,-243.24 178.48,-306.8 l -0.16,-14.02 -22.1,17.3 -26.45,-27.972 -21.45,17.742 8.05,7.89 12.19,-7.85 15.62,17.69 -30.74,27.7 -26.8,-23.48 -22.3,23.2 6.76,5.75 15.43,-13.64 17.26,15.47 -29.84,33.87 -26.72,-20.47 -18.67,25 8.12,4.88 9.77,-13.55 20.59,12.97 -21.76,33.86 -31.06,-16.09 -15.9,28.95 9.03,4.37 10.31,-16.25 19.34,9.38 -19.46,39.96 -31.75,-10.63 -11.65,31.45 9.07,3.36 8.01,-18.6 21.48,7 -14.61,42.96 -32.81,-9.37 -8.13,31.64 10.16,2.19 5.31,-17.07 22.58,4.57 -8.28,40.93 -33.6,-4.29 c -1.09,6.95 -6.05,25.7 -5.97,32.77 l 10.35,0.86 3.24,-18.01 22.62,0.75 -1.33,22.46 z m -439.261,-3.29 c 12.312,-1.71 27.351,-25.66 30.75,-34.37 6.48,-17.19 7.031,-37.15 1.09,-52.58 -4.848,-12.65 -19.297,-35.04 -28.52,-41.37 -7.418,-4.06 -13.629,-1.05 -24.219,13.52 -20.929,28.75 -25,63.36 -8.468,87.07 12.617,18.09 21.988,27.73 29.367,27.73 z m 463.091,-7.46 8.9,-4.25 c 10.98,-87.58 62.31,-207.7 163.36,-279.61 l 0,-10.98 c -78.59,56.99 -150.74,155.31 -172.26,294.84 z M 889.57,1309 c -35.191,-26.8 -29.57,-68.79 -2.929,-97.03 28.711,19.18 38.871,71.05 2.929,97.03 z m -536.992,-1.8 c 19.844,0.47 32.422,-6.52 38.473,-20.43 9.379,-21.56 10.668,-25.66 12.621,-37.03 1.098,-6.45 2.777,-16.25 3.75,-21.68 10.277,-58.71 2.699,-80.82 -32.582,-89.96 -10.5,-2.74 -25.192,-3.63 -35.43,-1.13 -2.691,0.66 -12.531,0.7 -20.308,0.97 -15.352,0.47 -20.082,2.15 -27.774,8.48 -2.777,2.26 -5.469,4.1 -8.828,4.61 -17.578,2.81 -22.852,19.14 -9.488,31.17 7.609,6.84 8.359,7.77 7.648,8.95 -0.39,0.66 -3.629,1.21 -7.219,1.21 -17.742,0.11 -17.543,18.55 0.309,31.75 8.48,6.25 12.301,12.15 6.68,10.71 -16.168,-3.87 -21.879,20.04 -4.961,27.46 8.98,5.08 15.472,9.33 6.761,9.8 -7.269,-0.62 -13.21,4.81 -10.98,11.21 2.699,7.78 17.5,14.85 26.051,12.19 6.648,-2.07 13.168,-3.94 17.347,-0.9 10.122,7.35 14.653,10.67 23.364,11.84 5.039,0.66 10.308,0.82 14.566,0.78 z m 589.883,-4.45 81.559,-1.6 -2.42,-80.82 -76.799,1.44 c 0,0 16.84,36.13 -2.34,80.98 z m -182.731,-1.88 78.122,-0.97 c -12.891,-30.47 -8.082,-61.76 -3.364,-79.38 l -76.437,1.17 1.679,79.18 z m 130.43,-0.11 c 21.012,-12.35 26.75,-57.35 -2.39,-80.51 -27.731,28.83 -22.18,63.9 2.39,80.51 z m -192.699,-35.12 20.937,-1.99 -7.457,-30.32 c 0,0 3.399,3.6 4.489,3.95 26.91,12.77 28.832,-16.13 1.449,-42.27 -6.059,-5.78 -15.789,-13.67 -15.789,-13.67 0,0 -7.61,11.64 -13.668,22.19 -6.871,10.58 -11.524,21.91 -10.352,27.93 1.719,8.71 12.11,14.49 18.711,9.18 3.278,-2.66 7.071,-6.64 7.071,-6.64 l -5.391,31.64 z m 373.949,-22.23 c 0,0 8.75,-9.1 14.1,-15 18.51,-20.47 21.68,-39.61 12.3,-45.39 -8.04,-3.75 -13.04,-1.17 -19.53,4.14 1.33,-12.69 11.29,-31.4 11.06,-31.44 l -27.58,-4.5 c 0,0 6.79,25.39 6.21,35 0,0 -5.67,-4.41 -8.17,-5.5 -18.04,-6.64 -26.95,14.06 -12.14,34.68 12.42,17.31 23.75,28.01 23.75,28.01 z m 377.07,-38.32 c 18.51,0 33.55,-15.16 33.55,-33.91 0,-18.71 -15.04,-33.86 -33.55,-33.86 -18.52,0 -33.56,15.15 -33.56,33.86 0,18.75 15.04,33.91 33.56,33.91 z m 16.56,-15.51 c -1.45,-0.31 -2.66,-3.67 -2.81,-11.09 -1.68,-15.23 -14.18,-21.33 -27.89,-14.3 -5.51,2.85 -10.24,7.07 -10.24,3.83 0,-1.72 4.42,-10.78 7.58,-13.87 11.6,-10.54 39.84,-8.04 39.18,16.53 -0.27,11.56 -3.44,19.45 -5.82,18.9 z m -608.989,-12.73 c 3.64,0.27 8.289,-1.29 11.219,-4.38 9.179,-6.32 10.929,-14.41 11.48,-44.92 0.512,-26.91 0,-27.58 4.371,-30.82 10.75,-8.01 17.231,4.18 14.18,31.45 -2.961,26.25 6.41,45.35 22.078,45.23 7.73,-0.04 9.172,-4.65 3.32,-10.47 -6.219,-6.21 -7.699,-13.75 -5.75,-28.9 4.961,-38.91 0.672,-58.01 -15.5,-65.9 -16.879,-8.24 -38.597,1.21 -42.39,22.73 -2.457,14.38 -2.418,31.41 -0.739,47.42 0.309,16.88 -0.082,18.83 -5.898,28.52 -4.102,6.48 -1.051,9.73 3.629,10.04 z M 431.68,1164.23 c 9.34,0.04 19.019,-5.43 24.8,-17.54 13.989,-29.14 -16.281,-53.12 -44.058,-55 -48.203,-0.74 -105.512,6.29 -153.871,12.82 l 0.75,27.53 c 44.41,-2.57 94.488,-6.25 148.429,-8.78 -6.171,25.62 8.399,40.93 23.95,40.97 z m 253.55,-5.62 26.84,-6.02 -17.07,-28.2 c 5.039,2.22 8.551,3.75 13.629,1.87 10.902,-3.98 11.062,-17.97 3.051,-31.05 -6.328,-9.49 -24.18,-20.86 -36.328,-27.81 -6.832,14.8 -21.954,40.78 -15.942,54.96 3.211,7.54 12.039,11.21 20.281,7.11 2.688,-1.68 7.887,-4.34 7.887,-4.34 l -2.348,33.48 z m 63.442,-0.78 81.758,-0.98 C 818.551,1073.29 795.309,961.691 749.449,870.719 l -19.25,-5 c 40.422,90.351 67.301,175.111 79.879,269.881 l -40.898,0 C 745.66,1033.92 710.859,939.66 657.34,857.789 l -23.789,7.813 c 57.187,91.597 102.5,193.868 115.121,292.228 z m 186.527,-1.49 91.171,0 c 16.75,-170.16 73.63,-286.289 158.32,-401.168 0,0 -5.35,-1.172 -8.52,0.156 -8.79,11.094 -16.79,17.852 -29.96,21.25 -71.17,103.551 -118.91,248.282 -130.43,359.022 l -54.221,0 C 967.73,996.539 1005.86,882.512 1056.6,772.039 l -27.54,-5.07 c -40.74,98.82 -85.388,184.84 -93.861,389.371 z m 141.871,-21.01 c 7.5,-5.86 15.59,-11.61 23.24,-17.23 20.51,-14.53 20.24,-42.07 0.28,-41.92 -2.11,0 -7.04,0.28 -7.04,0.28 0,0 8.17,-18.01 13.29,-27.15 -8.32,-2.23 -25.71,-5.55 -25.71,-5.55 0,0 2.5,17.74 1.99,32.42 0,0 -3.32,-3.78 -6.05,-5.07 -13.24,-5.59 -24.45,6.09 -22.81,19.88 2.22,18.63 22.81,44.34 22.81,44.34 z m -609.058,-3.32 44.879,-22.54 c -30.59,-70.32 -65.59,-136.208 -116.25,-186.251 l 1.328,162.541 c 27.621,0.82 55.98,1.09 70.043,46.25 z m 306.828,-2.54 27.621,0 C 790.199,999.66 705.352,824.109 689.41,802.941 l -5.23,-3.98 c 0.308,0.148 -10.86,39.801 -23.59,54.059 47.89,65.242 98.039,190.63 114.25,276.45 z m 194.14,0 41.68,0 c 12.97,-103.44 44.61,-215.161 124.77,-350.822 0,0 -8.01,-0.82 -14.22,2.93 -13.67,8.551 -23.16,-2.777 -31.33,-2.348 -12.77,0.7 -14.84,1.489 -28.04,-1.679 -66.141,141.019 -84.891,251.989 -92.86,351.919 z m -450.39,-23.25 14.89,-7.07 C 501.449,1024.31 472.77,964.82 396.91,891.77 l -0.269,21.761 c 53.281,52.149 89.218,120.939 121.949,192.689 z m 21.68,-10.43 c 7.031,-2.69 15.039,-7.11 21.718,-10.74 2.231,-0.9 1.602,-2.89 1.641,-5 -2.809,-7.11 -15.27,-10.23 -19.957,-11.64 -5.66,-1.6 -11.293,-2.77 -12.301,-3.01 -6.492,-1.52 -4.422,5.04 2.609,19.42 3.168,6.48 4.418,10.82 6.29,10.97 z M 570,1079.93 c 4.488,0.28 22.461,-9.8 26.328,-13.39 1.371,-4.26 -2.5,-10.98 -8.207,-23.4 -8.742,-19.14 -10.461,-19.53 -13.082,-3.83 -0.469,2.7 -3.09,11.6 -4.648,17.54 -3.629,13.75 -3.981,21.68 -0.391,23.08 z m 32.578,-15.46 c 0,0 10.473,-5.12 13.871,-7.39 C 569.73,915.68 445.352,798.801 446.02,801.5 l -19.418,11.52 c 82.777,75.628 143.437,164.878 175.976,251.45 z m -49.379,-2 c 4.531,-0.11 0.59,-5.7 -5.5,-19.29 -5.789,-13.32 -7.699,-18.05 -13.09,-20.2 -7.769,-2.81 -18.91,-2.89 -28.789,-4.65 -4.261,-0.74 -2.461,2.5 4.059,15.9 7.621,15.7 8.051,18.95 20.043,22.19 6.957,1.09 16.25,6.09 23.277,6.05 z m 16.41,-28.08 c 4.801,-17.54 4.692,-20.98 1.481,-27.07 -6.051,-11.41 -13.942,-24.691 -16.129,-28.32 -5.43,-9.031 -6.992,-7.148 -10.231,14.801 -2,13.599 -3.75,19.689 -2.269,25.629 2.738,6.68 10.82,22.46 15.391,31.72 6.558,19.68 10.078,-15.04 11.757,-16.76 z m 85.981,15.27 24.488,-8.12 -19.219,-23.44 c 0,0 8.09,1.44 9.02,1.05 19.262,-1.29 16.062,-20.662 1.141,-32.38 -6.18,-5.7 -36.68,-19.731 -36.68,-19.731 -3.289,17.352 -10,28.402 -8.399,46.221 1.129,9.57 1.989,18.2 13.59,18.47 6.129,0.35 8.59,-5.97 12.578,-11.05 l 3.481,28.98 z m 444.21,-21.01 c 0,0 14.77,-7.7 28.44,-18.32 17.85,-13.908 20.9,-30.24 3.05,-36.529 -2.03,-0.699 -7.89,-0.391 -7.89,-0.391 4.88,-8.672 16.56,-21.519 16.56,-21.519 -5.86,-4.141 -14.1,-7.379 -23.24,-10.282 0,0 -2.27,21.532 -4.45,29.852 0,0 -2.35,-4.691 -5.28,-6.531 -17.19,-10.821 -30.66,9.539 -21.44,35.32 5.62,15.66 14.25,28.4 14.25,28.4 z m -188.941,-3.6 c 42.891,1.06 17.77,-69.96 -3.668,-65.39 -0.39,0.629 17.688,42.03 -6.64,48.6 -11.172,3 -1.531,16.95 10.308,16.79 z m -70.39,-5.04 c 13.359,0.08 23.051,-9.41 10.312,-15.39 -20.043,-9.409 -8.121,-31.948 -7.66,-44.722 0.277,-7.82 -17.851,6.793 -21.711,22.653 -4.961,20.509 -2.66,35.709 19.059,37.459 z m -317.418,-7.46 c 2.929,0 5.148,-0.23 5.929,-0.82 1.25,-3.36 -4.761,-13.832 -13.468,-27.218 -4.653,-7.153 -6.684,-9.153 -9.492,-10.864 -6.801,-3.828 -16.25,-2.82 -24.18,-3.398 -11.801,-0.16 -9.731,0.078 3.32,20.621 5.86,9.179 9.531,16.679 13,19.099 0.668,0.43 16.02,2.54 24.891,2.58 z m 15.469,-14.8 c 0,-25.711 8.628,-34.141 2.261,-42.23 -7.73,-12.622 -17.621,-26.442 -21.211,-30.821 -6.09,-7.34 -5.39,-5.937 -6.992,13.281 -1.129,13.95 -2.379,23.282 -0.629,27.622 5.199,12.617 11.371,18.628 17.781,32.027 5.04,10.781 8.79,8.981 8.79,0.121 z M 877.27,984.859 C 889.73,984.66 897.422,971.301 896.879,959 l -0.551,-11.762 c 16.133,6.25 36.094,0.16 36.992,-15.777 1.52,-27.07 -18.242,-23.949 -34.922,-22.813 1.68,-0.628 4.141,-24.457 -5.777,-33.597 -15.59,-17.621 -44.609,0.39 -37.312,26.25 1.492,5.39 1.839,8.75 1.839,8.75 0,0 -10.429,-3.789 -14.097,-3.629 -31.602,1.367 -29.18,46.519 2.57,41.207 6.488,-1.09 10.859,-2.699 10.859,-2.699 0,0 -0.699,2.859 -1.75,6.922 -4.609,17.378 5.071,33.238 22.54,33.007 z m 632.18,-8.05 17.03,-9.918 0,-19.18 -24.25,18.078 7.22,11.02 z M 488.121,963.961 c 6.719,0.039 12,-0.473 10.938,-2.109 0,-3.403 -14.68,-24.063 -23.399,-33.524 -7.379,-8 -8.43,-6.867 -26.558,-5.969 -7.114,0.352 -11.762,0.391 -11.563,2.301 8.359,11.059 19.84,25.309 27.813,37.192 3.128,0.976 14.136,2.027 22.769,2.109 z m 16.57,-9.031 c 1.25,0 1.637,-2.731 1.598,-8.711 0,-4.489 0.621,-18.469 1.289,-24.528 1.172,-11.011 1.172,-10.972 -3.476,-17.582 -5.704,-6.168 -11.524,-15.269 -18.872,-22.339 -11.011,-12.34 -9.878,-13.051 -9.718,13.359 0.148,20.59 -1.41,20.59 2.726,25.43 2.274,2.66 9.262,11.332 13.91,18.121 6.993,10.32 10.704,16.218 12.543,16.25 z m 105.079,-3.629 22.652,-12.223 -22.692,-23.25 c 0,0 5.661,0 7.571,-0.348 14.578,-2.89 13.48,-18.511 -1.211,-30.152 -8.981,-5.75 -39.961,-17.148 -39.961,-17.148 -1.051,13.121 -3.789,25.23 -3.277,39.332 0.199,6.488 0.82,13.558 5.738,19.179 3.398,3.829 9.109,6.02 17.109,0.821 4.223,-3.793 6.41,-8.043 6.41,-8.043 l 7.661,31.832 z m 267.46,-7.93 c -8.871,0 -16.101,-7.262 -16.101,-16.25 0,-8.98 7.23,-16.25 16.101,-16.25 8.899,0 16.09,7.27 16.09,16.25 0,8.988 -7.191,16.25 -16.09,16.25 z m 253.39,-3.832 c 0,0 29.65,-11.277 43.05,-23.668 12.46,-10.512 6.6,-27.851 -5.78,-28.199 -0.94,0 -6.17,0.777 -6.17,0.777 4.18,-6.437 18.24,-22.269 18.24,-22.269 l -22.93,-9.41 c 0,0 -3.67,17.851 -6.48,27.851 -8.01,-18.633 -27.74,-6.519 -29.03,5.117 -3.2,17.032 3.99,33.672 9.1,49.801 z m -253.39,-1.437 c 6.168,0 11.168,-5.043 11.168,-11.293 0,-6.25 -5,-11.289 -11.168,-11.289 -6.179,0 -11.179,5.039 -11.179,11.289 0,6.25 5,11.293 11.179,11.293 z m -437.851,-23.09 c 8,0.078 17.961,-0.313 22.422,-0.582 3.429,-2.66 -3.711,-10.86 -17.461,-25.43 -11.02,-11.68 -12.621,-10.078 -25.981,-10.199 -22.379,-0.153 -22.968,-0.313 -12.66,11.527 11.25,12.934 17.821,21.281 23.051,23.981 1.719,0.472 5.82,0.621 10.629,0.703 z m 27.301,-11.403 c 2.379,0.5 1.718,-5.629 1.332,-19.461 l -0.633,-23.429 -17.418,-16.957 c -20.191,-18.242 -17.77,-19.371 -17.621,-2.301 0.121,13.551 0,23.051 2.859,29.059 8.821,10.742 17.961,20.242 28,30.468 1.571,1.563 2.699,2.461 3.481,2.621 z m 442.851,-5.82 c 4.879,0.391 17.231,-21.019 20.348,-38.949 7.07,-40.942 31.332,-60.352 48.441,-43.91 6.95,9.648 7.731,-0.891 7.379,-5.93 -3.59,-51.879 -61.75,-30.281 -68.398,21.25 -20.391,-13.398 -39.449,13.672 -27.262,13.238 28.75,9.262 20.902,35.942 19.492,54.301 z m -67.383,-0.391 C 845,879.469 813.012,848.719 795,870.289 c -9.18,10.93 -0.82,33.551 10.82,19.641 12.891,-9.641 25.352,1.531 36.328,7.468 z M 402.301,872.789 c 6.609,0.152 16.097,-1.141 20.277,-0.551 5.863,-0.59 1.684,-3.476 -11.058,-15.16 -10.93,-10.066 -14.059,-14.566 -15.309,-10.187 -0.59,6.828 -0.313,14.918 -0.27,24.531 0.969,0.937 3.399,1.289 6.36,1.367 z m 149.258,-11.918 19.531,-14.41 -19.371,-18.012 c 17.383,0.86 18.902,-15.59 12.301,-24.769 -4.25,-6.442 -20.739,-13.2 -37.18,-15.891 -9.93,-1.641 -18.012,-2.859 -18.012,-2.859 0,0 -0.387,7.742 -0.668,20.55 -0.539,26.25 1.219,36.559 11.219,41.68 7.141,3.668 19.211,-2.07 22.18,-8.789 0.98,-2.191 3.562,-6.051 3.562,-6.051 l 6.438,28.551 z M 425.898,859.43 c 0.082,0.039 0.122,0 0.153,-0.039 1.097,-1.493 -2.891,-44.18 -2.891,-44.18 l -28.281,16.09 c 0,0 28.641,27.621 31.019,28.129 z m 748.832,-5.039 c 20.15,-9.571 35.27,-7.7 48.82,-19.61 11.8,-6.25 8.29,-23.441 -0.31,-27.269 -3.9,-1.211 -10.35,-0.543 -10.35,-0.543 7.15,-8.91 22.73,-20.117 22.73,-20.117 l -24.8,-10.512 c 0,0 -3.4,16.922 -6.52,26.129 -4.53,-13.707 -19.81,-13.36 -28.56,-6.91 -6.17,4.769 -8.71,20.781 -5.78,34.652 0.78,3.668 4.77,24.18 4.77,24.18 z M 1042.23,457.039 C 797.578,398.449 598.828,434.66 579.141,441.609 l -15.59,-23.507 c -1.91,-3.993 -3.082,-15.903 -13.629,-19.141 l -15.863,-23.91 3.089,-3.321 -14.027,-12.378 3.399,-4.141 -10.231,-15.039 -4.019,0.43 -23.641,-36.332 3.601,-4.059 -54.339,-85.941 734.999,-0.231 c -42.73,81.441 -88.44,161.289 -130.66,243 z m -4.46,-10.578 4.38,-12.27 c -12.15,1.528 -26.37,2.27 -40.78,2.93 12.65,2.617 25.39,5.859 36.4,9.34 z M 995.078,435.789 C 971.719,424.93 957.699,411.93 946.949,398.18 c -13.359,10.5 -30.39,17.929 -50.699,22.609 l 98.828,15 z m -413.047,-5.969 10.43,-1.172 c 0,0 -3.512,-2.738 -5.981,-2.187 -1.91,0.43 -4.449,3.359 -4.449,3.359 z m 468.199,-6.101 6.65,-13.239 c -15.94,8.559 -84.028,28.051 -103.329,-40.351 -20.352,27.769 -104.172,68.051 -146.672,-17.578 -12.109,23.211 -82.5,89.918 -146.68,4.879 -25.32,52.859 -46.449,57.308 -92.898,50.082 33.008,32.066 79.461,-1.332 99.109,-28.59 55.391,46.406 101.711,32.457 142.18,-5.313 52.191,57.461 104.262,43.629 140.898,14.801 25.711,38.238 50.862,49.77 100.742,35.309 z m -427.609,-0.348 c 32.93,-4.492 65.82,-6.519 98.75,-8.16 -19.07,-7.07 -38.601,-13.172 -54.101,-27.352 -11.758,16.571 -28.09,26.219 -44.649,35.512 z m 237.457,-5.312 c -17.969,-8.547 -37.308,-21.411 -52.848,-34.879 -16.718,13.789 -33.992,25.699 -52.742,31.679 34.461,-1.718 72.621,-0.16 105.59,3.2 z M 1070.82,390.91 c 0,0 -6.64,-1.129 -8.79,-1.719 -29.06,-7.769 -22.73,-49.179 7.19,-49.179 2.81,0 9.92,1.136 9.92,1.136 -0.59,-28.007 7.85,-34.847 36.17,-33.289 l 48.01,-86.75 -710.23,3.082 45.109,72.93 c 22.66,-2.691 36.922,10.039 31.879,29.527 0,0 13.981,-4.328 17.891,-4.328 25.66,-0.199 32.301,39.649 7.691,46.52 -2.73,0.781 -9.609,1.558 -10.461,1.801 11.25,28.398 42.18,11.64 51.051,-0.161 19.922,16.559 41.949,9.141 51.41,-12.3 0,0 -3.711,2.109 -4.851,2.929 -23.36,17.262 -45.079,-18.48 -22.219,-34.961 2.262,-1.636 7.031,-3.046 7.031,-3.046 0,0 -2.82,-2.274 -5.351,-6.602 -11.879,-20.16 7.261,-44.77 30.351,-38.441 17.688,7.031 17.969,20.472 17.93,35.312 0,0 6.129,-0.473 11.597,-0.543 21.293,-0.277 27.383,27.262 14.332,40.031 -7.031,6.922 -16.21,6.411 -20.742,7.27 24.492,24.34 41.102,7.543 58.403,-3.668 2.621,0.078 30.039,33.32 62.621,0.66 -15.821,4.18 -31.992,-6.172 -32.231,-22.812 0.309,-10.7 7.891,-20.161 24.258,-20.938 -1.758,-5.351 -2.93,-9.371 -3.008,-14.609 -0.351,-17.461 13.09,-28.321 30.16,-25.621 14.258,1.828 24.797,18.281 19.719,31.988 -2.301,6.172 -5.43,8.441 -5.43,8.441 38.36,-4.89 37.7,44.289 7.86,47.258 -7.07,0.711 -12.539,-2.379 -19.649,-9.019 17.539,36.293 49.649,29.019 61.68,14.179 16.481,12.114 39.219,28.633 66.399,-0.816 -4.489,0.976 -10.782,1.168 -16.25,-0.274 -21.559,-5.789 -21.641,-33.437 -4.571,-41.878 4.813,-2.379 10.711,-3.75 17.031,-3.508 -5.66,-23.25 19.891,-39.852 37.969,-28.723 12.93,7.973 16.332,26.801 2.313,44.031 23.588,1.051 25.938,30.782 12.297,41.211 -10.7,8.16 -23.278,4.258 -32.379,-6.519 -2.93,8.547 20.39,38.199 53.32,16.828 17.46,14.808 34.77,19.34 54.57,4.57 z m 10.27,-23.199 9.26,-16.949 c -6.17,-0.633 -14.96,6.008 -9.26,16.949 z M 962.031,350.48 c 5.778,0 10.469,-4.718 10.469,-10.582 0,-5.82 -4.691,-10.546 -10.469,-10.546 -5.781,0 -10.429,4.726 -10.429,10.546 0,5.864 4.648,10.582 10.429,10.582 z M 530.98,349.859 c 1.36,-5.668 1.989,-11.328 -8.21,-12.429 l 8.21,12.429 z m 120.04,-10.238 c 5.308,0 9.57,-4.293 9.57,-9.652 0,-5.348 -4.262,-9.68 -9.57,-9.68 -5.282,0 -9.571,4.332 -9.571,9.68 0,5.359 4.289,9.652 9.571,9.652 z m 159.332,-3.012 c 5.589,0 10.16,-4.57 10.16,-10.23 0,-5.66 -4.571,-10.27 -10.16,-10.27 -5.622,0 -10.153,4.61 -10.153,10.27 0,5.66 4.531,10.23 10.153,10.23 z"
         inkscape:connector-curvature="0"
         id="path34"
         style="fill:#000000;fill-opacity:1;fill-rule:nonzero;stroke:none" /><path
         d="M 480.512,2239.82 C 407.031,2134.9 328.441,2074.51 327.109,1992.67 c -0.429,-26.52 13.871,-71.56 58.711,-80.2 29.102,-5.54 69.141,18.01 69.961,65.9 -0.121,9.53 10.078,9.3 10,-3.79 -1.371,-37.77 -13.32,-81.75 -33.402,-117.54 l 96.25,0 c -20.039,35.79 -31.988,79.77 -33.359,117.54 -0.11,13.09 10.121,13.32 9.96,3.79 0.86,-47.89 40.899,-71.44 70,-65.9 44.809,8.64 59.149,53.68 58.68,80.2 -1.289,81.84 -79.93,142.23 -153.398,247.15 z"
         inkscape:connector-curvature="0"
         id="path36"
         style="fill:#000000;fill-opacity:1;fill-rule:nonzero;stroke:none" /><path
         d="m 1305.08,274.738 c -73.48,104.922 -152.11,165.313 -153.4,247.153 -0.43,26.519 13.87,71.558 58.71,80.187 29.06,5.594 69.14,-18 69.96,-65.898 -0.12,-9.532 10.08,-9.289 10,3.789 -1.37,37.781 -13.32,81.761 -33.4,117.543 l 96.25,0 c -20.08,-35.782 -31.99,-79.762 -33.36,-117.543 -0.11,-13.078 10.12,-13.321 9.96,-3.789 0.86,47.898 40.9,71.492 69.97,65.898 44.84,-8.629 59.18,-53.668 58.71,-80.187 -1.29,-81.84 -79.93,-142.231 -153.4,-247.153 z"
         inkscape:connector-curvature="0"
         id="path38"
         style="fill:#000000;fill-opacity:1;fill-rule:nonzero;stroke:none" /></g></g></svg>