<?xml version="1.0" encoding="UTF-8" standalone="no"?>
<!-- Created with Inkscape (http://www.inkscape.org/) -->

<svg
   xmlns:dc="http://purl.org/dc/elements/1.1/"
   xmlns:cc="http://creativecommons.org/ns#"
   xmlns:rdf="http://www.w3.org/1999/02/22-rdf-syntax-ns#"
   xmlns:svg="http://www.w3.org/2000/svg"
   xmlns="http://www.w3.org/2000/svg"
   xmlns:inkscape="http://www.inkscape.org/namespaces/inkscape"
   version="1.1"
   width="223.75"
   height="313.75"
   id="svg2"
   xml:space="preserve"><metadata
     id="metadata8"><rdf:RDF><cc:Work
         rdf:about=""><dc:format>image/svg+xml</dc:format><dc:type
           rdf:resource="http://purl.org/dc/dcmitype/StillImage" /></cc:Work></rdf:RDF></metadata><defs
     id="defs6" /><g
     transform="matrix(1.25,0,0,-1.25,0,313.75)"
     id="g10"><g
       transform="scale(0.1,0.1)"
       id="g12"><path
         d="m 88.9102,2500.44 1607.7698,0 c 47.11,0 85.04,-37.89 85.04,-85.04 l 0,-2316.4 c 0,-47.1094 -37.93,-85.0391 -85.04,-85.0391 l -1607.7698,0 C 41.8008,13.9609 3.87109,51.8906 3.87109,99 l 0,2316.4 c 0,47.15 37.92971,85.04 85.03911,85.04 z"
         inkscape:connector-curvature="0"
         id="path14"
         style="fill:#ffffff;fill-opacity:1;fill-rule:nonzero;stroke:none" /><g
         transform="scale(0.999997,-1)"
         id="g16"><path
           d="m 88.9104,-2500.44 1607.7796,0 c 47.11,0 85.04,37.89 85.04,85.04 l 0,2316.4042 c 0,47.1092 -37.93,85.0388 -85.04,85.0388 l -1607.7796,0 c -47.1095,0 -85.0393,-37.9296 -85.0393,-85.0388 l 0,-2316.4042 c 0,-47.15 37.9298,-85.04 85.0393,-85.04 z"
           inkscape:connector-curvature="0"
           id="path18"
           style="fill:none;stroke:#000000;stroke-width:7.9738698;stroke-linecap:butt;stroke-linejoin:miter;stroke-miterlimit:4;stroke-opacity:1;stroke-dasharray:none" /></g><path
         d="m 1644.61,412.469 c 31.29,0.711 45.31,37.39 22.15,65.859 -3.36,4.141 -3.71,6.531 2.46,2.543 15.58,-10.859 45.51,-3.711 47.03,29.488 1.87,40.942 -53.01,52.743 -63.32,9.219 -0.55,-4.609 -4.14,-4.488 -3.24,2.031 0.93,17.661 6.21,34.219 13.51,50.321 l -37.18,0 c 7.3,-16.102 12.57,-32.66 13.55,-50.321 0.86,-6.519 -2.73,-6.64 -3.28,-2.031 -10.31,43.524 -65.2,31.723 -63.32,-9.219 1.56,-33.199 31.44,-40.347 47.03,-29.488 6.17,3.988 5.82,1.598 2.46,-2.543 -23.16,-28.469 -9.14,-65.148 22.15,-65.859 0,-0.039 0,0 0,0 z"
         inkscape:connector-curvature="0"
         id="path20"
         style="fill:#000000;fill-opacity:1;fill-rule:nonzero;stroke:none" /><path
         d="m 140.98,2101.97 c -31.25,-0.71 -45.2808,-37.43 -22.109,-65.9 3.359,-4.14 3.668,-6.53 -2.461,-2.54 -15.59,10.86 -45.5116,3.71 -47.0311,-29.49 -1.918,-40.94 53.0001,-52.7 63.3201,-9.22 0.5,4.61 4.102,4.49 3.242,-1.99 -0.941,-17.7 -6.25,-34.26 -13.519,-50.36 l 37.187,0 c -7.308,16.1 -12.621,32.66 -13.558,50.36 -0.852,6.48 2.738,6.6 3.289,1.99 10.269,-43.48 65.191,-31.72 63.281,9.22 -1.531,33.2 -31.41,40.35 -47.031,29.49 -6.141,-3.99 -5.789,-1.6 -2.43,2.54 23.168,28.47 9.141,65.19 -22.14,65.9 l -0.04,0 z"
         inkscape:connector-curvature="0"
         id="path22"
         style="fill:#000000;fill-opacity:1;fill-rule:nonzero;stroke:none" /><path
         d="m 147.34,2155.95 26.449,0 -38.867,97.15 -29.652,-41.02 0.199,-56.13 20.859,0 0,-28.94 -73.4764,0 0,28.94 24.2187,0 0,208.95 -24.2187,-0.08 0,25.31 74.5274,0 0,-26.17 -20.539,0 -0.469,-101.84 65.078,102.7 -22.969,0 0,25.31 79.25,0 0,-25.31 -20.89,0 -53.559,-83.95 52.418,-124.96 23.281,0 0.122,-28.94 -81.524,0 -0.238,28.98 z"
         inkscape:connector-curvature="0"
         id="path24"
         style="fill:#000000;fill-opacity:1;fill-rule:nonzero;stroke:none" /><path
         d="m 1638.24,358.449 -26.44,0 38.86,-97.148 29.65,41.058 -0.19,56.09 -20.86,0 0,28.949 73.47,0 0,-28.949 -24.21,0 0,-208.937 24.21,0.066 0,-25.269 -74.53,0 0,26.132 20.55,0 0.47,101.84 -65.04,-102.703 22.93,0 0,-25.269 -79.26,0 0,25.269 20.9,0 53.55,83.953 -52.42,124.957 -23.28,0 -0.12,28.942 81.53,0 0.23,-28.981 z"
         inkscape:connector-curvature="0"
         id="path26"
         style="fill:#000000;fill-opacity:1;fill-rule:nonzero;stroke:none" /><path
         d="m 1285.82,2293.57 -653.629,-3.21 83.008,-158.75 c 169.879,15.43 318.751,1.72 473.861,-3.39 l 96.76,165.35 z M 839.41,1735.52 c -0.66,-0.94 -27.18,-7.85 -24.488,-13.91 69.219,-149.57 100.156,-271.28 129.058,-425 14.61,11.96 38.25,11.49 38.25,11.49 -11.679,57.07 59.65,64.22 60.07,4.49 13.72,-3.2 27.78,-3.24 40.16,-17.23 5.55,168.01 65.27,341.8 142.38,462.23 -87.89,-35.12 -216.83,-122.62 -216.83,-122.62 0,0 -107.35,44.73 -168.6,100.55 z m 534.3,-17.89 c -116.99,-112.07 -162.77,-423.16 -154.41,-427.46 -150.78,5.08 -196.49,-162.7 -65.78,-253.13 -5.16,-17.53 -17.93,-31.83 -27.82,-47.341 13.48,-7.769 28.21,-9.449 42.89,-11.051 11.18,-13.359 22.15,-28.75 34.26,-30.039 13.17,8.36 22.5,20.582 33.44,31.172 13.67,3.508 27.23,7.379 40.19,13.36 -11.48,16.169 -25.07,32.539 -25.43,47.689 113.64,80.82 98.05,190.78 -4.41,247.03 30.51,185.16 75.04,303.44 126.72,387.54 l 0.35,42.23 z M 568.012,1574.58 c -14.852,-7.3 -22.973,-22.77 -33.75,-34.88 -14.813,-0.66 -29.063,-5.78 -43.172,-12.15 0,0 33.91,-47.22 31.801,-49.76 C 412.969,1405.13 413.871,1298.96 519.41,1229 537.301,1077.9 410.039,838.762 403.59,845.719 l -0.231,-49.457 c 90.59,99.886 142.301,280.278 147.461,425.938 180.86,12.15 187.27,188.48 62.77,254.81 -9.57,8.86 31.289,49.84 31.289,49.84 -10.348,10.31 -27.731,11.48 -42.93,12.73 -9.57,11.57 -17.969,23.09 -33.937,35 z m 764.958,-122.03 c 25.58,-57.38 118.98,12.54 135.19,-18.01 13.17,-17.3 41.84,-19.1 40.28,10.08 -5.39,28.91 -24.22,35.31 -99.03,22.74 -28.39,-4.77 -40.03,-7.62 -39.84,5.43 -19.65,23.9 -36.48,-8.6 -36.6,-20.24 z m 86.76,-83.75 c -20.98,0 -24.53,-82.73 -24.22,-107.58 -60.71,-96.75 124.57,-85.74 44.41,19.65 2.81,13.79 -10.19,36.25 -9.84,46.17 -6.56,0.82 -9.46,38.21 -10.35,41.76 z M 335.27,1244 c -1.95,-25.04 16.25,-100.98 22.968,-98.4 23.75,38.59 20.942,71.56 18.481,109.26 56.562,109.8 -136.598,64.72 -41.449,-10.86 z m 352.5,-17.66 C 679.34,1064.74 640.121,906.18 551.211,768.648 627.73,804.66 702.031,851.109 773.91,890.871 L 941.879,785.949 c 9.723,4.262 16.441,6.371 22.922,12.77 -77.422,114.261 -101.36,278.681 -135.11,427.431 -12.812,-9.18 -36.961,-13.79 -36.961,-13.79 -1.71,-51.6 -55.351,-68.32 -66.32,-1.02 l -38.64,15 z M 282.379,1100.25 c -17.93,-1.14 -31.399,-45.9 19.34,-52.5 35.82,-5.12 81.679,12.65 104.453,4.41 26.449,-42.58 50.199,20.12 14.848,30.35 -37.969,10.98 -115.321,-17.69 -123.872,6.68 -4.418,8.32 -9.769,11.41 -14.769,11.06 z m 304.652,-700 -101.332,-180.629 647.891,3.949 -84.68,172.258 c 1.44,1.922 -282.969,-34.098 -461.879,4.422 z"
         inkscape:connector-curvature="0"
         id="path28"
         style="fill:#e2cf00;fill-opacity:1;fill-rule:nonzero;stroke:none" /><path
         d="m 725.309,2114.35 12.851,-23.52 c 151.762,25.24 271.25,29.18 428.25,-1.4 l 14.33,24.45 c -143.28,26.05 -289.451,36.84 -455.431,0.47 z m 143.171,-354.02 132.42,-86.49 c 0,0 63.44,45.24 90.47,64.38 l -16.45,24.33 c -55.97,-124.61 -154.451,-26.09 -191.369,32.54 0,0 -10,-22.69 -15.071,-34.76 z m 355.7,-41.84 c 9.14,0.19 14.26,-3.4 18.87,-12.81 5.19,-10.63 7.18,-8.01 3.83,5.27 -5.28,20.9 16.75,34.53 37.5,20.55 15,-10.08 14.33,-34.49 -2.04,-39.03 -13.24,-3.63 -13.55,-7.14 -1.95,-6.56 20.86,1.02 26.37,-27.07 11.56,-40.78 -17.07,-15.78 -38.79,-4.61 -40.78,15.2 -0.9,5.58 -2.07,5.5 -3.9,2.34 -5.28,-9.14 -5.75,-21.02 -4.73,-31.76 l -30.82,19.3 c 10.98,5.47 17.66,8.79 25.58,17.11 1.06,1.05 1.84,1.87 1.8,2.34 0,0.82 -3.4,-0.31 -9.69,-0.98 -18.59,-1.95 -32.93,10.24 -29.1,27.9 3.24,15.03 10.94,21.6 23.87,21.91 z m -135.82,-487.73 c 33.52,38.67 75.12,63.51 132.93,60.03 7.34,162.04 63.01,306.14 152.19,435.98 l -98.09,59.49 -39.37,-23.94 c -90.67,-136.06 -152.58,-307.46 -147.66,-531.56 z m -735.27,378.67 c 0,0 -66.41,-50.2 -97.27,-74.46 l 1.481,-446.83 8.597,-2.97 c 0.582,-0.94 -0.738,6.64 3.161,10.12 3.242,2.81 8.32,6.01 11.371,7.14 8.519,3.13 8.91,8.87 0.941,13.83 -6.172,3.87 -8.519,9.81 -7.82,19.73 0.469,6.95 0.199,8.48 -2.692,13.24 -3.589,5.9 -3.871,13.36 -0.82,21.1 1.41,3.59 1.25,4.53 -1.25,9.37 -3.238,6.21 -3.59,12.85 -1.211,20 0.902,2.73 1.563,8.75 1.481,13.36 -0.309,17.81 14.222,29.61 41.14,33.32 10.5,1.45 10.821,1.91 6.012,10.78 -27.231,50.2 33.949,76.37 38.519,68.32 l -1.64,283.95 z m 837.81,-24.92 c 24.84,0.35 45.27,-19.65 45.66,-44.73 0.35,-25.08 -19.53,-45.7 -44.37,-46.1 -24.85,-0.35 -45.28,19.69 -45.63,44.77 -0.39,25.08 19.49,45.7 44.34,46.06 z m 0.43,-8.13 c -19.92,-0.27 -35.78,-16.8 -35.51,-36.87 0.31,-20.08 16.64,-36.14 36.52,-35.86 19.93,0.31 35.82,16.83 35.55,36.91 -0.31,20.12 -16.68,36.13 -36.56,35.82 z m 0.94,-11.52 c 13.47,0.19 24.61,-10.67 24.8,-24.3 0.2,-13.59 -10.62,-24.84 -24.1,-25.04 -13.52,-0.19 -24.57,10.7 -24.77,24.34 -0.19,13.63 10.55,24.8 24.07,25 z m -893.25,-18.68 c 1.839,0.04 3.789,-0.23 5.75,-0.85 11.21,-3.6 15.152,-13.56 9.058,-23.01 -4.769,-7.42 -4.219,-8.05 4.141,-4.92 6.562,2.46 9.922,1.68 15.082,-3.52 15.539,-15.51 -7.582,-41.56 -22.781,-25.78 -7.54,7.85 -8.239,5.55 -3.04,-7.93 1.719,-4.34 4.489,-11.09 4.489,-11.09 l -22.27,0.31 c 0,0 3.442,8.98 5.039,13.2 3.871,10.2 3.992,11.68 -4.058,5.27 -18.129,-14.45 -38.668,10.28 -21.989,26.45 3.399,3.28 8.829,3.44 16.399,0.43 5.551,-2.19 6.211,-0.66 2.07,4.57 -9.019,11.45 -0.699,26.64 12.11,26.87 z m 461.8,-40.03 c -9.058,-59.89 -1.129,-143.91 -1.332,-188.83 24.141,-4.61 24.422,-21.25 28.133,-41.88 11.758,4.14 37.418,-13.4 40.93,-11.83 2.699,60.74 -28.629,237.11 -67.731,242.54 z m 400.9,-60 c 34.3,-2.78 27.69,-29.54 17.5,-40.51 -4.84,-5.63 -3.95,-8.17 1.37,-4.92 14.49,8.82 25.97,2.46 30.66,-12.78 7.97,-25.97 -25.9,-48.36 -40.98,-25.04 -5.11,7.89 -8.24,6.14 -6.99,-2.14 0.74,-7.97 8.48,-24.5 8.48,-24.5 l -33.67,3.05 c 0,0 10.31,17.27 12.11,21.91 3.75,9.65 1.75,12.23 -5.43,4.46 -21.06,-19.46 -50.2,5.43 -36.61,31.21 6.68,12.69 19.03,16.79 32.39,6.68 8.98,-5.94 10.93,-3.36 2.89,3.83 -15.04,13.43 -1.92,40.39 18.28,38.75 z m -861.06,-21.22 c 0.391,0 0.75,0 1.141,0 2.89,-0.03 5.898,-0.85 8.898,-2.57 8.36,-4.73 10.672,-14.1 5.43,-22.23 -3.008,-4.69 -2.149,-7.66 1.371,-4.61 4.691,4.1 15.039,1.41 19.102,-5 10.347,-16.41 -9.922,-37.85 -22.852,-24.22 -5.699,6.06 -7.891,6.29 -7.23,2.31 1.839,-7.43 6.679,-20.08 6.679,-20.08 l -23.277,-0.43 c 0,0 5,13.36 6.129,20.12 0.859,5.35 -1.25,4.57 -6.789,-1.76 -5.391,-6.17 -10.313,-6.8 -17.192,-2.19 -16.992,11.37 -3.398,40.55 14.34,30.74 6.09,-3.4 6.949,-1.44 2.141,4.92 -8.512,11.37 0.199,24.42 12.109,25 z m 1209.96,10.4 c -37.73,-39.34 -25.89,-16.1 -8.39,-46.06 0.07,-19.8 11.48,-35.27 2.42,-66.48 -2.89,-6.1 -3.13,-8.99 -1.56,-15.12 -2.78,-34.49 -30.12,-34.02 -56.72,-39.38 4.41,0.28 42.15,-70.11 -28.28,-75.62 l 0.82,-286.092 110.39,82.141 -0.47,446.611 -18.21,0 z M 682.109,1284.27 c -31.328,-20.35 -75.308,-71.25 -130.589,-60.19 -6.719,-178.52 -64.758,-316.721 -147.54,-435.471 28.598,-17.07 60.04,-37.539 89.301,-50.668 24.688,12.848 38.598,18.239 62.848,38.399 99.531,155.16 131.101,324.84 125.98,507.93 z m 259.879,-32.66 c 5.59,-91.68 20.391,-178.47 67.622,-248.12 l 3.2,194.8 c -16.83,4.11 -30.619,15.08 -35.54,46.22 l -35.282,7.1 z m -341.476,-54.06 31.597,-0.78 c 0,0 -7.187,-14.37 -10.269,-22.46 -3.75,-9.8 -2,-11.84 5.23,-5 9.34,8.91 24.301,9.73 32.149,1.8 20.859,-21.1 -0.981,-55.47 -25.629,-40.39 -10.578,6.44 -12.34,4.29 -3.942,-4.85 16.293,-15.27 -0.738,-37.26 -19.808,-37.38 -13.789,0.08 -22.692,11.17 -23.789,23.44 -0.539,7.69 3.328,15.43 9.929,19.18 6.911,3.94 1.95,6.48 -5.55,2.42 -24.489,-13.32 -40.899,20.86 -22.418,40.31 10.66,11.21 21.949,10.16 32.808,-0.55 7.578,-7.46 10.27,-6.79 8.129,2.04 -2.148,9.96 -8.437,22.22 -8.437,22.22 z m 852.258,-26.83 22.62,-0.04 c -2.23,-5.63 -5.08,-11.41 -6.87,-17 -1.96,-6.09 -0.55,-6.83 5.46,-0.97 15.59,10.58 32.23,0 28.83,-16.72 -2.34,-11.56 -11.91,-17.23 -22.97,-12.23 -9.76,4.42 -6.64,2.54 -1.09,-4.22 6.6,-8 4.92,-17.34 -3.79,-23.55 -15.47,-10.94 -35.82,7.27 -25.62,23.12 6.01,9.46 3.28,8.44 -2.23,3.87 -8.2,-6.05 -20.66,2.54 -20.9,14.45 -0.94,17.15 16.21,26.8 28.28,14.69 5.78,-4.92 7.23,-4.29 4.61,2.81 -2.38,5.16 -3.16,10.71 -6.33,15.79 z m 1.21,-124.77 23.72,0.27 c 0,0 -0.32,-1.83 -3.99,-8.75 -4.3,-8.16 -3.63,-16.56 0.86,-10.86 7.54,9.65 23.63,6.96 28.87,-4.84 6.13,-13.71 -5.82,-28.872 -18.21,-23.122 -8.08,3.752 -8.63,2.932 -3.28,-4.886 5.24,-7.582 2.93,-16.953 -5.54,-22.383 -16.68,-10.738 -36.64,10.66 -22.78,24.383 3.75,3.668 2.58,5.458 -1.95,2.957 -18.36,-10.071 -31.91,15.001 -16.02,29.691 6.76,6.25 11.92,5.82 23.05,-1.95 3.48,-2.42 4.14,0.08 1.64,6.21 -4.26,10.43 -6.37,13.28 -6.37,13.28 z m -880.07,-15 c 26.36,0.39 48.039,-20.9 48.43,-47.501 0.39,-26.64 -20.66,-48.551 -47.07,-48.937 -26.36,-0.403 -48.079,20.886 -48.469,47.527 -0.391,26.641 20.699,48.521 47.109,48.911 z m 0.539,-8.63 c -21.679,-0.31 -39.019,-18.28 -38.711,-40.16 0.313,-21.871 18.172,-39.371 39.852,-39.058 21.68,0.308 38.98,18.32 38.672,40.226 -0.313,21.882 -18.172,39.302 -39.813,38.992 z m 0.43,-15.2 c 13.359,0.2 24.301,-10.542 24.5,-24.018 0.191,-13.481 -10.43,-24.571 -23.789,-24.774 -13.36,-0.187 -24.34,10.594 -24.539,24.07 -0.192,13.473 10.469,24.532 23.828,24.722 z M 514.84,890.289 542.422,876.648 c 0,0 -13.043,-10.699 -18.242,-16.207 -6.641,-7.113 -6.168,-10.472 2.769,-7.07 17.071,6.488 34.18,-3.199 34.531,-21.09 0.43,-23.91 -27.57,-35.39 -41.011,-17.312 -3.989,5.39 -8.75,7.621 -6.918,3.211 4.57,-10.668 1.801,-24.141 -6.129,-29.649 -6.371,-4.453 -17.973,-5.742 -23.832,-2.703 -20.11,10.551 -21.168,33.953 -1.91,43.211 9.691,4.641 10,9.02 0.468,6.641 -19.808,-5 -31.367,19.218 -17.07,35.859 15.192,17.652 39.922,13.981 42.652,-12.148 0.469,-4.653 3.641,-1.25 5.04,5.859 1.679,5.27 2.07,25.039 2.07,25.039 z m 257.07,-39.301 c 0,0 -100.969,-58.008 -97.93,-60.468 0.629,-0.348 22.391,-31.29 22.391,-31.29 50.109,114.61 170.109,19.692 189.367,-38.832 4.141,-2.57 4.852,-1.828 9.422,-3.898 0.391,4.141 8.75,44.762 8.75,44.762 l -132,89.726 z M 606.371,427.828 590.121,404.43 c -5.633,-2.418 251.758,-46.41 454.799,-1.719 l -14.02,26.91 C 865.551,387.039 603.789,424.82 606.371,427.828 z"
         inkscape:connector-curvature="0"
         id="path30"
         style="fill:#d40000;fill-opacity:1;fill-rule:nonzero;stroke:none" /><path
         d="m 239.73,2309.82 0,-2105.242 1306.13,0 0,2105.242 -1306.13,0 z m 391.598,-16.25 655.782,2.54 -121.21,-209.46 c 1.17,11.06 -235.63,44.89 -429.181,3.6 l -105.391,203.32 z m -373.129,-4.92 356.602,0 120.238,-217.31 c 0,0 7.07,-13.59 2.852,-27.77 -4.61,-15.51 -8.551,-22.39 -12.692,-30.31 0.422,4.53 -34.648,8.98 -31.719,-21.29 1.989,-20.51 27.692,-32.11 46.872,-16.18 3.046,0.28 3.007,-2.57 2.347,-7.61 -1.758,-11.72 -14.148,-49.03 -22.621,-51.49 -43.168,35.71 -58.558,-29.53 -29.457,-42.54 16.84,-7.54 42.777,-1.32 54.891,19.14 9.258,15.63 8.238,13.05 11.168,-5.93 1.05,-7.07 2.621,-15.24 3.398,-18.91 2.461,-11.52 0,-13.75 -19.18,-18.94 -15.429,-6.1 -31.097,-9.46 -47.027,-12.93 -29.07,-4.81 -43.949,-26.96 -44.691,-53.91 -0.16,-5.82 0.039,-8.52 -1.168,-10.27 -123.133,-47.15 -252.621,-113.13 -389.813,-225.82 l 0,742.07 z m 818.641,-516.8 c -4.69,7.62 -19.57,47.58 -23.68,64.26 -10.7,80.82 -12.69,176.79 -24.14,252.03 l 15.04,-1.68 c 0,0 5.67,-21.8 11.76,-80.67 3.01,-29.18 6.17,-89.84 8.67,-117.73 3.79,-41.41 22.35,-107.7 33.83,-124.41 18.75,-27.27 56.41,-9.61 43.83,22.77 -6.56,16.8 -31.88,14.06 -28.36,-3.36 0.08,-3.13 2.42,2.23 6.13,5.51 10.94,4.18 23.24,-7.31 16.8,-21.17 -7.97,-17.66 -31.56,-9.57 -39.38,12.69 -9.37,26.56 22.15,46.52 45.71,30.31 26.25,-18.08 26.33,-63.9 5.15,-78.36 -35.58,-13.08 -59.76,13.09 -71.36,39.81 z m 87.96,-33.71 c -1.44,0.86 0.04,3.67 1.8,10.27 6.6,24.73 2.42,44.02 -13.4,62.19 -8.82,10.12 -12.15,11.91 -7.54,13.75 9.81,3.91 31.45,-11.99 37.43,-27.58 5.86,-15.31 7.34,-31.17 -0.94,-48.51 -5.74,-3.72 -14.69,-11.18 -17.35,-10.12 z m 26.8,16.48 c 0,2.89 1.92,12.03 2.35,16.49 1.71,17.22 -6.25,34.76 -20.4,48.43 -11.87,11.49 -12.96,12.7 -1.75,12.89 28.98,0.47 47.46,-46.79 34.1,-70.07 -3.44,-3.68 -13.95,-11.25 -14.3,-7.74 z m 24.53,15.98 c 8.52,40.31 -30.08,67.19 -30.86,65.9 1.92,9.06 17.27,3.86 22.5,0.35 19.5,-13.24 30.75,-47.81 18.75,-67.46 -1.29,-2.42 -2.89,-3.79 -5,-5.12 -4.02,-2.54 -6.4,-4.61 -7.22,-2.81 -0.63,1.37 1.6,7.22 1.83,9.14 z m -339.681,130.74 c 4.02,3.99 5.231,4.1 12.961,1.17 24.301,-9.25 43.711,8.32 37.969,26.84 -2.07,6.68 -11.168,13.94 -16.758,14.53 -9.172,0.98 -9.332,-3.91 0.508,-7.66 12.152,-4.57 13.359,-17.54 2.699,-23.39 -12.539,-8.56 -33.09,13.12 -48.129,11.32 -7.179,-2.18 -11.789,-8.98 -7.687,-17.26 3.199,-5.82 14.019,-9.38 18.437,-5.55 z m -26.961,2.66 c -8.437,3.94 -11.636,3.86 -10.039,13.16 1.063,6.1 9.692,47.19 13.789,63.09 12.313,47.58 0.742,73.94 -34.019,84.57 -23.598,7.22 -43.867,3.55 -67.891,-9.34 l -4.34,13.44 c 100.711,26.6 272.542,20.7 271.962,19.69 3.35,-13.68 4.68,-27.39 6.01,-41.06 0,0 -32.23,15.94 -49.019,21.25 -25.863,8.01 -66.761,-0.78 -74.031,-15.74 -4.101,-8.52 -1.949,-14.18 15.43,-4.73 28.441,15.47 86.57,3.68 107.04,-12.73 4.72,-3.79 4.49,-4.61 4.6,-9.02 0.12,-6.76 0.51,-7.15 -8.78,-2.11 -48.872,25.19 -90.591,22.26 -105.001,-10.82 -3.32,1.01 -15.98,3.2 -15.98,3.2 l 13.59,-20.27 2.582,-21.25 c 0,0 22.23,-12.47 34.488,-17.74 12.031,-5.16 5.121,0.35 -9.68,10.74 -10.859,7.62 -2.23,10.08 4.961,7.15 14.719,-3.4 36.289,-7.73 61.21,8.24 7.77,4.96 25.51,0.67 25.78,-1.6 0,0 2.34,-18.55 4.69,-57.34 1.13,-18.32 3.36,-42.27 4.61,-52.11 3.86,-29.73 4.96,-31.41 -10.55,-17.15 -5.2,4.77 -13.83,12.7 -13.95,12.23 -1.95,-9.22 20.9,-25.39 26.21,-30.94 8.09,-8.44 14.57,-30 11.33,-31.29 -2.07,-0.82 -23.75,17.77 -40.86,34.49 -6.4,6.25 -15.931,14.65 -16.208,14.34 -3.512,-2.34 10.818,-18.71 24.258,-30.94 15.7,-14.26 17.5,-15.51 12.23,-17.65 -9.73,-3.99 -18.48,0.97 -42.109,20.66 -2.313,1.91 -11.25,8.32 -11.68,7.89 -2.152,-2.93 19.649,-23.75 24.609,-25.55 9.18,-3.32 11.83,-12.26 4.57,-15.82 -4.85,-2.34 -22.851,7.66 -37.351,20.32 -2.57,2.26 -9.758,6.09 -10.23,5.58 -2.891,-1.87 13.281,-15.98 28.711,-25.35 15.12,-9.18 17.54,-11.45 13.67,-19.06 -3.59,-7.85 -36.721,10.31 -53.319,29.06 -3.511,3.98 -6.293,5.7 -5.582,4.37 7.18,-20.19 30.973,-34.68 48.629,-40.43 3.16,-1.05 7.732,-2.34 9.802,-3.98 5.04,-4.06 3.91,-8.24 -1.52,-10.62 -18.872,-5.32 -48.59,17.73 -69.84,41.87 -2.469,1.02 -1.02,-2.15 -0.36,-3.2 17.738,-28.56 51.68,-50.32 72.15,-46.25 11.96,2.38 21.56,-1.25 21.64,-5.32 0.08,-3.32 -6.48,-8.59 -19.37,-9.53 -29.06,-2.07 -74.529,30.04 -101.131,70.98 -0.82,1.25 -1.801,1.72 -1.879,0.94 -0.699,-8.67 15.821,-29.92 28.52,-42.11 37.648,-36.13 73.28,-48.36 101.05,-27.97 15.66,12.23 30.82,39.02 7.46,47.97 -12.34,4.76 -20.15,-12.42 -9.57,-7.5 13.87,1.68 17.03,-5.78 15.2,-12.74 -3.52,-12.03 -15.32,-13.94 -24.89,-8.86 -16.68,9.1 -13.12,40.31 8.44,45.78 19.45,4.76 36.45,-11.88 38.67,-27.7 3.44,-24.49 -23.94,-51.01 -45.93,-57.61 -74.969,-22.54 -133.52,82.61 -133.829,85 -3.793,7.3 -8.281,11.17 -11.14,2.65 -3.082,-12.34 -20,-48.51 -29.063,-48.28 2.813,12.73 14.692,34.18 11.801,52.97 -5,-15.43 -15.551,-48.32 -35.699,-65.86 -5.238,-4.8 -20.59,-10.47 -10.039,1.91 12.769,18.09 29.449,42.86 26.008,66.1 -3.399,-5.24 -5.231,-18.48 -9.098,-27.19 -9.691,-21.87 -30.859,-47.81 -44.84,-51.99 -10.32,-3.13 -9.383,0.39 1.207,11.64 11.332,12.03 31.371,47.38 30.043,62.62 -0.551,6.75 -20.781,-58.21 -58.832,-75.98 -10.269,-3.79 -16.09,0.98 -16.09,0.98 14.922,8.67 56.25,49.76 52.34,96.44 0,0 -2.187,-6.87 -5.469,-17.26 -13.98,-44.57 -44.058,-73.87 -67.539,-76.29 -18.711,-1.92 -31.761,5.7 -27.152,9.06 24.301,-0.2 44.223,8.28 59.812,32.15 15.86,24.29 21.758,63.28 12.149,104.53 -8.641,37.23 -10.551,70.7 -13.559,106.48 26.559,-9.18 53.321,-15.27 79.219,-5.08 -2.621,-10.66 -6.91,-11.99 -13.75,-20.03 -4.961,-5.86 -3.281,-7.27 16.09,6.52 5.629,4.02 7.66,7.23 8.68,6.13 1.64,-1.72 -0.942,-12.69 -6.571,-34.57 -8.398,-32.73 -6.211,-35.08 24.93,-47.38 5.82,-2.31 7.961,-4.57 10,-6.99 0.973,-1.18 6.051,-10.47 6.562,-10.78 1.129,-0.79 0.821,9.45 0.188,12.07 -1.68,6.87 -5.348,12.03 -8.551,14.06 -6.129,5.66 -14.918,6.17 -20.59,8.79 z m 587.852,-426.72 0.32,33.98 32.69,-23.4 -0.43,-11.21 -32.58,0.63 z m -55.89,-7.38 -1.18,628.28 c 0,0 25.08,16.83 37.62,25.15 7.85,-24.92 7.77,-78.32 4.84,-102.11 -4.92,-15.46 -7.11,-84.41 -1.52,-119.49 4.41,-27.97 3.63,-74.22 -0.59,-96.33 -1.64,-8.67 -0.35,-49.18 2.74,-86.68 2.34,-28.67 1.64,-54.72 -1.76,-69.64 -2.73,-11.72 -1.8,-53.83 1.29,-70 4.53,-23.75 5.31,-100.08 3.28,-104.26 -5.39,-6.14 -47.54,-6.99 -44.72,-4.92 z m 49.72,657.5 c 0,0 25.28,-16.88 37.46,-25.28 l 0.16,-27.07 -36.52,24.06 -1.1,28.29 z m -377.22,-43.75 15.62,-0.98 c 6.21,-32.7 8.91,-69.92 11.41,-107.19 0.78,-57.5 7.81,-118.12 21.17,-157.85 l -11.49,-12.19 c -19.57,45.55 -21.09,117.39 -25.46,166.02 -1.92,54.69 -10.82,111.83 -11.25,112.19 z m 380.27,5.74 33.98,-23.24 0.35,-29.42 -34.25,22.93 -0.08,29.73 z m -357.74,-7.89 13.72,-1.53 c 4.18,-38.82 10.58,-65.19 13.04,-107.96 3.13,-55.36 12.66,-100.79 18.56,-144.03 l -10.28,-3.44 c -6.91,-3.2 -18.32,47.89 -23.4,151.45 -1.52,31.33 -6.79,66.56 -11.64,105.51 z m 20.79,-1.49 16.36,-2.93 c 7.27,-98.32 18.71,-190.66 30.71,-243.59 l -14.26,-0.94 c -17.66,75.63 -18.83,163.13 -32.81,247.46 z m 23.67,-3.47 15.04,-2.62 c 18.12,-224.88 29.33,-221.95 32.81,-230.82 l -16.29,-6.64 c -17.66,64.61 -21.21,155.7 -31.56,240.08 z m 68.4,-220.86 c -2.58,-7.58 -8.72,-6.88 -15.36,-7.62 -7.46,20.66 -11.83,45.27 -14.96,69.37 -6.87,53.01 -9.37,102.66 -16.52,154.97 l 17.97,-1.88 c -0.59,-0.39 12.77,-184.37 28.87,-214.84 z m -386.641,197.65 c 23.672,-1.17 43.321,-11.87 45.192,-27.57 0.429,-3.56 -2.34,-1.84 -5.551,0.66 -20.352,15.74 -43.551,20.66 -71.52,10.47 -6.129,-2.19 -11.09,-5.71 -13.832,-5.2 -2.457,1.57 -3.199,5.39 -1.328,8.56 6.531,11.01 35.281,13.63 47.039,13.08 z m -54.969,-31.56 c 0.508,-24.76 -5.429,-38.4 -18.32,-44.14 -15.539,-6.87 -35.461,7.89 -25.781,24.45 7.312,12.5 19.891,8.75 22.312,-4.41 l 19.719,44.37 c 0,0 2.039,-14.06 2.07,-20.27 z m 721.1,3.99 -0.2,-25.51 -36.44,24.57 2.42,24.53 34.22,-23.59 z m -646.252,3.32 c 17.973,-7.15 24.531,-15.94 25.192,-19.81 -1.008,-2.93 -2.809,-0.94 -15.93,6.21 -20.16,12.5 -46.488,14.53 -69.57,-1.33 -5.79,-1.17 -6.372,2.15 -0.59,8.4 17.621,13.91 41.91,14.1 60.898,6.53 z m 136.293,4.8 c 15.82,0.51 34.68,-3.55 50.619,-11.64 7.07,-3.56 13.4,-5.78 17.97,-9.88 3.67,-1.96 3.99,-10.35 1.29,-11.02 -2.42,-0.31 -6.33,1.56 -12.23,5.7 -37.891,24.85 -65.149,21.8 -87.032,6.49 -1.25,-0.82 -5,-1.72 -6.476,-1.6 -4.184,0.31 -4.422,2.07 -2.66,4.33 10.16,11.57 25.308,17.15 38.519,17.62 z m 473.429,-17.89 36.49,-25.74 0,-25.32 -38.83,27.23 2.34,23.83 z m -658.98,-10.27 5.309,-0.16 c 12.422,-30.39 28.012,-14.73 34.492,-2.58 l 6.488,-1.05 c -10.16,-40.71 -51.519,-19.42 -46.289,3.79 z m -9.101,-4.07 c 6.051,-0.74 5.82,-7.61 7.73,-12.65 4.223,-11.17 -11.789,-1.72 -14.527,1.01 -4.652,4.96 1.957,11.14 6.797,11.64 z m 180.703,1.18 c 15.738,-24.15 24.808,-9.85 33.789,0.66 l 4.301,-1.37 c -1.133,-17.34 -30.082,-35.86 -43.832,0.28 l 5.742,0.43 z m 48.398,-2.74 c 1.68,0 5.078,-1.25 8.16,-2.5 8.64,-3.51 8.17,-6.09 -1.36,-10.35 -15.241,-6.88 -20.55,-7.73 -15.979,1.91 2.621,4.42 4.379,10.28 9.179,10.94 z m -59.8,-3.67 c 3.82,-2.85 6.359,-5.98 6.789,-11.13 0.312,-3.6 -11.598,0.54 -11.559,6.32 0.391,3.64 2.34,6.61 4.77,4.81 z m -105.469,-1.37 c 7.808,-2.93 6.871,-6.68 1.437,-10.12 -9.797,-5.5 -13.976,-4.41 -7.648,4.26 2.89,3.99 3.551,5.78 6.211,5.86 z m 601.789,-12.73 39.54,-28.05 -0.36,-25.78 -39.49,27.19 c -1.83,11.01 -0.12,18.43 0.31,26.64 z m -683.238,-39.89 c 1.878,-0.03 2.617,-6.28 3.046,-15.42 0.743,-15.2 -14.609,-36.41 -30.117,-43.68 -18.672,-8.79 -38.633,3.52 -35.312,21.76 3.082,16.84 26.761,17.54 27.66,1.99 -2.309,-4.1 0.93,-7.5 2.262,-7.15 6.089,1.65 20.429,14.69 26.289,29.3 2.269,5.67 3.672,11.53 5.269,12.85 0.321,0.28 0.629,0.35 0.903,0.35 z m 682.188,4.77 39.49,-29.1 0.2,-25.59 -39.18,27.19 c -1.57,11.41 -0.86,19.53 -0.51,27.5 z m -479.38,-40.55 c -3,-5.04 -0.539,-14.14 5.59,-6.4 15.738,18.51 38.52,-4.65 26.328,-19.34 -11.058,-13.36 -24.687,-9.06 -53.476,2.03 -20.942,8.09 -24.262,5.32 -29.411,-0.51 -4.261,-4.8 -2.07,-14.49 3.438,-14.37 16.992,-3.87 31.672,-7.66 49.25,-11.37 37.152,-7.69 59.811,40.63 25.859,58.36 -8.078,4.26 -24.918,-1.25 -27.578,-8.4 z m -163.98,-5.54 c -14.489,-13.13 -2.621,-47.58 18.711,-50.67 4.449,-0.62 11.129,-0.43 18.711,1.76 14.918,4.34 31.367,13.24 32.027,18.44 3.09,23.59 -31.719,2.46 -36.328,-0.35 -10.973,-6.72 -22.571,-5.86 -28.43,2.14 -13.172,17.97 10.469,38.64 24.801,16.61 3.598,-5.55 2.348,3.86 -1.602,10.27 -5.59,9.02 -20,8.44 -27.89,1.8 z m 645.98,7.42 37.14,-26.49 -0.23,-24.64 -35.98,26.21 -0.93,24.92 z m 2.77,-36.06 35.16,-25.54 0.62,-25.59 -36.91,24.49 c 0.7,9.22 0.9,17.89 1.13,26.64 z m -197.15,-14.72 c 30.9,-0.51 48.36,-46.6 32.03,-65.82 -4.84,-5.71 -8.71,-7.23 -10.9,-5.08 -0.46,0.43 0.32,5.58 0.63,11.44 0.98,18.56 -2.93,31.29 -16.41,45.43 -10.08,10.59 -13.9,13.87 -5.35,14.03 z m -380.741,-7.35 c -5.859,-2.11 -12.027,-6.36 -16.84,-5.31 -4.719,1.06 -6.949,-1.33 -8.828,-5.04 -7.07,-14.33 -4.883,-18.94 9.149,-10.82 6.679,3.87 8.98,2.46 26.789,-0.94 12.742,-2.42 21.41,-2.18 32.621,0.75 13.91,3.67 22.23,3.94 29.261,0.07 7.071,-3.9 11.868,-9.25 12.071,-4.92 -0.782,5.12 -5.203,18.21 -6.211,22.54 -0.512,2.07 -3.992,0.24 -7.231,0 -11.558,-0.86 -25.351,9.65 -34.261,4.1 -7.149,-4.45 -8.079,-5.62 -17.887,0.2 -7.262,4.3 -12.344,1.64 -18.633,-0.63 z m 372.421,-3.2 c 20.94,-17.66 26.29,-33.32 24.26,-46.17 -1.02,-9.34 -1.72,-19.65 -10.78,-25.27 -1.68,-0.83 -4.18,-1.29 -6.49,-1.65 7.03,26.53 -1.29,50.32 -30.86,75.67 8.6,4.3 17.39,2.85 23.87,-2.58 z m -472.261,0.04 c 0.93,0 1.949,-0.16 3,-0.51 3.641,-1.21 4.223,-10.78 1.332,-13.79 -2.851,-3.01 -5.16,-0.54 -8.48,7.11 -2.461,4.14 0.121,7.19 4.148,7.19 z m -19.34,-7.46 c 7.661,0.15 10.551,-6.92 11.871,-12.54 1.098,-4.81 -0.308,-19.14 -4.371,-14.14 -0.937,3.05 -5.121,12.85 -8.437,15.39 -7.383,5.66 -6.641,11.13 0.937,11.29 z m -21.519,-7.11 c 1.129,0.04 2.57,-0.12 4.289,-0.43 11.961,-1.99 21.101,-21.17 18.32,-32.03 -6.32,-11.72 -8.668,-3.83 -10.738,6.8 -1.641,4.37 -6.52,11.28 -9.531,14.84 -6.211,7.38 -7.192,10.66 -2.34,10.82 z m 717.57,5.55 36.33,-26.29 0.08,-28.13 -38.05,25.82 c 0.86,9.85 1.29,19.26 1.64,28.6 z m -741.172,-11.41 c 17.813,0.31 33.012,-20.9 27.391,-41.02 -6.957,-21.01 -41.609,-16.52 -35.859,4.42 1.679,6.01 8.039,10.43 14.101,6.64 8.789,-5.43 7.848,3.44 2.258,6.56 -8.629,4.85 -20.469,1.92 -23.078,-7.89 -9.18,-34.26 34.41,-45.94 58.16,-10.55 8.668,12.93 18.129,26.76 23.359,32.66 4.649,5.31 5.66,4.77 4.918,-2.07 -3.039,-31.84 -25.039,-71.6 -66.25,-69.45 -40.078,3.86 -52.609,46.75 -22.34,73.55 5.661,4.3 11.172,7.07 17.34,7.15 z m 212.352,-1.72 c -14.649,-7.15 -27.93,-9.88 -42.391,-3.55 -10.66,4.68 -10.5,-0.39 -5.859,-4.57 13.398,-11.53 37.781,-6.29 48.25,0.19 3.359,2.11 4.488,8.2 0,7.93 z m 565.27,-50.86 0.12,-25.58 -40.55,27.42 c -0.66,6.09 0.04,15.43 1.37,25.04 l 39.06,-26.88 z m -39.1,-8.55 38.63,-25.67 1.02,-25.39 -37.54,23.52 -2.11,27.54 z m 2.69,-35.59 36.92,-25.74 0.5,-27.7 -36.52,24.3 -0.9,29.14 z m -899.841,-29.1 -22.578,-68.87 14.77,-0.9 10,-18.16 10.269,18.63 15.551,1.17 -28.012,68.13 z m 901.411,-9.18 35.54,-24.69 0.55,-25.54 -36.95,25.78 0.86,24.45 z m -1.45,-31.33 36.45,-26.56 0.7,-27.15 -41.29,27.77 4.14,25.94 z m -815.742,-15.35 -22.379,-73.71 12.61,1.72 11.8,-19.73 11.911,17.7 11.289,-0.63 -25.231,74.65 z m -168.316,-5.47 -21.332,-73.28 14.3,0.04 12.032,-18.48 10.578,17.85 16.18,0.43 -31.758,73.44 z m 979.288,-13.51 42.78,-30.28 0.35,-28.86 -41.45,28.04 -1.68,31.1 z m 42.31,-68.52 0.47,-25.23 -36.02,25.86 -3.9,28.04 39.45,-28.67 z m -763.829,-4.34 -26.133,-74.49 17.543,-0.15 10.618,-17.89 8.48,17.96 14.102,-0.11 -24.61,74.68 z m 730.669,-7.42 33.39,-23.08 -0.23,-25.94 -32.89,22.23 -0.27,26.79 z m -633.052,-301.36 -19.027,18.43 c -0.23,1.53 15.551,9.26 25.277,4.34 12.852,-6.49 19.454,-29.85 5.082,-42.11 -11.449,-9.77 -28.91,-1.64 -29.261,-0.51 l 17.929,19.85 z m -16.918,30.42 c 0.321,28.52 -14.57,35.83 -26.871,41.61 0,0 -2.031,180.7 -1.757,186.09 0,-0.78 -3.161,19.57 -3.512,20.78 l -2.969,0.78 c 0.5,-18.32 1.719,-206.09 1.399,-207.3 -23,-2.7 -29.45,-18.44 -31.52,-39.53 -17.969,1.32 -29.648,-9.57 -30.039,-11.37 -6.602,9.18 -1.68,22.73 -6.91,32.3 -15.903,-56.17 15.039,-89.8 42.07,-86.64 4.328,-53.94 63.199,-63.71 61.207,1.72 71.211,4.22 47.07,70.31 -1.098,61.56 z m -334.64,226.84 -25.789,-72.93 18.09,2.07 6.597,-13.48 c 28.953,25.75 43.563,-13.98 28.832,20.08 l -27.73,64.26 z m 980.15,-129.8 c 3.36,0.23 7.74,-2.78 8.6,-6.92 0.62,-12.3 -15.79,-9.57 -16.29,-1.76 -0.39,5.51 4.57,8.44 7.69,8.68 z m 10.74,-80.12 c 7.07,5.86 18.32,2.54 18.52,-6.29 0.16,-7.81 -8.75,-10.39 -15.7,-6.02 -5.39,3.32 -5.71,9.54 -2.82,12.31 z m 0.98,-21.72 c 38.79,-2.97 67.62,23.59 55.27,42.7 10.43,13.2 1.92,20.78 4.77,28.35 8.24,8.52 1.37,26.84 -0.7,26.92 -1.68,24.57 -8.75,27.73 -19.3,40.82 -3.16,3.79 7.38,7.5 11.41,14.02 -12.39,-3.28 -19.03,3.01 -25.75,11.41 -71.79,-3.36 -136.25,-8.44 -133.82,-106.68 -10.32,-41.72 7.18,-78.87 57.3,-67.38 10.94,9.88 3.71,24.22 2.38,31.13 -4.29,18.94 0.67,31.25 2.03,40.16 4.26,27.46 24.22,52.93 26.37,9.88 3.52,5.43 1.88,6.21 7.62,8.44 13.79,5.03 13.75,-9.03 10.94,-14.69 -1.8,-2.89 -4.53,-2.66 -7.35,-2.35 -3.98,0.51 -9.22,2 -9.29,3.48 -1.1,-4.45 7.26,-12.77 6.36,-16.99 -1.09,-3.95 -1.79,-3.63 1.88,-1.02 17.26,12.46 28.08,-15.39 3.08,-12.18 12.31,-6.64 -5.89,-26.06 6.8,-36.02 z m -25.55,149.96 c 13.64,0.7 16.88,0.82 16.25,-6.37 2.58,-13.32 5.9,-19.49 23.09,-18.08 17.3,2.26 22.81,3.36 5.35,-7.23 -8.79,-3.9 -11.64,-4.65 -22.07,-3.71 -10.55,0.94 -9.73,2.03 -15.74,-1.6 -3.36,-2.03 -7.03,-4.49 -9.77,-5 -4.02,-0.74 -11.17,-2.31 -11.17,-2.31 -4.02,-20.66 -10.19,-31.05 -18.67,-40.89 -12.03,-13.75 -18.09,-16.18 -3.4,-15.12 5.47,-0.35 2.66,2.38 5,-19.88 0.86,-7.82 2.31,-16.84 3.44,-19.89 3.83,-10.15 4.33,-15.19 -10.2,-15.9 -36.32,-2.77 -44.8,32.9 -39.96,51.1 0.43,2.89 2.07,12.34 2.42,19.88 0.2,4.1 -0.62,7.62 -0.5,11.8 0.82,33.98 8.79,42.93 38.67,65.04 9.02,6.68 25.23,8.04 37.26,8.16 z m 31.88,-1.83 c 16.76,0.35 32.97,-7.78 24.88,-13.05 -5.23,-3.4 -24.06,-1.99 -29.29,1.76 -6.76,4.88 -4.22,11.13 4.41,11.29 z m -747.38,-28.83 -6.64,-11.88 c 3.16,-25.94 3.511,-39.53 -5.711,-66.56 l 13.711,-18.13 10.859,18.83 17.07,-0.31 -29.289,78.05 z m 783.67,5.5 c 10.86,-2.18 11.29,-12.18 8.51,-18.35 -6.05,-13.52 -46.68,-20.08 -46.68,-20.08 -0.31,5.82 0.47,11.4 -3.75,17.93 0,0 27.04,7.15 32.78,12.42 3.83,3.51 6.13,7.97 9.14,8.08 z m 8.01,-30.82 c 3.94,-0.03 6.05,-2.89 7.11,-8.75 0.5,-3.16 -0.67,-5.82 -3.21,-9.25 -10.31,-11.29 -39.29,-19.14 -49.76,-16.25 -0.75,0.97 1.05,12.89 1.79,18.16 13.95,-0.43 37.43,12.07 44.07,16.09 z m -413.05,-69.6 c -13.83,20.15 -44.57,17.22 -41.25,15.78 0.19,17.26 -2.74,40.97 -28.67,43.51 -26.21,1.99 -39.651,-32.85 -29.729,-47.62 -16.129,6.76 -40.391,-10.19 -40.391,-11.79 -2.07,-0.08 -20.59,-49.46 35.469,-51.99 5.082,-23.32 13.832,-34.61 31.761,-44.22 l 0.43,-190.32 6.32,-8.63 0.55,199.45 c 28.71,1.29 32.23,34.42 30.12,42.04 12.73,-0.55 24.3,2.03 34.02,9.53 l 3.36,-32.5 c 0,0 6.72,11.44 5.27,17.54 -12.5,186.91 54.5,389.14 142.47,520.23 4.68,5.51 6.13,12.07 8.43,12.11 21.45,11.68 35,19.53 35,19.53 35.39,-17.19 98.56,-58.59 98.56,-58.59 l 1.01,-266.37 c -0.97,2.62 117.7,13.36 115.9,10.16 0,0 -10.39,4.1 -10.55,11.09 l -3.08,623.32 -51.92,34.22 c 0,0 -42.69,-28.16 -54.64,-37.77 l 1.32,-366.96 -91.95,54.38 c 0,0 1.45,12.97 1.6,17.19 -1.48,50.07 -25.82,66.87 -72.22,51.99 -6.21,-1.96 -10.51,-3.71 -13.56,-1.14 -19.53,57.58 -28.32,208.99 -28.28,208.99 l 130.86,223.75 221.99,1.25 3.87,-854.96 8.01,-448.171 -113.32,-83.277 -1.64,287.068 c 0,0 -16.25,7.85 -20.47,8.36 -1.6,0.12 -3.67,-3.47 -0.78,-5.31 4.14,-2.7 14.41,-6.45 14.41,-6.45 l 2.38,-284.532 c 0,0 -44.02,-29.918 -63.75,-42.378 -36.79,-20.348 -73.04,-39.731 -111.05,-56.758 -37.46,-16.25 -120.08,-50.903 -120.08,-50.903 -7.15,23.871 -78.01,79.692 -157.66,40.282 -7.301,-2.743 -16.32,-5.121 -22.422,-9.379 -30.347,-5.621 -40.347,-38.364 -44.918,-70.192 -0.16,-1.25 2.379,-0.98 2.5,-1.101 0.309,-0.457 7.231,30.551 9.961,36.41 5.821,12.543 13.199,20.043 17.11,21.211 1.8,0.308 3.32,-2.461 0.937,-6.871 -4.808,-8.789 -8.707,-27.43 -9.879,-35.86 -1.058,-7.738 -1.25,-13.988 0.192,-14.257 0.238,-0.243 7.031,23.507 10.078,31.867 8.011,21.883 13.011,30.941 20.703,35.59 7.887,4.769 9.769,4.101 8.199,-0.981 -11.711,-23.078 -16.562,-40.5 -18.859,-65.066 -0.352,-4.934 2.109,-5.043 4.058,3.078 6.41,25.781 15.231,60.672 36.059,71.09 8.859,4.031 12.812,3.832 11.871,0.941 -24.801,-31.601 -31.02,-66.68 -30.699,-78.012 0.07,-3.781 1.597,-3.039 4.801,5.161 8.398,31.128 20.82,57.621 35.589,70.628 5.739,5.032 12.649,6.403 18.439,7.141 17.53,2.191 18.12,-4.367 2.89,-13.32 -17.391,-10.188 -37.469,-47.297 -39.692,-75.188 -0.738,-9.652 2.621,-10.672 5,2.188 10.313,55.39 57.342,91.992 95.082,75.043 16.95,-7.621 20.04,-18.25 5.27,-13.524 -29.92,9.532 -63.09,-11.84 -76.8,-41.679 -12.38,-26.989 -12.11,-41.129 -3.4,-77.27 5.94,-33.391 17.5,-76.008 13.68,-108.711 -4.11,-6.316 -17.109,2.621 -32.43,4.531 -9.25,1.762 -20.539,2.192 -30.191,-1.558 -8.437,-3.242 -13.199,-4.063 -14.769,0.508 -0.5,1.48 6.492,8.671 9.609,12.66 5,6.359 2.109,7.383 -4.879,0.461 -3.441,-3.352 -10.82,-11.282 -12.852,-11.668 -4.449,-0.942 -4.609,4.097 -1.058,16.949 12.582,49.84 9.219,50.699 -12.34,60.82 -21.328,8.199 -14.57,12.297 -24.02,20.469 -6.679,-5.238 8.711,-29.34 26.09,-34.609 14.18,-4.301 12.461,-11.641 6.25,-31.371 -6.332,-27.622 -17.109,-64.18 -10.859,-88.711 13.09,-51.52 64.918,-50.469 104.649,-29.649 l 4.84,-13.121 C 990.859,436.539 813.949,424.82 754.301,431.73 c -4.61,16.29 -5.082,20.469 -6.961,39.61 0,0 36.84,-16.801 55.238,-19.692 22.973,-3.628 58.32,-3.82 67.383,17.5 2.769,6.293 -0.082,11.571 -8.012,7.93 -14.57,-6.637 -39.449,-11.598 -59.57,-10.308 -16.867,1.019 -40.93,7.89 -51.328,14.179 -4.922,3.012 -9.102,8.91 -5.231,16.289 3.442,0.742 7.93,-3.09 10.629,-4.449 30.43,-15.508 47.141,-18.519 66.992,-12.578 15.079,4.527 35.387,20.937 30.348,25.578 -5.078,-1.789 -21.949,-16.09 -33.59,-19.211 -23.949,-6.449 -49.5,3.391 -74.418,19.684 -7.66,6.718 -4.179,11.597 5.239,6.25 37.3,-18.942 52.851,-31.524 88.511,-4.922 7.969,5.941 12.418,5.199 17.11,1.558 18.519,-16.718 18.48,-7.339 4.879,10.082 -3.079,3.95 -5.86,9.489 -7.731,15.348 -1.328,4.383 -1.641,8.75 -4.141,11.602 -4.179,4.89 -11.757,7.23 -20.429,11.101 -12.5,5.547 -16.641,2.891 -7.418,-1.679 16.168,-7.93 24.019,-16.454 3.937,-11.883 -18.199,8.25 -48.629,3.64 -65.859,-8.43 -13.469,-6.641 -19.449,-13.75 -22.609,1.289 -6.719,31.402 -0.2,73.981 -9.149,128.781 -1.711,10.43 -3.781,17.039 -1.641,18.481 2.782,1.84 9.731,-4.918 18.321,-17.11 3.91,-5.55 11.719,-16.25 11.679,-14.019 0.282,11.598 -17.57,33.359 -32.339,41.949 -8.121,4.731 -13.629,26.488 -4.34,21.719 7.148,-3.551 44.418,-36.598 51.488,-48.359 3.32,-5.469 6.09,-1.989 2.621,4.449 -2.109,3.871 -10.859,15.203 -19.379,23.601 -15.082,14.84 -16.832,14.141 -13.941,17.192 5.738,6.047 18,-1.723 39.879,-21.723 5.621,-7.148 13.051,-13.598 12.109,-10.039 2.262,5.578 -19.648,29.328 -32.656,35.699 -2.422,1.52 -2.731,3.16 -2.543,6.09 1.25,11.25 26.41,-5.23 47.269,-24.488 7.813,-7.223 1.332,6.371 -7.738,15.59 -7.109,7.218 -18.551,16.25 -26.32,19.328 -7.738,3.211 -8.25,10 -2.192,12.859 20.942,0.891 42.543,-20.668 55.391,-37.656 3.551,-4.652 6.801,-8.242 3.121,0.59 -11.91,26.558 -36.711,41.519 -53.898,44.527 -13.953,2.5 -13.633,15.191 -0.512,13.75 14.41,-1.57 38.051,-14.73 58.051,-35.039 5.82,-5.941 15.621,-19.379 13.59,-11.488 -0.039,2.148 -6.172,10.547 -13.282,18.668 -16.371,16.41 -35.429,30.898 -55.589,35.242 -9.45,2.687 -37.461,-2.774 -37.61,2.148 -0.082,3.629 2.93,5.782 11.828,8.789 34.614,11.641 85.313,-18.398 113.012,-64.57 1.988,-3.277 5.738,-4.687 5.98,-3.949 -13.359,37.738 -54.96,71.922 -88.05,77.769 -22.461,3.641 -45.16,-2.14 -55.942,-17.461 -12.148,-17.218 -7.379,-40.226 10.821,-38.386 9.57,0.886 8.832,6.359 8.64,6.558 -0.668,0.621 -6.219,-1.992 -9.648,-1.332 -12.461,2.461 -11.141,25.231 7.07,22.973 20.969,-2.582 23.938,-35.981 0.508,-42.973 -21.649,-6.476 -29.578,3.481 -35.469,15.313 -8.68,17.308 0.621,45.277 15.891,55.98 42.777,29.957 96.879,4.84 127.469,-24.883 15.109,-14.726 26.171,-32.187 33.121,-51.058 1.757,-4.371 5.589,-3.942 3.828,0.59 -43.047,110.898 -171.52,123.832 -190.348,37.73 -31.101,49.219 -58.32,52.66 -100,31.168 -42.5,-17.726 -63.441,-32.219 -102.742,-50.816 l -89.18,48.316 c -5.23,89.383 -2.258,179.07 -1.91,268.602 0.27,2.07 -19.301,-1.41 -51.918,-6.6 -86.672,-17.47 -79.211,29.45 -90.543,31.79 -6.058,1.21 -5.629,-1.4 -7.269,163.64 -0.469,47.92 -1.438,132.18 -2.11,187.26 -0.699,55.04 -0.898,100.94 -0.429,101.88 0.511,0.97 5.39,5.19 10.98,9.21 21.129,15.12 33.012,24.26 79.219,59.85 10.472,8.05 13.082,9.41 13.082,9.41 5.32,-99.14 0.551,-203.24 3.168,-288.47 l 3.902,-0.04 -1.519,286.21 c -7.973,2.11 182.269,114.45 286.519,150.94 1.957,0.66 6.84,-1.53 6.84,-1.53 59.84,-74.02 217.269,-51.6 229.961,38.52 26.098,-54.96 140.668,-161.68 193.048,-33.01 0,0 18.94,-36.99 35.23,-39.41 36.6,-4.93 40.67,0.93 121.21,40.35 -92.11,-141.02 -142.89,-290.35 -149.37,-471.17 z m -48.95,35.15 c 2,-6.21 2.7,-14.26 0.98,-20.62 -2.38,-4.96 -5.86,-4.89 -5.86,-4.89 l -17.85,15.39 -17.419,-16.32 c 0,0 -10.711,10.82 -4.851,25.89 11.18,21.02 36.72,17.23 45,0.55 z m 460.82,2.5 c 11.45,0.74 5.51,-12.54 -11.36,-21.52 -10.59,-5.63 -19.38,-7.23 -23.21,-5.2 -2.07,6.25 -0.31,11.92 0.98,14.46 7.23,3.71 27.03,10.27 33.59,12.26 z m -737.109,-25 c 12.699,0.31 23.679,-8.79 24.07,-24.92 0.149,-6.6 -3.172,-13.13 -3.172,-13.13 l -21.168,15.79 -16.211,-17.43 c -2.73,-0.97 -12.66,11.49 -5.859,25.08 4.961,9.88 13.668,14.42 22.34,14.61 z m 306.289,-7.38 c 17.82,-8.17 20.9,-33.32 3.56,-43.01 -8.24,-4.61 -21.17,-7.15 -27.27,2.15 l 17.54,19.3 -20.12,17.07 c -0.78,0.78 15.4,9.45 26.29,4.49 z m 427.7,6.6 c 3.09,0 3.87,-1.17 4.73,-4.06 2.5,-8.24 -3.83,-16.49 -14.81,-19.1 -10.16,-2.43 -9.18,-3.64 -13.98,5.5 -3.75,7.19 -4.77,6.88 1.13,9.14 7.11,2.35 14.73,5.04 22.93,8.52 z m -506.802,-12.34 c 0,0 -12.648,-12.97 -18.16,-18.4 l 19.024,-20.04 c 0.898,-2.42 -21.954,-12.85 -33.981,2.89 -7.82,10.23 -3.402,29.69 7.688,36.37 11.293,6.83 27.543,1.17 25.429,-0.82 z m 27.272,2.26 c 11.21,0.16 20.43,-8.87 20.58,-20.19 0.2,-11.37 -8.79,-20.71 -20,-20.86 -11.25,-0.16 -20.5,8.9 -20.66,20.23 -0.16,11.37 8.83,20.67 20.08,20.82 z m -278.049,-34.53 -18.242,-19.3 19.73,-21.68 c 0,0 -15.59,-2.53 -21.14,-1.52 -26.868,5.08 -24.219,36.88 -3.469,45.27 8.789,3.13 15.308,2.07 23.121,-2.77 z m -358.09,-6.56 c 0,0 3.598,-40.82 6.879,-54.77 -2.148,-15.93 -12.34,-26.76 -16.949,-43.08 -2.461,-7.31 -11.641,-17.07 -13.403,-6.84 -6.636,12.66 -0.308,28.32 -5.777,37.34 -4.223,8.48 -1.961,13.25 -3.832,22.07 -5.16,7.27 -7.578,10.59 -6.719,17.04 -1.09,28.86 -8.242,23.16 -20.941,20.78 -49.258,-4.26 -49.219,-32.89 -46.207,-69.22 -6.992,-34.06 5.898,-26.02 5.469,-32.15 -0.661,-9.73 0.937,-23.32 3.828,-24.84 17.543,-20.32 18.441,-34.38 41.293,-30.9 38.668,-3.05 100.117,2.73 113.398,50.35 8.281,67.07 10.82,130.82 -57.039,114.22 z m 384.457,6.56 c 10.82,0.16 19.723,-8.55 19.883,-19.49 0.16,-10.98 -8.481,-19.96 -19.34,-20.12 -10.82,-0.15 -19.762,8.6 -19.922,19.53 -0.148,10.94 8.52,19.92 19.379,20.08 z m -367.539,-10.39 c 7.34,0.08 15.941,-1.45 23.012,-8.32 15.187,-14.69 15.859,-28.01 9.097,-84.49 -1.878,-15.94 -7.418,-29.26 -14.808,-35.04 -14.762,-11.64 -32.852,-19.96 -47.77,-23.63 -7.851,-1.96 -14.691,-2.04 -20,-1.96 -5.742,0.04 -9.101,2.7 -9.531,7.58 1.25,13.16 -12.027,14.41 -19.769,13.67 -13.75,-0.54 -15.149,-1.99 -6.559,4.73 9.769,7.62 32.34,7.73 36.598,3.24 8.832,8.91 17.972,9.96 29.222,11.25 -1.679,2.46 -5.703,12.35 -3.051,18.67 5.821,10.32 15.629,28.52 25.86,35.35 10.16,13.4 1.57,7.35 -4.762,7.11 -3.598,-0.15 -3.277,1.06 -3.867,3.48 -2.5,10.47 -6.133,29.96 -6.133,41.6 -0.039,5.63 5.152,6.68 12.461,6.76 z m -64.687,-14.45 c 3.988,-3.6 3.91,-8.56 -0.231,-12.27 -4.769,-4.22 -14.262,-1.87 -14.5,6.1 0.629,8 9.93,10.31 14.731,6.17 z m 685.238,-28.32 c -16.488,-0.82 -30.039,16.99 -23.828,34.68 3.398,4.81 4.879,4.14 4.879,4.14 l 18.749,-16.91 18.01,18.99 c 14.8,-18.05 2.07,-39.54 -17.81,-40.9 z m -705.32,27.54 c -1.321,-5.16 0.429,-10.36 0.671,-12.86 -3.281,-2.34 -17.191,-6.48 -24.652,-10.15 -5.199,-1.8 -8.949,3.08 -8.199,7.58 1.949,8.36 14.14,13.82 22.961,16.4 2.738,0.71 7.269,0.94 9.219,-0.97 z m 3.05,-23.91 c 5.039,0.62 3.559,-10.43 1.68,-16.06 -1.879,-4.02 -7.422,-3.86 -12.379,-4.14 -8.75,-0.54 -19.812,-10.74 -24.57,-9.1 -1.571,0.74 -2.699,4.92 -2.852,7.62 1.012,14.73 25.231,20.12 38.121,21.68 z m 26.52,-15.31 c -1.68,-2.5 -7.07,-3.67 -11.559,-2.42 -7.383,2.03 -8.511,12.69 -2.031,16.36 11.41,3.83 18.281,-6.99 13.59,-13.94 z m 728.25,24.29 -10,-15.35 -15.2,0.28 24.53,-76.06 11.37,29.73 c 1.52,13.63 3.32,27.26 4.73,40.97 l -15.43,20.43 z m -323.289,-6.4 19.461,-16.02 16.636,17.19 c 12.422,-27.89 -1.878,-40.66 -17.07,-40.31 -16.797,0.39 -34.648,16.4 -19.027,39.14 z m -426.563,-28.87 c 6.141,1.21 3.524,-15.59 2.66,-16.09 -3.949,-1.45 -20.898,-3.68 -28.007,-9.77 -15.192,-11.99 -21.68,-4.69 -14.653,9.73 6.641,8.36 31.172,15.97 40,16.13 z m 19.34,-0.78 c 6.762,0.62 11.524,-6.91 7.383,-14.14 -5.621,-5.27 -15.473,-1.41 -15.43,6.05 -0.043,4.69 3.789,7.85 8.047,8.09 z m -10,-42.62 c 0.942,-3.9 -0.43,-2.69 -7.539,-4.8 -3.949,-1.17 -10.078,-3.83 -16.519,-7.07 -9.418,-4.81 -12.071,-7.39 -15.399,-6.84 -2.652,0.59 -5.742,1.72 -6.562,4.45 -3.239,10.86 5.511,21.92 25.902,29.5 4.219,1.6 11.84,2.89 14.418,3.16 6.91,-0.04 -0.469,-10.74 5.699,-18.4 z m 12.031,16.33 c 9.879,0.16 11.719,-13.05 4.34,-15.39 -17.269,-4.49 -15.789,15.43 -4.34,15.39 z m -12.148,-48.63 c 2.769,-2.7 3.16,-7.11 0.078,-9.42 -5.699,-2.81 -27.578,-0.43 -27.738,5.78 -0.071,4.11 7.23,5.47 14.027,5.63 6.793,0.12 11.402,0.16 13.633,-1.99 z m 987.539,-6.8 -18.05,-24.34 24.18,-61.09 22.11,73.99 -17.34,-6.92 -10.9,18.36 z M 292.77,1040.68 c 4.179,-188.211 3.48,-619.461 3.48,-619.461 l 53.051,-36.438 55.898,40.547 c -0.59,135.742 -1.14,229.371 -1.648,355.031 l 81.879,-45.39 c 0,0 2.5,-3.629 2.109,-20.617 -5.66,-46.883 39.301,-77.34 69.102,-58.832 11.48,4.878 12.418,5.742 14.879,2.07 6.679,-10.078 14.261,-53.281 15.511,-80.86 1.918,-41.519 12.739,-126.171 15.348,-126.761 l -133.277,-226.75 -210.903,0 0,845.391 c 10.781,-12.85 16.531,-21.25 34.571,-27.93 z m 773.21,18.12 -10,-15.39 -12.03,0 21.13,-78.75 25.62,77.03 -14.1,1.76 -10.62,15.35 z M 398.789,430.68 c 0,0 -25.937,-18.75 -34.219,-24.18 -4.371,-1.641 -6.48,-1.961 -7.5,2.262 -1.289,5.16 0.782,14.918 2.578,31.097 1.68,14.922 1.641,15.782 -0.82,37.071 -2.539,22.218 -2.848,23.16 -0.777,52.539 2.34,32.73 2.769,64.531 0.187,84.211 -2.418,18.718 -2.379,61.371 -0.508,85.199 2.27,29.18 1.532,54.769 -2.261,75.941 -6.719,37.731 -7.848,50.7 -0.821,79.102 2.622,10.617 3.942,16.25 3.403,34.058 -0.629,19.77 -0.981,26.211 -8.012,70 -4.019,25.239 -4.34,28.668 -0.551,68.6 0.742,8.04 1.024,13.43 4.063,15.97 3.558,2.97 40.508,5.16 40.508,5.16 l 4.73,-617.03 z m -97.269,609.29 40.281,0.43 c -3.09,-12.73 -3.789,-22.42 -4.102,-31.64 l -35.789,23.75 -0.39,7.46 z m 0.589,-16.29 35.43,-23.32 c 0.039,-9.84 -0.699,-19.251 0.742,-29.098 l -35.941,24.066 -0.231,28.352 z m 0.082,-37.032 37.887,-26.168 c 1.481,-10.152 4.57,-20.468 5.781,-29.652 l -43.007,29.383 -0.661,26.437 z m 1225.899,-10.308 1.99,-753.121 -377.35,0 -119.61,231.91 c 0,0 1.22,21.332 4.15,32.23 3.59,13.121 4.53,16.012 9.57,16.641 13.39,-7.031 28.39,2.301 32.96,12.578 5.63,12.652 -5.78,31.793 -23.32,35.934 -7.73,1.879 -16.17,-1.641 -24.72,-8.242 -4.96,-4.18 -6.06,-4.649 -7.03,-1.008 -2.23,8.199 4.96,30.457 17.85,49.566 7.15,10.621 9.1,13.672 11.4,9.602 9.38,-16.321 29.5,-12.918 37.11,-3.711 9.22,11.179 7.31,36.64 -13.59,43.402 -40.9,13.207 -59.69,-28.199 -59.18,-28.082 l -8.75,49.641 c 49.22,12.191 77.66,16.492 93.28,31.57 12.31,11.828 18.17,32.34 16.68,50.578 0,0 136.76,56.063 200.78,90.902 110.2,59.961 207.78,139.61 207.78,139.61 z m -208.29,-5.43 -10.07,-17.969 -14.38,0 29.03,-75.863 22.18,79.184 -13.83,-1.25 -12.93,15.898 z m -1015.851,-21.762 43.43,-30.226 c 0.98,-9.844 2.23,-18.563 0.902,-29.692 l -45.703,30.508 1.371,29.41 z m 847.461,9.262 -10.82,-14.488 -12.47,1.328 24.46,-75.078 c 7.42,21.719 14.18,51.168 21.52,72.887 l -11.56,-0.547 -11.13,15.898 z m -848.211,-47.89 44.922,-30.04 c 0.199,-9.3 0.629,-18.011 -2.57,-24.57 l -42.43,27.461 0.078,27.149 z m 932.421,-4.34 -10.89,-21.168 -14.53,2 25.97,-71.961 28.4,71.289 -17.58,-0.942 -11.37,20.782 z M 303.281,875.52 342.23,846.648 c 0.579,-0.429 -2.152,-13.16 -1.531,-20.386 l -37.07,23.047 -0.348,26.211 z m 1.059,-35.7 36.32,-25.199 c 0.078,-9.57 0.75,-18.551 2.231,-26.68 l -39.45,25.86 0.899,26.019 z m -0.629,-36.41 41.988,-30.191 2.231,-24.258 -44.489,28.238 0.27,26.211 z m 345.82,-10.121 c 40.309,-15.148 78.129,-92.527 76.949,-192.73 -0.781,-69.528 20,-168.829 19.649,-167.661 0,0 -11.719,-1.597 -15,1.024 -15.188,51.047 -20.27,105.039 -22.649,149.527 -1.96,37.11 -4.101,73.563 -6.41,82.071 -6.64,29.921 -13.832,64.839 -32.769,87.582 -14.77,17.148 -31.602,20.16 -41.641,0.898 -8.25,-15.781 9.102,-41.922 23.512,-33.211 3.476,1.961 5.547,5.32 0.976,5.199 -14.957,-2.226 -25,18.672 -15.546,28.59 16.679,17.543 45.82,-21.519 32.308,-43 -5.941,-9.297 -21.531,-10.937 -33.988,-7.5 -27.731,13.512 -34.692,46.684 -25.434,68.512 7.071,16.64 22.621,26.558 40.043,20.699 z m -48.75,-9.961 c 3.239,-0.109 1.02,-6.25 -1.992,-15.738 -7.148,-22.809 6.25,-58.199 24.762,-65.27 5.551,-3.832 5.277,-5.281 1.57,-7.39 -12.109,-6.828 -34.07,13.75 -39.851,36.648 -4.219,16.602 -3.161,36.172 4.73,44.453 4.301,4.571 7.73,6.949 10.078,7.258 0.231,0.039 0.473,0.082 0.703,0.039 z m -297.5,-13.43 44.84,-29.57 c 2.078,-9.258 1.18,-19.109 -0.23,-29.027 l -44.879,31.597 0.269,27 z m 270.699,0.391 c 3.321,0.109 2.071,-5.508 1.141,-15.777 -2.152,-23.793 5.149,-41.102 21.789,-55.434 7.039,-6.058 8.949,-7.969 5.942,-11.137 -4.301,-4.531 -16.602,1.528 -26.211,11.68 -17.692,18.559 -23.52,53.641 -9.762,66.367 3,2.774 5.351,4.262 7.101,4.301 z m 498.95,-4.141 c 19.18,0.782 35.35,-6.718 37.15,-30.386 2.58,-34.614 -29.38,-53.524 -51.64,-33.684 -20,19.961 0.23,51.211 23.4,36.57 11.64,-7.429 -2.23,-24.296 -11.64,-15.589 -4.26,3.953 -6.14,1.48 -3.13,-3.047 9.14,-13.75 27.07,-2.301 25.78,9.769 -2.5,23.789 -31.48,23.508 -42.38,14.18 -14.92,-12.742 -28.05,-31.531 -37.85,-45.199 -8.05,-11.871 -9.77,-11.563 -8.6,3.129 3.17,38.75 38.99,63.078 68.91,64.257 z m -522.032,-7.539 c 3.051,0.071 1.832,-4.339 2.071,-15.711 1.25,-29.25 13.441,-47.457 28.941,-57.648 5.199,-5.781 -1.441,-9.891 -11.211,-7.07 -22.258,6.91 -45,55.148 -26.129,75.898 2.66,2.934 4.731,4.453 6.328,4.531 z M 529.262,749 c 3.078,0.191 1.359,-6.25 1.636,-18.48 0.622,-25.661 8.481,-38.008 27.383,-53.668 6.168,-5.082 6.949,-4.532 4.528,-7.34 -6.481,-7.543 -28.43,3.117 -37.809,18.508 -11.129,18.281 -12.77,45.902 -2.422,56.332 2.934,2.929 5.082,4.527 6.684,4.648 z M 507.73,736.609 c 2.579,0 1.141,-4.64 1.532,-15.699 0.968,-26.91 7.027,-40.191 23.937,-52.648 10.629,-7.821 13.211,-5.473 9.961,-8.563 -5.699,-5.429 -21.25,-0.777 -32.93,9.18 -17.5,14.922 -22.421,51.68 -8.199,64.262 2.539,2.257 4.379,3.507 5.699,3.468 z m -203.71,-3.781 43.128,-30.156 -1.207,-25.473 -42.89,29.301 0.969,26.328 z m 753.71,-47.738 c -17.53,3.629 -24.18,16.41 -22.03,30.898 0.71,4.84 3.52,7.582 6.53,1.293 2.57,-10.043 9.22,-23.992 18.28,-26.679 3.63,-1.09 0.58,-6.211 -2.78,-5.512 z M 680.352,715.172 C 700.16,664.859 699.801,609.93 703.09,558.02 707.422,489 719.531,442.512 723.48,434.699 c 0,0 -19.339,-0.23 -20.32,2.582 0,0 -18.238,91.52 -15.461,136.797 0.192,50.621 -9.578,95.152 -15.551,115.152 -6.328,17.7 -6.597,6.02 8.204,25.942 z M 303.789,695.52 345.27,668.141 c -0.579,-9.34 -0.661,-18.711 -0.54,-28.09 l -40.671,29.027 -0.27,26.442 z m 557.66,2.339 c 0.031,-1.519 6.012,-2.808 15.352,-0.539 10.39,2.539 20.738,2.11 28.711,-0.121 8.468,-2.34 9.41,0.43 1.718,3.789 -3.71,1.641 -9.691,5.391 -18.601,5.231 -8.899,-0.149 -27.258,-5.039 -27.18,-8.36 z m 168.001,1.063 c 0.98,-1.883 4.14,-6.094 6.96,-9.41 5.35,-6.25 6.83,-6.293 4.41,-8.832 -5.59,-5.899 -17.3,2.609 -18.59,13.511 -1.1,7.93 2.85,12.93 7.22,4.731 z M 658.09,696.77 c 19.371,-27.848 22.219,-93.2 22.609,-139.649 C 681.09,515.289 695.121,438.68 696.25,439 c -4.02,-2.391 -9.371,-1.531 -14.41,0.43 -5,6.519 -8.051,24.879 -13.828,74.609 -1.492,12.813 -4.422,53.59 -5.082,86.441 -0.59,28.989 -16.602,91.719 -16.602,91.719 0,0 6.211,4.449 11.762,4.571 z m -21.57,-6.95 c 17.66,-39.769 20.55,-79.261 21.332,-127.148 0.738,-45.313 10.738,-98.402 14.488,-121.801 -5.93,-0.621 -12.219,-1.133 -14.719,1.559 -1.601,2.191 -2.851,5.629 -3.641,10.082 -8.039,39.179 -9.96,81.797 -12.261,117.847 -3.438,55.86 -4.34,69.692 -12.188,97.5 -4.453,15.821 -6.011,15.469 -2.652,18.52 2.57,2.301 7.422,3.48 9.641,3.441 z M 835,680.68 c 0.512,-18.52 2.852,-10.981 9.34,-8.051 4.84,0.43 8.82,-2.27 17.89,-5.617 11.559,-4.262 10.5,-5.711 18.629,-1.684 5,2.461 8.981,3.32 11.371,1.363 9.489,-7.769 21.719,-3.402 28.59,2.887 5.391,2.852 11.25,1.293 15.821,0.902 6.558,-0.621 4.839,3.598 5.66,11.95 0.711,7.429 -2.102,8.09 -9.723,5.59 -7.777,-2.579 -15.508,-2.93 -22.308,-0.86 -17.258,5.352 -29.918,1.879 -38.508,0.512 -20.242,-3.203 -21.332,-1.133 -25.903,1.797 -3.437,2.179 -9.058,6.211 -11.019,6.09 -1.949,-0.161 -1.32,-6.84 0.16,-14.879 z m 179.61,8.468 c 1.95,1.024 2.81,-1.636 5.51,-5.148 4.49,-5.898 5.78,-8.672 2.03,-9.219 -9.96,-1.453 -12.42,-0.429 -12.07,5.821 0.27,4.957 1.37,6.91 4.53,8.546 z m -398.872,-8.789 c 14.571,-14.8 18.282,-98.078 19.961,-116.007 5.242,-97.114 14.379,-111.063 9.692,-118.364 -5.512,0.082 -7.461,-1.949 -11.051,2.891 -12.5,35.59 -11.762,72.152 -13.789,109.262 -2.852,49.179 -7.699,75.781 -14.531,100.148 -4.571,16.223 -4.5,16.492 3.71,20.941 1.442,0.782 4.68,1.211 6.008,1.129 z M 596.051,668.68 c 5.16,-11.789 15.469,-65.418 16.879,-111.711 1.129,-36.758 9.8,-108.641 11.449,-109.028 -5.32,-0.472 -11.68,0.629 -14.258,4.688 -15.941,70.82 -10.859,139.531 -29.262,210.781 1.09,3.442 6.911,9.141 15.192,5.27 z m -291.672,-8.75 43,-31.129 0.941,-26.563 -43.91,31.442 -0.031,26.25 z m 639.25,3.359 c -24.289,-9.527 -30.539,-17.301 -26.75,-24.18 3.242,-5.781 12.891,-3.75 38.742,7.153 19.34,8.129 25.399,4.566 29.34,-7.692 -0.191,-18.172 -17.66,-20.281 -27.5,-17.781 -4.223,0.16 -3.59,-0.23 0.937,-5.93 20,-15.82 44.572,15.153 32.301,34.801 -9.57,17.969 -26.129,23.09 -47.07,13.629 z M 791.211,655.91 C 771.172,640.051 778.32,611.461 795,607.16 c 4.648,-2.34 11.559,-1.25 14.262,0.59 2.539,1.641 2.5,4.371 -2.621,5.23 -15.469,2.622 -24.262,14.059 -16.801,25.668 7.269,11.282 20.711,9.141 46.57,-2.109 22.379,-9.73 32.18,-6.719 34.801,4.961 1.168,5.148 -0.231,9.961 -10.981,10.352 -29.839,1.128 -49.609,19.449 -69.019,4.058 z m 268.169,-43.75 c -1.33,8.238 -14.61,-0.23 -23.4,-14.801 -8.64,-14.339 -9.53,-16.371 -11.29,-1.488 -2.62,22.188 20.23,39.57 34.49,40.117 17.15,1.992 28.4,-7.699 28.87,-18.828 0.86,-21.988 -25.16,-22.191 -28.67,-5 z m -755.939,13.129 45.539,-31.57 c 0,0 1.532,-16.949 0.551,-26.008 l -45.742,29.527 -0.348,28.051 z M 850.309,614.66 c -19.797,-13.551 -8.161,-38.281 5.711,-41.09 14.601,-2.929 15.621,7.379 1.089,10.391 -7.73,3.078 -9.73,10.551 -6.718,16.328 6.949,11.402 19.73,4.02 27.187,0.473 16.524,-7.973 25.082,-10.864 30.313,-5.364 9.3,9.731 1.019,27.114 -11.25,20.981 -3.321,-1.641 -5.782,-3.199 -12.813,-1.449 -10.668,2.269 -23.476,4.648 -33.519,-0.27 z m -546.481,-26.91 44.801,-30.98 -1.359,-27.34 -42.071,31.129 -1.371,27.191 z m 0.902,-37.621 42.149,-30.309 c -0.629,-11.558 -0.32,-16.172 0.109,-23.558 l -42.609,27.777 0.351,26.09 z m 745.19,-5.859 c 33.83,-3.321 22.62,-42.5 -0.97,-31.911 -6.29,4.762 -8.21,4.371 -15.2,-12.82 -8.95,-21.949 -11.13,-20.187 -9.88,5.199 0.9,24.883 12.22,39.34 26.05,39.532 z m -266.209,-5.942 c 0.777,-0.039 1.449,-0.148 1.84,-0.469 2.258,-2.609 -4.571,-12.808 -10.391,-18.82 -4.262,-2.859 -14.691,4.801 -12.148,8.551 2.929,3.629 15.226,10.16 20.699,10.738 z m 45.078,-20.187 -6.059,-0.86 c -9.101,20.508 -28.039,15.778 -33.902,-3.242 l -8.316,0.93 c 8.398,23.359 38.398,37.703 48.277,3.172 z m 170.16,-4.692 -10.238,-0.621 c -9.18,22.262 -22.152,25.582 -33.16,3.594 l -7.93,2.34 c 13.629,28.09 36.399,30.316 51.328,-5.313 z m -51.097,25.391 c 5.199,0.308 4.527,-2.11 -0.903,-9.61 -4.719,-6.558 -5.898,-7.582 -10.66,-4.019 -7.769,5.859 5.191,13.199 11.563,13.629 z m 48.398,-0.66 c 1.02,-0.039 2.191,-0.16 3.52,-0.469 10.5,-2.66 15.35,-7.699 10.19,-14.141 -3.24,-4.031 -6.37,-5.629 -8.48,-2.929 -7.101,11.828 -11.05,17.89 -5.23,17.539 z m -159.141,-7 c 1.09,-4.41 -2.339,-7.532 -6.211,-3.86 -1.558,1.481 -2.929,4.02 -2.738,5.899 2.43,2.301 8.168,0.39 8.949,-2.039 z M 304.301,516.07 347.66,484.66 c 1.399,-11.09 1.719,-19.488 1.641,-27.031 l -44.61,29.801 -0.39,28.64 z m 631.558,-9.531 c 24.961,-17.269 54.219,-17.027 72.541,-1.879 4.1,3.399 7.65,3.559 7.73,0.27 -2.61,-12.102 -34.45,-27.61 -59.29,-18.821 -13.68,4.84 -24.891,9.653 -33.828,22.5 -5.352,8.403 5.617,2.969 12.847,-2.07 z m -10.55,-8.398 c 36.492,-31.762 65.472,-22.969 87.461,-6.961 3.25,0.832 3.28,-2.102 3.99,-7.571 0.94,-7.031 -4.85,-10.507 -20.631,-15.281 -30.539,-9.25 -66.399,0.863 -72.848,21.57 -0.781,4.063 -2.301,9.332 2.028,8.243 z m -621.168,-19.032 43.949,-30.429 -1.41,-23.239 -42.77,29.219 0.231,24.449 z m 0.699,-35.621 41.488,-28.359 -0.117,-19.258 -40.352,29.027 -1.019,18.59 z m 301.211,-9.019 c 176.918,-40.391 302.269,-21.207 425.319,0.66 l 109.02,-215.777 -656.91,-0.903 c 42.93,70.16 78.59,146.84 122.571,216.02 z"
         inkscape:connector-curvature="0"
         id="path32"
         style="fill:#131f67;fill-opacity:1;fill-rule:nonzero;stroke:none" /><path
         d="m 622.578,2300.72 c 18.942,-32.86 33.871,-66.76 50.902,-100.36 l 2.731,-1.75 4.059,-7.78 0.468,-3.79 10.121,-16.28 -0.078,-3.52 42.848,-80.47 c 35.351,13.32 325.711,37.31 433.211,-1.91 l 15.66,26.79 3.75,0 27.62,48.91 -0.43,4.1 9.29,10.7 1.33,4.89 30.47,48.12 0.12,7.74 38.12,64.14 -670.192,0.47 z M 1280,2291.46 c 0,0 -19.88,-38.56 -30.12,-54.14 -8.28,6.6 -32.3,2.11 -30.86,-23.44 -39.18,14.96 -48.63,-32.19 -18.36,-42.81 -15.54,-13.67 -30.39,1.79 -42.14,12.3 -11.53,-2.89 -35.47,-11.44 -49.03,13.71 0,0 5.67,-3.08 11.33,-6.4 32.03,-9.85 34.61,33.79 10.78,40.93 -3.01,0.79 -8.63,1.1 -8.63,1.1 8.01,33.55 -43.44,45.27 -44.42,4.96 0,0 -6.09,1.01 -10.74,0.16 -27.26,-5 -21.01,-45.59 6.84,-43.68 3.87,0.28 7.26,-0.39 7.26,-0.39 -0.43,-6.52 -34.18,-18.94 -58.47,3.44 -11.53,-8.87 -29.729,-19.96 -53.518,2.11 15.629,0.62 30.628,5.12 30.468,23.01 -0.12,11.68 -10.511,22.07 -25.468,22.61 -0.863,13.01 -10.434,25.43 -22.934,26.37 -15.187,-0.9 -23.008,-13.28 -23.078,-26.37 -12.969,-1.36 -25.082,-12.85 -22.308,-26.09 3.828,-18.01 17.578,-20.23 33.277,-16.8 -19.098,-30.97 -50.188,-14.8 -59.801,-4.92 -11.406,-10.78 -31.289,-25.31 -55.816,-5.43 13.078,2.27 27.617,10 25.148,28.4 -1.949,14.49 -18.082,18.79 -25.07,18.05 0,9.57 -7.192,25.39 -24.11,23.75 -18.468,-1.8 -17.378,-25.35 -17.14,-25.55 -15.238,1.29 -26.328,-16.83 -21.961,-28.36 5.281,-14.1 16.371,-18.44 36.723,-14.65 -23.75,-22.5 -38.832,-13.79 -51.801,-9.06 -11.481,-12.11 -26.832,-16.05 -42.531,-5.27 35.152,-1.68 29.57,61.01 -12.11,38.28 -29.648,35.19 -29.14,19.57 -55.711,71.33 l 644.301,2.85 z m -327.539,-61.8 c 1.719,0.08 3.519,-0.27 5.269,-1.17 5.508,-2.85 6.532,-7.77 3.211,-15.04 -1.211,-2.54 -2.89,-5.51 -2.621,-8.2 38.711,-72.03 124.02,-39.85 132.07,-6.37 0.51,2.11 -0.47,4.45 -1.56,6.72 -3.28,5.51 -2.85,10.04 1.4,13.79 9.07,8.04 22.11,-1.45 16.84,-12.27 -1.41,-2.85 -2.85,-6.01 -1.8,-9.8 21.92,-50.24 65.55,-53.99 102.15,-34.14 -16.87,-30.47 -82.22,-49.14 -109.69,24.22 -43.82,-59.77 -113.32,-58.64 -144.878,8.86 -28.403,-69.02 -113.981,-70.66 -145.153,-13.32 -28.359,-65.62 -94.148,-50.74 -112.777,-9.65 61.098,-44.64 101.367,1.96 108.598,21.8 0,0 -1.411,2.34 -3.36,4.26 -7.82,7.73 -7.621,16.87 0.5,20.47 10.36,4.65 20.078,-5.43 14.77,-15.28 -1.481,-2.77 -2.809,-3.39 -1.84,-5.78 19.031,-44.72 112.66,-57.73 131.64,5.04 0.629,3.6 0.282,6.88 -1.32,9.61 -4.461,7.5 1.211,15.94 8.551,16.25 z m -273.402,-25.31 c 14.769,-0.86 10.671,-13.67 7.703,-14.65 l -7.703,14.65 z m 548.561,-8.01 c 0.11,-0.23 -9.1,-16.6 -9.1,-16.6 -4.89,7.85 -3.64,17.62 9.1,16.6 z m -49.92,-82.69 c 0,0 -9.46,-21.06 -12.58,-22.86 -174.96,45.24 -419.1,5.9 -425.12,1.57 l -10.738,20.43 c 153.398,30.93 306.358,24.33 448.438,0.86 z M 882.07,1800.68 c -16.871,-65.78 -57.769,-72.46 -107.191,-80.47 -61.168,-9.92 -101.051,12.58 -119.68,46.95 0,0 -87.5,-33.36 -119.461,-52.73 66.41,-30.71 154.102,-98.71 203.992,-175.9 17.77,-23.52 16.872,-18.2 16.829,-69.85 -0.079,-111.95 0.203,-153.55 0.203,-153.55 27.379,-4.14 28.898,-23.16 27.379,-44.53 21.988,9.8 43.16,-2.19 43.05,-23.13 -0.16,-38.51 -37.621,-28.04 -45.39,-23.79 12.179,-33.94 -2.153,-47.96 -16.723,-49.64 -18.008,-2.07 -38.668,6.68 -32.656,45.5 -19.613,-7.69 -44.492,6.29 -47.934,29.69 l -0.937,39.57 c 48.519,92.19 -12.422,167.15 -69.602,191.8 0,0 16.172,33.79 37.102,43.28 2.109,0.63 -12.692,22.58 -37.61,17.77 -11.492,-0.23 -8.793,-0.15 -19.613,13.99 -21.328,27.97 -31.367,29.88 -52.148,-0.04 -9.141,-13.17 -11.328,-13.52 -22.149,-13.75 -11.91,-0.24 -30.23,-8.87 -34.14,-16.6 -0.903,-1.76 3.789,-3.56 10,-10.9 8.91,-10.51 22.699,-25 20.55,-39.73 -47.152,-19.37 -125.281,-104.26 -43.089,-212.97 l -59.454,-0.78 -2.808,386.99 -41.328,-23.24 1.828,-303.08 -11.789,3.94 c 0.898,96.68 -0.551,193.28 -3.563,289.92 l -108.976,-80.15 4.84,-454.49 11.597,-2.47 c 8.602,-61.91 130.121,-18.63 137.231,-23.98 l 1.449,-252.58 -5.32,-12.5 96.722,-53.359 88.707,46.449 c 0,0 11.961,2.192 16.453,4.571 36.789,19.57 64.18,15.148 84.18,-13.52 12.34,-17.73 14.449,-20.351 14.449,-20.351 7.461,51.089 52.34,69.921 95.86,56.558 31.992,-9.797 75.742,-41.988 89.101,-81.289 0,0 2.418,-5.93 4.809,-8.59 l 1.832,-0.82 c -0.121,1.051 -2.113,5.941 -2.891,8.32 -44.883,104.063 -171.371,120 -190.859,35 l -17.934,25.352 94.184,58.277 128.707,-85.5 c 0,0 -6.051,-30.039 -6.719,-43.008 l 2.192,-1.058 c 0.898,15.75 5.546,33.707 12.929,47.027 3.047,5.473 6.598,9.973 10.547,13.289 7.692,4.492 14.801,4.024 22.621,11.402 l -18.789,14.18 -0.43,45.512 37.77,-53.363 c 11.879,2.769 58.12,16.679 85.59,1.25 3.08,-0.981 43.32,10.621 68.36,-46.047 l 120.62,50.578 c 0,0 7.7,4.379 7.77,5.512 -120.27,44.796 -241.72,203.438 -230.04,205.978 0,0 -0.35,16.28 0.59,56.21 0.98,44.49 0.43,89.92 1.17,134.61 -40.939,13.16 -30.74,46.48 -30.74,46.48 -24.609,-5.47 -28.519,-0.62 -34.769,3.75 l -4.25,42.11 c 14.758,12.69 23.629,13.87 41.871,9.84 0,0 -8.832,18.28 -0.781,33.36 6.757,11.92 24.809,19.46 39.219,11.06 18.59,-12.82 12.69,-39.65 10,-43.4 19.37,8.75 43.05,-0.98 48.87,-20.31 2.89,57.14 7.81,121.09 19.14,170.89 20.93,89.93 55.23,184.11 98.16,258.17 7.03,12.34 16.02,24.76 23.24,36.33 6.72,10.31 9.93,16.99 9.93,16.99 0,0 -9.18,-5.08 -18.91,-7.81 -13.99,-3.83 -24.53,-7.5 -26.09,-9.1 -10.24,-8.68 -23.68,-15.12 -34.61,-19.93 -38.64,-15.19 -64.61,7.46 -80.67,42.03 -8.9,-43.9 -48.75,-81.05 -107.541,-57.96 -33.199,17.77 -43.668,29.18 -74.719,75.58 -2.582,4.73 -9.34,10.2 -9.34,10.2 z m 1.289,-7.19 c 21.993,-43.87 54.879,-74.92 86.871,-87.34 57.07,-18.91 94.77,18 105.39,51.91 l 11.02,-18.83 -86.48,-61.95 -130.43,83.71 c 2.18,1.99 13.821,31.48 13.629,32.5 z m 392.581,-3.01 -38.71,-23.05 c 0,0 -25.75,-41.87 -34.38,-57.65 -45.15,-80.55 -79.1,-168.17 -96.76,-255.12 -7.14,-31.8 -14.76,-89.96 -17.26,-117.93 -4.06,-44.57 -3.87,-62.89 -2.7,-103.79 l 3.05,-3.32 c 0,0 -4.77,-8.4 -8.16,-15.47 -9.26,-19.25 -11.53,-30.15 -10.94,-52.46 1.29,-51.36 32.22,-100.54 75.9,-120.54 2.46,-1.14 5.74,-2.62 5.74,-2.62 0,0 -7.46,-20.43 -21.06,-34.85 -9.1,-9.602 -11.01,-10.071 -7.81,-14.758 4.45,-6.602 18.83,-12.313 36.72,-12.031 6.33,0.078 6.29,0.121 18.01,-12.743 22.81,-25.109 29.69,-24.609 50.47,3.872 6.17,8.441 9.68,10.468 18.71,10.66 13.28,0.359 37.5,11.14 37.38,16.218 -16.33,7.302 -35.27,44.962 -32.26,45.352 89.37,47.69 108.28,146.64 43.04,219.37 l 62.31,0.98 2.3,-394.569 c 12.23,8.16 39.81,25.778 39.81,25.778 l -0.9,307.031 c 4.26,-0.82 8.63,-3.91 16.95,-5.27 l 2.46,-292.39 c 0,0 80.08,56.961 118.17,86.718 l -2.31,447.432 -9.1,0 1.44,-447.189 -105.82,-78.012 -0.7,277.931 c 0,0 8.36,1.25 11.49,1.72 30.97,4.37 45.31,44.22 24.76,70.23 -7.3,9.26 -2.11,8.6 13.4,11.6 27.5,2.47 42.73,23.44 34.73,38.4 -3.4,6.41 1.05,5.75 3.94,11.84 1.92,4.76 1.56,10.74 0.74,15.43 -1.09,6.17 1.45,8.94 2.97,12.89 2.46,6.17 0.08,13.12 -3.94,18.94 -4.3,6.14 -3.13,12.7 -3.17,16.76 -0.19,9.1 -3.43,10.39 -12.97,19.18 -7.22,6.64 -1.4,8.09 9.18,13.6 16.68,8.67 17.86,39.33 -4.33,52.42 -11.88,6.99 -33.48,6.4 -80.28,-1.06 -17.73,-2.81 -38.55,-4.72 -38.55,-4.72 0,0 -0.16,174.96 -1.41,265.11 l -100.15,60.08 z m 0,-6.17 c 0,0 95.04,-56.13 94.26,-57.7 -31.88,-44.1 -150.9,-219.88 -151.76,-432.38 -87.27,11.06 -123.01,-57.81 -127.27,-57.58 -11.44,260.16 93.17,446.29 146.76,525.28 l 38.01,22.38 z m -59.92,-34.26 -0.32,-6.37 -18.82,-28.39 -0.47,28.39 19.61,6.37 z m -29.07,-9.88 0.67,-45.74 -38.56,-29.73 -2.26,47.7 40.15,27.77 z m -357.571,-10.47 19.84,-13.83 -0.699,-45.39 -29.848,54.85 10.707,4.37 z m 542.651,-15.27 0.16,-32.85 c -76.06,-108.29 -115.94,-231.96 -128.17,-388.6 l -18.51,0.63 c 4.92,155.74 56.87,297.85 146.52,420.82 z m -515.081,-3.36 46.922,-30.94 -2.031,-51.8 -42.578,27.58 -3.992,10.59 1.679,44.57 z m 284.031,-2.23 -0.2,-48.12 -36.25,-27.15 -1.68,47.77 38.13,27.5 z m -439.261,-12.58 c 5.39,-0.08 9.691,-4.02 10.66,-11.52 3.992,-31.99 28.133,-22.73 33.832,-32.34 2.187,-3.29 -2.973,-6.14 -19.449,-4.81 -30.282,2.27 -52.352,26.99 -36.883,43.24 3.992,3.71 8.172,5.47 11.84,5.43 z m 209.14,-20.62 40.082,-25.78 -0.121,-53.13 -39.261,24.18 -0.7,54.73 z m 182.811,-0.16 3.09,-47.03 -43.83,-29.41 -1.56,46.68 42.3,29.76 z m 83.48,-0.19 -25.2,-54.14 -146.91,-106.68 -121.919,79.68 -22.609,52.23 142.218,-93.67 174.42,122.58 z M 780.941,1653.8 c 39.059,0.47 69.02,-41.33 79.258,-77.97 7.461,-24.25 8.59,-32.97 9.371,-71.44 0.821,-39.18 2.032,-45.94 9.301,-51.49 4.488,-3.39 5.777,-2.5 6.359,4.46 1.25,15.39 19.5,5.9 19.809,-10.32 0.352,-18.04 -19.301,-23.82 -33.828,-9.96 -7.731,7.35 -7.813,7.27 -10.231,-7.18 -1.64,-9.73 -12.82,-70.47 15.782,-85.59 5.386,-0.51 6.679,3.87 2.687,8.95 -8.039,10.15 8.012,21.91 21.102,15.42 15.777,-7.81 14.179,-33.55 -2.699,-42.69 -19.301,-10.43 -44.301,1.44 -55.942,26.64 -8.551,18.48 -8.512,44.1 0.16,82.19 3.981,17.54 5.739,28.71 6.641,42.19 0.309,4.41 0.82,9.21 1.168,10.7 0.902,4.1 -1.09,4.3 -8,0.78 -18.91,-9.61 -39.539,-2.81 -44.609,14.77 -6.059,21.01 17.14,42.73 31.48,29.45 5.43,-5.04 4.77,-10.04 -1.719,-13.28 -11.293,-5.63 -7.422,-20.35 4.528,-17.42 39.492,11.91 3.402,123.71 -41.047,131.44 -29.383,5.12 -52.461,-28.67 -31.172,-46.76 8.32,-7.07 16.75,-3.28 14.961,6.72 -2.539,13.99 15.82,12.46 22.609,-1.83 11.02,-23.29 -17.5,-42.19 -44.14,-29.34 -47.809,28.67 -15.11,90.7 28.171,91.56 z m 176.989,-8.87 39.371,-26.71 0.359,-51.88 -39.109,23.44 -0.621,55.15 z m 86.76,-4.49 0.19,-47.61 -38,-27.9 0,50.67 37.81,24.84 z m 102.38,-31.21 -19.45,-54.65 -122.66,-84.68 -101.171,64.06 -17.418,50.55 119.219,-77.97 141.48,102.69 z m -796.05,-3.98 -0.04,-276.68 c -39.73,-1.72 -62.539,-41.41 -32.781,-78.91 0,0 -5.187,-0.7 -11.25,-1.52 -26.91,-3.71 -44.918,-18.13 -41.359,-35.55 1.09,-5.35 0,-10.74 -1.531,-13.4 -2.379,-7.15 -1.758,-12.61 1.492,-18.83 2.5,-4.84 2.07,-6.79 0.66,-10.39 -3.051,-7.73 -2.301,-13.67 1.289,-19.57 4.41,-4.37 3.16,-7.89 2.578,-14.92 -0.699,-9.88 1.051,-13.87 7.223,-17.73 7.969,-4.96 10.937,-13.09 1.879,-12.42 -4.489,0.35 -20.309,-15.08 -20.309,-15.08 l -1.492,444.06 93.641,70.94 z m 215.5,-35.51 c 7.109,0.04 14.421,-8.98 24.96,-24.22 6.329,-10.9 6.45,-9.41 20.981,-8.83 14.879,-1.09 23.91,-5.04 27.809,-9.57 1.449,-1.72 -2.418,-2.19 -11.829,-11.79 -9.73,-9.97 -11.101,-13.95 -17.582,-25.12 -2.308,-4.03 -7.418,-4.42 -9.769,-0.74 -1.949,2.96 2.969,12.65 12.23,24.02 13.051,12.73 10.309,13.98 -8.629,11.99 -13.32,-1.4 -14.769,-0.74 -19.812,7.42 -15.078,30.24 -23.078,29.22 -37.5,-0.93 -3.938,-8.44 -2.379,-7.89 -19.449,-6.57 -13.442,1.06 -16.758,-2.38 -9.18,-9.49 11.84,-9.8 16.449,-32.97 15.82,-32.69 l -9.14,-0.86 c 0,0 -2.809,5.23 -4.02,8.51 -2.5,6.64 -9.14,16.64 -16.41,24.53 -10.23,11.18 -4.609,17.27 18.281,19.77 12.739,1.41 13.047,1.56 18.91,10.23 10.309,15.28 17.219,24.34 24.329,24.34 z m 556.37,-27.54 -13.2,-47.19 -104.65,-74.06 -85.118,57.34 -11.293,44.38 97.781,-62.5 116.48,82.03 z m -360.742,-37.38 c 0,0 30.231,-59.46 41.211,-98.01 9.571,-33.52 22.813,-130.59 19.34,-136.52 -7.429,10.27 -32,7.97 -32.347,7.85 2.07,11.37 -7.032,34.29 -27.973,38.83 l -0.231,187.85 z m 344.222,-21.76 -10.43,-46.45 -89.1,-65.03 -73.52,50.7 -9.648,44.92 81.368,-54.84 101.33,70.7 z m -517.929,-2.58 11.559,-4.06 2.191,-83.95 89.137,-14.92 2.031,-14.37 -103.238,16.79 c -1.062,35.79 -1.68,100.51 -1.68,100.51 z m -45.242,-2.5 2.5,-97.62 c -0.969,0.32 -74.289,-10.23 -102.379,-17.65 l 1.641,13.36 c 0,0 50.98,11.21 87.93,15.51 0,27.26 -0.231,55.97 -0.27,83.78 l 10.578,2.62 z m 829.221,-17.97 c 0,0 12.15,-1.13 38.09,3.48 66.91,11.8 85,7.03 93.55,-13.79 9.38,-32.27 -25.7,-33.05 -31.95,-12.58 -3.99,13.28 -18.32,10.39 -66.29,-1.09 -41.05,-9.81 -67.03,-1.95 -66.52,21.48 0.5,24.14 27.73,26.25 33.12,2.5 z m -549.76,17.66 c 8.281,0.12 15.11,-6.56 15.231,-14.92 0.121,-8.36 -6.52,-15.2 -14.77,-15.32 -8.281,-0.15 -15.07,6.49 -15.191,14.85 -0.121,8.36 6.449,15.27 14.73,15.39 z m -217.351,-2.66 10.589,-3.2 c 0,0 1.563,-63.71 1.872,-63.79 22.742,-5.08 70.429,-14.1 70.429,-14.1 l 2.539,-12.58 c -19.957,4.73 -83.668,15.24 -83.668,15.24 -1.992,27.61 -1.761,78.43 -1.761,78.43 z m -77.11,-1.21 c 0,0 0.039,-50.82 -0.777,-78.12 0.348,0.27 -54.063,-8.71 -81.684,-14.5 l 2.153,10.2 c 21.839,4.96 45.629,9.96 69.687,15.04 -0.469,20 -0.469,63.83 -0.469,63.83 l 11.09,3.55 z m 38.871,-10.94 c 6.641,0.12 12.149,-5.31 12.231,-11.99 0.109,-6.72 -5.281,-12.19 -11.922,-12.3 -6.641,-0.08 -12.07,5.23 -12.149,11.95 -0.109,6.68 5.2,12.27 11.84,12.34 z m 905.12,-31.71 c 7.42,-11.06 13.63,-10.75 20.9,-9.65 -1.84,-0.55 -10.43,-5.67 -9.93,-7.39 0.24,-0.85 -3.63,-14.84 2.23,-15.39 22.23,-2.18 10.98,-25.46 13.63,-29.02 6.02,-6.91 10.39,-11.29 6.29,-19.88 -3.67,-7.66 -8.9,-7.42 -4.84,-13.95 8.87,-13.44 -3.36,-16.21 -2.27,-25.35 0.75,-5.51 2.66,-13.05 0.63,-17.34 -6.06,-12.93 -27.54,-20.32 -51.41,-21.33 -3.4,-0.16 -0.82,5.47 -2.38,8.98 -5.9,3.79 -2.7,10.12 -0.7,14.26 1.95,5.51 1.99,5.55 -1.68,8.32 -10.2,6.37 -9.65,9.34 -8.83,13.95 2.22,13.63 0.12,14.96 -3.95,16.99 -5.23,2.58 -4.53,8.36 -2.18,15.74 1.6,5.08 0.46,6.37 -2,10.98 -1.44,2.73 -1.87,4.22 -1.91,5.97 0.74,7.04 -5.51,7 -14.26,0.12 -7.42,-12.93 -10,-29.88 -14.65,-40.58 -3.59,-8.21 -4.14,-16.8 0.12,-35.75 8.24,-28.98 2.11,-33.82 -30.2,-27.61 -24.29,6.01 -31.44,32.18 -24.72,64.21 1.09,5.2 0.82,10.2 0.31,14.26 -2.62,22.07 3.01,43.24 18.28,57.7 25.43,24.18 38.01,27.85 90.63,24.45 20.62,-1.44 22.18,-2.77 22.18,-2.77 0,0 0.08,10 0.71,10.08 z m -378.99,-6.64 -6.09,-44.93 -49.41,-35.19 c -23.29,18.55 -41.251,12.38 -57.622,-7.5 -12.969,6.64 -38.867,24.72 -38.867,24.72 l -6.602,50.98 71.801,-50.31 86.79,62.23 z m -525.079,-10.67 c 6.649,0.12 12.078,-5.27 12.188,-11.95 0.082,-6.72 -5.188,-12.23 -11.829,-12.35 -6.64,-0.07 -12.152,5.24 -12.269,11.96 -0.082,6.68 5.269,12.26 11.91,12.34 z m 516.839,-46.01 -2.73,-43.25 -17.54,-13.32 -17.7,1.8 -4.18,26.8 42.15,27.97 z m -517.151,-0.32 c 6.64,0.08 12.152,-5.31 12.269,-12.03 0.082,-6.72 -5.277,-12.19 -11.918,-12.26 -6.64,-0.12 -12.07,5.19 -12.18,11.91 -0.082,6.72 5.192,12.27 11.829,12.38 z m 48.441,-1.36 c 6.641,0.07 12.109,-5.24 12.191,-11.96 0.079,-6.68 -5.203,-12.22 -11.839,-12.3 -6.641,-0.12 -12.114,5.27 -12.192,11.95 -0.109,6.72 5.199,12.19 11.84,12.31 z m -96.289,-2.31 c 6.641,0.08 12.109,-5.27 12.187,-11.99 0.122,-6.72 -5.199,-12.23 -11.839,-12.31 -6.637,-0.11 -12.149,5.28 -12.219,11.96 -0.121,6.72 5.23,12.22 11.871,12.34 z m 894.689,-1.99 c 3.4,0.27 8.4,-4.81 5.97,-12.38 -3.28,-8.68 -0.97,-11.64 4.46,-18.68 4.61,-5.93 3.79,-6.75 3.12,-10.58 -1.05,-24.96 14.89,-14.18 7.93,-32.35 -1.48,-3.94 0.51,-9.57 1.21,-14.21 -1.56,4.25 -30.89,3.86 -33.36,-0.47 -4.18,0.62 -9.49,28.43 -5.27,32.07 0.55,0.04 3.59,-4.77 5.2,-7.42 3.9,-6.76 4.76,-6.53 3.55,1.28 -4.88,31.02 -1.95,62.54 7.19,62.74 z m -749.81,-2.15 c 6.64,0.08 12.109,-5.27 12.191,-11.99 0.117,-6.68 -5.191,-12.19 -11.871,-12.27 -6.64,-0.11 -12.07,5.24 -12.148,11.92 -0.121,6.72 5.187,12.22 11.828,12.34 z m -194.879,-2.27 c 6.641,0.12 12.07,-5.23 12.187,-11.95 0.082,-6.72 -5.199,-12.19 -11.839,-12.3 -6.637,-0.08 -12.149,5.23 -12.258,11.95 -0.082,6.72 5.269,12.23 11.91,12.3 z m 471.801,-3.51 36.047,-23.59 c 0.589,-7.43 -0.348,-18.09 2.07,-21.72 -23.551,2.22 -35.469,-11.29 -35.469,-11.29 l -2.648,56.6 z m -256.801,-37.74 -2.813,-12.81 c -71.019,18.44 -150.386,19.42 -226.25,-0.86 L 450,1315.99 c 76.602,23.48 158.012,24.34 234.961,0.19 z m -336.332,0.83 c 10.351,0.19 20.941,-3.72 28.359,-12.11 13.992,-15.82 7.274,-45.16 -12.5,-54.5 -29.566,-13.94 -60.386,15.9 -47.847,46.64 5.238,12.78 18.711,19.73 31.988,19.97 z m 732.151,-3.75 -0.47,-12.86 -8.98,7.58 9.45,5.28 z m -188.241,-0.59 c 13.051,0.19 23.75,-10.35 23.941,-23.52 0.2,-13.16 -10.23,-23.98 -23.281,-24.18 -13,-0.19 -23.75,10.32 -23.937,23.48 -0.203,13.16 10.226,24.02 23.277,24.22 z m -543.238,-0.74 c -3.172,-0.08 -8.481,-1.37 -10.86,-3.6 -6.293,-5.9 0.039,-6.05 8.321,-7.57 14.758,-2.74 18.859,-15.59 17.5,-29.46 -1.211,-12.58 2.968,-12.38 6.359,-7.73 13.758,19.06 2,46.79 -21.32,48.36 z m 685.269,-6.37 c -0.27,-0.16 -0.62,-0.39 -0.62,-0.39 0.15,-0.12 0.39,0.04 0.62,0.39 z m -466.64,-7.46 c 17.66,0.35 19.531,-28.99 3.91,-61.76 -4.692,-9.84 -7.11,-8.59 -12.231,6.29 -12.73,36.68 -9.961,55.08 8.321,55.47 z m 40.859,-0.86 c 3.441,0.16 6.723,-1.13 9.41,-4.26 9.531,-10.94 2.231,-28.63 -23.078,-55.86 -6.172,-6.6 -9.34,-9.14 -11.601,-9.18 -6.329,-0.15 -6.329,0.94 0.859,24.57 3.199,10.43 6.32,21.84 6.992,25.39 2.109,11.37 9.918,18.95 17.418,19.34 z m -63.949,-26.25 c 1.762,-8.13 4.769,-19.41 6.719,-25.08 1.921,-5.7 3.211,-11.13 2.89,-12.03 -1.558,-4.37 -12.808,1.56 -20.898,11.02 -16.211,18.98 -22.653,35.54 -19.332,44.41 4.922,7.11 17.5,10.27 23.32,4.02 5.981,-6.4 6.871,-20.15 7.301,-22.34 z m 111.801,18.94 c 17.109,-10.19 -2.621,-33.39 -40.903,-52.69 -16.398,-8.24 -15.226,-4.53 -2.808,11.76 4.769,6.21 11.129,16.36 14.261,22.54 6.868,13.71 13.75,27.38 29.45,18.39 z m -170.661,-0.07 c 5.43,0.04 10.969,-5.82 21.25,-20.86 4.61,-6.72 12.032,-16.25 16.559,-21.21 4.531,-4.96 8.121,-9.93 7.93,-10.98 -1.758,-10.55 -55.078,22.89 -58.91,36.95 -1.329,8.56 5.351,16.21 13.171,16.1 z m 763.32,-30.59 c 9.61,-19.96 10.43,-32.38 2.46,-36.91 -11.29,-6.41 -25.82,3.4 -26.14,17.57 -0.07,4.77 -4.96,21.45 -9.41,32.27 -3.67,8.91 -4.18,14.41 -1.13,14.84 11.76,-1.91 29.22,-18.39 34.22,-27.77 z m -63.87,15.12 c -3.71,-11.41 -7.66,-29.22 -7.62,-34.42 0.04,-2.03 -1.21,-6.21 -2.65,-9.25 -9.77,-20.32 -32.89,-3.75 -24.38,17.46 7.66,19.1 27.15,39.02 34.84,39.68 5.28,0.43 0.36,-11.79 -0.19,-13.47 z m 15.59,10.97 c 3.86,0.4 7.07,-8.12 12.07,-22.42 6.71,-19.33 6.44,-34.41 -0.82,-40.86 -15.55,-13.75 -31.84,6.25 -25.55,31.33 5,20.08 9.92,31.52 14.3,31.95 z m -521.329,-3.55 C 699.02,994.469 553.09,773.41 542.699,767.398 l -49.648,-27.429 -87.11,47.89 c 90.231,124.93 144.219,268.131 148.278,434.381 83.511,-8.16 126.48,59.3 125.472,59.57 z m 478.509,-0.9 c 6.1,1.68 1.84,-3.67 -4.18,-12.5 -6.48,-9.37 -14.84,-34.88 -21.48,-38.98 -14.88,-7.23 -31.72,6.56 -22.7,18.51 8.32,11.02 32.78,28.64 48.36,32.97 z m 88.6,-1.95 c 2.34,0 6.72,-1.56 13.04,-4.69 31.02,-15.27 46.29,-35.43 33.01,-45.08 -9.3,-6.76 -19.26,-1.52 -28.55,16.33 -3.17,6.06 -8.95,15.04 -12.82,20 -6.95,8.99 -8.59,13.44 -4.68,13.44 z m 174.29,-10.24 c 19.96,0.28 36.33,-15.74 36.61,-35.86 0.27,-20.11 -15.63,-36.68 -35.55,-36.95 -19.92,-0.31 -36.29,15.82 -36.6,35.94 -0.28,20.08 15.62,36.6 35.54,36.87 z m -10.97,-9.45 c -23.44,-10.47 -16.37,-47.66 3.83,-53.01 8.55,-2.42 18.9,1.17 14.64,5.32 -26.68,8.47 -26.87,28.32 -16.13,42.85 1.76,2.34 -0.58,5.62 -2.34,4.84 z m -976.64,-51.09 c -0.902,-21.02 3.59,-45.35 -6.332,-68.17 -15.078,-35.04 -63.437,-51.05 -89.296,-47.93 -5.391,2.23 -11.641,4.34 -16.954,2.07 -3.199,-1.36 -7.187,-1.21 -10.589,0.39 -3.321,1.57 -6.481,-0.46 -9.688,0.71 -3.742,2.54 -9.883,8.36 -9.141,12.65 1.18,6.1 0.711,10.63 -6.359,12.62 -9.769,2.74 -11.762,8.09 -8.871,23.71 0.629,3.36 1.371,4.88 -0.82,6.37 -7.192,4.88 -9.918,13.87 -5.2,23.36 3.09,5.47 5.469,9.33 -0.07,13.67 -2.191,5 -1.801,6.91 2.93,13.32 5,6.06 5.89,6.72 2.648,11.91 -7.218,11.65 0.981,20.24 10.711,25.04 13.082,5.39 24.492,8.21 38.281,9.81 5.11,-0.28 4.918,-4.85 8,-9.22 4.54,-7.15 -1.871,-17.46 1.84,-21.09 5.352,-2.5 7.77,-7.47 7.34,-11.72 -0.191,-9.89 0.391,-13.28 3.051,-17.42 2.969,-4.58 4.059,-13.01 1.328,-18.75 -2.461,-5.08 -2.187,-4.73 1.012,-7.74 3.211,-2.97 4.769,-17.89 3.64,-17.62 l 13.399,1.25 c -1.41,-1.52 5.039,27.89 20.308,50.63 -0.82,17.77 -7.539,34.18 -6.949,57.69 33.121,11.96 57.071,-16.48 55.781,-45.54 z m 514.532,40 c 4.797,-3.79 28.547,-10.47 29.41,-9.69 -0.742,-11.48 6.168,-33.79 30.898,-41.21 0.31,-31.99 0.04,-179.69 0.04,-179.69 -34.45,58.32 -55.821,133.56 -60.348,230.59 z m -576.563,-5.24 c 0,0 1.321,-4.26 2.531,-12.46 2.11,-16.8 -0.152,-19.1 -4.601,-7.62 -5.16,13.44 -5.43,2.97 0.391,-27.81 1.402,-7.46 1.359,-9.18 -0.469,-14.22 -1.141,-3.12 -3.172,-10.47 -4.731,-16.21 -4.648,-16.91 -7.379,-21.76 -12.191,-8.32 -2.418,6.88 -4.449,7.93 -2.731,13.32 2.192,6.72 1.68,11.76 -2.738,18.28 -0.699,1.1 -2.262,3.52 -2.531,10.47 1.32,15.63 -5.551,15.74 -6.918,19.81 0.238,6.09 -2.582,20.9 1.598,20.5 3.402,-0.35 15.82,-0.7 21.679,1.49 2.621,0.98 10.711,2.77 10.711,2.77 z m 513.821,-1.91 c 12.781,0.19 23.281,-10.16 23.48,-23.05 0.199,-12.93 -10.039,-23.55 -22.852,-23.75 -12.777,-0.15 -23.32,10.12 -23.519,23.05 -0.188,12.93 10.082,23.55 22.891,23.75 z m -357.891,-14.26 17.543,-3.36 c 3.906,-1.33 1.058,-245.781 -139.531,-422.191 l -1.211,40.859 c 66.91,97.742 115.082,217.582 123.199,384.692 z m 297.851,-5.12 3.211,-58.43 c -9.89,8.51 -35,24.41 -34.851,24.72 l 0.121,21.6 c 0.039,-0.03 21.598,-1.68 31.519,12.11 z m -135.429,-0.82 c 4.258,-1.79 7.929,-5.93 11.57,-8.94 l -11.492,-7.78 -0.078,16.72 z m 402.469,-2.93 c 75.82,-22.73 150.5,-22.07 224.37,-5.47 l 5.04,-14.29 c -80.12,-21.92 -159.73,-20.67 -238.87,4.84 l 9.46,14.92 z m -367.309,-10.93 4.059,-25.2 -42.809,-27.97 2.07,38.24 22.309,14.61 14.371,0.32 z m 378.909,-20.98 c 6.91,0.08 12.58,-5.51 12.69,-12.5 0.12,-6.95 -5.43,-12.7 -12.34,-12.81 -6.95,-0.08 -12.58,5.5 -12.7,12.5 -0.07,6.95 5.43,12.69 12.35,12.81 z m 194.84,-1.06 c 6.91,0.12 12.62,-5.5 12.74,-12.46 0.07,-6.99 -5.47,-12.73 -12.39,-12.85 -6.91,-0.08 -12.58,5.51 -12.65,12.5 -0.12,6.99 5.39,12.74 12.3,12.81 z m -364.96,-39.29 c 5.629,-19.96 4.371,-65.04 -2.852,-95.63 -2.148,-9.18 -3.476,-41.79 -3.476,-41.79 -1.332,-1.68 42.969,36.99 57.226,-13.751 4.883,-17.457 -15,-33.989 -28.32,-29.141 -2.617,0.934 -1.84,9.57 0.66,14.641 7.391,15.203 -13.668,23.091 -25.699,9.609 -27.738,-31.047 0.82,-109.758 44.301,-117.418 36.09,-6.332 65.03,29.918 40.93,51.52 -10.54,9.461 -27.379,-3.551 -19.641,-15.578 8.201,-12.852 -6.957,-17.973 -18.438,-6.063 -20,20.75 2.457,52.039 32.689,44.813 48.32,-11.09 38.36,-87.34 -12.302,-91.641 -38.707,-3.281 -64.808,13.75 -81.168,43.937 -15.39,29.032 -16.57,52.192 -9.5,103.092 4.18,30.19 0.75,55.66 -7.57,55.51 -4.57,-0.12 -8.129,-2.35 -8.871,-7.74 -1.449,-11.05 -2.739,-13.12 -9.61,-9.1 -8.711,5.08 -13.558,21.52 0.7,32.66 14.613,11.4 33.562,-6.41 32.812,-9.46 0.359,0.55 1.801,3.44 3.789,16.41 6.371,42.19 -7.808,86.72 -25.351,79.57 -3.829,-1.56 -3.399,-3.32 1.64,-6.17 11.68,-6.64 1.41,-23.63 -13.277,-21.91 -20.742,2.46 -25.473,31.67 -7.192,44.64 28.829,15.67 52.309,-8.9 58.52,-31.01 z m -141.801,35.12 c 0,0 36.84,-22.66 38.832,-28.48 1.25,-3.75 2.739,-36.29 2.739,-36.29 l -63.95,40.39 -91.679,-57.19 c 1.519,12.54 8.089,44.89 8.089,44.89 l 48.79,31.13 c 0.23,-1.88 33.71,-24.18 57.179,5.55 z m 457.821,-2.15 c 6.91,0.11 12.61,-5.51 12.73,-12.46 0.08,-7 -5.43,-12.74 -12.34,-12.86 -6.92,-0.07 -12.62,5.47 -12.7,12.47 -0.12,6.95 5.39,12.73 12.31,12.85 z m -97.58,-0.2 c 6.91,0.12 12.65,-5.47 12.73,-12.42 0.12,-6.99 -5.47,-12.77 -12.38,-12.89 -6.92,-0.08 -12.58,5.51 -12.66,12.5 -0.11,6.95 5.39,12.69 12.31,12.81 z m 49.06,-2.85 c 6.91,0.08 12.66,-5.51 12.73,-12.5 0.12,-6.95 -5.43,-12.7 -12.34,-12.81 -6.91,-0.08 -12.62,5.51 -12.69,12.5 -0.12,6.95 5.39,12.69 12.3,12.81 z m -122.85,-17.93 c 33.2,-6.99 66.48,-14.14 98.32,-17.66 l 1.29,-98.63 -9.3,0.55 -1.33,88.12 c -30.74,2.23 -59.76,8.87 -86.99,15.98 l -1.99,11.64 z m 246.87,-3.2 -1.72,-11.6 c 0,0 -57.42,-10.04 -87.42,-13.95 -0.51,-19.84 -0.43,-86.17 -0.43,-86.17 l -11.48,-2.11 -0.04,100.39 c 34.06,3.71 68.09,7.58 101.09,13.44 z m -555.821,-5.55 67.621,-45.16 7.969,-47.81 -78.828,52.89 c 0,0 -71.481,-48.55 -98.199,-66.56 l 8.16,45.08 93.277,61.56 z m 312.191,-8.95 c 27.19,-5.82 54.41,-11.83 81.64,-14.21 l 1.17,-79.34 -12.54,3.36 -0.97,64.37 c -21.29,1.88 -43.13,6.06 -65.08,10.71 l -4.22,15.11 z m 240.82,-2.34 -2.3,-10.78 c 0,0 -43.56,-6.64 -66.06,-10.7 -1.99,-0.47 -1.25,-69.85 -1.25,-69.85 l -10.78,-1.64 -1.25,80.98 81.64,11.99 z m -122.03,-8.91 c 6.91,0.12 12.54,-5.46 12.66,-12.46 0.07,-6.99 -5.43,-12.73 -12.35,-12.81 -6.91,-0.12 -12.58,5.43 -12.69,12.42 -0.12,7 5.43,12.78 12.38,12.85 z m -431.989,-28.59 79.918,-54.49 c 0,0 9.301,-28.36 11.25,-44.06 l -91.988,59.96 -115.121,-77.031 13.32,47.571 102.621,68.05 z m -484.57,-1.68 c 4.719,-0.08 9.449,-3.28 11.91,-10.62 3.481,-10.36 9.957,-13.4 26.989,-13.09 33.441,1.8 68.519,17.66 100.082,5.74 15.347,-5.7 20.82,-28.55 7.968,-34.49 -13.941,-6.44 -19.879,-2.38 -24.73,8.67 -4.449,4.69 -10.039,3.95 -40,-1.25 -13.199,-2.15 -28.75,-4.1 -41.828,-5.19 -33.403,-2.7 -51.84,7.93 -56.024,27.97 -2.648,12.85 7.703,22.38 15.633,22.26 z m 915.859,-18.44 c 6.91,0.12 12.61,-5.43 12.69,-12.42 0.12,-6.99 -5.43,-12.77 -12.34,-12.85 -6.92,-0.12 -12.62,5.47 -12.74,12.46 -0.07,6.99 5.47,12.74 12.39,12.81 z m -244.929,-15.39 c 8.988,0.12 16.41,-7.15 16.527,-16.25 0.121,-9.06 -7.066,-16.52 -16.058,-16.68 -9.02,-0.11 -16.36,7.15 -16.52,16.25 -0.121,9.07 7.07,16.53 16.051,16.68 z m -186.25,-11.52 c 0,0 65.789,-44.38 96.25,-64.841 l 16.84,-48.828 -112.071,73.549 -137.109,-90.042 16.449,50.204 119.641,79.958 z m 474.999,-15.27 c 5.94,-16.21 16.8,-28.56 28.25,-41.142 0,0 -6.41,-12.179 -29.14,-11.437 -12.43,0.391 -13.09,-1.602 -17.35,-10.082 -6.95,-10.777 -12.61,-17.848 -17.15,-21.328 -7.96,-6.211 -22.89,3.051 -35.19,21.84 -4.49,6.871 -6.33,8.468 -19.85,8.199 -20.78,-0.43 -28.28,5.39 -17.5,14.808 9.42,11.562 16.18,24.252 24.58,36.402 l 9.33,-1.05 c 0.39,-1.41 -7.26,-24.77 -18.05,-34.262 -5.43,-6.207 2.19,-8.476 15.55,-5.629 8.48,2.582 10.67,1.571 16.92,-11.519 13.08,-24.918 19.88,-23.711 35.35,1.558 5.43,11.293 5.23,12.43 20.11,9.141 15.98,-1.598 20.79,0.43 14.22,6.063 -13.24,11.368 -20.58,38.158 -20.58,38.158 l 10.5,0.28 z m -474.448,-33.4 c 0,0 118.988,-78.671 118.668,-76.96 l 23.871,-56.668 -139.653,93.75 -170.617,-112 25.539,56.136 142.192,95.742 z m 4.609,-51.64 41.488,-27.539 -0.121,-49.57 -42.379,28.75 1.012,48.359 z m -10.621,-1.449 0.738,-48.903 -37.187,-22.347 -2.071,45.898 38.52,25.352 z m -47.192,-31.52 -0.347,-1.883 0.859,-0.468 0.309,-0.032 1.332,-44.07 -42.781,-29.957 0.16,49.809 40.468,26.601 z m 109.532,-0.511 39.019,-26.29 1.602,-52.46 -42.34,27.968 1.719,50.782 z m 48.16,-32.032 39.109,-27.418 1.36,-52.39 -39.918,27.148 -0.551,52.66 z m -206.988,-0.199 -0.192,-48.391 -38.949,-27.429 -1.84,49.422 40.981,26.398 z M 1078.2,824.578 c -7.69,-8.117 -10.54,-7.109 -17.18,6.293 -6.84,13.91 -17.15,20.43 -32.07,20.16 -18.79,-0.312 -6.49,12.149 13.43,13.59 34.5,1.559 52,-21.793 35.82,-40.043 z m -461.321,28.402 1.051,-48.55 -38.75,-20.321 -1.168,23.012 19.918,35.199 18.949,10.66 z m -49.93,-64.921 1.332,-8.829 -7.152,-2.769 5.82,11.598 z M 1033.01,438.102 C 870.039,402.898 713.789,415.328 601.641,436.301 l -51.25,-88.403 -3.512,0.161 -13.207,-22.848 1.449,-2.66 c 0,0 -42.582,-82.461 -60.512,-108.442 209.45,2.039 669.221,3.051 669.221,3.051 l -28.05,56.84 1.56,1.559 -27.69,59.371 -8.99,10.281 c 0,0 -5.5,10.738 -9.61,22.258 -3.78,10.59 -20,39.609 -20,39.609 l -2.3,-0.187 -15.74,31.211 z M 607.539,425.68 c 2.152,-1.758 208.75,-41.059 422.931,-0.668 l 11.68,-19.762 c -187.42,-43.559 -458.599,-1.961 -447.888,2.07 l 13.277,18.36 z m 3.551,-38.91 c 18.91,0.66 38.051,-9.571 50.941,-26.641 4.098,-5.469 10.821,-21.481 10.821,-21.481 0,0 9.058,15.114 17.929,22.653 13.399,11.449 30.821,21.019 55.981,20.078 23.199,-0.82 48.707,-13.481 71.718,-50.078 5.821,21.129 81.989,92.89 144.68,3.398 7.192,23.789 40.75,71.25 95.12,38.09 3.71,-8.008 7.54,-16.84 7.54,-16.84 -32.07,22.66 -84.961,7.461 -97.461,-27.929 -1.129,-4.301 0.27,-6.559 1.95,-10.739 16.531,-23.871 -26.481,-23.281 -13.75,-3.992 2.39,4.383 2.582,8.012 -1.207,13.75 -10.122,15.281 -40.473,34.262 -62.731,33.75 -25.742,-0.539 -54.262,-17.769 -63.75,-33.43 -3.519,-5.781 -4.34,-11.57 -1.25,-16.597 2.258,-5.082 1.481,-9.383 -2.269,-12.5 -8.872,-7.313 -20,1.129 -15.743,11.988 2.813,4.762 2.379,10.621 -3.359,18.789 -11.52,16.32 -38.441,33.551 -61.871,33.039 -33.481,-0.777 -67.348,-25.109 -65.199,-45.187 0.941,-8.832 -1.45,-12.11 -8.559,-11.102 -8.672,1.25 -9.641,9.5 -3.551,16.25 0.942,2.152 2.379,7.391 -0.39,11.18 -35.391,48.32 -88.36,34.211 -100.508,23.429 11.797,20.391 28.238,29.532 44.918,30.122 z m -31.481,-33.508 c 13.282,-0.121 27.582,-10.282 32.11,-18.172 3.281,3.441 33.32,17.89 47.89,-2.77 -38.199,2.891 -38.668,-38.05 -10.429,-41.992 -12.891,-39.539 44.879,-41.918 41.211,-4.808 43.16,-6.442 37.847,48.789 -2.77,42.968 21.25,15.621 35.738,10.59 61.328,-7.34 8.59,11.282 43.672,21.872 52.262,2.114 -40.191,2.5 -33.32,-44.461 -3.32,-44.891 -8.911,-32.543 50.121,-44.531 41.019,4.098 37.5,-2.649 32.07,48.441 -3.871,44.222 2.66,9.297 39.141,13.321 55.231,-4.41 14.808,13.629 31.14,22.969 60.671,3.481 -40.242,6.75 -40.742,-45.981 -3.363,-42.821 -3.519,-34.921 49.332,-35.511 40.512,4.809 40.23,10.969 18.12,54.449 -11.449,42.461 13.16,15.777 35.509,8.359 44.379,5.148 27.38,31.653 51.25,5.161 51.25,5.161 -47.7,5.039 -37.31,-63.508 9.14,-38.668 -0.08,-14.102 5.93,-26.293 24.88,-28.282 l 22.54,-47.109 -638.709,-4.262 35.231,62.582 c 3.558,-1.133 23.91,-3.011 28.32,21.09 41.949,-13.441 44.769,35.899 13.437,43.707 3.789,2.621 8.09,3.711 12.5,3.684 z m -24.918,-17.864 c 4.18,-6.789 0.661,-11.168 -6.492,-11.359 0,0 4.653,6.832 6.492,11.359 z m 525.469,-8.75 4.14,-8.75 c -4.46,1.84 -5,3.75 -4.14,8.75 z"
         inkscape:connector-curvature="0"
         id="path34"
         style="fill:#000000;fill-opacity:1;fill-rule:nonzero;stroke:none" /><path
         d="m 1305.12,274.66 c 78.2,1.719 113.24,89.77 55.35,158.129 -8.4,9.961 -9.26,15.699 6.09,6.09 39.03,-26.051 113.79,-8.91 117.62,70.781 4.73,98.238 -132.54,126.52 -158.28,22.07 -1.37,-11.011 -10.31,-10.742 -8.17,4.879 2.35,42.469 15.63,82.153 33.83,120.821 l -92.97,0 c 18.25,-38.668 31.49,-78.352 33.83,-120.821 2.19,-15.621 -6.8,-15.89 -8.16,-4.879 -25.74,104.45 -162.97,76.168 -158.24,-22.07 3.82,-79.691 78.59,-96.832 117.57,-70.781 15.39,9.609 14.5,3.871 6.1,-6.09 -57.89,-68.359 -22.81,-156.41 55.35,-158.129 0,0 0,0 0.08,0 z"
         inkscape:connector-curvature="0"
         id="path36"
         style="fill:#000000;fill-opacity:1;fill-rule:nonzero;stroke:none" /><path
         d="m 480.551,2239.74 c 78.199,-1.72 113.277,-89.73 55.347,-158.13 -8.398,-9.96 -9.257,-15.66 6.133,-6.09 38.989,26.06 113.75,8.95 117.578,-70.78 4.731,-98.2 -132.5,-126.52 -158.281,-22.07 -1.367,11.01 -10.308,10.74 -8.168,-4.88 2.352,-42.46 15.629,-82.11 33.828,-120.82 l -92.968,0 c 18.25,38.71 31.492,78.36 33.832,120.82 2.187,15.62 -6.801,15.89 -8.122,4.88 -25.781,-104.45 -163.011,-76.13 -158.281,22.07 3.821,79.73 78.59,96.84 117.571,70.78 15.39,-9.57 14.531,-3.87 6.14,6.09 -57.93,68.4 -22.859,156.41 55.309,158.13 0,0 0,0 0.121,0 l -0.039,0 z"
         inkscape:connector-curvature="0"
         id="path38"
         style="fill:#000000;fill-opacity:1;fill-rule:nonzero;stroke:none" /></g></g></svg>